1587014412114251,30
1587014413271909,23
1587014414251838,23
1587014414632817,27
1587014414636080,27
1587014414636904,27
1587014414639168,27
1587014414640186,27
1587014415642233,27
1587014415643514,27
1587014415644807,27
1587014415645555,27
1587014415647273,27
1587014415648376,27
1587014415659693,27
1587014415661580,27
1587014416201718,27
1587014416249772,27
1587014416255909,27
1587014416270209,27
1587014416272070,27
1587014416275522,27
1587014416289376,27
1587014416293489,27
1587014416304764,27
1587014416306253,27
1587014416308067,27
1587014416311267,27
1587014419321625,27
1587014419484752,23
1587014419883254,28841
1587014419915882,28841
1587014419917909,28841
1587014419932510,28841
1587014419946908,28841
1587014419959609,28841
1587014419964731,28841
1587014419994467,28841
1587014420011884,28841
1587014420016415,28841
1587014420054695,28841
1587014420057771,28841
1587014420085386,28841
1587014420589569,11769
1587014420590669,11769
1587014420591674,11769
1587014420604419,11769
1587014420615285,11769
1587014420620021,11769
1587014420631934,11769
1587014420642285,11769
1587014420656839,11769
1587014420674585,11769
1587014420688247,11769
1587014420689734,11769
1587014423694637,11769
1587014424223477,19240
1587014424226293,19240
1587014424228935,19240
1587014424232613,19240
1587014424236187,19240
1587014424243400,19240
1587014424248471,19240
1587014424252528,19240
1587014424270033,19240
1587014424295540,19240
1587014424306708,19240
1587014424322770,19240
1587014424337986,19240
1587014424842104,13929
1587014424843523,13929
1587014424844769,13929
1587014424850124,13929
1587014424853733,13929
1587014424872450,13929
1587014424874789,13929
1587014424876622,13929
1587014424879224,13929
1587014424880659,13929
1587014424891788,13929
1587014424904158,13929
1587014424906695,13929
1587014425412251,13929
1587014425415020,13929
1587014425420285,13929
1587014425422052,13929
1587014425423808,13929
1587014425425119,13929
1587014425426122,13929
1587014425426856,13929
1587014425427533,13929
1587014425428839,13929
1587014425431090,13929
1587014425453823,13929
1587014425455175,13929
1587014425957581,13929
1587014425958437,13929
1587014425960793,13929
1587014425962159,13929
1587014425965701,13929
1587014425977875,13929
1587014425996718,13929
1587014426011052,13929
1587014426028989,13929
1587014426037929,13929
1587014426049971,13929
1587014426053377,13929
1587014426055100,13929
1587014426578710,13929
1587014426580826,13929
1587014426581912,13929
1587014426583531,13929
1587014426584491,13929
1587014426597529,13929
1587014426606496,13929
1587014426619972,13929
1587014426623856,13929
1587014426634774,13929
1587014426641443,13929
1587014426655983,13929
1587014426670229,13929
1587014427180196,13929
1587014427186947,13929
1587014427189688,13929
1587014427191634,13929
1587014427216304,13929
1587014427221591,13929
1587014427238549,13929
1587014427244126,13929
1587014427249131,13929
1587014427252739,13929
1587014427264424,13929
1587014427268278,13929
1587014427269541,13929
1587014427787232,13929
1587014427788701,13929
1587014427790097,13929
1587014427791079,13929
1587014427792095,13929
1587014427793875,13929
1587014427799559,13929
1587014427815212,13929
1587014427828118,13929
1587014427830984,13929
1587014427832334,13929
1587014427850198,13929
1587014427851655,13929
1587014428355927,13929
1587014428359275,13929
1587014428361507,13929
1587014428364678,13929
1587014428366564,13929
1587014428367422,13929
1587014428374160,13929
1587014428376283,13929
1587014428378029,13929
1587014428382993,13929
1587014428417022,13929
1587014428428658,13929
1587014428430227,13929
1587014428940967,13929
1587014428942894,13929
1587014428943645,13929
1587014428954657,13929
1587014428969939,13929
1587014428971878,13929
1587014428972460,13929
1587014428983651,13929
1587014428994683,13929
1587014428995726,13929
1587014428996644,13929
1587014428997301,13929
1587014428999043,13929
1587014429509846,13929
1587014429521637,13929
1587014429523256,13929
1587014429524009,13929
1587014429536620,13929
1587014429547876,13929
1587014429548856,13929
1587014429549884,13929
1587014429551496,13929
1587014429552872,13929
1587014429562017,13929
1587014429576835,13929
1587014429587688,13929
1587014430091509,13929
1587014430092999,13929
1587014430097284,13929
1587014430099273,13929
1587014430102549,13929
1587014430103715,13929
1587014430105334,13929
1587014430117640,13929
1587014430139651,13929
1587014430140828,13929
1587014430142440,13929
1587014430153898,13929
1587014430155549,13929
1587014430660499,13929
1587014430661959,13929
1587014430662785,13929
1587014430664490,13929
1587014430673752,13929
1587014430685727,13929
1587014430700642,13929
1587014430701607,13929
1587014430702611,13929
1587014430703516,13929
1587014430704229,13929
1587014430726617,13929
1587014430728916,13929
1587014431240864,13929
1587014431241703,13929
1587014431242860,13929
1587014431244007,13929
1587014431255626,13929
1587014431266680,13929
1587014431267443,13929
1587014432430362,37
1587014432446051,37
1587014434150873,13929
1587014434160014,37
1587014434172865,13929
1587014434174270,13929
1587014434174925,37
1587014434179894,13929
1587014434180881,13929
1587014434181756,13929
1587014434217478,37
1587014434232927,37
1587014434270172,37
1587014434691364,36418
1587014434692670,36418
1587014434693528,36418
1587014434694885,36418
1587014434696108,36418
1587014434697181,36418
1587014434699626,36418
1587014434701434,36418
1587014434702636,36418
1587014434706818,36418
1587014434733273,36418
1587014434734810,36418
1587014434736709,36418
1587014435249633,24052
1587014435251163,24052
1587014435252190,24052
1587014435253881,24052
1587014435255998,24052
1587014435263288,24052
1587014435265187,24052
1587014435267633,24052
1587014435270613,24052
1587014435278628,24052
1587014435292584,24052
1587014435294557,24052
1587014435295268,24052
1587014435800250,24347
1587014435801277,24347
1587014435802170,24347
1587014435803183,24347
1587014435805093,24347
1587014435806107,24347
1587014435808333,24347
1587014435812704,24347
1587014435828451,24347
1587014435829559,24347
1587014435840988,24347
1587014435841918,24347
1587014435842657,24347
1587014440402152,24103
1587014440403566,24103
1587014440419591,24103
1587014440420605,24103
1587014440424023,24103
1587014440435611,24103
1587014440436479,24103
1587014440438007,24103
1587014440439968,24103
1587014440440568,24103
1587014440442278,24103
1587014440446713,24103
1587014440459296,24103
1587014440965247,31365
1587014440968917,31365
1587014440969870,31365
1587014440971113,31365
1587014440973504,31365
1587014440984719,31365
1587014440985686,31365
1587014440991927,31365
1587014440993164,31365
1587014440993844,31365
1587014441004904,31365
1587014441007037,31365
1587014441018256,31365
1587014441519775,26802
1587014441530740,26802
1587014441531640,26802
1587014441532407,26802
1587014441535199,26802
1587014441541206,26802
1587014441542150,26802
1587014441543692,26802
1587014441544393,26802
1587014441544844,26802
1587014444802205,26802
1587014444847982,26802
1587014444857426,26802
1587014445359841,33650
1587014445360879,33650
1587014445362167,33650
1587014445366101,33650
1587014445366906,33650
1587014445368517,33650
1587014445371161,33650
1587014445373506,33650
1587014445375612,33650
1587014445377271,33650
1587014445378511,33650
1587014445389799,33650
1587014445391772,33650
1587014445903656,29327
1587014445904530,29327
1587014445915648,29327
1587014445919062,29327
1587014445919614,29327
1587014445922128,29327
1587014445922856,29327
1587014445924013,29327
1587014445924659,29327
1587014445925837,29327
1587014445926528,29327
1587014445927295,29327
1587014445931890,29327
1587014447502552,31087
1587014447503583,31087
1587014447505208,31087
1587014447506451,31087
1587014447507524,31087
1587014447508232,31087
1587014447511017,31087
1587014447520224,31087
1587014447521842,31087
1587014447534125,31087
1587014447535028,31087
1587014447536052,31087
1587014447548825,31087
1587014448051077,33935
1587014448052258,33935
1587014448056189,33935
1587014448057536,33935
1587014448058238,33935
1587014448069623,33935
1587014448070916,33935
1587014448081677,33935
1587014448082726,33935
1587014448087069,33935
1587014448088786,33935
1587014448090021,33935
1587014448091295,33935
1587014448592718,32218
1587014448593502,32218
1587014448594781,32218
1587014448596876,32218
1587014448597497,32218
1587014448609777,32218
1587014448610653,32218
1587014448611840,32218
1587014448612465,32218
1587014448613576,32218
1587014448624813,32218
1587014448627450,32218
1587014448628952,32218
1587014449134480,32264
1587014449145679,32264
1587014449146565,32264
1587014449147447,32264
1587014449149941,32264
1587014449151161,32264
1587014449153851,32264
1587014449156605,32264
1587014449157072,32264
1587014449165183,32264
1587014449167003,32264
1587014449167663,32264
1587014449168895,32264
1587014449671939,33057
1587014449674341,33057
1587014449675511,33057
1587014449676746,33057
1587014449679566,33057
1587014449680290,33057
1587014449681634,33057
1587014449693846,33057
1587014449704616,33057
1587014449706381,33057
1587014449708698,33057
1587014449710788,33057
1587014449712170,33057
1587014450467346,32277
1587014450468648,32277
1587014450469366,32277
1587014450480874,32277
1587014450481733,32277
1587014450483137,32277
1587014450483788,32277
1587014450494693,32277
1587014450497401,32277
1587014450504113,32277
1587014450505756,32277
1587014450506570,32277
1587014450507122,32277
1587014451022629,35339
1587014451023561,35339
1587014451023992,35339
1587014451024401,35339
1587014451026239,35339
1587014451027114,35339
1587014451027891,35339
1587014451029448,35339
1587014451035004,35339
1587014451046174,35339
1587014451057649,35339
1587014451058611,35339
1587014451059169,35339
1587014451562515,34294
1587014451563932,34294
1587014451565388,34294
1587014451566518,34294
1587014451566949,34294
1587014451567778,34294
1587014451568434,34294
1587014451570809,34294
1587014451572469,34294
1587014451573785,34294
1587014451574168,34294
1587014451575774,34294
1587014451577280,34294
1587014452079801,35003
1587014452080604,35003
1587014452081011,35003
1587014452081979,35003
1587014452083368,35003
1587014452084446,35003
1587014452086372,35003
1587014452087301,35003
1587014452091152,35003
1587014452103897,35003
1587014452105002,35003
1587014452105935,35003
1587014452106728,35003
1587014452612560,34812
1587014452613428,34812
1587014452625288,34812
1587014452626873,34812
1587014452627736,34812
1587014452632907,34812
1587014452645244,34812
1587014452647602,34812
1587014452648506,34812
1587014452649177,34812
1587014452650336,34812
1587014452650929,34812
1587014452651357,34812
1587014453153098,35315
1587014453154210,35315
1587014453155111,35315
1587014453159453,35315
1587014453170654,35315
1587014453171983,35315
1587014453174119,35315
1587014453175633,35315
1587014453176240,35315
1587014453177461,35315
1587014453179267,35315
1587014453190695,35315
1587014453192205,35315
1587014453694302,35089
1587014453695131,35089
1587014453706104,35089
1587014453707221,35089
1587014453708299,35089
1587014453709140,35089
1587014453709842,35089
1587014453714340,35089
1587014453715368,35089
1587014453716439,35089
1587014453719848,35089
1587014453721030,35089
1587014453722891,35089
1587014454227730,35962
1587014454228702,35962
1587014454230252,35962
1587014454231561,35962
1587014454232375,35962
1587014454238571,35962
1587014454239552,35962
1587014454240566,35962
1587014454241412,35962
1587014454249061,35962
1587014454250231,35962
1587014454252912,35962
1587014454264267,35962
1587014454781265,36549
1587014454785665,36549
1587014454786585,36549
1587014454787552,36549
1587014454789329,36549
1587014454797672,36549
1587014454802830,36549
1587014454815537,36549
1587014454816498,36549
1587014454828237,36549
1587014454829132,36549
1587014454839903,36549
1587014454840821,36549
1587014455363710,36355
1587014455364969,36355
1587014455365848,36355
1587014455368564,36355
1587014455369943,36355
1587014455380717,36355
1587014455383005,36355
1587014455384013,36355
1587014455387471,36355
1587014455388800,36355
1587014455389569,36355
1587014455400678,36355
1587014455402121,36355
1587014455914625,36775
1587014455916109,36775
1587014455917156,36775
1587014455928651,36775
1587014455940538,36775
1587014455941529,36775
1587014455942189,36775
1587014455943722,36775
1587014455944706,36775
1587014455945668,36775
1587014455950976,36775
1587014455951785,36775
1587014455955433,36775
1587014456501885,37439
1587014456508645,37439
1587014456509778,37439
1587014456510718,37439
1587014456511948,37439
1587014456512890,37439
1587014456514275,37439
1587014456515180,37439
1587014456527275,37439
1587014456529529,37439
1587014456531884,37439
1587014456534912,37439
1587014456535662,37439
1587014457047619,38617
1587014457059537,38617
1587014457061863,38617
1587014457062625,38617
1587014457063652,38617
1587014457064766,38617
1587014457065856,38617
1587014457066665,38617
1587014457068422,38617
1587014457069416,38617
1587014457080858,38617
1587014457083389,38617
1587014457085588,38617
1587014457593611,37915
1587014457595826,37915
1587014457596969,37915
1587014457597956,37915
1587014457598931,37915
1587014457599852,37915
1587014457601715,37915
1587014457605162,37915
1587014457606147,37915
1587014457607161,37915
1587014457619617,37915
1587014457621620,37915
1587014457623605,37915
1587014458133518,38119
1587014458135395,38119
1587014458135831,38119
1587014458136793,38119
1587014458137853,38119
1587014458138700,38119
1587014458151392,38119
1587014458152298,38119
1587014458153198,38119
1587014458153916,38119
1587014458157594,38119
1587014458164391,38119
1587014458165795,38119
1587014458667486,38308
1587014458668154,38308
1587014458669270,38308
1587014458670263,38308
1587014458671621,38308
1587014458672308,38308
1587014458673480,38308
1587014458674396,38308
1587014458676690,38308
1587014458678380,38308
1587014458679073,38308
1587014458680118,38308
1587014458680496,38308
1587014459184658,38790
1587014459188003,38790
1587014459189769,38790
1587014459190831,38790
1587014459191889,38790
1587014459194270,38790
1587014459195425,38790
1587014459206647,38790
1587014459209046,38790
1587014459211255,38790
1587014459212445,38790
1587014459225030,38790
1587014459231765,38790
1587014459736491,38622
1587014459737706,38622
1587014459738639,38622
1587014459739869,38622
1587014459741224,38622
1587014459746161,38622
1587014459749722,38622
1587014459752231,38622
1587014459753714,38622
1587014459779475,38622
1587014459811954,38622
1587014459821069,38622
1587014459835627,38622
1587014460343386,39126
1587014460344469,39126
1587014460356796,39126
1587014460360846,39126
1587014460362928,39126
1587014460364019,39126
1587014460376146,39126
1587014460379268,39126
1587014460402994,39126
1587014460406109,39126
1587014460414078,39126
1587014460417913,39126
1587014460431828,39126
1587014460953251,38926
1587014460954444,38926
1587014460955210,38926
1587014460956075,38926
1587014460956533,38926
1587014460960531,38926
1587014460961968,38926
1587014460963469,38926
1587014460965604,38926
1587014460967836,38926
1587014460970050,38926
1587014460983031,38926
1587014460992936,38926
1587014461501286,38837
1587014461503864,38837
1587014461504755,38837
1587014461505175,38837
1587014461506279,38837
1587014461507203,38837
1587014461508093,38837
1587014461513887,38837
1587014461527847,38837
1587014461534205,38837
1587014461535116,38837
1587014461555832,38837
1587014461557715,38837
1587014462060430,39334
1587014462060821,39334
1587014462064432,39334
1587014462065370,39334
1587014462066214,39334
1587014462066903,39334
1587014462068485,39334
1587014462073753,39334
1587014462076829,39334
1587014462084130,39334
1587014462086224,39334
1587014462087634,39334
1587014462092805,39334
1587014462613304,41012
1587014462614684,41012
1587014462616830,41012
1587014462617850,41012
1587014462619269,41012
1587014462620213,41012
1587014462623367,41012
1587014462629136,41012
1587014462630820,41012
1587014462648345,41012
1587014462659115,41012
1587014462661005,41012
1587014462662219,41012
1587014463174207,40913
1587014463176502,40913
1587014463177864,40913
1587014463179274,40913
1587014463182179,40913
1587014463183022,40913
1587014463184413,40913
1587014463196526,40913
1587014463200178,40913
1587014463201743,40913
1587014463202133,40913
1587014463213891,40913
1587014463217170,40913
1587014463729546,40315
1587014463731065,40315
1587014463732296,40315
1587014463733633,40315
1587014463736765,40315
1587014463737600,40315
1587014463738728,40315
1587014463751413,40315
1587014463765388,40315
1587014463768405,40315
1587014463769293,40315
1587014463770114,40315
1587014463771448,40315
1587014464273383,41041
1587014464287377,41041
1587014464290203,41041
1587014464291005,41041
1587014464291979,41041
1587014464292824,41041
1587014464300068,41041
1587014464301236,41041
1587014464302061,41041
1587014464302815,41041
1587014464303391,41041
1587014464304518,41041
1587014464305065,41041
1587014464813284,41519
1587014464815069,41519
1587014464815660,41519
1587014464816694,41519
1587014464817350,41519
1587014464829220,41519
1587014464829834,41519
1587014464841698,41519
1587014464842834,41519
1587014464844610,41519
1587014464856552,37
1587014464863260,37
1587014464863596,41519
1587014464864449,37
1587014464864710,41519
1587014464865409,41519
1587014464865547,37
1587014464866782,37
1587014464868561,37
1587014464903126,37
1587014464956586,37
1587014465037308,37
1587014465375993,41878
1587014465386684,41878
1587014465387598,41878
1587014465389264,41878
1587014465390227,41878
1587014465409598,41878
1587014465415176,41878
1587014465430977,41878
1587014465436419,41878
1587014465438371,41878
1587014465439231,41878
1587014465441781,41878
1587014465453661,41878
1587014465961831,41312
1587014465964594,41312
1587014465964946,41312
1587014465975852,41312
1587014465984073,41312
1587014465988831,41312
1587014465989685,41312
1587014465991922,41312
1587014468997679,41312
1587014468998361,41312
1587014469001765,41312
1587014469002544,41312
1587014469003783,41312
1587014469511401,50387
1587014469512589,50387
1587014469513338,50387
1587014469514107,50387
1587014469514855,50387
1587014469515587,50387
1587014469518650,50387
1587014469530109,50387
1587014469530718,50387
1587014469531471,50387
1587014469533454,50387
1587014469535601,50387
1587014469536290,50387
1587014470039202,45138
1587014470039915,45138
1587014470042363,45138
1587014470043096,45138
1587014470044671,45138
1587014470047601,45138
1587014470048818,45138
1587014470049603,45138
1587014470052030,45138
1587014470053523,45138
1587014470054455,45138
1587014470054783,45138
1587014470065602,45138
1587014470583287,45555
1587014470584255,45555
1587014470596569,45555
1587014470597113,45555
1587014470598881,45555
1587014470599866,45555
1587014470600463,45555
1587014470611582,45555
1587014470622608,45555
1587014470623364,45555
1587014470634600,45555
1587014470635603,45555
1587014470636866,45555
1587014471147923,46406
1587014471148859,46406
1587014471149934,46406
1587014471150255,46406
1587014471150839,46406
1587014471153235,46406
1587014471154519,46406
1587014471155091,46406
1587014471155586,46406
1587014471159964,46406
1587014471171889,46406
1587014471172637,46406
1587014471173184,46406
1587014471675581,46347
1587014471686615,46347
1587014471697574,46347
1587014471698228,46347
1587014471698972,46347
1587014471699374,46347
1587014471700818,46347
1587014471701783,46347
1587014471703164,46347
1587014471714804,46347
1587014471715796,46347
1587014471717544,46347
1587014471718144,46347
1587014472221631,47295
1587014472222451,47295
1587014472222999,47295
1587014472224188,47295
1587014472225477,47295
1587014472226455,47295
1587014472237630,47295
1587014472238570,47295
1587014472239377,47295
1587014472240837,47295
1587014472242030,47295
1587014472242665,47295
1587014472244993,47295
1587014472753065,47362
1587014472753902,47362
1587014472755300,47362
1587014472770497,47362
1587014472771816,47362
1587014472772102,47362
1587014472772435,47362
1587014472783704,47362
1587014472784696,47362
1587014472785071,47362
1587014472786039,47362
1587014472786605,47362
1587014472787728,47362
1587014473298255,47820
1587014473299927,47820
1587014473301386,47820
1587014473302459,47820
1587014473313775,47820
1587014473314578,47820
1587014473315806,47820
1587014473326629,47820
1587014473327444,47820
1587014473328465,47820
1587014473328907,47820
1587014473340797,47820
1587014480354656,47820
1587014480868176,67180
1587014480869599,67180
1587014480870623,67180
1587014480872618,67180
1587014480873031,67180
1587014480873479,67180
1587014480875702,67180
1587014480877057,67180
1587014481883847,67180
1587014481886667,67180
1587014481897613,67180
1587014481909381,67180
1587014481909944,67180
1587014482412617,59149
1587014482413718,59149
1587014482415232,59149
1587014482416733,59149
1587014482418000,59149
1587014482420702,59149
1587014482423884,59149
1587014482424958,59149
1587014482436227,59149
1587014482437397,59149
1587014482438266,59149
1587014482439038,59149
1587014482439678,59149
1587014482941820,57372
1587014482944221,57372
1587014482945942,57372
1587014482946884,57372
1587014482947687,57372
1587014482948878,57372
1587014482950493,57372
1587014482961613,57372
1587014482962965,57372
1587014482964908,57372
1587014482965645,57372
1587014482966884,57372
1587014482967994,57372
1587014483472103,57580
1587014483473163,57580
1587014483474879,57580
1587014483478215,57580
1587014483479858,57580
1587014483480976,57580
1587014483481834,57580
1587014483482924,57580
1587014483483875,57580
1587014483484799,57580
1587014483485832,57580
1587014483487297,57580
1587014483488427,57580
1587014483996210,57704
1587014483996948,57704
1587014483997945,57704
1587014483998645,57704
1587014484012749,57704
1587014484015352,57704
1587014484016738,57704
1587014484017494,57704
1587014484021962,57704
1587014484025693,57704
1587014484026698,57704
1587014484028110,57704
1587014484039683,57704
1587014484542189,58086
1587014484543443,58086
1587014484544752,58086
1587014484556229,58086
1587014484557191,58086
1587014484558624,58086
1587014484560284,58086
1587014484561186,58086
1587014484564184,58086
1587014484565999,58086
1587014484566751,58086
1587014484567875,58086
1587014484568600,58086
1587014485081716,58610
1587014485082770,58610
1587014485083737,58610
1587014485084746,58610
1587014485085829,58610
1587014485087269,58610
1587014485088031,58610
1587014485088494,58610
1587014485090189,58610
1587014485091162,58610
1587014485091843,58610
1587014485093475,58610
1587014485095187,58610
1587014485604858,58536
1587014485605840,58536
1587014485606121,58536
1587014485608778,58536
1587014485619053,58536
1587014485621158,58536
1587014485632928,58536
1587014485633996,58536
1587014485635047,58536
1587014485638511,58536
1587014485639991,58536
1587014485641748,58536
1587014485642097,58536
1587014486148607,58959
1587014486149450,58959
1587014486150286,58959
1587014486151486,58959
1587014486152688,58959
1587014486153222,58959
1587014486154035,58959
1587014486154751,58959
1587014486165605,58959
1587014486176605,58959
1587014486177885,58959
1587014486182182,58959
1587014486182771,58959
1587014486688636,58784
1587014486699591,58784
1587014486701039,58784
1587014486701961,58784
1587014486702557,58784
1587014486703184,58784
1587014486703908,58784
1587014486705703,58784
1587014487859591,58784
1587014488870571,58784
1587014488871726,58784
1587014488872307,58784
1587014488873659,58784
1587014489377912,64129
1587014489378683,64129
1587014489379533,64129
1587014489380440,64129
1587014489392721,64129
1587014489394068,64129
1587014489396002,64129
1587014489397143,64129
1587014489398039,64129
1587014489399848,64129
1587014489400208,64129
1587014489401367,64129
1587014489402048,64129
1587014489909955,61825
1587014489912057,61825
1587014489913891,61825
1587014489915669,61825
1587014489916593,61825
1587014489917362,61825
1587014489918230,61825
1587014489920258,61825
1587014489921042,61825
1587014489924539,61825
1587014489934617,61825
1587014489935525,61825
1587014489936576,61825
1587014490052504,37
1587014490438622,62198
1587014490440436,62198
1587014490441884,62198
1587014490442471,62198
1587014490443069,62198
1587014490445437,62198
1587014490446545,62198
1587014490446963,62198
1587014490460923,62198
1587014490466993,62198
1587014490479393,62198
1587014490484142,62198
1587014490486130,62198
1587014490993432,62443
1587014491008492,62443
1587014491009623,62443
1587014491010285,62443
1587014491010975,62443
1587014491011728,62443
1587014491012630,62443
1587014491013513,62443
1587014491014227,62443
1587014491017673,62443
1587014491018652,62443
1587014491030441,62443
1587014491030968,62443
1587014491533577,64848
1587014491534779,64848
1587014491546286,64848
1587014491547085,64848
1587014491547521,64848
1587014491548786,64848
1587014491562177,64848
1587014491564807,64848
1587014491565879,64848
1587014491567556,64848
1587014491578637,64848
1587014491580377,64848
1587014491581214,64848
1587014492091952,63427
1587014492092764,63427
1587014492096384,63427
1587014492097288,63427
1587014492098350,63427
1587014492099426,63427
1587014492111403,63427
1587014492112457,63427
1587014492125123,63427
1587014492126193,63427
1587014492130826,63427
1587014492131699,63427
1587014492133533,63427
1587014492646086,64087
1587014492646738,64087
1587014492647841,64087
1587014492649417,64087
1587014492661182,64087
1587014492662141,64087
1587014492662956,64087
1587014492663764,64087
1587014492665105,64087
1587014492666119,64087
1587014492666904,64087
1587014492667286,64087
1587014492668893,64087
1587014493180758,64638
1587014493181460,64638
1587014493182797,64638
1587014493193594,64638
1587014493196830,64638
1587014493198271,64638
1587014493199669,64638
1587014493201080,64638
1587014493201887,64638
1587014493203078,64638
1587014493213869,64638
1587014493214511,64638
1587014493225672,64638
1587014493737602,64511
1587014493739406,64511
1587014493751017,64511
1587014493751525,64511
1587014493753036,64511
1587014493763788,64511
1587014493764472,64511
1587014493765182,64511
1587014493766725,64511
1587014493768617,64511
1587014493775500,64511
1587014493776685,64511
1587014493777304,64511
1587014494284578,64552
1587014494285474,64552
1587014494288406,64552
1587014494288932,64552
1587014494289594,64552
1587014494290436,64552
1587014494293894,64552
1587014494304631,64552
1587014494315683,64552
1587014494318431,64552
1587014494320024,64552
1587014494320645,64552
1587014494322083,64552
1587014494730874,37
1587014494839633,64809
1587014494851010,64809
1587014494851772,64809
1587014494853309,64809
1587014494854050,64809
1587014494855836,64809
1587014494866859,64809
1587014494871855,64809
1587014494872478,64809
1587014494873112,64809
1587014494873625,64809
1587014494877494,64809
1587014494888612,64809
1587014495393622,64917
1587014495394252,64917
1587014495394940,64917
1587014495396441,64917
1587014495407695,64917
1587014495408547,64917
1587014495410305,64917
1587014495411096,64917
1587014495412279,64917
1587014495423898,64917
1587014495424602,64917
1587014495426069,64917
1587014495426986,64917
1587014495941608,66111
1587014495953891,66111
1587014495955809,66111
1587014495957264,66111
1587014495968617,66111
1587014495969374,66111
1587014495972097,66111
1587014495974004,66111
1587014495984621,66111
1587014495986498,66111
1587014495997579,66111
1587014496008819,66111
1587014496011215,66111
1587014496526578,65887
1587014498915575,37
1587014499546588,65887
1587014499547514,65887
1587014500091794,37
1587014500550586,65887
1587014500554383,65887
1587014500566595,65887
1587014500568987,65887
1587014500569634,65887
1587014500580911,65887
1587014500583082,65887
1587014500583814,65887
1587014500585782,65887
1587014500586188,65887
1587014501093884,73032
1587014501094570,73032
1587014501097705,73032
1587014501108676,73032
1587014501109269,73032
1587014501109617,73032
1587014501110004,73032
1587014501121860,73032
1587014501123436,73032
1587014501134887,73032
1587014501145793,73032
1587014501146859,73032
1587014501147529,73032
1587014501638448,37
1587014501658952,69141
1587014501659782,69141
1587014501671836,69141
1587014501672629,69141
1587014501674443,69141
1587014501685694,69141
1587014501686187,69141
1587014501697676,69141
1587014501699580,69141
1587014501700285,69141
1587014501713604,69141
1587014501724911,69141
1587014501725652,69141
1587014502233923,70341
1587014502234656,70341
1587014502236819,70341
1587014502247710,70341
1587014502259987,70341
1587014502260545,70341
1587014502261166,70341
1587014502263333,70341
1587014502265075,70341
1587014502266508,70341
1587014502277633,70341
1587014502278563,70341
1587014502278981,70341
1587014502783168,69698
1587014502784106,69698
1587014502786832,69698
1587014502787510,69698
1587014502788143,69698
1587014502788826,69698
1587014502790303,69698
1587014502792194,69698
1587014502803758,69698
1587014502818631,69698
1587014502820671,69698
1587014502831872,69698
1587014502843134,69698
1587014503273503,37
1587014503319821,37
1587014503347536,71097
1587014503348537,71097
1587014503349168,71097
1587014503350162,71097
1587014503352187,71097
1587014503353651,71097
1587014503360210,71097
1587014503361236,71097
1587014503362892,71097
1587014503364383,71097
1587014503364966,71097
1587014503366721,71097
1587014503377882,71097
1587014503883881,71265
1587014503885623,71265
1587014503886537,71265
1587014503886898,71265
1587014503887854,71265
1587014503888677,71265
1587014503889217,71265
1587014503891909,71265
1587014503894211,71265
1587014503895652,71265
1587014503897937,71265
1587014503898523,71265
1587014503899392,71265
1587014505625929,4
1587014505638612,37
1587014505638882,73766
1587014505639228,73766
1587014505650806,73766
1587014505653057,73766
1587014505663644,73766
1587014505664735,73766
1587014505675846,73766
1587014505677012,73766
1587014505677769,73766
1587014505678695,73766
1587014505679406,73766
1587014505680233,73766
1587014505682031,73766
1587014506056792,37
1587014506172167,37
1587014506183864,71987
1587014506184970,71987
1587014506185841,71987
1587014506188600,71987
1587014506189506,71987
1587014506190451,71987
1587014506213223,71987
1587014506214011,71987
1587014506215705,71987
1587014506227409,71987
1587014506228350,71987
1587014506229664,71987
1587014506242269,37
1587014506242601,71987
1587014506348014,37
1587014506753015,72955
1587014506753943,72955
1587014506757650,72955
1587014506758896,72955
1587014506759905,72955
1587014506760790,72955
1587014506761690,72955
1587014506762391,72955
1587014506763218,72955
1587014506764714,72955
1587014506776354,72955
1587014506787866,72955
1587014506789525,72955
1587014507173084,37
1587014507291675,73292
1587014507293407,73292
1587014507293785,73292
1587014507294201,73292
1587014507296176,73292
1587014507296528,73292
1587014507307832,73292
1587014507318598,73292
1587014507331594,73292
1587014507333502,73292
1587014507334190,73292
1587014507334724,73292
1587014507335362,73292
1587014507845804,74341
1587014507847814,74341
1587014507848482,74341
1587014507850066,74341
1587014507860911,74341
1587014507865469,74341
1587014507867093,74341
1587014507867685,74341
1587014507868055,74341
1587014507869545,74341
1587014507880701,74341
1587014507891573,74341
1587014507894777,74341
1587014508405973,73845
1587014508407694,73845
1587014508409494,73845
1587014508420588,73845
1587014513551934,37
1587014514582738,37
1587014514585972,37
1587014514669002,37
1587014514738704,37
1587014514932939,37
1587014515439426,73845
1587014515440508,73845
1587014515441072,73845
1587014515441452,73845
1587014515442178,73845
1587014515443028,73845
1587014515454429,73845
1587014515455520,73845
1587014515478224,73845
1587014516057040,85800
1587014516058261,85800
1587014516059837,85800
1587014517065255,85800
1587014517066083,85800
1587014517067772,85800
1587014517069341,85800
1587014517082855,85800
1587014517093642,85800
1587014517094302,85800
1587014517095188,85800
1587014517096730,85800
1587014517107924,85800
1587014517610394,80148
1587014517611886,80148
1587014517623762,80148
1587014517625780,80148
1587014517626377,80148
1587014517628340,80148
1587014517631123,80148
1587014517641755,80148
1587014517642403,80148
1587014517643188,80148
1587014517644858,80148
1587014517645374,80148
1587014517647086,80148
1587014518150171,79575
1587014518151211,79575
1587014518152515,79575
1587014518153702,79575
1587014518154850,79575
1587014518166838,79575
1587014518168723,79575
1587014518179657,79575
1587014518190607,79575
1587014518191411,79575
1587014518202873,79575
1587014518214263,79575
1587014518215195,79575
1587014518731626,79812
1587014518732294,79812
1587014518743935,79812
1587014518744852,79812
1587014518745241,79812
1587014518756958,79812
1587014518758028,79812
1587014518762953,79812
1587014518765002,79812
1587014518766756,79812
1587014518768549,79812
1587014518780189,79812
1587014518780829,79812
1587014519295852,79455
1587014519296306,79455
1587014519298593,79455
1587014519299071,79455
1587014519301147,79455
1587014519311599,79455
1587014519312490,79455
1587014519314452,79455
1587014519327033,79455
1587014519338650,79455
1587014519349653,79455
1587014519350690,79455
1587014519352055,79455
1587014519577721,37
1587014519853832,79985
1587014519856255,79985
1587014519856862,79985
1587014519858793,79985
1587014519863087,79985
1587014519875883,79985
1587014519876634,79985
1587014519878212,79985
1587014519880077,79985
1587014519890591,79985
1587014519901601,79985
1587014519904084,79985
1587014519905277,79985
1587014520420611,82550
1587014520421100,82550
1587014520422949,82550
1587014520424616,82550
1587014520426590,82550
1587014520428457,82550
1587014520439699,82550
1587014520440441,82550
1587014520451608,82550
1587014520453406,82550
1587014520464732,82550
1587014520465571,82550
1587014520466055,82550
1587014520971164,81734
1587014520982938,81734
1587014520984912,81734
1587014521991601,81734
1587014522002581,81734
1587014522003371,81734
1587014522014857,81734
1587014522025591,81734
1587014522026479,81734
1587014522026842,81734
1587014522027868,81734
1587014522029879,81734
1587014522030504,81734
1587014522545596,86230
1587014522546502,86230
1587014522552116,86230
1587014522553291,86230
1587014522555279,86230
1587014522556218,86230
1587014522557561,86230
1587014522571442,86230
1587014522572982,86230
1587014522573964,86230
1587014522575014,86230
1587014522576235,86230
1587014522578187,86230
1587014523095255,83518
1587014523097333,83518
1587014523098438,83518
1587014523100494,83518
1587014523103192,83518
1587014523105116,83518
1587014523113113,83518
1587014523130116,83518
1587014523132577,83518
1587014523133700,83518
1587014523137101,83518
1587014523141220,83518
1587014523141989,83518
1587014523645439,84310
1587014523646554,84310
1587014523649222,84310
1587014523651047,84310
1587014523657425,84310
1587014523660703,84310
1587014523662151,84310
1587014523673635,84310
1587014523675748,84310
1587014523676915,84310
1587014523689475,84310
1587014523690790,84310
1587014523691522,84310
1587014524194895,85295
1587014524197120,85295
1587014524198687,85295
1587014524199588,85295
1587014524200853,85295
1587014524203346,85295
1587014524216534,85295
1587014524217603,85295
1587014524218361,85295
1587014524219400,85295
1587014524221135,85295
1587014524222906,85295
1587014524229836,85295
1587014524737888,86021
1587014524738793,86021
1587014524740593,86021
1587014524741450,86021
1587014524743471,86021
1587014524745686,86021
1587014524756843,86021
1587014524757832,86021
1587014524759948,86021
1587014524761788,86021
1587014524763595,86021
1587014524763926,86021
1587014524764406,86021
1587014525266098,85647
1587014525266999,85647
1587014525267938,85647
1587014525268874,85647
1587014525271309,85647
1587014525271957,85647
1587014525273279,85647
1587014525275054,85647
1587014525293289,85647
1587014525294978,85647
1587014525296518,85647
1587014525307854,85647
1587014525319555,85647
1587014526838539,87065
1587014526844067,87065
1587014526845056,87065
1587014526856968,87065
1587014526861228,87065
1587014526874564,87065
1587014526878574,87065
1587014526881462,87065
1587014526901993,87065
1587014526903040,87065
1587014526903882,87065
1587014526905863,87065
1587014526919452,87065
1587014527427501,89630
1587014527429947,89630
1587014527446195,89630
1587014527461177,89630
1587014527464133,89630
1587014527465175,89630
1587014527477557,89630
1587014527490419,89630
1587014527504099,89630
1587014527505966,89630
1587014527508454,89630
1587014527509526,89630
1587014527534678,89630
1587014528055554,87992
1587014528068943,87992
1587014528069725,87992
1587014528073020,87992
1587014528075920,87992
1587014528088714,87992
1587014528093781,87992
1587014528094705,87992
1587014528106008,87992
1587014528118356,87992
1587014528122816,87992
1587014528124366,87992
1587014528130026,87992
1587014528647904,87919
1587014528648393,87919
1587014528650832,87919
1587014528665380,87919
1587014528667037,87919
1587014528667356,87919
1587014528668584,87919
1587014531760708,87919
1587014531775528,87919
1587014531787424,87919
1587014531788893,87919
1587014531792242,87919
1587014531809554,87919
1587014532316855,95895
1587014532318775,95895
1587014532320234,95895
1587014532326682,95895
1587014532328950,95895
1587014532331704,95895
1587014532334520,95895
1587014532345627,95895
1587014532346457,95895
1587014532346858,95895
1587014532347865,95895
1587014532350216,95895
1587014532363235,95895
1587014532867128,92329
1587014532868886,92329
1587014532880283,92329
1587014532882910,92329
1587014532916693,92329
1587014532919614,92329
1587014532933939,92329
1587014532936049,92329
1587014532936944,92329
1587014532937939,92329
1587014532939056,92329
1587014532939858,92329
1587014532964201,92329
1587014533467944,91835
1587014533470236,91835
1587014533470936,91835
1587014533483838,91835
1587014533486494,91835
1587014533490986,91835
1587014533491817,91835
1587014533493721,91835
1587014533505261,91835
1587014533507340,91835
1587014533519467,91835
1587014533524561,91835
1587014533547411,91835
1587014534049552,92533
1587014534062805,92533
1587014534065193,92533
1587014534076867,92533
1587014534079458,92533
1587014534083968,92533
1587014534087290,92533
1587014534098722,92533
1587014534099618,92533
1587014534101576,92533
1587014534101960,92533
1587014534112657,92533
1587014534113751,92533
1587014534690228,93485
1587014534702975,93485
1587014534703761,93485
1587014534718253,93485
1587014534722668,93485
1587014534734394,93485
1587014534736580,93485
1587014534742600,93485
1587014534744772,93485
1587014534745252,93485
1587014534745826,93485
1587014534747872,93485
1587014534749927,93485
1587014535270434,94178
1587014535274306,94178
1587014535296411,94178
1587014535299504,94178
1587014535301533,94178
1587014535312426,94178
1587014535315215,94178
1587014535328913,94178
1587014535329437,94178
1587014535342758,94178
1587014535356841,94178
1587014535357772,94178
1587014535370433,94178
1587014535871948,93872
1587014535875041,93872
1587014535897596,93872
1587014535914349,93872
1587014535929003,93872
1587014535931158,93872
1587014535943663,93872
1587014535944601,93872
1587014535957647,93872
1587014535961596,93872
1587014535974432,93872
1587014535974972,93872
1587014540610577,93872
1587014541126491,104872
1587014541138293,104872
1587014541142577,104872
1587014541146016,104872
1587014542151121,104872
1587014542155242,104872
1587014542157803,104872
1587014542162747,104872
1587014542168138,104872
1587014542169351,104872
1587014542172275,104872
1587014542173118,104872
1587014542175265,104872
1587014542684084,101235
1587014542687477,101235
1587014542691537,101235
1587014542713401,101235
1587014542715972,101235
1587014542730531,101235
1587014542732156,101235
1587014542744535,101235
1587014542748742,101235
1587014542760450,101235
1587014542767088,101235
1587014542779001,101235
1587014542780544,101235
1587014543284989,98775
1587014543288659,98775
1587014543302268,98775
1587014543317011,98775
1587014543330443,98775
1587014543344631,98775
1587014543357221,98775
1587014543359170,98775
1587014543366198,98775
1587014543378265,98775
1587014543382606,98775
1587014543405428,98775
1587014543407970,98775
1587014543910063,100436
1587014543931727,100436
1587014543935220,100436
1587014543935907,100436
1587014543950230,100436
1587014543953961,100436
1587014543968658,100436
1587014543984754,100436
1587014545200986,100436
1587014545201777,100436
1587014545204627,100436
1587014545207099,100436
1587014545210186,100436
1587014545722588,103360
1587014545726396,103360
1587014545739928,103360
1587014545742537,103360
1587014545766817,103360
1587014545768879,103360
1587014545773727,103360
1587014545774633,103360
1587014545778116,103360
1587014545780723,103360
1587014545798050,103360
1587014545799538,103360
1587014545816446,103360
1587014546332245,101718
1587014546337676,101718
1587014546340467,101718
1587014546345418,101718
1587014546349463,101718
1587014546350204,101718
1587014546363425,101718
1587014546365353,101718
1587014546368935,101718
1587014546383672,101718
1587014546403105,101718
1587014546406546,101718
1587014546409725,101718
1587014546912679,101488
1587014546923753,101488
1587014546924697,101488
1587014546929043,101488
1587014546943096,101488
1587014546947281,101488
1587014546949012,101488
1587014546966419,101488
1587014546980683,101488
1587014546992462,101488
1587014546998249,101488
1587014547005072,101488
1587014547005698,101488
1587014547509808,103203
1587014547513946,103203
1587014547530363,103203
1587014547542692,103203
1587014547556432,103203
1587014547559111,103203
1587014547562476,103203
1587014547567095,103203
1587014547570625,103203
1587014547575608,103203
1587014547588419,103203
1587014547592232,103203
1587014547604855,103203
1587014548112868,103054
1587014548113727,103054
1587014548115875,103054
1587014548127977,103054
1587014548132636,103054
1587014548148409,103054
1587014548151914,103054
1587014548154537,103054
1587014548154988,103054
1587014548157689,103054
1587014548169713,103054
1587014548173036,103054
1587014548183720,103054
1587014548697011,103268
1587014548714065,103268
1587014548716337,103268
1587014548729053,103268
1587014548732379,103268
1587014548755701,103268
1587014548759861,103268
1587014548763629,103268
1587014548767114,103268
1587014548772818,103268
1587014548787930,103268
1587014548809276,103268
1587014548810885,103268
1587014549320983,104430
1587014549321727,104430
1587014549323439,104430
1587014549326373,104430
1587014549328756,104430
1587014549335428,104430
1587014549336217,104430
1587014549349444,104430
1587014549350245,104430
1587014549354907,104430
1587014549360666,104430
1587014549374197,104430
1587014549391443,104430
1587014549911411,103762
1587014549912856,103762
1587014549915860,103762
1587014549929746,103762
1587014549944721,103762
1587014549949622,103762
1587014550962038,103762
1587014550985413,103762
1587014550998441,103762
1587014551010811,103762
1587014551011343,103762
1587014551015190,103762
1587014551027419,103762
1587014551535397,106341
1587014551557427,106341
1587014551558472,106341
1587014551563786,106341
1587014551576451,106341
1587014551581488,106341
1587014551583875,106341
1587014551609427,106341
1587014551612610,106341
1587014551625866,106341
1587014551640210,106341
1587014551651770,106341
1587014551652789,106341
1587014552160218,106066
1587014552175181,106066
1587014552177847,106066
1587014552180689,106066
1587014552195812,106066
1587014552223396,106066
1587014552227063,106066
1587014552239255,106066
1587014552253637,106066
1587014552266939,106066
1587014552278449,106066
1587014552279980,106066
1587014552281608,106066
1587014552790652,105605
1587014552803170,105605
1587014552806723,105605
1587014552822178,105605
1587014552825626,105605
1587014552828532,105605
1587014552830586,105605
1587014552831617,105605
1587014552832204,105605
1587014552844614,105605
1587014552845757,105605
1587014552849865,105605
1587014552853362,105605
1587014553359568,106732
1587014553361824,106732
1587014553362642,106732
1587014553376431,106732
1587014553387698,106732
1587014553389472,106732
1587014553392384,106732
1587014553395076,106732
1587014553401264,106732
1587014553402874,106732
1587014553409918,106732
1587014553433443,106732
1587014553438782,106732
1587014553954968,107537
1587014553958143,107537
1587014553960303,107537
1587014553961247,107537
1587014553974984,107537
1587014553976901,107537
1587014553977541,107537
1587014553981827,107537
1587014553984447,107537
1587014553986232,107537
1587014553990632,107537
1587014553993499,107537
1587014554005934,107537
1587014554519709,107985
1587014554524069,107985
1587014554526476,107985
1587014554529514,107985
1587014554533748,107985
1587014554537357,107985
1587014554542206,107985
1587014554543924,107985
1587014554555727,107985
1587014554557011,107985
1587014554572730,107985
1587014554576382,107985
1587014554578011,107985
1587014555126136,107699
1587014555128882,107699
1587014555132509,107699
1587014555145603,107699
1587014555146871,107699
1587014555179470,107699
1587014555183092,107699
1587014555184832,107699
1587014555185250,107699
1587014555191791,107699
1587014555205463,107699
1587014555208091,107699
1587014555211640,107699
1587014555733390,108241
1587014555736362,108241
1587014555747741,108241
1587014555750374,108241
1587014555762136,108241
1587014555764333,108241
1587014555767026,108241
1587014555768439,108241
1587014555769942,108241
1587014555772787,108241
1587014555775791,108241
1587014555779885,108241
1587014555792803,108241
1587014556301713,107862
1587014556314239,107862
1587014556316282,107862
1587014556318611,107862
1587014556333278,107862
1587014556340928,107862
1587014556355332,107862
1587014556359601,107862
1587014556362549,107862
1587014556375227,107862
1587014556379522,107862
1587014556380416,107862
1587014556384370,107862
1587014556897487,110107
1587014556912431,110107
1587014556915883,110107
1587014556919055,110107
1587014556922039,110107
1587014556924162,110107
1587014556925202,110107
1587014556942101,110107
1587014556956703,110107
1587014556959603,110107
1587014556962626,110107
1587014556965911,110107
1587014556969534,110107
1587014557482687,109661
1587014557498965,109661
1587014557524809,109661
1587014557525573,109661
1587014557527260,109661
1587014557540725,109661
1587014557545369,109661
1587014557548168,109661
1587014557549161,109661
1587014557564286,109661
1587014559210666,109661
1587014559211191,109661
1587014559212525,109661
1587014559727584,113209
1587014559729353,113209
1587014559735707,113209
1587014559746927,113209
1587014559753907,113209
1587014559758668,113209
1587014559774884,113209
1587014559787704,113209
1587014559791371,113209
1587014559795725,113209
1587014559801504,113209
1587014559802428,113209
1587014559805435,113209
1587014560322884,112226
1587014560324940,37
1587014560329052,112226
1587014560329223,37
1587014560341479,37
1587014560341642,112226
1587014560354430,112226
1587014560356970,112226
1587014560360968,112226
1587014560364857,112226
1587014560378301,112226
1587014560392951,112226
1587014560400238,112226
1587014560401799,112226
1587014560416373,112226
1587014560417250,112226
1587014560933516,113042
1587014560934246,113042
1587014560937957,113042
1587014560960675,113042
1587014560974707,113042
1587014560975938,113042
1587014560978425,113042
1587014560980742,113042
1587014560993380,113042
1587014560998061,113042
1587014561011847,113042
1587014561014900,113042
1587014561018519,113042
1587014561533837,112889
1587014561549489,112889
1587014561554364,112889
1587014561567846,112889
1587014561571112,112889
1587014561583785,112889
1587014561587590,112889
1587014561592294,112889
1587014561596893,112889
1587014561603372,112889
1587014561619442,112889
1587014561624667,112889
1587014561625428,112889
1587014562126959,113011
1587014562131754,113011
1587014562145440,113011
1587014562148291,113011
1587014562149081,113011
1587014562152098,113011
1587014562156608,113011
1587014562169779,113011
1587014562172858,113011
1587014562178413,113011
1587014562192444,113011
1587014562198269,113011
1587014562201921,113011
1587014562704717,113676
1587014562705408,113676
1587014562720330,113676
1587014562726542,113676
1587014562738809,113676
1587014562747560,113676
1587014562760691,113676
1587014562765407,113676
1587014562779742,113676
1587014562798451,113676
1587014562826438,113676
1587014562830982,113676
1587014562842433,113676
1587014563353709,114944
1587014563364842,114944
1587014563368005,114944
1587014563368858,114944
1587014563369806,114944
1587014563374123,114944
1587014563375054,114944
1587014563389725,114944
1587014563394457,114944
1587014563420477,114944
1587014563424407,114944
1587014563424960,114944
1587014563429543,114944
1587014563930995,115118
1587014563933242,115118
1587014563940803,115118
1587014564956945,115118
1587014564959459,115118
1587014564972464,115118
1587014564974085,115118
1587014564976966,115118
1587014564978304,115118
1587014564993879,115118
1587014564999089,115118
1587014565000247,115118
1587014565003102,115118
1587014565511748,117405
1587014565514656,117405
1587014565532164,117405
1587014565557563,117405
1587014565562945,117405
1587014565564660,117405
1587014565578618,117405
1587014565581616,117405
1587014565594634,117405
1587014565598752,117405
1587014565601979,117405
1587014565602409,117405
1587014565617969,117405
1587014566124285,116615
1587014566125503,116615
1587014566147498,116615
1587014566151406,116615
1587014566155485,116615
1587014566158393,116615
1587014566184457,116615
1587014566188143,116615
1587014566189072,116615
1587014566189696,116615
1587014566193878,116615
1587014566197572,116615
1587014566200263,116615
1587014566704670,116322
1587014566708168,116322
1587014566711180,116322
1587014566716751,116322
1587014566722261,116322
1587014566734740,116322
1587014566748463,116322
1587014566751556,116322
1587014566754851,116322
1587014566755926,116322
1587014566758742,116322
1587014566759649,116322
1587014566766831,116322
1587014567276160,117273
1587014567277520,117273
1587014567280035,117273
1587014567282803,117273
1587014567285268,117273
1587014567298535,117273
1587014567313598,117273
1587014567329839,117273
1587014567332818,117273
1587014567335777,117273
1587014567338796,117273
1587014567343136,117273
1587014567354910,117273
1587014567876681,116894
1587014567877505,116894
1587014567879868,116894
1587014567884898,116894
1587014567885346,116894
1587014567903662,116894
1587014567907050,116894
1587014567911112,116894
1587014567914203,116894
1587014567918960,116894
1587014567919432,116894
1587014567933691,116894
1587014567936871,116894
1587014568441471,118082
1587014568444623,118082
1587014568448627,118082
1587014568449871,118082
1587014568452437,118082
1587014568453277,118082
1587014568477676,118082
1587014568483465,118082
1587014568491188,118082
1587014568491992,118082
1587014568504860,118082
1587014568515889,118082
1587014568516720,118082
1587014569037720,118608
1587014569038511,118608
1587014569057452,118608
1587014569073902,118608
1587014569076393,118608
1587014569079470,118608
1587014569092715,118608
1587014569095790,118608
1587014569111463,118608
1587014569114599,118608
1587014569119754,118608
1587014569132785,118608
1587014569133718,118608
1587014569637883,118862
1587014569640400,118862
1587014569642757,118862
1587014569655776,118862
1587014569667448,118862
1587014569684490,118862
1587014569685647,118862
1587014569690969,118862
1587014569704494,118862
1587014569705876,118862
1587014569714877,118862
1587014569738448,118862
1587014569739344,118862
1587014570250374,119295
1587014570252981,119295
1587014570253548,119295
1587014570259982,119295
1587014570281478,119295
1587014570286451,119295
1587014570300459,119295
1587014570303006,119295
1587014570315473,119295
1587014570323866,119295
1587014570326419,119295
1587014570330336,119295
1587014570344170,119295
1587014570860436,119248
1587014570861108,119248
1587014570865208,119248
1587014570880770,119248
1587014570895423,119248
1587014570900600,119248
1587014570901852,119248
1587014570915636,119248
1587014570917878,119248
1587014570918286,119248
1587014570931852,119248
1587014570934415,119248
1587014570954543,119248
1587014571458136,119881
1587014571460298,119881
1587014571463996,119881
1587014571475698,119881
1587014571480731,119881
1587014571483914,119881
1587014571508451,119881
1587014571514573,119881
1587014571528868,119881
1587014571543458,119881
1587014571544699,119881
1587014571547092,119881
1587014571548017,119881
1587014572060167,120284
1587014572063539,120284
1587014572076456,120284
1587014572080024,120284
1587014572080629,120284
1587014572085134,120284
1587014572097052,120284
1587014572100817,120284
1587014572102755,120284
1587014572112062,120284
1587014572123554,120284
1587014572142357,120284
1587014572147012,120284
1587014572655019,120681
1587014572659729,120681
1587014572662719,120681
1587014572664662,120681
1587014572667805,120681
1587014572668227,120681
1587014572669051,120681
1587014572669692,120681
1587014572683716,120681
1587014572684481,120681
1587014572697814,120681
1587014572699122,120681
1587014572708152,120681
1587014573211810,120704
1587014573215859,120704
1587014573216456,120704
1587014573218881,120704
1587014573242441,120704
1587014573243204,120704
1587014573247766,120704
1587014573253020,120704
1587014573258037,120704
1587014573279614,120704
1587014573295477,120704
1587014573302654,120704
1587014573303202,120704
1587014573812823,121343
1587014573817506,121343
1587014573824681,121343
1587014573827023,121343
1587014573829982,121343
1587014573833966,121343
1587014573851119,121343
1587014573851845,121343
1587014573858540,121343
1587014573866146,121343
1587014573872115,121343
1587014573874531,121343
1587014573881008,121343
1587014574398836,121366
1587014574399602,121366
1587014574406574,121366
1587014574417789,121366
1587014574418753,121366
1587014574435966,121366
1587014574441068,121366
1587014574444623,121366
1587014574458840,121366
1587014574474019,121366
1587014574475418,121366
1587014574479483,121366
1587014574483064,121366
1587014575006050,122091
1587014575022839,122091
1587014575034029,122091
1587014575038127,122091
1587014575042812,122091
1587014575043293,122091
1587014575047247,122091
1587014575051564,122091
1587014575052269,122091
1587014575064443,122091
1587014575067429,122091
1587014575070546,122091
1587014575084304,122091
1587014575600793,123362
1587014575615596,123362
1587014575619551,123362
1587014575620166,123362
1587014575624289,123362
1587014575626561,123362
1587014575641121,123362
1587014575642117,123362
1587014575653915,123362
1587014575655069,123362
1587014575655896,123362
1587014575656752,123362
1587014575670391,123362
1587014576187010,123246
1587014576201475,123246
1587014576209018,123246
1587014576213081,123246
1587014576227084,123246
1587014576230174,123246
1587014576230641,123246
1587014576233784,123246
1587014576245841,123246
1587014576246631,123246
1587014576249879,123246
1587014576250701,123246
1587014576266438,123246
1587014576780448,123767
1587014576784390,123767
1587014576797500,123767
1587014576800676,123767
1587014576813662,123767
1587014576817263,123767
1587014576828750,123767
1587014576843791,123767
1587014576846795,123767
1587014576852576,123767
1587014576853012,123767
1587014576853632,123767
1587014576859101,123767
1587014577367124,124227
1587014577384369,124227
1587014577385574,124227
1587014577389856,124227
1587014577395730,124227
1587014577411838,124227
1587014577416854,124227
1587014577421063,124227
1587014577423820,124227
1587014577425934,124227
1587014577443869,124227
1587014577449346,124227
1587014577452794,124227
1587014577957144,124130
1587014577976668,124130
1587014577982182,124130
1587014577985289,124130
1587014577986076,124130
1587014577990658,124130
1587014577994063,124130
1587014577994902,124130
1587014578001790,124130
1587014578015201,124130
1587014578027458,124130
1587014578031301,124130
1587014578031831,124130
1587014578551920,125141
1587014578556121,125141
1587014578563746,125141
1587014578576359,125141
1587014578589261,125141
1587014578595087,125141
1587014578596498,125141
1587014578613596,125141
1587014578619227,125141
1587014578619796,125141
1587014578624027,125141
1587014578627948,125141
1587014578631794,125141
1587014579135203,124738
1587014579138082,124738
1587014579151537,124738
1587014579152439,124738
1587014579155977,124738
1587014579161089,124738
1587014579173439,124738
1587014579178223,124738
1587014579183650,124738
1587014579185030,124738
1587014579189282,124738
1587014579192304,124738
1587014579195466,124738
1587014579718631,126050
1587014579741889,126050
1587014579746495,126050
1587014579747645,126050
1587014579760808,126050
1587014579768220,126050
1587014579771594,126050
1587014579776013,126050
1587014579778949,126050
1587014579784742,126050
1587014579787960,126050
1587014579799118,126050
1587014579814108,126050
1587014580323340,125810
1587014580324602,125810
1587014580339887,125810
1587014580341446,125810
1587014580345896,125810
1587014580361551,125810
1587014580376136,125810
1587014580384125,125810
1587014580396996,125810
1587014580400125,125810
1587014580414173,125810
1587014580415453,125810
1587014580420832,125810
1587014580935860,126202
1587014580949473,126202
1587014580955961,126202
1587014580961301,126202
1587014580964218,126202
1587014580967682,126202
1587014580979478,126202
1587014580983483,126202
1587014580995843,126202
1587014581026459,126202
1587014581040133,126202
1587014581044654,126202
1587014581057474,126202
1587014581560398,126626
1587014581573160,126626
1587014581576204,126626
1587014581580232,126626
1587014581584890,126626
1587014581598649,126626
1587014581611445,126626
1587014581626490,126626
1587014581627612,126626
1587014581638863,126626
1587014581656961,126626
1587014581659721,126626
1587014581672460,126626
1587014582191774,126987
1587014582195135,126987
1587014582201852,126987
1587014582216205,126987
1587014582221546,126987
1587014582222207,126987
1587014582235707,126987
1587014582236503,126987
1587014582241705,126987
1587014582242989,126987
1587014582254634,126987
1587014582258156,126987
1587014582260682,126987
1587014582763231,127257
1587014582764100,127257
1587014582768846,127257
1587014582781650,127257
1587014582783793,127257
1587014582786768,127257
1587014582799027,127257
1587014582803744,127257
1587014582804166,127257
1587014582808117,127257
1587014582823101,127257
1587014582824214,127257
1587014582835778,127257
1587014583341558,127958
1587014583344685,127958
1587014583360327,127958
1587014583363863,127958
1587014583370900,127958
1587014583383522,127958
1587014583387389,127958
1587014583390775,127958
1587014583391755,127958
1587014583406039,127958
1587014583410505,127958
1587014583425656,127958
1587014583429071,127958
1587014583932123,129266
1587014583937720,129266
1587014583963484,129266
1587014583969567,129266
1587014583975443,129266
1587014583992060,129266
1587014583997488,129266
1587014584009750,129266
1587014584011276,129266
1587014584033773,129266
1587014584039058,129266
1587014584052835,129266
1587014584057973,129266
1587014584579477,129367
1587014584582211,129367
1587014584583373,129367
1587014584584415,129367
1587014584598029,129367
1587014584610184,129367
1587014584610884,129367
1587014584644671,129367
1587014584655761,129367
1587014584657613,129367
1587014584661431,129367
1587014584673287,129367
1587014584676756,129367
1587014585202432,128967
1587014585224484,128967
1587014585258731,128967
1587014585285522,128967
1587014585287627,128967
1587014585291134,128967
1587014585293860,128967
1587014585294981,128967
1587014585296155,128967
1587014585297415,128967
1587014585310284,128967
1587014585331118,128967
1587014585334433,128967
1587014585850835,128698
1587014585852272,128698
1587014585858519,128698
1587014585861772,128698
1587014585865978,128698
1587014585869966,128698
1587014585887135,128698
1587014585888431,128698
1587014585902474,128698
1587014585912246,128698
1587014585928423,128698
1587014585944374,128698
1587014586955442,128698
1587014587471911,132832
1587014587472512,132832
1587014587472979,132832
1587014587473820,132832
1587014587487495,132832
1587014587491405,132832
1587014587496435,132832
1587014587499395,132832
1587014587524647,132832
1587014587531226,132832
1587014587532298,132832
1587014587538950,132832
1587014587546863,132832
1587014588053379,131336
1587014588058379,131336
1587014588072470,131336
1587014588075292,131336
1587014588075781,131336
1587014588121941,131336
1587014588122824,131336
1587014588127675,131336
1587014588140815,131336
1587014588144434,131336
1587014588147909,131336
1587014588149978,131336
1587014588164031,131336
1587014588680581,131112
1587014588692825,131112
1587014588693965,131112
1587014588694375,131112
1587014588699185,131112
1587014588702745,131112
1587014588715471,131112
1587014588721345,131112
1587014588722539,131112
1587014588737508,131112
1587014588741772,131112
1587014588745822,131112
1587014588759930,131112
1587014589268103,132231
1587014589283847,132231
1587014589289923,132231
1587014589296112,132231
1587014589301852,132231
1587014589313497,132231
1587014589328469,132231
1587014589332286,132231
1587014589333416,132231
1587014589336646,132231
1587014589337559,132231
1587014589339860,132231
1587014589345086,132231
1587014589850896,133875
1587014589874556,133875
1587014589878946,133875
1587014589882816,133875
1587014589891404,133875
1587014589893875,133875
1587014589905915,133875
1587014589909230,133875
1587014589912591,133875
1587014589916622,133875
1587014589920707,133875
1587014589923067,133875
1587014589936911,133875
1587014590455373,133878
1587014590456309,133878
1587014590470497,133878
1587014590475737,133878
1587014590478950,133878
1587014590484231,133878
1587014590497784,133878
1587014590509929,133878
1587014590513538,133878
1587014590523885,133878
1587014591534542,133878
1587014591539054,133878
1587014591543136,133878
1587014592067679,135399
1587014592070532,135399
1587014592075429,135399
1587014592090935,135399
1587014592097693,135399
1587014592099820,135399
1587014592101668,135399
1587014592105208,135399
1587014592121698,135399
1587014592124777,135399
1587014592127867,135399
1587014592129649,135399
1587014592132719,135399
1587014592651710,135024
1587014592657268,135024
1587014592657791,135024
1587014592665722,135024
1587014592670362,135024
1587014592695396,135024
1587014592698048,135024
1587014592701066,135024
1587014592708352,135024
1587014592710691,135024
1587014592713881,135024
1587014592716988,135024
1587014592720114,135024
1587014593228422,135297
1587014593234219,135297
1587014593235522,135297
1587014593252824,135297
1587014593253563,135297
1587014593254419,135297
1587014593259117,135297
1587014596282885,135297
1587014596288574,135297
1587014596291740,135297
1587014596305655,135297
1587014596324356,135297
1587014596326824,135297
1587014596841517,139350
1587014596846688,139350
1587014596847327,139350
1587014596852758,139350
1587014596870424,139350
1587014596888196,139350
1587014596942465,139350
1587014596966544,139350
1587014596978495,139350
1587014596980877,139350
1587014596982408,139350
1587014596995256,139350
1587014596999204,139350
1587014597525434,137101
1587014597541500,137101
1587014597553148,137101
1587014597572373,137101
1587014597612048,137101
1587014597636559,137101
1587014597640070,137101
1587014597640834,137101
1587014597663203,137101
1587014597679568,137101
1587014597694507,137101
1587014597696117,137101
1587014597712749,137101
1587014598254764,137956
1587014598266703,137956
1587014598267838,137956
1587014598270103,137956
1587014598271148,137956
1587014598283420,137956
1587014598286289,137956
1587014598289070,137956
1587014598305802,137956
1587014598311253,137956
1587014598313208,137956
1587014598318967,137956
1587014598343346,137956
1587014598851041,138549
1587014598851650,138549
1587014598863547,138549
1587014598868785,138549
1587014598884727,138549
1587014598902501,138549
1587014598912757,138549
1587014598936432,138549
1587014598939720,138549
1587014598952654,138549
1587014598957731,138549
1587014598961873,138549
1587014598962714,138549
1587014599478153,138233
1587014599481122,138233
1587014599508404,138233
1587014599517162,138233
1587014599520944,138233
1587014599523778,138233
1587014599525193,138233
1587014599531454,138233
1587014599539213,138233
1587014599552726,138233
1587014599557174,138233
1587014599570798,138233
1587014599576333,138233
1587014600093460,138376
1587014600095495,138376
1587014600096759,138376
1587014600103774,138376
1587014600107470,138376
1587014600112265,138376
1587014600117809,138376
1587014600119235,138376
1587014600124736,138376
1587014600140807,138376
1587014600146614,138376
1587014600151355,138376
1587014601171054,138376
1587014601681464,140712
1587014601706919,140712
1587014601709670,140712
1587014601716948,140712
1587014601722749,140712
1587014601735975,140712
1587014601740282,140712
1587014601755517,140712
1587014601769266,140712
1587014601770150,140712
1587014601770700,140712
1587014601771637,140712
1587014601778995,140712
1587014602285100,139613
1587014602286631,139613
1587014602298706,139613
1587014602299720,139613
1587014602301985,139613
1587014602309264,139613
1587014602313463,139613
1587014602318828,139613
1587014602324027,139613
1587014602338242,139613
1587014602342557,139613
1587014602348040,139613
1587014602349001,139613
1587014602861124,140975
1587014602865584,140975
1587014602880360,140975
1587014602898448,140975
1587014602904262,140975
1587014602906469,140975
1587014602912825,140975
1587014602914883,140975
1587014602917493,140975
1587014602918982,140975
1587014602931615,140975
1587014602946170,140975
1587014602950310,140975
1587014603465484,140570
1587014603466662,140570
1587014603467814,140570
1587014603494682,140570
1587014603497816,140570
1587014603499021,140570
1587014603505089,140570
1587014603508473,140570
1587014603519357,140570
1587014603520617,140570
1587014603522528,140570
1587014603525288,140570
1587014603530191,140570
1587014604038471,141204
1587014604042584,141204
1587014604056807,141204
1587014604063098,141204
1587014604067482,141204
1587014604068527,141204
1587014604080595,141204
1587014604082250,141204
1587014604088303,141204
1587014604092663,141204
1587014604096576,141204
1587014604097952,141204
1587014604114806,141204
1587014604629450,141226
1587014604634915,141226
1587014604641795,141226
1587014604655497,141226
1587014604661285,141226
1587014604681279,141226
1587014604686352,141226
1587014604692220,141226
1587014604695099,141226
1587014604709475,141226
1587014604726185,141226
1587014604727750,141226
1587014604731160,141226
1587014605244532,141593
1587014605257596,141593
1587014605264481,141593
1587014605268262,141593
1587014605270642,141593
1587014605286712,141593
1587014605290833,141593
1587014605296010,141593
1587014605299933,141593
1587014605302881,141593
1587014605326474,141593
1587014605335423,141593
1587014605339598,141593
1587014605845946,142254
1587014605859046,142254
1587014605862869,142254
1587014605868468,142254
1587014605872876,142254
1587014605877345,142254
1587014605891923,142254
1587014605896134,142254
1587014605900177,142254
1587014605913120,142254
1587014605917912,142254
1587014605926481,142254
1587014605927931,142254
1587014606442428,142122
1587014606446383,142122
1587014606465531,142122
1587014606473862,142122
1587014606478918,142122
1587014606491479,142122
1587014606497705,142122
1587014606501574,142122
1587014606508834,142122
1587014606511712,142122
1587014606516557,142122
1587014606526605,142122
1587014606530145,142122
1587014607055446,143013
1587014607068938,143013
1587014607074413,143013
1587014607078013,143013
1587014607084286,143013
1587014607094138,143013
1587014607103168,143013
1587014607104689,143013
1587014607131433,143013
1587014607148497,143013
1587014607152957,143013
1587014607153585,143013
1587014607161544,143013
1587014607673145,143382
1587014607674306,143382
1587014607676958,143382
1587014607692494,143382
1587014607693633,143382
1587014607700417,143382
1587014607703618,143382
1587014607704179,143382
1587014607710990,143382
1587014607726517,143382
1587014607729945,143382
1587014607730833,143382
1587014607739382,143382
1587014608262015,143718
1587014608270776,143718
1587014608283501,143718
1587014608299435,143718
1587014608318176,143718
1587014608324767,143718
1587014608341876,143718
1587014608355879,143718
1587014608357963,143718
1587014608358396,143718
1587014608368025,143718
1587014608379856,143718
1587014608382178,143718
1587014608897836,144296
1587014608898420,144296
1587014608907503,144296
1587014608923370,144296
1587014608931344,144296
1587014608931956,144296
1587014608948839,144296
1587014608964521,144296
1587014608965738,144296
1587014608971353,144296
1587014608989428,144296
1587014608994391,144296
1587014609001529,144296
1587014609583760,145227
1587014609584305,145227
1587014609593411,145227
1587014609601868,145227
1587014609616154,145227
1587014609630767,145227
1587014609637449,145227
1587014609641554,145227
1587014609648276,145227
1587014609650294,145227
1587014609667851,145227
1587014609675664,145227
1587014609689197,145227
1587014610271052,146323
1587014610273644,146323
1587014610274225,146323
1587014610290887,146323
1587014610299163,146323
1587014610304856,146323
1587014610309144,146323
1587014610317990,146323
1587014610319234,146323
1587014610320781,146323
1587014610324591,146323
1587014610332258,146323
1587014610335122,146323
1587014611012744,146361
1587014611040460,146361
1587014611042807,146361
1587014611049723,146361
1587014611053890,146361
1587014611054396,146361
1587014611063222,146361
1587014611065550,146361
1587014611077749,146361
1587014611078574,146361
1587014611092445,146361
1587014611098039,146361
1587014611099471,146361
1587014611606563,146236
1587014611608945,146236
1587014611628150,146236
1587014611630028,146236
1587014611649672,146236
1587014611655502,146236
1587014611658131,146236
1587014611664052,146236
1587014611673283,146236
1587014611677000,146236
1587014611677959,146236
1587014611695724,146236
1587014611701202,146236
1587014612222771,146163
1587014612227668,146163
1587014612230835,146163
1587014612234776,146163
1587014612239804,146163
1587014612240443,146163
1587014612242936,146163
1587014612268406,146163
1587014612277363,146163
1587014612279269,146163
1587014612284111,146163
1587014612298565,146163
1587014612311412,146163
1587014612819406,146889
1587014612821153,146889
1587014612823199,146889
1587014612837963,146889
1587014612845131,146889
1587014612860756,146889
1587014612875766,146889
1587014612884295,146889
1587014612896666,146889
1587014612908805,146889
1587014612915266,146889
1587014612918454,146889
1587014612931485,146889
1587014613445215,146783
1587014613447961,146783
1587014613459537,146783
1587014613472875,146783
1587014613476660,146783
1587014613483483,146783
1587014613506441,146783
1587014613509741,146783
1587014613510430,146783
1587014613513892,146783
1587014613536541,146783
1587014613540408,146783
1587014613560134,146783
1587014614084557,146518
1587014614099462,146518
1587014614100200,146518
1587014614112423,146518
1587014614118461,146518
1587014614119804,146518
1587014614125591,146518
1587014614130998,146518
1587014614137196,146518
1587014614150975,146518
1587014614152290,146518
1587014614156558,146518
1587014614159720,146518
1587014614674790,148598
1587014614682206,148598
1587014614689768,148598
1587014614703734,148598
1587014614716974,148598
1587014614720032,148598
1587014614722997,148598
1587014614726849,148598
1587014614728151,148598
1587014614744822,148598
1587014614752180,148598
1587014614753154,148598
1587014614757807,148598
1587014615290177,147492
1587014615291253,147492
1587014615292218,147492
1587014615298268,147492
1587014615313066,147492
1587014615318195,147492
1587014615324446,147492
1587014615341522,147492
1587014615346490,147492
1587014615360039,147492
1587014615372024,147492
1587014615381797,147492
1587014615396984,147492
1587014615905116,148246
1587014615910094,148246
1587014615910682,148246
1587014615934527,148246
1587014615948508,148246
1587014615957843,148246
1587014615958310,148246
1587014615961050,148246
1587014615972221,148246
1587014615985361,148246
1587014616002505,148246
1587014616004023,148246
1587014616004936,148246
1587014616521809,148667
1587014616523513,148667
1587014616538199,148667
1587014616543651,148667
1587014616547961,148667
1587014616553334,148667
1587014616554491,148667
1587014616565927,148667
1587014616581486,148667
1587014616587758,148667
1587014616590872,148667
1587014616595653,148667
1587014616608514,148667
1587014617136355,148101
1587014617149455,148101
1587014617152418,148101
1587014617170174,148101
1587014617174667,148101
1587014617176213,148101
1587014617179525,148101
1587014617184102,148101
1587014617188857,148101
1587014617212545,148101
1587014617213361,148101
1587014617216868,148101
1587014617218032,148101
1587014617721519,150192
1587014617735529,150192
1587014617736163,150192
1587014617751975,150192
1587014617765190,150192
1587014617768970,150192
1587014617774635,150192
1587014617775784,150192
1587014617777393,150192
1587014617778385,150192
1587014617789670,150192
1587014617791522,150192
1587014617807608,150192
1587014618337020,150572
1587014618339795,150572
1587014618349270,150572
1587014618363467,150572
1587014618383339,150572
1587014618389440,150572
1587014618391277,150572
1587014618394045,150572
1587014618404930,150572
1587014618406302,150572
1587014618430509,150572
1587014618438791,150572
1587014618442538,150572
1587014618944307,150742
1587014618950608,150742
1587014618954561,150742
1587014619958562,150742
1587014619963865,150742
1587014619964717,150742
1587014619966006,150742
1587014619985596,150742
1587014619992342,150742
1587014619994847,150742
1587014619996436,150742
1587014620017561,150742
1587014620021477,150742
1587014620547477,151290
1587014620548845,151290
1587014620551940,151290
1587014620567862,151290
1587014620573045,151290
1587014620573649,151290
1587014620578366,151290
1587014620582283,151290
1587014620587719,151290
1587014620589969,151290
1587014620595109,151290
1587014620596260,151290
1587014620600690,151290
1587014621114656,150386
1587014621119634,150386
1587014621123168,150386
1587014621125169,150386
1587014621127541,150386
1587014621130676,150386
1587014621136836,150386
1587014621152143,150386
1587014621154744,150386
1587014621157413,150386
1587014621165456,150386
1587014621168581,150386
1587014621181747,150386
1587014621690820,151407
1587014621695616,151407
1587014621700152,151407
1587014621704213,151407
1587014621706053,151407
1587014621733468,151407
1587014621740529,151407
1587014621742031,151407
1587014621762435,151407
1587014621764563,151407
1587014621769659,151407
1587014621774204,151407
1587014621790098,151407
1587014622299722,153446
1587014622312714,153446
1587014622316018,153446
1587014622326413,153446
1587014622331977,153446
1587014622335231,153446
1587014622338635,153446
1587014622346944,153446
1587014622355817,153446
1587014622359820,153446
1587014622364193,153446
1587014622368602,153446
1587014622381657,153446
1587014622890862,152265
1587014622905420,152265
1587014622911099,152265
1587014622912043,152265
1587014622916693,152265
1587014622918082,152265
1587014622918813,152265
1587014622927359,152265
1587014622930616,152265
1587014622945194,152265
1587014622951095,152265
1587014622956582,152265
1587014622961180,152265
1587014623463375,152467
1587014623475536,152467
1587014623482684,152467
1587014623488919,152467
1587014623491461,152467
1587014623504075,152467
1587014623505875,152467
1587014623507299,152467
1587014623512253,152467
1587014623518825,152467
1587014623524421,152467
1587014623525420,152467
1587014623528425,152467
1587014624035094,154333
1587014624039155,154333
1587014624054009,154333
1587014624057909,154333
1587014624061503,154333
1587014624063903,154333
1587014624069481,154333
1587014624072294,154333
1587014624088414,154333
1587014624092073,154333
1587014624096277,154333
1587014624100935,154333
1587014624101775,154333
1587014624619532,153547
1587014624633632,153547
1587014624640650,153547
1587014624642821,153547
1587014624643427,153547
1587014624645240,153547
1587014624649647,153547
1587014624654787,153547
1587014624660190,153547
1587014624664814,153547
1587014624668976,153547
1587014624673351,153547
1587014624674607,153547
1587014625183991,154147
1587014625185168,154147
1587014625190293,154147
1587014625209133,154147
1587014625225969,154147
1587014625230413,154147
1587014625235371,154147
1587014625239821,154147
1587014625244180,154147
1587014625247979,154147
1587014625249683,154147
1587014625263757,154147
1587014625264265,154147
1587014625775822,154233
1587014625776975,154233
1587014625791940,154233
1587014625798418,154233
1587014625799291,154233
1587014625800162,154233
1587014625805553,154233
1587014625809797,154233
1587014625810976,154233
1587014625828652,154233
1587014625833783,154233
1587014625834903,154233
1587014625835992,154233
1587014626342294,155526
1587014626357479,155526
1587014626364291,155526
1587014626375776,155526
1587014626391376,155526
1587014626393540,155526
1587014626395366,155526
1587014626397231,155526
1587014626403617,155526
1587014626404473,155526
1587014626408599,155526
1587014626409590,155526
1587014626415916,155526
1587014626931521,155403
1587014626932154,155403
1587014626937388,155403
1587014626955503,155403
1587014626957215,155403
1587014626962008,155403
1587014626964989,155403
1587014626968562,155403
1587014626969943,155403
1587014626975070,155403
1587014626989259,155403
1587014626990125,155403
1587014626998102,155403
1587014627504941,155957
1587014627510819,155957
1587014627513789,155957
1587014627526057,155957
1587014627530733,155957
1587014627534704,155957
1587014627539384,155957
1587014627551795,155957
1587014627552900,155957
1587014627558093,155957
1587014627563881,155957
1587014627568948,155957
1587014627581531,155957
1587014628098217,155637
1587014629106464,155637
1587014629111167,155637
1587014629114000,155637
1587014629116907,155637
1587014629120077,155637
1587014629133172,155637
1587014629138060,155637
1587014629140906,155637
1587014629141603,155637
1587014629149004,155637
1587014629162512,155637
1587014629167202,155637
1587014629669230,158419
1587014629675556,158419
1587014629679239,158419
1587014629680265,158419
1587014629684411,158419
1587014629697427,158419
1587014629698831,158419
1587014629703134,158419
1587014629704448,158419
1587014629723366,158419
1587014629741456,158419
1587014629762619,158419
1587014629771325,158419
1587014630288309,157451
1587014630289852,157451
1587014630298731,157451
1587014630310504,157451
1587014630314919,157451
1587014630318375,157451
1587014630326774,157451
1587014630329831,157451
1587014630342810,157451
1587014630354267,157451
1587014630359838,157451
1587014630360559,157451
1587014630384476,157451
1587014630894233,157159
1587014630900722,157159
1587014630915694,157159
1587014630930706,157159
1587014630937277,157159
1587014630952438,157159
1587014630982458,157159
1587014630985209,157159
1587014630999696,157159
1587014631002740,157159
1587014631007059,157159
1587014631008180,157159
1587014631011930,157159
1587014631527451,157571
1587014631537003,157571
1587014631554603,157571
1587014631570536,157571
1587014631573192,157571
1587014631578485,157571
1587014631593188,157571
1587014631600593,157571
1587014631603649,157571
1587014631604283,157571
1587014631606692,157571
1587014631609924,157571
1587014631614976,157571
1587014632127518,158458
1587014632139499,158458
1587014632155305,158458
1587014632161034,158458
1587014632162114,158458
1587014632163447,158458
1587014632167515,158458
1587014632171601,158458
1587014632185431,158458
1587014632192849,158458
1587014632196091,158458
1587014632199310,158458
1587014632203089,158458
1587014632711252,158644
1587014632716081,158644
1587014632719805,158644
1587014632720618,158644
1587014632725422,158644
1587014632742763,158644
1587014632754543,158644
1587014632758611,158644
1587014632763250,158644
1587014632763848,158644
1587014632768397,158644
1587014632771516,158644
1587014632787484,158644
1587014633299670,159286
1587014633315713,159286
1587014633318344,159286
1587014633348108,159286
1587014633349300,159286
1587014633352773,159286
1587014633366726,159286
1587014633383543,159286
1587014633387852,159286
1587014633388631,159286
1587014633448443,159286
1587014633452836,159286
1587014633457351,159286
1587014633959981,159181
1587014633985482,159181
1587014633988083,159181
1587014634002801,159181
1587014634008299,159181
1587014634024498,159181
1587014634059385,159181
1587014634063644,159181
1587014634085877,159181
1587014634087563,159181
1587014634091859,159181
1587014634092453,159181
1587014634099450,159181
1587014634607760,160662
1587014634615577,160662
1587014634631787,160662
1587014634634646,160662
1587014634642675,160662
1587014634649825,160662
1587014634650925,160662
1587014634658848,160662
1587014634674118,160662
1587014634686513,160662
1587014634692709,160662
1587014634695963,160662
1587014634701017,160662
1587014635216211,159860
1587014635234795,159860
1587014635236691,159860
1587014635241205,159860
1587014635255116,159860
1587014635259906,159860
1587014642281610,159860
1587014642288473,159860
1587014642300904,159860
1587014642305080,159860
1587014642317809,159860
1587014642322345,159860
1587014642327196,159860
1587014642831489,170574
1587014642836800,170574
1587014642850578,170574
1587014642866209,170574
1587014642874199,170574
1587014642879882,170574
1587014642885639,170574
1587014642900484,170574
1587014642907636,170574
1587014642913502,170574
1587014642926782,170574
1587014642934278,170574
1587014642938262,170574
1587014643445109,164485
1587014643447750,164485
1587014643448857,164485
1587014643463800,164485
1587014643469382,164485
1587014643484491,164485
1587014643486372,164485
1587014643487373,164485
1587014643503868,164485
1587014643509515,164485
1587014643510064,164485
1587014643511253,164485
1587014643525537,164485
1587014644033175,164750
1587014644056726,164750
1587014644068702,164750
1587014644072688,164750
1587014644087060,164750
1587014644102497,164750
1587014644104864,164750
1587014644109198,164750
1587014644114098,164750
1587014644115906,164750
1587014644142573,164750
1587014644143821,164750
1587014644147388,164750
1587014644672772,164241
1587014644673965,164241
1587014644674867,164241
1587014644681415,164241
1587014644695041,164241
1587014644703948,164241
1587014644709991,164241
1587014644712455,164241
1587014644723858,164241
1587014644729234,164241
1587014644736158,164241
