1587014400908544,30
1587014400967035,23
1587014401010170,23
1587014401014885,23
1587014401332882,117
1587014401334983,117
1587014401342627,117
1587014401344647,117
1587014401345736,117
1587014401347066,117
1587014401348267,117
1587014401358227,117
1587014401365550,209
1587014401368995,117
1587014401385697,117
1587014401908340,1543
1587014401909522,1543
1587014401910529,1543
1587014401912639,1543
1587014401917038,1543
1587014401950501,1543
1587014401955610,1543
1587014401958007,1543
1587014401974079,1543
1587014401975231,1543
1587014401976456,1543
1587014402486778,2092
1587014402488883,2092
1587014402498824,2092
1587014402500139,2092
1587014402509024,2092
1587014402512683,2092
1587014402513757,2092
1587014402515140,2092
1587014402522569,2092
1587014402523907,2092
1587014402524717,2092
1587014402525099,2092
1587014403029673,1151
1587014403030867,1151
1587014403031640,1151
1587014403033255,1151
1587014403039813,1151
1587014403040576,1151
1587014403042180,1151
1587014403045579,1151
1587014403049711,1151
1587014403050190,1151
1587014403068216,1151
1587014403073474,1151
1587014403406686,302
1587014403574692,3427
1587014403575341,3427
1587014403575952,3427
1587014403576579,3427
1587014403576987,3427
1587014403577486,3427
1587014403578156,3427
1587014403579690,3427
1587014403580283,3427
1587014403581408,3427
1587014403581826,3427
1587014403582895,3427
1587014403583481,3427
1587014404179437,2771
1587014404181773,2771
1587014404183371,2771
1587014404184695,2771
1587014404225376,2771
1587014404227490,2771
1587014404230632,2771
1587014404231645,2771
1587014404234438,2771
1587014404238254,2771
1587014404244406,2771
1587014404260341,2771
1587014404263268,2771
1587014404368835,339
1587014404767904,3149
1587014404768323,3149
1587014404771082,3149
1587014404772154,3149
1587014404772554,3149
1587014404772864,3149
1587014404773471,3149
1587014404775665,3149
1587014404776193,3149
1587014404776759,3149
1587014404783438,3149
1587014404784151,3149
1587014404784870,3149
1587014405020550,376
1587014405286869,3132
1587014405287289,3132
1587014405288942,3132
1587014405289602,3132
1587014405300738,3132
1587014405316643,3132
1587014405318215,3132
1587014405320228,3132
1587014405321288,3132
1587014405324190,3132
1587014405326122,3132
1587014405328475,3132
1587014405330579,3132
1587014405532151,414
1587014405650267,414
1587014405837465,3653
1587014405839254,3653
1587014405840762,3653
1587014405847291,3653
1587014405850182,3653
1587014405851732,3653
1587014405856504,3653
1587014405858784,3653
1587014405861014,3653
1587014405862810,3653
1587014405864641,3653
1587014405865868,3653
1587014405869055,3653
1587014406406617,4347
1587014406416094,4347
1587014406421737,4347
1587014406423355,4347
1587014406424749,4347
1587014406426366,4347
1587014406431434,4347
1587014406434354,4347
1587014406437405,4347
1587014406443574,4347
1587014406445103,4347
1587014406448496,4347
1587014406452434,4347
1587014406955556,4100
1587014406956472,4100
1587014406964316,4100
1587014406966657,4100
1587014406971989,4100
1587014406974331,4100
1587014406988188,4100
1587014406993013,4100
1587014406996230,4100
1587014406999996,4100
1587014407014602,4100
1587014407030453,4100
1587014407033451,4100
1587014407544226,4907
1587014407546714,4907
1587014407548897,4907
1587014407552924,4907
1587014407554543,4907
1587014407556419,4907
1587014407557841,4907
1587014407559877,4907
1587014407564028,4907
1587014407576109,4907
1587014407581041,4907
1587014407585041,4907
1587014407588739,4907
1587014408091194,5121
1587014408094507,5121
1587014408097180,5121
1587014408098599,5121
1587014408099706,5121
1587014408100078,5121
1587014408100755,5121
1587014408112763,5121
1587014408116687,5121
1587014408118610,5121
1587014408118930,5121
1587014408119504,5121
1587014408120301,5121
1587014408621644,4804
1587014408622362,4804
1587014408622980,4804
1587014408623274,4804
1587014408626577,4804
1587014408637515,4804
1587014408638199,4804
1587014408639415,4804
1587014408640998,4804
1587014408641727,4804
1587014408642256,4804
1587014408642923,4804
1587014408751977,4804
1587014409253559,5738
1587014409257380,5738
1587014409258466,5738
1587014409259575,5738
1587014409260611,5738
1587014409261859,5738
1587014409262850,5738
1587014409272481,5738
1587014409283117,5738
1587014409296536,5738
1587014409298130,5738
1587014409299986,5738
1587014409300616,5738
1587014409806470,5946
1587014409808314,5946
1587014409809248,5946
1587014409811296,5946
1587014409814057,5946
1587014409820020,5946
1587014409821159,5946
1587014409822253,5946
1587014409823312,5946
1587014409827937,5946
1587014409874811,5946
1587014409877568,5946
1587014409880025,5946
1587014410388947,6557
1587014410392407,6557
1587014410394203,6557
1587014410395989,6557
1587014410399374,6557
1587014410403446,6557
1587014410407475,6557
1587014410409614,6557
1587014410412038,6557
1587014410416900,6557
1587014410437293,6557
1587014410468877,6557
1587014410473802,6557
1587014410757138,37
1587014410992205,6150
1587014410996227,6150
1587014411000315,6150
1587014411003899,6150
1587014411008447,6150
1587014411013827,6150
1587014411024189,6150
1587014411031518,6150
1587014411041210,6150
1587014411046851,6150
1587014411051515,6150
1587014411060642,6150
1587014411069682,6150
1587014411572364,7391
1587014411573487,7391
1587014411574748,7391
1587014411575063,7391
1587014411575311,7391
1587014411575858,7391
1587014411576488,7391
1587014411578298,7391
1587014411579904,7391
1587014411581797,7391
1587014411585794,7391
1587014411586752,7391
1587014411587987,7391
1587014412089682,8482
1587014412091625,8482
1587014412094658,8482
1587014412095618,8482
1587014412096893,8482
1587014412107743,8482
1587014412108440,8482
1587014412110155,8482
1587014412111283,8482
1587014412124808,8482
1587014412128570,8482
1587014412131378,8482
1587014412132479,8482
1587014412454694,410
1587014412640087,7445
1587014412640933,7445
1587014412642585,7445
1587014412643135,7445
1587014412643748,7445
1587014412644314,7445
1587014412645508,7445
1587014412646853,7445
1587014412647532,7445
1587014412649585,7445
1587014412650483,7445
1587014412650762,7445
1587014412655885,7445
1587014412749004,37
1587014412795162,37
1587014412842798,37
1587014412851895,37
1587014412855352,37
1587014412874999,37
1587014412881402,37
1587014412901009,37
1587014412905234,37
1587014412907323,37
1587014413163607,8463
1587014413164729,8463
1587014413165653,8463
1587014413166590,8463
1587014413167938,8463
1587014413168497,8463
1587014413169531,8463
1587014413171289,8463
1587014413559810,412
1587014415043115,61
1587014415059649,61
1587014415082444,60
1587014415118943,61
1587014415193467,61
1587014415262192,62
1587014415282933,61
1587014415307913,60
1587014415323398,61
1587014415330511,61
1587014415340269,61
1587014415357045,62
1587014415411826,61
1587014415428485,61
1587014415430197,61
1587014415431709,61
1587014415435331,61
1587014415438603,59
1587014415440369,59
1587014415445167,62
1587014415476558,61
1587014415495628,62
1587014415521668,59
1587014415532928,60
1587014415542363,61
1587014415558701,61
1587014415592918,61
1587014415594458,60
1587014415595173,61
1587014415595905,62
1587014415596695,60
1587014415598002,61
1587014415598748,60
1587014415600272,61
1587014415843755,37
1587014415910405,37
1587014416177915,8463
1587014416180023,8463
1587014416180477,8463
1587014416180950,8463
1587014416181379,8463
1587014416682371,17293
1587014416683898,17293
1587014416684474,17293
1587014416685024,17293
1587014416685539,17293
1587014416686066,17293
1587014416686634,17293
1587014416691226,17293
1587014416692032,17293
1587014416692596,17293
1587014416694270,17293
1587014416695590,17293
1587014416696845,17293
1587014417197957,12413
1587014417198556,12413
1587014417199008,12413
1587014417200036,12413
1587014417200554,12413
1587014417201006,12413
1587014417201981,12413
1587014417202502,12413
1587014417204251,12413
1587014417204733,12413
1587014417581344,61
1587014417592169,61
1587014417599643,59
1587014417607423,62
1587014417612216,59
1587014417624046,61
1587014417626055,62
1587014417627143,59
1587014417629827,60
1587014417632211,60
1587014417637182,61
1587014417638928,61
1587014417640138,61
1587014417653065,61
1587014417665086,61
1587014417670107,62
1587014417672619,61
1587014417676808,60
1587014417688664,61
1587014417690446,62
1587014417693301,61
1587014417695130,60
1587014417696436,61
1587014417697504,60
1587014417713002,61
1587014417719907,61
1587014417887792,37
1587014418329322,37
1587014420209858,12413
1587014420210741,12413
1587014420211246,12413
1587014420714742,16967
1587014420717477,16967
1587014420723345,16967
1587014420723949,16967
1587014420724455,16967
1587014420725455,16967
1587014420726169,16967
1587014420727147,16967
1587014420728312,16967
1587014423737668,16967
1587014423738651,16967
1587014423749749,16967
1587014423751116,16967
1587014424263044,21020
1587014424273830,21020
1587014424277449,21020
1587014424278002,21020
1587014424278813,21020
1587014424279928,21020
1587014424280978,21020
1587014424291599,21020
1587014424292019,21020
1587014424297555,21020
1587014424301840,21020
1587014424302748,21020
1587014424303702,21020
1587014424809689,16917
1587014424811063,16917
1587014424823271,16917
1587014424824262,16917
1587014424825041,16917
1587014424825818,16917
1587014424826582,16917
1587014424827292,16917
1587014424828056,16917
1587014424832532,16917
1587014424833274,16917
1587014424834031,16917
1587014424834798,16917
1587014425347171,17278
1587014425348026,17278
1587014425348382,17278
1587014425349429,17278
1587014425350252,17278
1587014425351200,17278
1587014425355992,17278
1587014425357619,17278
1587014425358370,17278
1587014425359877,17278
1587014425371274,17278
1587014425376292,17278
1587014425377080,17278
1587014425885348,18958
1587014425886298,18958
1587014425887063,18958
1587014425887966,18958
1587014425888713,18958
1587014425889492,18958
1587014425892662,18958
1587014425895079,18958
1587014425895935,18958
1587014425896760,18958
1587014425899188,18958
1587014425899946,18958
1587014425901691,18958
1587014426409629,18353
1587014426410618,18353
1587014426411765,18353
1587014426413198,18353
1587014426413848,18353
1587014426414636,18353
1587014426415963,18353
1587014426416887,18353
1587014426418499,18353
1587014426430746,18353
1587014426431793,18353
1587014426435226,18353
1587014426436122,18353
1587014426951556,18101
1587014426952676,18101
1587014426953439,18101
1587014426955469,18101
1587014426966669,18101
1587014426967841,18101
1587014426971524,18101
1587014426972261,18101
1587014426972779,18101
1587014426973208,18101
1587014426973705,18101
1587014427984295,18101
1587014427985307,18101
1587014428497432,20809
1587014428498950,20809
1587014428501776,20809
1587014428502574,20809
1587014428503306,20809
1587014428504795,20809
1587014428507779,20809
1587014428508663,20809
1587014428521148,20809
1587014428522237,20809
1587014428523561,20809
1587014428524111,20809
1587014428535617,20809
1587014429173357,20154
1587014429173722,20154
1587014429175908,20154
1587014429176752,20154
1587014429189413,20154
1587014429190344,20154
1587014429190679,20154
1587014429202655,20154
1587014429204705,20154
1587014429206445,20154
1587014429207231,20154
1587014429208490,20154
1587014429210029,20154
1587014429719443,20771
1587014429720299,20771
1587014429731937,20771
1587014429737796,20771
1587014429739047,20771
1587014429740298,20771
1587014429741197,20771
1587014429741782,20771
1587014429743158,20771
1587014429743610,20771
1587014429744531,20771
1587014429745075,20771
1587014429745470,20771
1587014430249444,20432
1587014430261630,20432
1587014430262528,20432
1587014430263258,20432
1587014430263573,20432
1587014430264561,20432
1587014430265449,20432
1587014430266798,20432
1587014430267593,20432
1587014430278630,20432
1587014430279367,20432
1587014430279866,20432
1587014430281072,20432
1587014430782013,22213
1587014430782449,22213
1587014430782941,22213
1587014430785932,22213
1587014430786499,22213
1587014430789935,22213
1587014430790928,22213
1587014430792680,22213
1587014430793131,22213
1587014430793566,22213
1587014430794237,22213
1587014430794663,22213
1587014433326077,61
1587014433802532,22213
1587014434318640,27988
1587014434319356,27988
1587014434319950,27988
1587014434320587,27988
1587014434321592,27988
1587014434322477,27988
1587014434323382,27988
1587014434325247,27988
1587014434325737,27988
1587014434326123,27988
1587014434326925,27988
1587014434339003,27988
1587014434344692,27988
1587014434846349,23549
1587014434846860,23549
1587014434847306,23549
1587014434847750,23549
1587014434848334,23549
1587014434848801,23549
1587014434849234,23549
1587014434849701,23549
1587014434850242,23549
1587014434850768,23549
1587014434851149,23549
1587014434851610,23549
1587014434853404,23549
1587014435356006,25294
1587014435356613,25294
1587014435357271,25294
1587014435357768,25294
1587014435364300,25294
1587014435365161,25294
1587014435365588,25294
1587014435376673,25294
1587014435377552,25294
1587014435378146,25294
1587014435383644,25294
1587014435384794,25294
1587014435386031,25294
1587014435887094,24741
1587014435887644,24741
1587014435888067,24741
1587014435888493,24741
1587014435891341,24741
1587014435892108,24741
1587014435893277,24741
1587014435893748,24741
1587014435894333,24741
1587014435894813,24741
1587014435895218,24741
1587014435895657,24741
1587014435896632,24741
1587014436397558,24880
1587014436397983,24880
1587014436398440,24880
1587014436398846,24880
1587014436399304,24880
1587014436399735,24880
1587014436407505,24880
1587014436408665,24880
1587014436409193,24880
1587014436410224,24880
1587014436410853,24880
1587014436411358,24880
1587014436411845,24880
1587014436913046,26754
1587014436913780,26754
1587014436921474,26754
1587014436922309,26754
1587014436922670,26754
1587014436923469,26754
1587014436925464,26754
1587014436926579,26754
1587014436928621,26754
1587014436930475,26754
1587014436931145,26754
1587014436931775,26754
1587014436942563,26754
1587014437459608,25690
1587014437461146,25690
1587014437461915,25690
1587014437462764,25690
1587014437463641,25690
1587014437464399,25690
1587014437465043,25690
1587014437465794,25690
1587014437466624,25690
1587014437467227,25690
1587014437467960,25690
1587014437468725,25690
1587014437469514,25690
1587014437983216,26001
1587014437984182,26001
1587014437988664,26001
1587014437989599,26001
1587014437990491,26001
1587014437991069,26001
1587014437991585,26001
1587014437992097,26001
1587014437992588,26001
1587014437993806,26001
1587014437994632,26001
1587014437995312,26001
1587014437996031,26001
1587014438511775,27128
1587014438512669,27128
1587014438513422,27128
1587014438514091,27128
1587014438515175,27128
1587014438517545,27128
1587014438518846,27128
1587014438519543,27128
1587014438520309,27128
1587014438521256,27128
1587014438526547,27128
1587014438527225,27128
1587014438527731,27128
1587014439029174,27282
1587014439030269,27282
1587014439030816,27282
1587014439032478,27282
1587014439033524,27282
1587014439035750,27282
1587014439036603,27282
1587014439037373,27282
1587014439038260,27282
1587014439039008,27282
1587014439040815,27282
1587014439041520,27282
1587014439042221,27282
1587014439305578,63
1587014439562164,27217
1587014439562751,27217
1587014439574079,27217
1587014439575271,27217
1587014439576139,27217
1587014439576868,27217
1587014439577628,27217
1587014439578357,27217
1587014439578838,27217
1587014439579903,27217
1587014439582427,27217
1587014439583350,27217
1587014439584272,27217
1587014440085293,27445
1587014440085825,27445
1587014440086740,27445
1587014440087768,27445
1587014440088231,27445
1587014440088638,27445
1587014440089258,27445
1587014440089700,27445
1587014440090191,27445
1587014440090718,27445
1587014440091236,27445
1587014440091692,27445
1587014440096915,27445
1587014440610542,27769
1587014440611117,27769
1587014440613163,27769
1587014440623959,27769
1587014440636581,27769
1587014440644644,27769
1587014440656627,27769
1587014440657609,27769
1587014440658553,27769
1587014440661222,27769
1587014440662039,27769
1587014440662786,27769
1587014440664135,27769
1587014441175597,28594
1587014441186600,28594
1587014441187837,28594
1587014441188636,28594
1587014441189665,28594
1587014441201641,28594
1587014441202610,28594
1587014441203422,28594
1587014441203885,28594
1587014441204745,28594
1587014441207134,28594
1587014441207971,28594
1587014441208665,28594
1587014441716760,28219
1587014441727572,28219
1587014441728822,28219
1587014441729474,28219
1587014441730194,28219
1587014441730990,28219
1587014441731757,28219
1587014441732381,28219
1587014441734307,28219
1587014441735037,28219
1587014441737755,28219
1587014441738546,28219
1587014441739214,28219
1587014442250293,28106
1587014442254564,28106
1587014442256002,28106
1587014442256769,28106
1587014442257609,28106
1587014442258315,28106
1587014442259185,28106
1587014442259972,28106
1587014442260658,28106
1587014442266863,28106
1587014442273736,28106
1587014442275275,28106
1587014442276764,28106
1587014442783435,29007
1587014442784155,29007
1587014442785415,29007
1587014442786417,29007
1587014442787126,29007
1587014442787867,29007
1587014442788598,29007
1587014442790771,29007
1587014442791516,29007
1587014442792414,29007
1587014442802732,29007
1587014442803781,29007
1587014442804531,29007
1587014443306629,29567
1587014443307436,29567
1587014443308153,29567
1587014443308933,29567
1587014443309609,29567
1587014443310640,29567
1587014443315002,29567
1587014443315940,29567
1587014443317444,29567
1587014443318206,29567
1587014443318902,29567
1587014443319642,29567
1587014443320230,29567
1587014446840445,29801
1587014446846539,29801
1587014446858668,29801
1587014446859299,29801
1587014446860915,29801
1587014446863576,29801
1587014446874617,29801
1587014446886615,29801
1587014446887296,29801
1587014446887800,29801
1587014446888364,29801
1587014446889441,29801
1587014446890284,29801
1587014447394089,35842
1587014447407617,35842
1587014447408260,35842
1587014447408691,35842
1587014447412962,35842
1587014447413543,35842
1587014447419047,35842
1587014447419916,35842
1587014447423244,35842
1587014447424900,35842
1587014447427023,35842
1587014447429354,35842
1587014447440599,35842
1587014447949446,31979
1587014447950590,31979
1587014447961551,31979
1587014447962166,31979
1587014447962827,31979
1587014447963788,31979
1587014447965920,31979
1587014447966374,31979
1587014447966887,31979
1587014447979627,31979
1587014447980417,31979
1587014447991602,31979
1587014447992270,31979
1587014448503008,32610
1587014448505214,32610
1587014448506185,32610
1587014448516781,32610
1587014448527630,32610
1587014448529240,32610
1587014448529721,32610
1587014448531426,32610
1587014448532447,32610
1587014448533000,32610
1587014448534009,32610
1587014448534511,32610
1587014448535681,32610
1587014449049604,32478
1587014449052686,32478
1587014449053590,32478
1587014449055318,32478
1587014449055604,32478
1587014449056233,32478
1587014449057245,32478
1587014449069112,32478
1587014449070510,32478
1587014449071056,32478
1587014449078299,32478
1587014449078780,32478
1587014449080025,32478
1587014449590926,33660
1587014449591868,33660
1587014449602693,33660
1587014449603248,33660
1587014449604006,33660
1587014449606450,33660
1587014449607443,33660
1587014449618602,33660
1587014449619719,33660
1587014449622124,33660
1587014449622909,33660
1587014449623337,33660
1587014449634613,33660
1587014450143037,33818
1587014450143435,33818
1587014450144709,33818
1587014450145107,33818
1587014450146130,33818
1587014450147316,33818
1587014450158646,33818
1587014450159703,33818
1587014450160640,33818
1587014450161549,33818
1587014450162126,33818
1587014450168237,33818
1587014450169423,33818
1587014450678469,34022
1587014450679471,34022
1587014450680330,34022
1587014450680774,34022
1587014451683839,34022
1587014451689768,34022
1587014451690975,34022
1587014451691524,34022
1587014451693235,34022
1587014451704614,34022
1587014451705344,34022
1587014451705813,34022
1587014451706368,34022
1587014452219850,35578
1587014452220121,35578
1587014452221247,35578
1587014452222333,35578
1587014452222923,35578
1587014452224068,35578
1587014452226328,35578
1587014452228360,35578
1587014452229344,35578
1587014452230484,35578
1587014452241612,35578
1587014452244030,35578
1587014452245066,35578
1587014452746044,35400
1587014452746713,35400
1587014452747510,35400
1587014452748119,35400
1587014452748942,35400
1587014452749516,35400
1587014452750334,35400
1587014452751441,35400
1587014452752978,35400
1587014452753510,35400
1587014452754742,35400
1587014452754975,35400
1587014452755475,35400
1587014453256638,35081
1587014453257168,35081
1587014453258493,35081
1587014453258974,35081
1587014453261122,35081
1587014453261553,35081
1587014453262092,35081
1587014453262509,35081
1587014453262913,35081
1587014453263350,35081
1587014453264246,35081
1587014453264731,35081
1587014453265157,35081
1587014453766445,35894
1587014453766755,35894
1587014453767238,35894
1587014453767653,35894
1587014453771063,35894
1587014453771512,35894
1587014453772404,35894
1587014453772804,35894
1587014453773281,35894
1587014453774953,35894
1587014454778549,35894
1587014454779131,35894
1587014454779972,35894
1587014455283780,37781
1587014455284370,37781
1587014455284959,37781
1587014455285957,37781
1587014455286889,37781
1587014455287464,37781
1587014455288172,37781
1587014455291327,37781
1587014455291815,37781
1587014455292181,37781
1587014455295336,37781
1587014455296268,37781
1587014455296747,37781
1587014455799062,36848
1587014455799662,36848
1587014455800129,36848
1587014455800594,36848
1587014455801620,36848
1587014455802082,36848
1587014455802525,36848
1587014455803441,36848
1587014455805680,36848
1587014455806102,36848
1587014455806506,36848
1587014455813696,36848
1587014455814819,36848
1587014456316716,38967
1587014456317145,38967
1587014456317615,38967
1587014456318053,38967
1587014456318674,38967
1587014456319031,38967
1587014456319563,38967
1587014456320010,38967
1587014456321149,38967
1587014459327838,38967
1587014459328492,38967
1587014459340856,38967
1587014459341650,38967
1587014459843078,42136
1587014459843537,42136
1587014459843954,42136
1587014459844373,42136
1587014459847540,42136
1587014459849187,42136
1587014459850668,42136
1587014459851106,42136
1587014459851540,42136
1587014459852066,42136
1587014459852663,42136
1587014459853119,42136
1587014459853529,42136
1587014460364643,40117
1587014460365132,40117
1587014460367326,40117
1587014460378615,40117
1587014460379605,40117
1587014460392149,40117
1587014460393242,40117
1587014460394320,40117
1587014460395057,40117
1587014460395831,40117
1587014460396594,40117
1587014460397306,40117
1587014460399673,40117
1587014460902113,41549
1587014460902624,41549
1587014460903070,41549
1587014460903509,41549
1587014460904040,41549
1587014460904560,41549
1587014460906376,41549
1587014460907067,41549
1587014460909864,41549
1587014460921907,41549
1587014460924659,41549
1587014460926225,41549
1587014460927587,41549
1587014461428852,40346
1587014461429248,40346
1587014461429667,40346
1587014461430097,40346
1587014461430549,40346
1587014461431071,40346
1587014461431497,40346
1587014461433483,40346
1587014461434044,40346
1587014461435558,40346
1587014461437250,40346
1587014461437703,40346
1587014461439019,40346
1587014461940848,41167
1587014461941275,41167
1587014461941690,41167
1587014461942152,41167
1587014461943950,41167
1587014461945239,41167
1587014461946209,41167
1587014461946622,41167
1587014461947068,41167
1587014461947835,41167
1587014461948400,41167
1587014461948838,41167
1587014461949580,41167
1587014462450990,41490
1587014462451854,41490
1587014462452305,41490
1587014462453907,41490
1587014462454401,41490
1587014462454909,41490
1587014462455437,41490
1587014462456006,41490
1587014462456578,41490
1587014462457716,41490
1587014462458225,41490
1587014462459895,41490
1587014462460801,41490
1587014462962313,42659
1587014462962982,42659
1587014462963407,42659
1587014462963938,42659
1587014462964360,42659
1587014462965703,42659
1587014462966154,42659
1587014462966637,42659
1587014465973811,42659
1587014465985079,42659
1587014466986021,42659
1587014466988229,42659
1587014466992121,42659
1587014467493193,51760
1587014467494417,51760
1587014467494980,51760
1587014467495443,51760
1587014467498849,51760
1587014467499278,51760
1587014467499687,51760
1587014467500221,51760
1587014467500861,51760
1587014467501299,51760
1587014467501702,51760
1587014467502124,51760
1587014467502595,51760
1587014468003753,45702
1587014468004253,45702
1587014468004704,45702
1587014468005143,45702
1587014468005677,45702
1587014468006191,45702
1587014468006584,45702
1587014468007037,45702
1587014468007581,45702
1587014468010381,45702
1587014468010870,45702
1587014468012089,45702
1587014468012556,45702
1587014471517821,46462
1587014471518348,46462
1587014471518772,46462
1587014471519198,46462
1587014471519592,46462
1587014471520136,46462
1587014471520674,46462
1587014471521084,46462
1587014471522244,46462
1587014471523211,46462
1587014471523670,46462
1587014471524656,46462
1587014471525662,46462
1587014472030800,53375
1587014472031709,53375
1587014472033577,53375
1587014472034206,53375
1587014472034739,53375
1587014472035337,53375
1587014472037076,53375
1587014472037640,53375
1587014472038069,53375
1587014472039446,53375
1587014472039872,53375
1587014472041317,53375
1587014475049295,53375
1587014475550931,55888
1587014475551652,55888
1587014475552224,55888
1587014475554863,55888
1587014475556827,55888
1587014475557431,55888
1587014475557906,55888
1587014475558364,55888
1587014475559031,55888
1587014475560074,55888
1587014475560856,55888
1587014475565650,55888
1587014475566107,55888
1587014476067162,51921
1587014476068982,51921
1587014476069478,51921
1587014476073887,51921
1587014476074307,51921
1587014476074744,51921
1587014476075846,51921
1587014476076371,51921
1587014476076969,51921
1587014476078409,51921
1587014476081058,51921
1587014476084297,51921
1587014476084760,51921
1587014476585938,52781
1587014476586709,52781
1587014476587317,52781
1587014476587943,52781
1587014476588379,52781
1587014476589031,52781
1587014476589534,52781
1587014476590771,52781
1587014476591156,52781
1587014476591990,52781
1587014476592757,52781
1587014476608991,52781
1587014476612334,52781
1587014477113763,52901
1587014477116228,52901
1587014477116907,52901
1587014477127601,52901
1587014477129574,52901
1587014477130262,52901
1587014477130922,52901
1587014477131625,52901
1587014477132063,52901
1587014477132619,52901
1587014477133033,52901
1587014477134203,52901
1587014477134651,52901
1587014477647017,53172
1587014477647740,53172
1587014477648305,53172
1587014477649675,53172
1587014477651444,53172
1587014477652806,53172
1587014477653288,53172
1587014477654427,53172
1587014477654972,53172
1587014477655453,53172
1587014477655993,53172
1587014477657266,53172
1587014478660018,53172
1587014479170089,57495
1587014479170876,57495
1587014479173338,57495
1587014479173746,57495
1587014479174188,57495
1587014479174612,57495
1587014479175033,57495
1587014479175781,57495
1587014479176352,57495
1587014479176894,57495
1587014479177353,57495
1587014479178625,57495
1587014479180772,57495
1587014479684268,56184
1587014479686969,56184
1587014479687396,56184
1587014479688009,56184
1587014479690369,56184
1587014479691224,56184
1587014479692176,56184
1587014479693403,56184
1587014479695332,56184
1587014479696536,56184
1587014479697525,56184
1587014479699720,56184
1587014479700126,56184
1587014480201557,55810
1587014480202024,55810
1587014480202900,55810
1587014480203363,55810
1587014480205375,55810
1587014480207020,55810
1587014480209091,55810
1587014480209635,55810
1587014480211161,55810
1587014480213172,55810
1587014480214011,55810
1587014480214971,55810
1587014480216660,55810
1587014480717705,57048
1587014480719133,57048
1587014480719722,57048
1587014480720449,57048
1587014480721946,57048
1587014480723490,57048
1587014480726036,57048
1587014480731992,57048
1587014480734201,57048
1587014480736276,57048
1587014480737470,57048
1587014480737921,57048
1587014480739206,57048
1587014481241470,56561
1587014481242086,56561
1587014481244070,56561
1587014481244537,56561
1587014481245110,56561
1587014481245648,56561
1587014481246325,56561
1587014481249118,56561
1587014481249627,56561
1587014481250053,56561
1587014481250591,56561
1587014481251087,56561
1587014481251640,56561
1587014481752948,57715
1587014481831212,57715
1587014481832272,57715
1587014481833286,57715
1587014481833757,57715
1587014481834698,57715
1587014481836071,57715
1587014481836890,57715
1587014481837751,57715
1587014481841029,57715
1587014481841882,57715
1587014481842761,57715
1587014481843815,57715
1587014482345600,57718
1587014482346082,57718
1587014482346589,57718
1587014482347130,57718
1587014482348183,57718
1587014482348717,57718
1587014482350183,57718
1587014482350853,57718
1587014482351367,57718
1587014482352519,57718
1587014482353184,57718
1587014482354583,57718
1587014482355233,57718
1587014482868619,59206
1587014482879627,59206
1587014482890637,59206
1587014482892146,59206
1587014482902696,59206
1587014482904507,59206
1587014482906107,59206
1587014482907258,59206
1587014482918545,59206
1587014482930434,59206
1587014482931252,59206
1587014482932215,59206
1587014482932963,59206
1587014483492764,58661
1587014483493844,58661
1587014483495800,58661
1587014483496548,58661
1587014483497501,58661
1587014483503530,58661
1587014483504751,58661
1587014483515808,58661
1587014483526641,58661
1587014483527514,58661
1587014483529008,58661
1587014483532104,58661
1587014483533334,58661
1587014484053857,58768
1587014484055176,58768
1587014484055779,58768
1587014484069767,58768
1587014484071668,58768
1587014484073121,58768
1587014484074209,58768
1587014484077376,58768
1587014484078769,58768
1587014484079290,58768
1587014484080474,58768
1587014484080786,58768
1587014484091732,58768
1587014484596497,58719
1587014484608686,58719
1587014484615924,58719
1587014484617064,58719
1587014484627617,58719
1587014484629251,58719
1587014484629784,58719
1587014484631520,58719
1587014484632754,58719
1587014484646121,58719
1587014484649079,58719
1587014484650014,58719
1587014484651718,58719
1587014485162749,58850
1587014485164093,58850
1587014485175511,58850
1587014485189163,58850
1587014485190138,58850
1587014485190509,58850
1587014485191185,58850
1587014485192400,58850
1587014485193850,58850
1587014485195350,58850
1587014485196174,58850
1587014485196508,58850
1587014485198019,58850
1587014485699181,59543
1587014485711664,59543
1587014485714209,59543
1587014485715212,59543
1587014485715916,59543
1587014485717545,59543
1587014485718335,59543
1587014485719107,59543
1587014485719790,59543
1587014486722590,59543
1587014486723570,59543
1587014486724555,59543
1587014486726132,59543
1587014487239065,63129
1587014487240034,63129
1587014487252284,63129
1587014487253115,63129
1587014487257355,63129
1587014487258593,63129
1587014487260258,63129
1587014487260958,63129
1587014487262013,63129
1587014487273994,63129
1587014487275282,63129
1587014487276655,63129
1587014487277252,63129
1587014487779154,61822
1587014487779932,61822
1587014487781052,61822
1587014487781806,61822
1587014488784318,61822
1587014488785088,61822
1587014488785720,61822
1587014488786243,61822
1587014488786780,61822
1587014488787972,61822
1587014488800631,61822
1587014488801989,61822
1587014488813064,61822
1587014489315440,64453
1587014489495738,37
1587014490328656,64453
1587014491332660,64453
1587014491333294,64453
1587014491344668,64453
1587014491358429,64453
1587014491359237,64453
1587014491360300,64453
1587014491362219,64453
1587014491374400,64453
1587014491376149,64453
1587014491376642,64453
1587014491378177,64453
1587014491899709,66271
1587014491912669,66271
1587014491914001,66271
1587014491916463,66271
1587014491917208,66271
1587014491917740,66271
1587014491920729,66271
1587014491922126,66271
1587014491924560,66271
1587014491925998,66271
1587014491926474,66271
1587014491929189,66271
1587014491929855,66271
1587014492438550,64468
1587014492439285,64468
1587014492440164,64468
1587014492442654,64468
1587014492444672,64468
1587014492445605,64468
1587014492445891,64468
1587014492446340,64468
1587014492447977,64468
1587014492449341,64468
1587014492452555,64468
1587014492455871,64468
1587014492456363,64468
1587014492502370,63
1587014492958956,64014
1587014492959996,64014
1587014492961622,64014
1587014492962206,64014
1587014492963465,64014
1587014492963884,64014
1587014492964545,64014
1587014492965193,64014
1587014492968325,64014
1587014492969094,64014
1587014492970340,64014
1587014492971612,64014
1587014492972186,64014
1587014493473309,64887
1587014494254160,37
1587014494262980,37
1587014494297678,37
1587014499205437,37
1587014499661146,4
1587014504282689,37
1587014504342589,37
1587014507617221,62
1587014509112494,37
1587014511038626,37
1587014512343961,4
1587014517128483,4
1587014524550926,64887
1587014524561932,64887
1587014524564811,64887
1587014524570066,64887
1587014524572023,64887
1587014524574380,64887
1587014524575729,64887
1587014524577633,64887
1587014524578579,64887
1587014524579096,64887
1587014524579593,64887
1587014524580597,64887
1587014525087540,109402
1587014525088823,109402
1587014525094680,109402
1587014525096019,109402
1587014525096615,109402
1587014525099646,109402
1587014525100509,109402
1587014525105291,109402
1587014525106508,109402
1587014525107089,109402
1587014525107608,109402
1587014525111647,109402
1587014525114107,109402
1587014525628281,86304
1587014525640467,86304
1587014525641411,86304
1587014525643178,86304
1587014525645136,86304
1587014525664398,86304
1587014525665891,86304
1587014525667396,86304
1587014525668877,86304
1587014525670423,86304
1587014525671504,86304
1587014525674054,86304
1587014525686196,86304
1587014526199446,87942
1587014526212146,87942
1587014526226481,87942
1587014526231669,87942
1587014526235024,87942
1587014526247649,87942
1587014526483507,87942
1587014526494816,87942
1587014526495405,87942
1587014526507455,87942
1587014526510865,87942
1587014526524824,87942
1587014526536934,87942
1587014527048635,88082
1587014527061999,88082
1587014527083419,88082
1587014527086316,88082
1587014527108467,88082
1587014527110843,88082
1587014527113765,88082
1587014527128532,88082
1587014527140042,88082
1587014527140627,88082
1587014527145663,88082
1587014527162372,88082
1587014527163795,88082
1587014527667463,87892
1587014527668477,87892
1587014527669942,87892
1587014527671319,87892
1587014527677009,87892
1587014527680465,87892
1587014527683504,87892
1587014527698452,87892
1587014527710786,87892
1587014527713730,87892
1587014527716968,87892
1587014527718981,87892
1587014527719489,87892
1587014528234325,88284
1587014528238080,88284
1587014528240739,88284
1587014528252688,88284
1587014528255196,88284
1587014528269750,88284
1587014528271773,88284
1587014528273493,88284
1587014528285059,88284
1587014528287274,88284
1587014528288089,88284
1587014528288951,88284
1587014528303438,88284
1587014528806952,88242
1587014528809266,88242
1587014528810068,88242
1587014528810895,88242
1587014528813870,88242
1587014528814413,88242
1587014528816213,88242
1587014528817356,88242
1587014528818926,88242
1587014528820562,88242
1587014528821284,88242
1587014528823607,88242
1587014528824421,88242
1587014529326717,89932
1587014529327257,89932
1587014529328099,89932
1587014529329238,89932
1587014529329959,89932
1587014529332605,89932
1587014529336347,89932
1587014529337241,89932
1587014529340526,89932
1587014529341918,89932
1587014529342528,89932
1587014529345286,89932
1587014529346000,89932
1587014529847265,90088
1587014529852349,90088
1587014529853135,90088
1587014529853733,90088
1587014529854338,90088
1587014529854990,90088
1587014529856250,90088
1587014529857020,90088
1587014529863886,90088
1587014529866242,90088
1587014529871046,90088
1587014529872606,90088
1587014529873446,90088
1587014530377181,89790
1587014530377864,89790
1587014530380704,89790
1587014530381519,89790
1587014530383946,89790
1587014530384498,89790
1587014530390126,89790
1587014530390657,89790
1587014530392401,89790
1587014530393944,89790
1587014530395380,89790
1587014530403341,89790
1587014530404272,89790
1587014530905797,90675
1587014530911505,90675
1587014530913167,90675
1587014530914216,90675
1587014530917276,90675
1587014530919016,90675
1587014533390191,61
1587014533403376,63
1587014533719919,61
1587014533928524,90675
1587014533929455,90675
1587014533932259,90675
1587014533933751,90675
1587014533934323,90675
1587014533938644,90675
1587014533944353,90675
1587014534446453,94578
1587014534449321,94578
1587014534451089,94578
1587014534455016,94578
1587014534456592,94578
1587014534461413,94578
1587014534462483,94578
1587014534465224,94578
1587014534467726,94578
1587014534468349,94578
1587014534469442,94578
1587014534470202,94578
1587014534471443,94578
1587014534653379,37
1587014534653986,37
1587014534654553,37
1587014534973714,92911
1587014534975129,92911
1587014534975784,92911
1587014534976923,92911
1587014534979003,92911
1587014534980789,92911
1587014534982463,92911
1587014534982953,92911
1587014534983516,92911
1587014534985042,92911
1587014534989537,92911
1587014534990778,92911
1587014534991457,92911
1587014535494469,94995
1587014535498289,94995
1587014535502026,94995
1587014535505439,94995
1587014535511406,94995
1587014535512247,94995
1587014535512721,94995
1587014535514756,94995
1587014535515266,94995
1587014535515868,94995
1587014535517970,94995
1587014535520745,94995
1587014535523155,94995
1587014536004746,62
1587014536025636,93899
1587014536031718,93899
1587014536036299,93899
1587014536041049,93899
1587014536043055,93899
1587014537045966,93899
1587014537051654,93899
1587014537052325,93899
1587014537052987,93899
1587014537054579,93899
1587014537055108,93899
1587014537056250,93899
1587014537057440,93899
1587014537561150,95319
1587014537561819,95319
1587014537562585,95319
1587014537564788,95319
1587014537565272,95319
1587014537567678,95319
1587014537569317,95319
1587014537570905,95319
1587014537572064,95319
1587014537577778,95319
1587014537579586,95319
1587014537580952,95319
1587014537581783,95319
1587014538083863,96572
1587014538087439,96572
1587014538094050,96572
1587014538095404,96572
1587014538096672,96572
1587014538098859,96572
1587014538104761,96572
1587014538107742,96572
1587014538109737,96572
1587014538122855,96572
1587014538125099,96572
1587014538126069,96572
1587014538127766,96572
1587014538631864,97265
1587014538635044,97265
1587014538637401,97265
1587014538637957,97265
1587014538639526,97265
1587014538641758,97265
1587014538646131,97265
1587014538658829,97265
1587014538672097,97265
1587014538675238,97265
1587014538679860,97265
1587014538692587,97265
1587014538696678,97265
1587014539198898,95956
1587014539200371,95956
1587014539200905,95956
1587014539201475,95956
1587014539203009,95956
1587014539204814,95956
1587014539206331,95956
1587014539206858,95956
1587014539213722,95956
1587014539217467,95956
1587014539222100,95956
1587014539226772,95956
1587014539227372,95956
1587014539659736,37
1587014539730056,97320
1587014539732229,97320
1587014539733616,97320
1587014539734074,97320
1587014539744571,97320
1587014539744789,37
1587014539747458,97320
1587014539749643,97320
1587014539750054,97320
1587014539752143,97320
1587014539754212,97320
1587014539759226,97320
1587014539759919,97320
1587014539760459,97320
1587014540261892,97667
1587014540263040,97667
1587014540264082,97667
1587014540264763,97667
1587014540265582,97667
1587014540266661,97667
1587014540267546,97667
1587014540271137,97667
1587014540272706,97667
1587014540274199,97667
1587014540275521,97667
1587014540276921,97667
1587014540278800,97667
1587014540780017,96825
1587014540782230,96825
1587014540782891,96825
1587014540783896,96825
1587014540785039,96825
1587014540787927,96825
1587014540789231,96825
1587014540793774,96825
1587014540796563,96825
1587014540802450,96825
1587014540803855,96825
1587014540804462,96825
1587014540819815,96825
1587014541322244,98401
1587014541326271,98401
1587014541330278,98401
1587014541332527,98401
1587014541337766,98401
1587014541339306,98401
1587014541339887,98401
1587014541342651,98401
1587014541343352,98401
1587014541343903,98401
1587014541344559,98401
1587014541349238,98401
1587014541350725,98401
1587014541852874,99337
1587014541853975,99337
1587014541854382,99337
1587014541857181,99337
1587014541858832,99337
1587014541860558,99337
1587014541861114,99337
1587014541861683,99337
1587014541862177,99337
1587014541866610,99337
1587014541867235,99337
1587014541867852,99337
1587014541872204,99337
1587014542374239,99381
1587014542376187,99381
1587014542378201,99381
1587014542382693,99381
1587014542384835,99381
1587014542386088,99381
1587014542386870,99381
1587014542387439,99381
1587014542390096,99381
1587014542390884,99381
1587014542398762,99381
1587014542399794,99381
1587014542402437,99381
1587014542904944,99287
1587014542907833,99287
1587014542908741,99287
1587014542910160,99287
1587014542910720,99287
1587014542932567,99287
1587014542944461,99287
1587014542954561,99287
1587014542960565,99287
1587014542965350,99287
1587014542972448,99287
1587014542974683,99287
1587014542975196,99287
1587014543479538,99362
1587014543480984,99362
1587014543483221,99362
1587014543484555,99362
1587014543485998,99362
1587014543488083,99362
1587014543492566,99362
1587014543493281,99362
1587014543499324,99362
1587014543503599,99362
1587014543505367,99362
1587014543505907,99362
1587014543509851,99362
1587014544013228,100665
1587014544013995,100665
1587014544015826,100665
1587014544016296,100665
1587014544016768,100665
1587014544022593,100665
1587014544024149,100665
1587014544025513,100665
1587014544029199,100665
1587014544029894,100665
1587014544032378,100665
1587014544036506,100665
1587014544037880,100665
1587014544540150,100799
1587014544541624,100799
1587014544545076,100799
1587014544546432,100799
1587014544550475,100799
1587014544551635,100799
1587014544553616,100799
1587014544556914,100799
1587014544557446,100799
1587014544557904,100799
1587014544558328,100799
1587014544563460,100799
1587014544565144,100799
1587014545067813,101423
1587014545069930,101423
1587014545072925,101423
1587014545075117,101423
1587014545077133,101423
1587014545079209,101423
1587014545080329,101423
1587014545082859,101423
1587014545086934,101423
1587014545088079,101423
1587014545091086,101423
1587014545092931,101423
1587014545094807,101423
1587014545598045,101542
1587014545603048,101542
1587014545604617,101542
1587014545605119,101542
1587014545606953,101542
1587014545608442,101542
1587014545610093,101542
1587014545611763,101542
1587014545612151,101542
1587014545616021,101542
1587014545617949,101542
1587014545619858,101542
1587014545620410,101542
1587014546126490,101350
1587014546127474,101350
1587014546130423,101350
1587014546132940,101350
1587014546133576,101350
1587014546135748,101350
1587014546136205,101350
1587014546137548,101350
1587014546139056,101350
1587014546139628,101350
1587014546140205,101350
1587014546142796,101350
1587014546144325,101350
1587014546646474,102627
1587014546649637,102627
1587014546651153,102627
1587014546657856,102627
1587014546663046,102627
1587014546666446,102627
1587014546668164,102627
1587014546671723,102627
1587014546672202,102627
1587014546676682,102627
1587014546677459,102627
1587014546678023,102627
1587014546678628,102627
1587014547180342,102546
1587014547198376,102546
1587014547208025,102546
1587014547208594,102546
1587014547211343,102546
1587014547212401,102546
1587014547213081,102546
1587014547215409,102546
1587014547217347,102546
1587014547222075,102546
1587014547224273,102546
1587014547227847,102546
1587014547228575,102546
1587014547730828,102964
1587014547734281,102964
1587014547735994,102964
1587014547741312,102964
1587014547745011,102964
1587014547746629,102964
1587014547749760,102964
1587014547766266,102964
1587014547769521,102964
1587014547770452,102964
1587014547774713,102964
1587014547775368,102964
1587014547779323,102964
1587014548287597,103052
1587014548291507,103052
1587014548296948,103052
1587014548298807,103052
1587014548299429,103052
1587014548300022,103052
1587014548304834,103052
1587014548306486,103052
1587014548308750,103052
1587014548309968,103052
1587014548310486,103052
1587014548312207,103052
1587014548315229,103052
1587014548819003,103500
1587014548821248,103500
1587014548822459,103500
1587014548824092,103500
1587014548828028,103500
1587014548838617,103500
1587014548844198,103500
1587014548847258,103500
1587014549852381,103500
1587014549853094,103500
1587014549854310,103500
1587014549860080,103500
1587014549861841,103500
1587014550366998,105782
1587014550367627,105782
1587014550368085,105782
1587014550371807,105782
1587014550373595,105782
1587014550375904,105782
1587014550377214,105782
1587014550378209,105782
1587014550383546,105782
1587014550385374,105782
1587014550388380,105782
1587014550389192,105782
1587014550390420,105782
1587014550891718,104663
1587014550894620,104663
1587014550896184,104663
1587014550897969,104663
1587014550900075,104663
1587014550901419,104663
1587014550903718,104663
1587014550905546,104663
1587014550907668,104663
1587014550909649,104663
1587014550910497,104663
1587014550912368,104663
1587014550913315,104663
1587014551414593,105210
1587014551419575,105210
1587014551420952,105210
1587014551422871,105210
1587014551424419,105210
1587014551425520,105210
1587014551427625,105210
1587014554437280,105210
1587014554441025,105210
1587014554443610,105210
1587014554444127,105210
1587014554444738,105210
1587014554447108,105210
1587014554951619,112101
1587014554954000,112101
1587014554954499,112101
1587014554957902,112101
1587014554960029,112101
1587014554961765,112101
1587014554962531,112101
1587014554963838,112101
1587014554965719,112101
1587014554966444,112101
1587014554969076,112101
1587014554970898,112101
1587014554973181,112101
1587014555478770,107964
1587014555480779,107964
1587014555485977,107964
1587014555486662,107964
1587014555487400,107964
1587014555489217,107964
1587014555489925,107964
1587014555491657,107964
1587014555494529,107964
1587014555496239,107964
1587014555500356,107964
1587014555504465,107964
1587014555505127,107964
1587014556019474,108040
1587014556024577,108040
1587014556038940,108040
1587014556053189,108040
1587014556067477,108040
1587014556070550,108040
1587014556074427,108040
1587014556076103,108040
1587014556082193,108040
1587014556085716,108040
1587014556087952,108040
1587014556099656,108040
1587014556104530,108040
1587014556624061,108054
1587014556628832,108054
1587014556632288,108054
1587014556634968,108054
1587014556635977,108054
1587014556638941,108054
1587014556640181,108054
1587014556643627,108054
1587014556645926,108054
1587014556649059,108054
1587014556650972,108054
1587014556653654,108054
1587014556678025,108054
1587014557187037,108747
1587014557188535,108747
1587014557191826,108747
1587014557194724,108747
1587014557195420,108747
1587014557197067,108747
1587014557199735,108747
1587014557205236,108747
1587014557208556,108747
1587014557212629,108747
1587014557225729,108747
1587014557229576,108747
1587014557233894,108747
1587014557741528,110761
1587014557745014,110761
1587014557747608,110761
1587014557760490,110761
1587014557761509,110761
1587014557763710,110761
1587014557766737,110761
1587014557771070,110761
1587014557775281,110761
1587014557779942,110761
1587014557794345,110761
1587014557795211,110761
1587014557795971,110761
1587014558301838,110827
1587014558304837,110827
1587014558305701,110827
1587014558308598,110827
1587014558312279,110827
1587014558318082,110827
1587014558322961,110827
1587014558325543,110827
1587014558326124,110827
1587014558329165,110827
1587014558333805,110827
1587014558335509,110827
1587014558338041,110827
1587014558841547,110902
1587014558842414,110902
1587014558843221,110902
1587014558846175,110902
1587014558848121,110902
1587014558848719,110902
1587014558849245,110902
1587014558857969,110902
1587014558860609,110902
1587014558863277,110902
1587014558867241,110902
1587014558867783,110902
1587014558870624,110902
1587014559379554,110867
1587014559385200,110867
1587014559386321,110867
1587014559388341,110867
1587014559390180,110867
1587014559391618,110867
1587014559392143,110867
1587014559392766,110867
1587014559398245,110867
1587014559400169,110867
1587014559403666,110867
1587014559405187,110867
1587014559406891,110867
1587014559908197,111882
1587014559910898,111882
1587014559912288,111882
1587014559913926,111882
1587014559921433,111882
1587014559922350,111882
1587014559922864,111882
1587014559923378,111882
1587014559930517,111882
1587014559936665,111882
1587014559939235,111882
1587014559940065,111882
1587014559952724,111882
1587014560455443,112219
1587014560461276,112219
1587014560463089,112219
1587014560468761,112219
1587014560469358,112219
1587014560472626,112219
1587014560474346,112219
1587014560474855,112219
1587014560478641,112219
1587014560483967,112219
1587014560485564,112219
1587014560489352,112219
1587014560491823,112219
1587014560995061,112958
1587014560995589,112958
1587014560998491,112958
1587014561000735,112958
1587014561003123,112958
1587014561005303,112958
1587014561011543,112958
1587014561013090,112958
1587014561015547,112958
1587014561017070,112958
1587014561017660,112958
1587014561020648,112958
1587014561022714,112958
1587014561524075,112497
1587014561526206,112497
1587014561529601,112497
1587014561531044,112497
1587014561533660,112497
1587014561534278,112497
1587014561537812,112497
1587014561539647,112497
1587014561540933,112497
1587014561543380,112497
1587014561547846,112497
1587014561549852,112497
1587014561551829,112497
1587014562056312,112885
1587014562058164,112885
1587014562058879,112885
1587014562062286,112885
1587014562064974,112885
1587014562068768,112885
1587014562093603,112885
1587014562097545,112885
1587014562100678,112885
1587014562113234,112885
1587014562117637,112885
1587014562125302,112885
1587014562128766,112885
1587014562632966,114913
1587014562638171,114913
1587014562640363,114913
1587014562640908,114913
1587014562642137,114913
1587014562645323,114913
1587014562646645,114913
1587014562647467,114913
1587014562652235,114913
1587014562655552,114913
1587014562657911,114913
1587014562659846,114913
1587014562661242,114913
1587014563165641,114405
1587014563170994,114405
1587014563175073,114405
1587014570191616,114405
1587014570194111,114405
1587014570195928,114405
1587014570196406,114405
1587014570199607,114405
1587014570203353,114405
1587014570206683,114405
1587014570209602,114405
1587014570211419,114405
1587014570213841,114405
1587014570717105,127864
1587014570720034,127864
1587014570720744,127864
1587014577738274,127864
1587014577742331,127864
1587014577744169,127864
1587014577744789,127864
1587014577748124,127864
1587014577757334,127864
1587014577758397,127864
1587014577760523,127864
1587014577765123,127864
1587014577768539,127864
1587014578272201,134073
1587014578277446,134073
1587014578282032,134073
1587014578288740,134073
1587014578293689,134073
1587014578296043,134073
1587014578298595,134073
1587014578299231,134073
1587014578526629,134073
1587014578527249,134073
1587014578531876,134073
1587014578542410,134073
1587014578549190,134073
1587014579052246,125173
1587014579057650,125173
1587014579058365,125173
1587014579063032,125173
1587014579063787,125173
1587014579064554,125173
1587014579082575,125173
1587014579084137,125173
1587014579086607,125173
1587014579088604,125173
1587014579094274,125173
1587014579097495,125173
1587014579114159,125173
1587014579618444,125257
1587014579622210,125257
1587014579623152,125257
1587014579623747,125257
1587014579634313,125257
1587014579636984,125257
1587014579655256,125257
1587014579656028,125257
1587014579659593,125257
1587014579663547,125257
1587014579664406,125257
1587014579667427,125257
1587014579669136,125257
1587014580170752,125799
1587014580171311,125799
1587014580173855,125799
1587014580175749,125799
1587014580183144,125799
1587014580184932,125799
1587014580189416,125799
1587014580191567,125799
1587014580194298,125799
1587014580196265,125799
1587014580196925,125799
1587014580197860,125799
1587014580199649,125799
1587014580705121,126635
1587014580706838,126635
1587014580707436,126635
1587014580714337,126635
1587014580715129,126635
1587014580719038,126635
1587014580720508,126635
1587014580726702,126635
1587014580740485,126635
1587014580752556,126635
1587014580753573,126635
1587014580759335,126635
1587014580761633,126635
1587014581268989,126409
1587014581271754,126409
1587014581276870,126409
1587014581291352,126409
1587014581292243,126409
1587014581302462,126409
1587014581303998,126409
1587014581304662,126409
1587014581309468,126409
1587014581310686,126409
1587014581319197,126409
1587014581319822,126409
1587014581321566,126409
1587014581824552,126769
1587014581827094,126769
1587014581828788,126769
1587014581830688,126769
1587014581832603,126769
1587014581834032,126769
1587014581841324,126769
1587014581842061,126769
1587014581843053,126769
1587014581845291,126769
1587014581849043,126769
1587014581852106,126769
1587014581852716,126769
1587014582356772,126320
1587014582360270,126320
1587014582361594,126320
1587014582366436,126320
1587014582367678,126320
1587014582368813,126320
1587014582377438,126320
1587014582380053,126320
1587014582384716,126320
1587014582388956,126320
1587014582393629,126320
1587014582407676,126320
1587014582408941,126320
1587014582910593,129151
1587014585922931,129151
1587014585923774,129151
1587014585929372,129151
1587014585933707,129151
1587014585936473,129151
1587014585939396,129151
1587014585941936,129151
1587014585947901,129151
1587014585949811,129151
1587014585952315,129151
1587014585956122,129151
1587014585960121,129151
1587014586461647,133433
1587014586462256,133433
1587014586470251,133433
1587014586474622,133433
1587014586483118,133433
1587014586483943,133433
1587014586484481,133433
1587014586486757,133433
1587014586493551,133433
1587014586495933,133433
1587014586498207,133433
1587014586499470,133433
1587014586503854,133433
1587014587005845,131137
1587014587009988,131137
1587014587015090,131137
1587014587017221,131137
1587014587018737,131137
1587014587022088,131137
1587014587028689,131137
1587014587031787,131137
1587014587033628,131137
1587014587034242,131137
1587014587036854,131137
1587014587039116,131137
1587014587039945,131137
1587014587544957,130524
1587014587550679,130524
1587014587552940,130524
1587014587565377,130524
1587014587567750,130524
1587014587570609,130524
1587014587573481,130524
1587014587574465,130524
1587014587578054,130524
1587014587580810,130524
1587014587581460,130524
1587014587582055,130524
1587014587584414,130524
1587014588094269,131340
1587014588095566,131340
1587014588105178,131340
1587014588105991,131340
1587014588115436,131340
1587014588118980,131340
1587014588121600,131340
1587014588127540,131340
1587014588131228,131340
1587014588132254,131340
1587014588134293,131340
1587014588135184,131340
1587014588139053,131340
1587014588644594,131918
1587014588646618,131918
1587014588647179,131918
1587014588652023,131918
1587014588654714,131918
1587014588655257,131918
1587014588655770,131918
1587014588659972,131918
1587014588667145,131918
1587014588673376,131918
1587014588674803,131918
1587014588677878,131918
1587014588681330,131918
1587014589184306,131634
1587014589187188,131634
1587014589187986,131634
1587014589188747,131634
1587014589189493,131634
1587014589194087,131634
1587014589196661,131634
1587014589199965,131634
1587014589202888,131634
1587014589203452,131634
1587014589207942,131634
1587014589208761,131634
1587014589215766,131634
1587014589719921,133412
1587014589720750,133412
1587014589724689,133412
1587014589728324,133412
1587014589728993,133412
1587014589734266,133412
1587014589737835,133412
1587014589739289,133412
1587014589746323,133412
1587014589754484,133412
1587014589758298,133412
1587014589761554,133412
1587014589764788,133412
1587014590266243,134642
1587014590271186,134642
1587014590273225,134642
1587014590276736,134642
1587014590277449,134642
1587014590285082,134642
1587014590286676,134642
1587014590289617,134642
1587014590295721,134642
1587014590297064,134642
1587014590300041,134642
1587014590302480,134642
1587014590308135,134642
1587014590811475,133985
1587014590813333,133985
1587014590814090,133985
1587014590819276,133985
1587014590820668,133985
1587014590823568,133985
1587014590826632,133985
1587014590831251,133985
1587014590836181,133985
1587014590838725,133985
1587014590842913,133985
1587014590846331,133985
1587014590849319,133985
1587014591354392,133689
1587014591358858,133689
1587014591363743,133689
1587014591364684,133689
1587014591365541,133689
1587014591367125,133689
1587014591370593,133689
1587014591376022,133689
1587014591381700,133689
1587014591383887,133689
1587014591388257,133689
1587014591389158,133689
1587014591390334,133689
1587014591891557,134193
1587014591896639,134193
1587014591900269,134193
1587014591902611,134193
1587014591909059,134193
1587014591913627,134193
1587014591915936,134193
1587014591919495,134193
1587014591920703,134193
1587014591928168,134193
1587014591929486,134193
1587014591933973,134193
1587014591937720,134193
1587014592442744,134649
1587014592447002,134649
1587014592449316,134649
1587014592462664,134649
1587014592463889,134649
1587014592471108,134649
1587014592474167,134649
1587014592477956,134649
1587014592481589,134649
1587014592484107,134649
1587014592484647,134649
1587014592490531,134649
1587014592493941,134649
1587014593001059,135638
1587014593005970,135638
1587014593011613,135638
1587014593016888,135638
1587014593021940,135638
1587014593026304,135638
1587014593027210,135638
1587014593037439,135638
1587014593047650,135638
1587014593049050,135638
1587014593049900,135638
1587014593056837,135638
1587014593062083,135638
1587014593568011,135632
1587014593571097,135632
1587014593580976,135632
1587014593588219,135632
1587014593591907,135632
1587014593592538,135632
1587014593598660,135632
1587014593599693,135632
1587014593604976,135632
1587014593610433,135632
1587014593611146,135632
1587014593611665,135632
1587014593615559,135632
1587014594117317,135443
1587014594118826,135443
1587014594119461,135443
1587014594123196,135443
1587014594127176,135443
1587014594134448,135443
1587014594136315,135443
1587014594141273,135443
1587014594146098,135443
1587014594149684,135443
1587014594157705,135443
1587014594165125,135443
1587014594168346,135443
1587014594672594,135605
1587014594675968,135605
1587014594682783,135605
1587014594683970,135605
1587014594688164,135605
1587014594689081,135605
1587014594699298,135605
1587014594705762,135605
1587014594708014,135605
1587014594711249,135605
1587014594717471,135605
1587014594721579,135605
1587014594725992,135605
1587014595228632,135954
1587014595237312,135954
1587014595243881,135954
1587014595244551,135954
1587014595247010,135954
1587014595249338,135954
1587014595257125,135954
1587014595259305,135954
1587014595260222,135954
1587014595269517,135954
1587014595270538,135954
1587014595271065,135954
1587014595274531,135954
1587014595775938,136752
1587014595780465,136752
1587014595782623,136752
1587014595783177,136752
1587014595783735,136752
1587014595788441,136752
1587014595789258,136752
1587014595793815,136752
1587014595796538,136752
1587014595799765,136752
1587014595805087,136752
1587014595805645,136752
1587014595811172,136752
1587014596314061,136525
1587014596314839,136525
1587014596319492,136525
1587014596322686,136525
1587014596323224,136525
1587014596323994,136525
1587014596331011,136525
1587014596335478,136525
1587014596336239,136525
1587014596336905,136525
1587014596339397,136525
1587014596345168,136525
1587014596348085,136525
1587014596850818,136535
1587014596853506,136535
1587014596854057,136535
1587014596858237,136535
1587014596864223,136535
1587014596864978,136535
1587014596867792,136535
1587014596871042,136535
1587014596874616,136535
1587014596877473,136535
1587014596882912,136535
1587014596888607,136535
1587014596889258,136535
1587014597394832,136858
1587014597397257,136858
1587014597400532,136858
1587014597403323,136858
1587014597409575,136858
1587014597412208,136858
1587014597412957,136858
1587014597413663,136858
1587014597422220,136858
1587014597424911,136858
1587014597431445,136858
1587014597436828,136858
1587014597437491,136858
1587014597939968,137982
1587014597943296,137982
1587014597949279,137982
1587014597953781,137982
1587014597962421,137982
1587014597963197,137982
1587014597967229,137982
1587014600984447,137982
1587014600985689,137982
1587014600988471,137982
1587014600989256,137982
1587014600989881,137982
1587014600994582,137982
1587014601499782,142339
1587014601506098,142339
1587014601506860,142339
1587014601510820,142339
1587014601511699,142339
1587014601514755,142339
1587014601517920,142339
1587014601522166,142339
1587014601524778,142339
1587014601527781,142339
1587014601528380,142339
1587014601531294,142339
1587014601535650,142339
1587014602037203,139640
1587014602045210,139640
1587014602048182,139640
1587014602049231,139640
1587014602051542,139640
1587014602052430,139640
1587014602055673,139640
1587014602061843,139640
1587014602062997,139640
1587014602066537,139640
1587014602067625,139640
1587014602069893,139640
1587014602070469,139640
1587014602573780,140099
1587014602582519,140099
1587014602586662,140099
1587014602588469,140099
1587014602595817,140099
1587014602597555,140099
1587014602600666,140099
1587014602602731,140099
1587014602604482,140099
1587014602608926,140099
1587014602612099,140099
1587014602616856,140099
1587014602623485,140099
1587014603126655,140800
1587014603136016,140800
1587014603137668,140800
1587014603143075,140800
1587014603147165,140800
1587014603151468,140800
1587014603159909,140800
1587014603160918,140800
1587014603164269,140800
1587014603166684,140800
1587014603169351,140800
1587014603172777,140800
1587014603175291,140800
1587014603683902,140704
1587014603687809,140704
1587014603691447,140704
1587014603694624,140704
1587014603698510,140704
1587014603701495,140704
1587014603702108,140704
1587014603702568,140704
1587014603707188,140704
1587014603709662,140704
1587014603712616,140704
1587014603713022,140704
1587014603717366,140704
1587014604228873,141056
1587014604235078,141056
1587014604237717,141056
1587014604243370,141056
1587014604244379,141056
1587014604245159,141056
1587014604247185,141056
1587014604254190,141056
1587014604257035,141056
1587014604261063,141056
1587014604268057,141056
1587014604271844,141056
1587014604272530,141056
1587014604776332,141542
1587014604782274,141542
1587014604784063,141542
1587014604789497,141542
1587014604797613,141542
1587014604802900,141542
1587014604811364,141542
1587014604816839,141542
1587014604822087,141542
1587014604826073,141542
1587014604827457,141542
1587014604842040,141542
1587014604846279,141542
1587014605350416,141627
1587014605353329,141627
1587014605355115,141627
1587014605356932,141627
1587014605358862,141627
1587014605359876,141627
1587014605362010,141627
1587014605364033,141627
1587014605367683,141627
1587014605368469,141627
1587014605369358,141627
1587014605375943,141627
1587014605385485,141627
1587014605890782,142539
1587014605893830,142539
1587014605898706,142539
1587014605899942,142539
1587014605905380,142539
1587014605908870,142539
1587014605917312,142539
1587014605921192,142539
1587014605923325,142539
1587014605929717,142539
1587014605932052,142539
1587014605933011,142539
1587014605935198,142539
1587014606439269,142194
1587014606443299,142194
1587014606451676,142194
1587014606455879,142194
1587014606458552,142194
1587014606460003,142194
1587014606460834,142194
1587014606467436,142194
1587014606473614,142194
1587014606475953,142194
1587014606477829,142194
1587014606483213,142194
1587014606483824,142194
1587014606988873,142775
1587014606990847,142775
1587014606991622,142775
1587014606996610,142775
1587014606997532,142775
1587014606998507,142775
1587014607004078,142775
1587014607010141,142775
1587014607013233,142775
1587014607019848,142775
1587014607023403,142775
1587014607029494,142775
1587014607035343,142775
1587014607538900,143662
1587014607542827,143662
1587014607546524,143662
1587014607548771,143662
1587014607551172,143662
1587014607552242,143662
1587014607556381,143662
1587014607565739,143662
1587014607576261,143662
1587014607580468,143662
1587014607591561,143662
1587014607595324,143662
1587014607596119,143662
1587014608102668,142977
1587014608105959,142977
1587014608106670,142977
1587014608110054,142977
1587014608112516,142977
1587014608117614,142977
1587014608118488,142977
1587014608337251,142977
1587014608341266,142977
1587014608344097,142977
1587014608357559,142977
1587014608364882,142977
1587014608369454,142977
1587014608878049,146427
1587014608885115,146427
1587014608887196,146427
1587014608890008,146427
1587014608894829,146427
1587014608899361,146427
1587014608905157,146427
1587014608906338,146427
1587014608911656,146427
1587014608918448,146427
1587014608920161,146427
1587014608921105,146427
1587014608925619,146427
1587014609432075,145016
1587014609457221,145016
1587014609681424,145016
1587014609684071,145016
1587014609692724,145016
1587014609693941,145016
1587014609697865,145016
1587014609705250,145016
1587014609707460,145016
1587014609712474,145016
1587014609717936,145016
1587014609723799,145016
1587014609728843,145016
1587014610235551,145903
1587014610236382,145903
1587014610239752,145903
1587014610241556,145903
1587014610243266,145903
1587014610245821,145903
1587014610249077,145903
1587014610257126,145903
1587014610258405,145903
1587014610263414,145903
1587014610267293,145903
1587014610270582,145903
1587014610273962,145903
1587014610780235,146148
1587014610787706,146148
1587014610797137,146148
1587014610799108,146148
1587014610803588,146148
1587014610808122,146148
1587014610809121,146148
1587014610812186,146148
1587014610815636,146148
1587014610822553,146148
1587014610823225,146148
1587014610826505,146148
1587014610827357,146148
1587014611328950,146019
1587014611333189,146019
1587014611335492,146019
1587014611342803,146019
1587014612788647,146019
1587014612796175,146019
1587014612799140,146019
1587014612805785,146019
1587014612812190,146019
1587014612813949,146019
1587014612821342,146019
1587014612824414,146019
1587014612835599,146019
1587014613338609,147927
1587014613347778,147927
1587014613351004,147927
1587014613354908,147927
1587014613356420,147927
1587014613357648,147927
1587014613362997,147927
1587014613371698,147927
1587014613376488,147927
1587014613377933,147927
1587014613385520,147927
1587014613391092,147927
1587014613393535,147927
1587014613900252,146705
1587014613906319,146705
1587014616922278,146705
1587014616924634,146705
1587014616928698,146705
1587014616931605,146705
1587014616938233,146705
1587014616945414,146705
1587014616946261,146705
1587014616950817,146705
1587014616957818,146705
1587014616960804,146705
1587014616963823,146705
1587014617470952,153049
1587014617474017,153049
1587014617478442,153049
1587014617481543,153049
1587014617486328,153049
1587014617489797,153049
1587014617496711,153049
1587014617500837,153049
1587014617508441,153049
1587014617514587,153049
1587014617521299,153049
1587014617522677,153049
1587014617524781,153049
1587014618032105,149948
1587014618041601,149948
1587014618042566,149948
1587014618046486,149948
1587014618051471,149948
1587014618055135,149948
1587014618059744,149948
1587014618060494,149948
1587014618066040,149948
1587014618067473,149948
1587014618072052,149948
1587014618078040,149948
1587014618086017,149948
1587014618592753,150726
1587014618595395,150726
1587014618604845,150726
1587014618611947,150726
1587014618616034,150726
1587014618620477,150726
1587014618621709,150726
1587014618622472,150726
1587014618623090,150726
1587014618623708,150726
1587014618627555,150726
1587014618628433,150726
1587014618629659,150726
1587014619134140,150602
1587014619135020,150602
1587014619143319,150602
1587014619145547,150602
1587014619149758,150602
1587014619151360,150602
1587014619154070,150602
1587014619154862,150602
1587014619157002,150602
1587014619157942,150602
1587014619160528,150602
1587014619162165,150602
1587014619168793,150602
1587014619674150,150428
1587014619676931,150428
1587014619680175,150428
1587014619682804,150428
1587014619695834,150428
1587014619699318,150428
1587014619705741,150428
1587014619706642,150428
1587014619712302,150428
1587014619717595,150428
1587014619724348,150428
1587014619735738,150428
1587014619744293,150428
1587014620251631,150652
1587014620255095,150652
1587014620259988,150652
1587014620263601,150652
1587014620267864,150652
1587014620270907,150652
1587014620275099,150652
1587014620279990,150652
1587014620285648,150652
1587014620288251,150652
1587014620289048,150652
1587014620293306,150652
1587014620294923,150652
1587014620800561,151280
1587014620808072,151280
1587014620812959,151280
1587014620817669,151280
1587014620830545,151280
1587014620833856,151280
1587014620835804,151280
1587014620842169,151280
1587014620848514,151280
1587014620851922,151280
1587014620863498,151280
1587014620869788,151280
1587014620875597,151280
1587014621382234,151148
1587014621386071,151148
1587014621391150,151148
1587014621396781,151148
1587014621404670,151148
1587014621406430,151148
1587014621407424,151148
1587014621410868,151148
1587014621417286,151148
1587014621420378,151148
1587014621421182,151148
1587014621422621,151148
1587014621428168,151148
1587014621934922,152804
1587014621935736,152804
1587014621941793,152804
1587014621942996,152804
1587014621953428,152804
1587014621956732,152804
1587014621960230,152804
1587014621962954,152804
1587014621964437,152804
1587014621967802,152804
1587014621972103,152804
1587014621977097,152804
1587014621979339,152804
1587014622485435,152659
1587014622487703,152659
1587014622493891,152659
1587014622497348,152659
1587014622507500,152659
1587014622510670,152659
1587014622511496,152659
1587014622515048,152659
1587014622518458,152659
1587014622522971,152659
1587014622523860,152659
1587014622536688,152659
1587014622539329,152659
1587014623045209,152780
1587014623052843,152780
1587014623053806,152780
1587014623057627,152780
1587014623065473,152780
1587014623073532,152780
1587014623075933,152780
1587014623079730,152780
1587014623089075,152780
1587014623100031,152780
1587014623102298,152780
1587014623103377,152780
1587014623104790,152780
1587014623608306,153351
1587014623618617,153351
1587014623621883,153351
1587014623622683,153351
1587014623623688,153351
1587014623627879,153351
1587014623628788,153351
1587014623629555,153351
1587014623630155,153351
1587014623639773,153351
1587014623642418,153351
1587014623646624,153351
1587014623647469,153351
1587014624164701,152998
1587014624169161,152998
1587014624170018,152998
1587014624174048,152998
1587014624175523,152998
1587014624178187,152998
1587014624181078,152998
1587014624185000,152998
1587014624189250,152998
1587014624190547,152998
1587014624195181,152998
1587014624197256,152998
1587014624201154,152998
1587014624707497,154720
1587014624711163,154720
1587014624713182,154720
1587014624716139,154720
1587014624729962,154720
1587014624737418,154720
1587014624742810,154720
1587014624744693,154720
1587014624746069,154720
1587014624746798,154720
1587014624747487,154720
1587014624762907,154720
1587014624767224,154720
1587014625270435,154574
1587014625278896,154574
1587014625282272,154574
1587014625283407,154574
1587014625291561,154574
1587014625298940,154574
1587014625306100,154574
1587014625311230,154574
1587014625316803,154574
1587014625324666,154574
1587014625325382,154574
1587014625329432,154574
1587014625333853,154574
1587014625839665,154407
1587014625842445,154407
1587014625846481,154407
1587014625855049,154407
1587014625855702,154407
1587014625861553,154407
1587014625864756,154407
1587014625873136,154407
1587014625884921,154407
1587014625896415,154407
1587014625897289,154407
1587014625902085,154407
1587014625905499,154407
1587014626413221,155259
1587014626416785,155259
1587014626420145,155259
1587014626421008,155259
1587014626421833,155259
1587014626431770,155259
1587014626434180,155259
1587014626438078,155259
1587014626446787,155259
1587014626449156,155259
1587014626454796,155259
1587014626457008,155259
1587014626460120,155259
1587014626969049,155598
1587014626972839,155598
1587014626973740,155598
1587014626977276,155598
1587014626985625,155598
1587014626992414,155598
1587014627001372,155598
1587014627002445,155598
1587014627007295,155598
1587014627011695,155598
1587014627018782,155598
1587014627030797,155598
1587014627036331,155598
1587014627544382,155994
1587014627552104,155994
1587014627555478,155994
1587014627560046,155994
1587014627564757,155994
1587014627571102,155994
1587014627575100,155994
1587014627579408,155994
1587014627582873,155994
1587014627589538,155994
1587014627599747,155994
1587014627600655,155994
1587014627608126,155994
1587014628113344,156296
1587014628114112,156296
1587014628118827,156296
1587014628124285,156296
1587014628133015,156296
1587014628133762,156296
1587014628136437,156296
1587014628137139,156296
1587014628142269,156296
1587014628143095,156296
1587014628148152,156296
1587014628149021,156296
1587014628151867,156296
1587014628660001,156379
1587014628664411,156379
1587014628665719,156379
1587014628666608,156379
1587014628670894,156379
1587014628671933,156379
1587014628675732,156379
1587014628683805,156379
1587014628689117,156379
1587014628690046,156379
1587014628694002,156379
1587014628701938,156379
1587014628702833,156379
1587014629206693,157202
1587014629209313,157202
1587014629212124,157202
1587014629215793,157202
1587014629217056,157202
1587014629218080,157202
1587014629222737,157202
1587014629226311,157202
1587014629228712,157202
1587014629232484,157202
1587014629238642,157202
1587014629242212,157202
1587014629243668,157202
1587014629746971,156734
1587014629749739,156734
1587014629750452,156734
1587014629754324,156734
1587014629756921,156734
1587014629769361,156734
1587014629774252,156734
1587014629777148,156734
1587014629781318,156734
1587014629782326,156734
1587014629785537,156734
1587014629787284,156734
1587014629794589,156734
1587014630301972,157519
1587014630306436,157519
1587014630312115,157519
1587014630317108,157519
1587014630317966,157519
1587014630322065,157519
1587014630326665,157519
1587014630331298,157519
1587014630334679,157519
1587014630335489,157519
1587014630338543,157519
1587014630341869,157519
1587014630343197,157519
1587014630850303,157317
1587014630855194,157317
1587014630872776,157317
1587014630893236,157317
1587014630898192,157317
1587014630907672,157317
1587014630933650,157317
1587014630940873,157317
1587014630954592,157317
1587014630963996,157317
1587014630980653,157317
1587014630981650,157317
1587014630984170,157317
1587014631490020,157578
1587014631496043,157578
1587014631499818,157578
1587014631505023,157578
1587014632513939,157578
1587014632515754,157578
1587014632517571,157578
1587014632523245,157578
1587014632535306,157578
1587014632539118,157578
1587014632545303,157578
1587014632548330,157578
1587014632549349,157578
1587014633053989,160585
1587014633060459,160585
1587014633062632,160585
1587014633072537,160585
1587014633076973,160585
1587014633079749,160585
1587014633082023,160585
1587014633086742,160585
1587014633089685,160585
1587014633094570,160585
1587014633095276,160585
1587014633099897,160585
1587014633109472,160585
1587014633612081,158685
1587014633618366,158685
1587014633643606,158685
1587014633649430,158685
1587014633654664,158685
1587014633659774,158685
1587014633665030,158685
1587014633671274,158685
1587014633672645,158685
1587014633678684,158685
1587014633681543,158685
1587014633682923,158685
1587014633683476,158685
1587014634187695,158502
1587014634190189,158502
1587014634193429,158502
1587014634194111,158502
1587014634198015,158502
1587014634203487,158502
1587014634219731,158502
1587014634222614,158502
1587014634227025,158502
1587014634227807,158502
1587014634228523,158502
1587014634229191,158502
1587014634232443,158502
1587014634737230,161213
1587014634741115,161213
1587014634746804,161213
1587014634747958,161213
1587014634753132,161213
1587014634756518,161213
1587014634760567,161213
1587014634761498,161213
1587014634763954,161213
1587014634765509,161213
1587014634768310,161213
1587014634772957,161213
1587014634775694,161213
1587014635282793,159552
1587014635289959,159552
1587014635293417,159552
1587014635298000,159552
1587014635298863,159552
1587014635301485,159552
1587014635302531,159552
1587014635303282,159552
1587014635304230,159552
1587014635308343,159552
1587014635949820,159552
1587014635955036,159552
1587014635957588,159552
1587014636463575,160798
1587014636464886,160798
1587014636466378,160798
1587014636467190,160798
1587014636471327,160798
1587014636476160,160798
1587014636478548,160798
1587014636482276,160798
1587014636483035,160798
1587014636487576,160798
1587014636492515,160798
1587014636497302,160798
1587014636503259,160798
1587014637007251,162011
1587014637008809,162011
1587014637016126,162011
1587014637024778,162011
1587014637025813,162011
1587014637029141,162011
1587014637033341,162011
1587014637034493,162011
1587014637037004,162011
1587014637040109,162011
1587014637044448,162011
1587014637045218,162011
1587014637051504,162011
1587014637555210,161048
1587014637569513,161048
1587014637573552,161048
1587014637576159,161048
1587014637583671,161048
1587014637588202,161048
1587014637589690,161048
1587014637590938,161048
1587014637600457,161048
1587014637601877,161048
1587014637608844,161048
1587014637613183,161048
1587014637616473,161048
1587014638123571,161935
1587014638141710,161935
1587014638143709,161935
1587014638144506,161935
1587014638151820,161935
1587014638158955,161935
1587014638168053,161935
1587014642843904,161935
1587014642847933,161935
1587014642853155,161935
1587014642857078,161935
1587014642859905,161935
1587014642867067,161935
1587014643374790,168587
1587014643377082,168587
1587014643378903,168587
1587014643381688,168587
1587014643392508,168587
1587014643397967,168587
1587014643400024,168587
1587014643403763,168587
1587014643405829,168587
1587014643406862,168587
1587014643636527,168587
1587014643637579,168587
1587014643639007,168587
1587014644144913,164942
1587014644151671,164942
1587014644155271,164942
1587014644164628,164942
1587014644167444,164942
1587014644171964,164942
1587014644178620,164942
1587014644179838,164942
1587014644183067,164942
1587014644191326,164942
1587014644192129,164942
1587014644200549,164942
1587014644202586,164942
1587014644705735,165047
1587014644709519,165047
1587014644713738,165047
1587014644717125,165047
1587014644726197,165047
1587014644731149,165047
1587014644738444,165047
1587014644752485,165047
1587014644760192,165047
1587014644764680,165047
1587014644765746,165047
1587014644766776,165047
1587014644782972,165047
1587014645287664,165068
1587014645293273,165068
1587014645300298,165068
1587014645307598,165068
1587014645308780,165068
1587014645315100,165068
1587014645322716,165068
1587014645327667,165068
1587014645328784,165068
1587014645332723,165068
1587014645333676,165068
1587014645337592,165068
1587014645343726,165068
1587014645854935,165917
1587014645856093,165917
1587014645857108,165917
1587014645861509,165917
1587014645862894,165917
1587014645867577,165917
1587014645868947,165917
1587014645873223,165917
1587014645881603,165917
1587014645888436,165917
1587014645890444,165917
1587014645900091,165917
1587014645909936,165917
1587014646412492,165790
1587014646420704,165790
1587014646427911,165790
1587014646428930,165790
1587014646436703,165790
1587014646438169,165790
1587014646439497,165790
1587014646443692,165790
1587014646456561,165790
1587014646457636,165790
1587014646459207,165790
