1587014401979124,29
1587014402059661,22
1587014402109692,22
1587014402201279,22
1587014402213921,26
1587014402216085,26
1587014402217132,26
1587014402219066,26
1587014402220228,26
1587014402222558,26
1587014402226596,26
1587014402227340,26
1587014402229443,26
1587014402230259,26
1587014402231531,26
1587014402232700,26
1587014402233495,26
1587014403563831,3329
1587014403565752,3329
1587014403566542,3329
1587014403596287,3329
1587014403638253,3329
1587014403639164,3329
1587014403645686,3329
1587014403646568,3329
1587014403649466,3329
1587014403653581,3329
1587014403657667,3329
1587014403659595,3329
1587014403660851,3329
1587014404213223,3490
1587014404215255,3490
1587014404216574,3490
1587014404223705,3490
1587014404232494,3490
1587014404233378,3490
1587014404235219,3490
1587014404235877,3490
1587014404236700,3490
1587014404237289,3490
1587014404237722,3490
1587014404239014,3490
1587014404268283,3490
1587014404401417,339
1587014404777461,2485
1587014404788705,2485
1587014404790698,2485
1587014404791836,2485
1587014404794497,2485
1587014404805637,2485
1587014404806485,2485
1587014404807449,2485
1587014404818757,2485
1587014404821707,2485
1587014404822451,2485
1587014404823519,2485
1587014404824190,2485
1587014405284558,414
1587014405287186,414
1587014405330287,3580
1587014405340075,3580
1587014405341517,3580
1587014405342505,3580
1587014405342981,3580
1587014405344837,3580
1587014405345450,3580
1587014405353956,3580
1587014405356142,3580
1587014405356694,3580
1587014405357373,3580
1587014405362870,3580
1587014405371090,3580
1587014405512097,415
1587014405542146,434
1587014405871987,3867
1587014405873180,3867
1587014405874255,3867
1587014405875071,3867
1587014405875499,3867
1587014405877002,3867
1587014405877855,3867
1587014405878518,3867
1587014405880726,3867
1587014405881526,3867
1587014405883157,3867
1587014405884044,3867
1587014405884669,3867
1587014406387894,3456
1587014406389017,3456
1587014406396796,3456
1587014406399009,3456
1587014406400103,3456
1587014406401117,3456
1587014406416576,3456
1587014406417902,3456
1587014406425502,3456
1587014406434245,3456
1587014406437266,3456
1587014406438310,3456
1587014406439559,3456
1587014406917434,413
1587014406943678,4259
1587014406944340,4259
1587014406946385,4259
1587014406948391,4259
1587014406948806,4259
1587014406951298,4259
1587014406953546,4259
1587014406954972,4259
1587014406956636,4259
1587014406957543,4259
1587014406958643,4259
1587014406959519,4259
1587014406960508,4259
1587014407470482,4968
1587014407471301,4968
1587014407471812,4968
1587014407473271,4968
1587014407474794,4968
1587014407476501,4968
1587014407481179,4968
1587014407483748,4968
1587014407484353,4968
1587014407485695,4968
1587014407486337,4968
1587014407486890,4968
1587014407487297,4968
1587014407558985,413
1587014407995108,4315
1587014407995888,4315
1587014407996287,4315
1587014408000978,4315
1587014408012039,4315
1587014408012779,4315
1587014408013313,4315
1587014408022062,4315
1587014408036702,4315
1587014408037920,4315
1587014408038291,4315
1587014408041534,4315
1587014408054514,4315
1587014408575654,4750
1587014408577020,4750
1587014408577792,4750
1587014408578148,4750
1587014408578843,4750
1587014408579687,4750
1587014408581967,4750
1587014408583122,4750
1587014408583713,4750
1587014408584680,4750
1587014408586173,4750
1587014408591932,4750
1587014408592971,4750
1587014409094347,5691
1587014409095002,5691
1587014409095777,5691
1587014409111337,5691
1587014409112131,5691
1587014409112838,5691
1587014409113466,5691
1587014409114592,5691
1587014409116348,5691
1587014409127535,5691
1587014409128277,5691
1587014409128970,5691
1587014409129827,5691
1587014409644422,4855
1587014409645745,4855
1587014409650942,4855
1587014409651371,4855
1587014409652122,4855
1587014409652828,4855
1587014409653928,4855
1587014409654788,4855
1587014409656063,4855
1587014409656719,4855
1587014409673799,4855
1587014409676821,4855
1587014409687575,4855
1587014410196400,5318
1587014410197476,5318
1587014410198642,5318
1587014410199344,5318
1587014410201346,5318
1587014410206605,5318
1587014410208216,5318
1587014410209020,5318
1587014410209426,5318
1587014410210061,5318
1587014410221072,5318
1587014410223464,5318
1587014410226223,5318
1587014410701180,411
1587014410734362,5296
1587014410735136,5296
1587014410735821,5296
1587014410736885,5296
1587014410737733,5296
1587014410739167,5296
1587014410751919,5296
1587014410753100,5296
1587014410763623,5296
1587014410764428,5296
1587014410765140,5296
1587014410766896,5296
1587014410768326,5296
1587014411726669,37
1587014411979648,414
1587014411984041,5954
1587014412000386,5954
1587014412001538,5954
1587014412002261,5954
1587014412003542,5954
1587014412004363,5954
1587014412005080,5954
1587014412019440,5954
1587014412020379,5954
1587014412022218,5954
1587014412022993,5954
1587014412024124,5954
1587014412024998,5954
1587014412495818,37
1587014412526809,7176
1587014412527751,7176
1587014412531021,7176
1587014412532317,7176
1587014412536444,7176
1587014412537240,7176
1587014412538857,7176
1587014412540021,7176
1587014412542695,7176
1587014412545191,7176
1587014412546318,7176
1587014412552482,7176
1587014412555066,7176
1587014412811734,37
1587014412914598,37
1587014412953483,37
1587014412984710,37
1587014412987915,37
1587014413003492,37
1587014413005265,37
1587014413006676,37
1587014413017027,37
1587014413058605,7333
1587014413059643,7333
1587014413060167,7333
1587014413062047,7333
1587014413063072,7333
1587014413063959,7333
1587014413065027,7333
1587014413066855,7333
1587014413067359,7333
1587014413068906,7333
1587014413072086,7333
1587014413074881,7333
1587014413076167,7333
1587014413120360,411
1587014413596652,6972
1587014413600183,6972
1587014413602114,6972
1587014413602943,6972
1587014413606651,6972
1587014413610242,6972
1587014413615944,6972
1587014413618668,6972
1587014413622501,6972
1587014413628761,6972
1587014413629983,6972
1587014413630805,6972
1587014413642895,6972
1587014414152260,6764
1587014414154439,6764
1587014414156077,6764
1587014414158047,6764
1587014414160161,6764
1587014414163303,6764
1587014414167668,6764
1587014414168649,6764
1587014414180172,6764
1587014414181265,6764
1587014414182546,6764
1587014414185168,6764
1587014414187648,6764
1587014414696156,7260
1587014414704341,7260
1587014414706760,7260
1587014415711988,7260
1587014415712674,7260
1587014415723615,7260
1587014415724336,7260
1587014415725090,7260
1587014415736726,7260
1587014415737552,7260
1587014415742978,7260
1587014415743662,7260
1587014415748521,7260
1587014415854596,37
1587014415855634,37
1587014415856787,37
1587014415857960,37
1587014415859458,37
1587014415860913,37
1587014415862109,37
1587014415864130,37
1587014415866253,37
1587014415879759,37
1587014415892673,37
1587014415910773,37
1587014415932279,37
1587014415945063,37
1587014415947355,37
1587014415958677,37
1587014415960707,37
1587014415962205,37
1587014415963768,37
1587014415966798,37
1587014415971394,37
1587014415972452,37
1587014415974071,37
1587014415982216,37
1587014415989662,37
1587014416001659,37
1587014416009159,37
1587014416022565,37
1587014416050901,37
1587014416055474,37
1587014416067575,37
1587014416068758,37
1587014416069691,37
1587014416174735,37
1587014416176060,37
1587014416177179,37
1587014416188394,37
1587014416260967,13167
1587014416264597,13167
1587014416265434,13167
1587014416266384,13167
1587014416267178,13167
1587014416268073,13167
1587014416279882,13167
1587014416291152,13167
1587014416292292,13167
1587014416300231,13167
1587014416301205,13167
1587014416302301,13167
1587014416303732,13167
1587014416809538,9702
1587014416810755,9702
1587014416812428,9702
1587014416813401,9702
1587014416814074,9702
1587014416814454,9702
1587014416815045,9702
1587014416816879,9702
1587014416818879,9702
1587014416820249,9702
1587014417518679,61
1587014418834644,412
1587014419834882,9702
1587014419839583,9702
1587014419840348,9702
1587014420181419,61
1587014420194531,60
1587014420268746,60
1587014420307729,61
1587014420348988,20172
1587014420349683,20172
1587014420350443,20172
1587014420351099,20172
1587014420351834,20172
1587014420352493,20172
1587014420364886,20172
1587014420368045,20172
1587014420368755,20172
1587014420369654,20172
1587014420370271,20172
1587014420371270,20172
1587014420374614,61
1587014420388665,20172
1587014420564019,61
1587014420763875,61
1587014420903824,13945
1587014420905041,13945
1587014420905361,13945
1587014420906323,13945
1587014420936376,59
1587014421180710,59
1587014421391397,61
1587014421633851,62
1587014421909472,13945
1587014421912713,13945
1587014421913911,13945
1587014421914708,13945
1587014421915722,13945
1587014421917028,13945
1587014421917960,13945
1587014421918733,13945
1587014421919701,13945
1587014422445599,15511
1587014422446992,15511
1587014422448329,15511
1587014422449554,15511
1587014422450350,15511
1587014422453838,15511
1587014422463302,15511
1587014422472391,15511
1587014422486295,15511
1587014422490481,15511
1587014422491379,15511
1587014422493672,15511
1587014422498115,15511
1587014422537217,61
1587014423037286,16137
1587014423038902,16137
1587014423042454,16137
1587014423044329,16137
1587014423048793,16137
1587014423051115,16137
1587014423054517,16137
1587014423056481,16137
1587014423058724,16137
1587014423060559,16137
1587014423066615,16137
1587014423084849,16137
1587014423086871,16137
1587014423588597,15909
1587014423591181,15909
1587014423593954,15909
1587014423594973,15909
1587014423595660,15909
1587014423596711,15909
1587014423599578,15909
1587014423603899,15909
1587014423605131,15909
1587014423606809,15909
1587014423610382,15909
1587014423611625,15909
1587014423624335,15909
1587014424136489,16172
1587014424148120,16172
1587014424149480,16172
1587014425153774,16172
1587014425159111,16172
1587014425171260,16172
1587014425182649,16172
1587014425193700,16172
1587014425204971,16172
1587014425205751,16172
1587014425210861,16172
1587014425212706,16172
1587014425213697,16172
1587014426802919,18929
1587014426804263,18929
1587014426805369,18929
1587014426808367,18929
1587014426810181,18929
1587014426811442,18929
1587014426815971,18929
1587014426817078,18929
1587014426818056,18929
1587014426819121,18929
1587014426821166,18929
1587014426822495,18929
1587014426825524,18929
1587014427338624,19453
1587014427349692,19453
1587014427351018,19453
1587014427351665,19453
1587014427362696,19453
1587014427367898,19453
1587014427369449,19453
1587014427370677,19453
1587014427381665,19453
1587014427391136,19453
1587014427402914,19453
1587014427404487,19453
1587014427406919,19453
1587014427915922,18741
1587014427927686,18741
1587014427934493,18741
1587014427945675,18741
1587014427946613,18741
1587014427947280,18741
1587014427948886,18741
1587014427959663,18741
1587014427970763,18741
1587014427971842,18741
1587014427973864,18741
1587014427980513,18741
1587014427983358,18741
1587014428486867,19203
1587014428487894,19203
1587014428489884,19203
1587014428500958,19203
1587014428503364,19203
1587014428514758,19203
1587014429524675,19203
1587014429525510,19203
1587014429537311,19203
1587014429538378,19203
1587014429541060,19203
1587014429542223,19203
1587014429542860,19203
1587014430052155,22396
1587014430052542,22396
1587014430063726,22396
1587014430065429,22396
1587014430066267,22396
1587014430067456,22396
1587014430068003,22396
1587014430069319,22396
1587014430070636,22396
1587014430071551,22396
1587014430072067,22396
1587014430077807,22396
1587014430078688,22396
1587014430587838,20799
1587014430588966,20799
1587014430589815,20799
1587014430590460,20799
1587014430592028,20799
1587014430594304,20799
1587014430598667,20799
1587014430599959,20799
1587014430610993,20799
1587014430621662,20799
1587014430623540,20799
1587014430624032,20799
1587014430624953,20799
1587014431127728,22154
1587014431130322,22154
1587014431141725,22154
1587014431149464,22154
1587014431161680,22154
1587014431162749,22154
1587014431163340,22154
1587014431164696,22154
1587014431175675,22154
1587014431178102,22154
1587014431180138,22154
1587014431182855,22154
1587014431183622,22154
1587014431690768,21544
1587014431691496,21544
1587014432696655,21544
1587014432697541,21544
1587014432699035,21544
1587014432709635,21544
1587014432710506,21544
1587014432711053,21544
1587014432711585,21544
1587014432713081,21544
1587014432723994,21544
1587014432726083,21544
1587014432726704,21544
1587014433247784,25032
1587014433248622,25032
1587014433250006,25032
1587014433250300,25032
1587014433250999,25032
1587014433252276,25032
1587014433253291,25032
1587014433253988,25032
1587014433265778,25032
1587014433266536,25032
1587014433267619,25032
1587014433278653,25032
1587014433280322,25032
1587014433794974,23718
1587014433800880,23718
1587014433801618,23718
1587014433802754,23718
1587014433803371,23718
1587014433805385,23718
1587014433807605,23718
1587014433808882,23718
1587014433819647,23718
1587014433823212,23718
1587014433828632,23718
1587014433840318,23718
1587014433841366,23718
1587014434362147,23957
1587014434362913,23957
1587014434374303,23957
1587014434375327,23957
1587014434376145,23957
1587014434377005,23957
1587014434377875,23957
1587014434378594,23957
1587014434380744,23957
1587014434381696,23957
1587014434382481,23957
1587014434383243,23957
1587014434386118,23957
1587014434908663,23672
1587014434919664,23672
1587014434921458,23672
1587014434922270,23672
1587014434923059,23672
1587014434923974,23672
1587014434924683,23672
1587014434925467,23672
1587014434931036,23672
1587014434931905,23672
1587014434932714,23672
1587014434933589,23672
1587014434934360,23672
1587014435437044,24455
1587014435438065,24455
1587014435438967,24455
1587014435439686,24455
1587014435440387,24455
1587014435441233,24455
1587014435442319,24455
1587014435443172,24455
1587014435454688,24455
1587014435455914,24455
1587014435456628,24455
1587014435457447,24455
1587014435459374,24455
1587014435968637,24998
1587014435969338,24998
1587014435971965,24998
1587014435972857,24998
1587014435973613,24998
1587014435975130,24998
1587014435975915,24998
1587014435983321,24998
1587014435984215,24998
1587014435985911,24998
1587014435986704,24998
1587014435997640,24998
1587014436005022,24998
1587014436520142,25246
1587014436520737,25246
1587014436531750,25246
1587014436535657,25246
1587014436548316,25246
1587014436549701,25246
1587014436550646,25246
1587014436551066,25246
1587014436551390,25246
1587014436551874,25246
1587014436552157,25246
1587014436552827,25246
1587014436553802,25246
1587014437064574,26168
1587014437065463,26168
1587014437066512,26168
1587014437067166,26168
1587014437068601,26168
1587014437069859,26168
1587014437080804,26168
1587014437082189,26168
1587014437083127,26168
1587014437083970,26168
1587014437084646,26168
1587014437084941,26168
1587014437085511,26168
1587014437599664,25705
1587014437602134,25705
1587014437614118,25705
1587014437614939,25705
1587014437615682,25705
1587014437616206,25705
1587014437616704,25705
1587014437618037,25705
1587014437619716,25705
1587014437630700,25705
1587014437643661,25705
1587014437645242,25705
1587014437646562,25705
1587014438162675,26460
1587014438163530,26460
1587014438164612,26460
1587014438175655,26460
1587014438176490,26460
1587014438177160,26460
1587014438178199,26460
1587014438178827,26460
1587014438180878,26460
1587014438181837,26460
1587014438183081,26460
1587014439186740,26460
1587014439189150,26460
1587014439567700,61
1587014439690754,28701
1587014439691780,28701
1587014439692483,28701
1587014439693307,28701
1587014439694078,28701
1587014439694914,28701
1587014439695771,28701
1587014439697301,28701
1587014442706673,28701
1587014442717811,28701
1587014442718633,28701
1587014442719612,28701
1587014442720189,28701
1587014443222923,32562
1587014443223881,32562
1587014443224603,32562
1587014443225738,32562
1587014443226823,32562
1587014443227618,32562
1587014443238696,32562
1587014443249705,32562
1587014443250735,32562
1587014443251537,32562
1587014443252020,32562
1587014443258400,32562
1587014443259867,32562
1587014443779785,29496
1587014443781242,29496
1587014443781867,29496
1587014443784592,29496
1587014443785149,29496
1587014443786445,29496
1587014443786916,29496
1587014443788320,29496
1587014443799701,29496
1587014444802663,29496
1587014444813682,29496
1587014444815023,29496
1587014444817910,29496
1587014445326046,31494
1587014445326866,31494
1587014445328229,31494
1587014445328862,31494
1587014445329490,31494
1587014445330456,31494
1587014445331504,31494
1587014445343663,31494
1587014445344354,31494
1587014445345192,31494
1587014445355720,31494
1587014445356395,31494
1587014445357149,31494
1587014445863647,31514
1587014445867231,31514
1587014445878687,31514
1587014445879390,31514
1587014445879826,31514
1587014445880483,31514
1587014445881753,31514
1587014445883015,31514
1587014445883648,31514
1587014445885198,31514
1587014445885592,31514
1587014445886215,31514
1587014445886734,31514
1587014446398844,32356
1587014446399565,32356
1587014446400628,32356
1587014446401466,32356
1587014446402555,32356
1587014446413650,32356
1587014446414531,32356
1587014446415118,32356
1587014446415666,32356
1587014446426836,32356
1587014446428431,32356
1587014446429061,32356
1587014446429394,32356
1587014446944673,31433
1587014446946433,31433
1587014446947495,31433
1587014446948049,31433
1587014446948725,31433
1587014446950281,31433
1587014446951030,31433
1587014446952116,31433
1587014446963329,31433
1587014446963940,31433
1587014446964956,31433
1587014446975848,31433
1587014446986647,31433
1587014447498936,31438
1587014447509631,31438
1587014447510643,31438
1587014447511729,31438
1587014447512439,31438
1587014447513600,31438
1587014447514912,31438
1587014447516244,31438
1587014447517522,31438
1587014447520369,31438
1587014447521787,31438
1587014447523787,31438
1587014448526996,31438
1587014449029009,34012
1587014449030014,34012
1587014449030912,34012
1587014449032791,34012
1587014449034082,34012
1587014449044617,34012
1587014449048891,34012
1587014449050239,34012
1587014449057876,34012
1587014449059446,34012
1587014449060827,34012
1587014449061720,34012
1587014449065233,34012
1587014449576870,33023
1587014449577884,33023
1587014449582879,33023
1587014449584079,33023
1587014449584459,33023
1587014449587470,33023
1587014449604131,33023
1587014449605959,33023
1587014449607969,33023
1587014449608479,33023
1587014449609578,33023
1587014449612712,33023
1587014449613595,33023
1587014450116577,34025
1587014451118825,34025
1587014451119968,34025
1587014451130684,34025
1587014451131354,34025
1587014451131871,34025
1587014451132899,34025
1587014451133819,34025
1587014451135098,34025
1587014451135716,34025
1587014451136282,34025
1587014451137356,34025
1587014451138566,34025
1587014451640585,35667
1587014451641715,35667
1587014451653891,35667
1587014451654454,35667
1587014451666726,35667
1587014451668023,35667
1587014451669608,35667
1587014451671289,35667
1587014451671948,35667
1587014451672580,35667
1587014451673434,35667
1587014451677746,35667
1587014451688943,35667
1587014452195924,34551
1587014452196541,34551
1587014452196860,34551
1587014452199949,34551
1587014452201096,34551
1587014452202248,34551
1587014452202791,34551
1587014452203216,34551
1587014452215020,34551
1587014452229364,34551
1587014452230476,34551
1587014452233051,34551
1587014452233890,34551
1587014452737779,35306
1587014452738730,35306
1587014452746596,35306
1587014452749396,35306
1587014452750445,35306
1587014452763491,35306
1587014452764125,35306
1587014452765557,35306
1587014452768550,35306
1587014452769564,35306
1587014452770676,35306
1587014452795493,35306
1587014452797966,35306
1587014453299727,35140
1587014453300197,35140
1587014453302204,35140
1587014453302985,35140
1587014453303301,35140
1587014453303827,35140
1587014453304143,35140
1587014453304472,35140
1587014453315678,35140
1587014453317477,35140
1587014453318183,35140
1587014453319352,35140
1587014453319941,35140
1587014453831777,35897
1587014453832775,35897
1587014453846790,35897
1587014453848271,35897
1587014453859755,35897
1587014453860379,35897
1587014453861590,35897
1587014453862343,35897
1587014453863491,35897
1587014453874650,35897
1587014453875214,35897
1587014453888622,35897
1587014453889440,35897
1587014454407782,36111
1587014454414604,36111
1587014454415208,36111
1587014454425641,36111
1587014454428475,36111
1587014454429648,36111
1587014454440598,36111
1587014454453651,36111
1587014454454359,36111
1587014454454939,36111
1587014454455259,36111
1587014454456476,36111
1587014454467598,36111
1587014454980448,36346
1587014454981228,36346
1587014454982081,36346
1587014454983165,36346
1587014454993746,36346
1587014454995154,36346
1587014454995883,36346
1587014454996902,36346
1587014454998123,36346
1587014454998662,36346
1587014454999607,36346
1587014455010828,36346
1587014455011866,36346
1587014455523723,37107
1587014455524722,37107
1587014455526336,37107
1587014455527299,37107
1587014455528354,37107
1587014455535026,37107
1587014455535792,37107
1587014455536939,37107
1587014455547588,37107
1587014455558668,37107
1587014455569688,37107
1587014455570576,37107
1587014455571660,37107
1587014456075143,37285
1587014456076919,37285
1587014456077388,37285
1587014456078457,37285
1587014456078941,37285
1587014456079702,37285
1587014456091311,37285
1587014456092867,37285
1587014456093143,37285
1587014456143993,37285
1587014456144642,37285
1587014456155592,37285
1587014456156335,37285
1587014456660673,38399
1587014456661669,38399
1587014456662837,38399
1587014456663400,38399
1587014456664138,38399
1587014456665113,38399
1587014456667485,38399
1587014456669477,38399
1587014456680846,38399
1587014456691657,38399
1587014456702634,38399
1587014456704037,38399
1587014456704579,38399
1587014457216673,37908
1587014457218178,37908
1587014457229732,37908
1587014457231710,37908
1587014457242659,37908
1587014457243735,37908
1587014457245150,37908
1587014457246123,37908
1587014457246730,37908
1587014457247943,37908
1587014457248524,37908
1587014457249063,37908
1587014457260615,37908
1587014457764988,38144
1587014457775736,38144
1587014457777163,38144
1587014457787644,38144
1587014457788238,38144
1587014457788836,38144
1587014457789864,38144
1587014457790163,38144
1587014457790767,38144
1587014457791384,38144
1587014457792988,38144
1587014457794035,38144
1587014457795013,38144
1587014458296250,38372
1587014458297473,38372
1587014458308629,38372
1587014458310136,38372
1587014458310703,38372
1587014458311693,38372
1587014458311998,38372
1587014458322766,38372
1587014458323436,38372
1587014458324481,38372
1587014458325038,38372
1587014458326696,38372
1587014458327247,38372
1587014458833639,38975
1587014458833969,38975
1587014458834466,38975
1587014458834777,38975
1587014458835939,38975
1587014458836333,38975
1587014458836684,38975
1587014458837247,38975
1587014458837907,38975
1587014458839126,38975
1587014458839844,38975
1587014458852597,38975
1587014458863616,38975
1587014459366858,39521
1587014459368049,39521
1587014459371027,39521
1587014459371610,39521
1587014459372615,39521
1587014459373166,39521
1587014459373511,39521
1587014459374470,39521
1587014459375010,39521
1587014459376299,39521
1587014459378267,39521
1587014459389620,39521
1587014459400615,39521
1587014459906224,39302
1587014459906837,39302
1587014459907903,39302
1587014459908565,39302
1587014459908918,39302
1587014459909548,39302
1587014459909926,39302
1587014459911524,39302
1587014459920022,39302
1587014459930847,39302
1587014459931284,39302
1587014459932611,39302
1587014459932943,39302
1587014460443719,39593
1587014460445137,39593
1587014460449071,39593
1587014460449422,39593
1587014460450001,39593
1587014460451097,39593
1587014460461665,39593
1587014460470247,39593
1587014460471136,39593
1587014460471802,39593
1587014460472900,39593
1587014460473855,39593
1587014460474990,39593
1587014460984370,40560
1587014460986042,40560
1587014460996606,40560
1587014461007875,40560
1587014461008769,40560
1587014461009227,40560
1587014461010593,40560
1587014461010945,40560
1587014461012045,40560
1587014461013019,40560
1587014461013799,40560
1587014461015233,40560
1587014461016296,40560
1587014461525475,40412
1587014461526595,40412
1587014461527746,40412
1587014461528731,40412
1587014461529815,40412
1587014461530851,40412
1587014461531454,40412
1587014461531818,40412
1587014461532752,40412
1587014461533132,40412
1587014461533741,40412
1587014461534835,40412
1587014461535811,40412
1587014462043601,40678
1587014462051120,40678
1587014462052512,40678
1587014462053802,40678
1587014462054370,40678
1587014462055715,40678
1587014462056632,40678
1587014462057206,40678
1587014462058207,40678
1587014462068627,40678
1587014462069355,40678
1587014462071459,40678
1587014462072100,40678
1587014462574350,41689
1587014462595683,41689
1587014462597243,41689
1587014462598141,41689
1587014462598861,41689
1587014465614646,41689
1587014465625656,41689
1587014465636767,41689
1587014465637348,41689
1587014465648602,41689
1587014465650062,41689
1587014465660605,41689
1587014465672652,41689
1587014466191623,50329
1587014466203567,50329
1587014466204593,50329
1587014466217112,50329
1587014466217875,50329
1587014466219988,50329
1587014466230659,50329
1587014466232500,50329
1587014466232846,50329
1587014466245242,50329
1587014466246248,50329
1587014466247013,50329
1587014466247831,50329
1587014466753398,44771
1587014466754209,44771
1587014466755162,44771
1587014466755834,44771
1587014466756561,44771
1587014466757508,44771
1587014466759691,44771
1587014466760426,44771
1587014466772339,44771
1587014466774219,44771
1587014466784643,44771
1587014466788735,44771
1587014466800655,44771
1587014467303921,45100
1587014467314647,45100
1587014467326630,45100
1587014467327647,45100
1587014467329014,45100
1587014467339812,45100
1587014467351931,45100
1587014467353380,45100
1587014467356576,45100
1587014467357820,45100
1587014467358960,45100
1587014468366622,45100
1587014468367389,45100
1587014468886668,48142
1587014468897601,48142
1587014468899221,48142
1587014468900362,48142
1587014468901967,48142
1587014468902560,48142
1587014468914854,48142
1587014468915579,48142
1587014468926857,48142
1587014468928293,48142
1587014468928642,48142
1587014468929160,48142
1587014468929638,48142
1587014469441677,47175
1587014469442324,47175
1587014469443779,47175
1587014469455621,47175
1587014469456815,47175
1587014469467613,47175
1587014469469143,47175
1587014469469785,47175
1587014469471671,47175
1587014469472486,47175
1587014469473881,47175
1587014469474614,47175
1587014469482681,47175
1587014469985622,47736
1587014469986620,47736
1587014469989095,47736
1587014469989778,47736
1587014469992931,47736
1587014469993855,47736
1587014469994790,47736
1587014469995737,47736
1587014470007607,47736
1587014470021364,47736
1587014470023441,47736
1587014470024575,47736
1587014470026087,47736
1587014470543989,48221
1587014470546739,48221
1587014470548365,48221
1587014470549558,48221
1587014470550252,48221
1587014470551826,48221
1587014470553365,48221
1587014470554117,48221
1587014470555578,48221
1587014470558063,48221
1587014470570382,48221
1587014470571152,48221
1587014470573422,48221
1587014471084203,49086
1587014471087281,49086
1587014471088453,49086
1587014471089292,49086
1587014471090957,49086
1587014471093155,49086
1587014471105064,49086
1587014471107969,49086
1587014471108775,49086
1587014471109322,49086
1587014471111104,49086
1587014471111767,49086
1587014471112757,49086
1587014471624545,48417
1587014471625527,48417
1587014471627734,48417
1587014471629663,48417
1587014471631832,48417
1587014471632588,48417
1587014471633218,48417
1587014471634094,48417
1587014471634929,48417
1587014471635235,48417
1587014471636154,48417
1587014471636805,48417
1587014471649726,48417
1587014472151158,49886
1587014472151858,49886
1587014472152881,49886
1587014472153716,49886
1587014472154374,49886
1587014472155371,49886
1587014472167060,49886
1587014472169127,49886
1587014472170297,49886
1587014472171315,49886
1587014472183048,49886
1587014472184077,49886
1587014472185766,49886
1587014472689762,49115
1587014472690664,49115
1587014472691333,49115
1587014472692053,49115
1587014472692554,49115
1587014472703638,49115
1587014472704267,49115
1587014472704835,49115
1587014472718943,49115
1587014472720704,49115
1587014472721227,49115
1587014472723201,49115
1587014472733915,49115
1587014473239767,50273
1587014473240310,50273
1587014473241521,50273
1587014473256677,50273
1587014473258039,50273
1587014473258612,50273
1587014473259522,50273
1587014473270722,50273
1587014473272494,50273
1587014473286979,50273
1587014473289356,50273
1587014473300713,50273
1587014473301549,50273
1587014473809273,50109
1587014473811886,50109
1587014473812622,50109
1587014473813126,50109
1587014473813720,50109
1587014473814869,50109
1587014473816879,50109
1587014473817852,50109
1587014473828778,50109
1587014473829346,50109
1587014473830753,50109
1587014473841676,50109
1587014473842510,50109
1587014474345377,50751
1587014474346190,50751
1587014474346928,50751
1587014474357644,50751
1587014474368696,50751
1587014474379772,50751
1587014474380559,50751
1587014474381645,50751
1587014474382255,50751
1587014474383256,50751
1587014474383874,50751
1587014474385158,50751
1587014474397731,50751
1587014474907341,51432
1587014474919580,51432
1587014474920677,51432
1587014474921387,51432
1587014474922156,51432
1587014474922915,51432
1587014474923656,51432
1587014474924500,51432
1587014474925247,51432
1587014474925956,51432
1587014474926931,51432
1587014474928067,51432
1587014474930080,51432
1587014475435271,51545
1587014475436349,51545
1587014475437338,51545
1587014475438293,51545
1587014475439126,51545
1587014475439886,51545
1587014475441372,51545
1587014475443374,51545
1587014475444110,51545
1587014475445036,51545
1587014475446162,51545
1587014475450225,51545
1587014475461654,51545
1587014475969833,51721
1587014475971101,51721
1587014475971607,51721
1587014475972569,51721
1587014475973983,51721
1587014475974950,51721
1587014475975805,51721
1587014475976666,51721
1587014475977556,51721
1587014475978596,51721
1587014475983632,51721
1587014475984323,51721
1587014475985838,51721
1587014476492973,52765
1587014476494934,52765
1587014476496871,52765
1587014476500665,52765
1587014476501583,52765
1587014476502950,52765
1587014476504613,52765
1587014476505764,52765
1587014476508016,52765
1587014476509075,52765
1587014476510623,52765
1587014476512203,52765
1587014476513386,52765
1587014477024222,52861
1587014477025643,52861
1587014477028711,52861
1587014477031217,52861
1587014477033139,52861
1587014477037545,52861
1587014477038735,52861
1587014477040939,52861
1587014477042058,52861
1587014477044100,52861
1587014477045389,52861
1587014477058222,52861
1587014477060205,52861
1587014477572851,53167
1587014477574957,53167
1587014477589941,53167
1587014477591943,53167
1587014477594336,53167
1587014477600997,53167
1587014477602481,53167
1587014477604257,53167
1587014477605692,53167
1587014477607455,53167
1587014477608507,53167
1587014477610157,53167
1587014477612164,53167
1587014478114349,55285
1587014478123269,55285
1587014478125092,55285
1587014478127684,55285
1587014478129439,55285
1587014478131186,55285
1587014478135905,55285
1587014478139611,55285
1587014478152046,55285
1587014478153231,55285
1587014478154824,55285
1587014478155963,55285
1587014478157599,55285
1587014478662834,54151
1587014478664540,54151
1587014478666158,54151
1587014478666989,54151
1587014478668110,54151
1587014478669831,54151
1587014478670975,54151
1587014478672899,54151
1587014478673873,54151
1587014478675214,54151
1587014478676462,54151
1587014478677573,54151
1587014478678453,54151
1587014479182700,55310
1587014479183465,55310
1587014479184415,55310
1587014479185924,55310
1587014479186942,55310
1587014479188700,55310
1587014479190243,55310
1587014479191845,55310
1587014479193237,55310
1587014479205231,55310
1587014479206705,55310
1587014479207590,55310
1587014479209241,55310
1587014479734697,56243
1587014479736707,56243
1587014479737866,56243
1587014479739958,56243
1587014479741915,56243
1587014479743552,56243
1587014479745278,56243
1587014479747189,56243
1587014479748665,56243
1587014479750088,56243
1587014479751196,56243
1587014479753076,56243
1587014479754790,56243
1587014480270522,55723
1587014480273852,55723
1587014480275619,55723
1587014480278284,55723
1587014480280612,55723
1587014480282628,55723
1587014480283855,55723
1587014480285307,55723
1587014480288538,55723
1587014480290306,55723
1587014480292773,55723
1587014480293701,55723
1587014480305112,55723
1587014480816245,56628
1587014480818306,56628
1587014480822254,56628
1587014480823820,56628
1587014480825361,56628
1587014480827730,56628
1587014480828588,56628
1587014480829447,56628
1587014480832833,56628
1587014480845615,56628
1587014480846542,56628
1587014480847510,56628
1587014480848259,56628
1587014481356551,57604
1587014481360960,57604
1587014481362323,57604
1587014481364021,57604
1587014481368200,57604
1587014481372276,57604
1587014481373449,57604
1587014481376442,57604
1587014481378058,57604
1587014481379087,57604
1587014481381552,57604
1587014481382540,57604
1587014481383246,57604
1587014481890983,56863
1587014481892980,56863
1587014481894109,56863
1587014481895887,56863
1587014481897512,56863
1587014481901163,56863
1587014481906211,56863
1587014481908619,56863
1587014481934013,56863
1587014481956569,56863
1587014481959316,56863
1587014481961684,56863
1587014481962852,56863
1587014482470533,57864
1587014482473095,57864
1587014482474898,57864
1587014482476854,57864
1587014482483071,57864
1587014482484816,57864
1587014482497150,57864
1587014482500487,57864
1587014482503101,57864
1587014482517698,57864
1587014482520117,57864
1587014482521349,57864
1587014482530698,57864
1587014483043778,59168
1587014483046260,59168
1587014483048750,59168
1587014483052198,59168
1587014483054162,59168
1587014483055854,59168
1587014483058999,59168
1587014483060706,59168
1587014483074301,59168
1587014483076694,59168
1587014483079518,59168
1587014483080216,59168
1587014483080994,59168
1587014483585492,57971
1587014483589465,57971
1587014483592087,57971
1587014483594129,57971
1587014483596283,57971
1587014483597962,57971
1587014483599502,57971
1587014483602086,57971
1587014483603935,57971
1587014483606190,57971
1587014483608712,57971
1587014483609833,57971
1587014483611703,57971
1587014484126276,59441
1587014484131593,59441
1587014484132903,59441
1587014484134764,59441
1587014484137119,59441
1587014484138736,59441
1587014484145867,59441
1587014484148049,59441
1587014484149688,59441
1587014484151218,59441
1587014484153220,59441
1587014484154852,59441
1587014484159448,59441
1587014484671848,59526
1587014484672770,59526
1587014484676185,59526
1587014484677336,59526
1587014484678585,59526
1587014484680444,59526
1587014484686398,59526
1587014484688362,59526
1587014484690095,59526
1587014484694320,59526
1587014484706345,59526
1587014484707396,59526
1587014484708217,59526
1587014485216389,59178
1587014485218261,59178
1587014485220167,59178
1587014485220930,59178
1587014485221994,59178
1587014486225678,59178
1587014486236698,59178
1587014486237698,59178
1587014486238590,59178
1587014486239645,59178
1587014486240627,59178
1587014486251621,59178
1587014486252346,59178
1587014486913907,60987
1587014486914277,60987
1587014486915119,60987
1587014486920115,60987
1587014486920935,60987
1587014486921620,60987
1587014486923140,60987
1587014486924774,60987
1587014486931259,60987
1587014486932516,60987
1587014486946753,60987
1587014486951815,60987
1587014486968113,60987
1587014487487310,60414
1587014487488916,60414
1587014487499992,60414
1587014488503921,60414
1587014488504815,60414
1587014488505623,60414
1587014488506505,60414
1587014488508890,60414
1587014488509631,60414
1587014497571868,4
1587014503550958,60414
1587014503561667,60414
1587014503572634,60414
1587014503583750,60414
1587014504090204,89516
1587014504093073,89516
1587014504094237,89516
1587014504095071,89516
1587014504108256,89516
1587014504120037,89516
1587014504120842,89516
1587014504122623,89516
1587014504124104,89516
1587014504145446,89516
1587014504157038,89516
1587014504158846,89516
1587014504173918,89516
1587014504510243,4
1587014504695385,72091
1587014507704430,72091
1587014507705031,72091
1587014507715774,72091
1587014507716912,72091
1587014507718600,72091
1587014507729796,72091
1587014507730656,72091
1587014507732555,72091
1587014507733072,72091
1587014507743929,72091
1587014507744835,72091
1587014507756078,72091
1587014508376511,75298
1587014508378788,75298
1587014508390092,75298
1587014508390640,75298
1587014508402542,75298
1587014508403614,75298
1587014508404561,75298
1587014508405386,75298
1587014508420285,75298
1587014508422380,75298
1587014508425186,75298
1587014508436633,75298
1587014508449567,75298
1587014508959265,73004
1587014508960240,73004
1587014508961195,73004
1587014508962341,73004
1587014508963321,73004
1587014508964353,73004
1587014508976849,73004
1587014508978378,73004
1587014508986137,73004
1587014509003105,73004
1587014509006378,73004
1587014509018694,73004
1587014509030945,73004
1587014509542785,73735
1587014509543387,73735
1587014509544134,73735
1587014509555061,73735
1587014509556593,73735
1587014509558273,73735
1587014509569914,73735
1587014509581923,73735
1587014509592933,73735
1587014509603644,73735
1587014509614732,73735
1587014509626090,73735
1587014509638859,73735
1587014510156769,74549
1587014510157523,74549
1587014510159677,74549
1587014510170865,74549
1587014510181704,74549
1587014513189884,74549
1587014513191142,74549
1587014514193992,74549
1587014514194616,74549
1587014514195199,74549
1587014514197134,74549
1587014514207693,74549
1587014514219069,74549
1587014514722909,79359
1587014514733748,79359
1587014514735776,79359
1587014514739615,79359
1587014514740549,79359
1587014514741814,79359
1587014514751946,79359
1587014514753552,79359
1587014514754971,79359
1587014514758824,79359
1587014514759848,79359
1587014514771962,79359
1587014514772344,79359
1587014515282713,76473
1587014515283832,76473
1587014515284740,76473
1587014515285699,76473
1587014515286672,76473
1587014515297707,76473
1587014515308979,76473
1587014515319722,76473
1587014515320197,76473
1587014515330688,76473
1587014515341883,76473
1587014515352665,76473
1587014516868833,4
1587014517141810,4
1587014518369731,76473
1587014518874955,83196
1587014518875581,83196
1587014518875995,83196
1587014518877792,83196
1587014518878332,83196
1587014518880087,83196
1587014518882361,83196
1587014518884977,83196
1587014518918008,83196
1587014518928722,83196
1587014518933689,83196
1587014518944760,83196
1587014518955721,83196
1587014519467944,79259
1587014519468739,79259
1587014519469630,79259
1587014519470537,79259
1587014519472301,79259
1587014519472917,79259
1587014519474767,79259
1587014519477036,79259
1587014519488045,79259
1587014519498708,79259
1587014519499533,79259
1587014519501231,79259
1587014519511797,79259
1587014519967389,61
1587014520013661,79333
1587014520024895,79333
1587014520025426,79333
1587014520025802,79333
1587014520026186,79333
1587014520027091,79333
1587014520038015,79333
1587014520041852,79333
1587014520044668,79333
1587014520055982,79333
1587014520068965,79333
1587014520074585,79333
1587014520085716,79333
1587014520603877,79906
1587014520614728,79906
1587014520625823,79906
1587014520628530,79906
1587014520629586,79906
1587014520641044,79906
1587014520642172,79906
1587014520643149,79906
1587014520646032,79906
1587014520647913,79906
1587014520658921,79906
1587014520659727,79906
1587014520660331,79906
1587014521161759,80233
1587014521163497,80233
1587014521165149,80233
1587014521175875,80233
1587014521177933,80233
1587014521178977,80233
1587014521179646,80233
1587014521180825,80233
1587014521181463,80233
1587014521184962,80233
1587014521187197,80233
1587014521197697,80233
1587014521208749,80233
1587014521713726,80748
1587014521715626,80748
1587014521717026,80748
1587014521728030,80748
1587014521728931,80748
1587014521731064,80748
1587014521731448,80748
1587014521742983,80748
1587014521745792,80748
1587014521747355,80748
1587014521758867,80748
1587014521759373,80748
1587014521761466,80748
1587014522273852,82165
1587014522274482,82165
1587014522285781,82165
1587014522288324,82165
1587014522299737,82165
1587014522303508,82165
1587014522306097,82165
1587014522306545,82165
1587014522308475,82165
1587014522309476,82165
1587014522320968,82165
1587014522332518,82165
1587014522333493,82165
1587014522844865,83763
1587014522845891,83763
1587014522847700,83763
1587014522850634,83763
1587014522852341,83763
1587014522865366,83763
1587014522877704,83763
1587014522888824,83763
1587014522889879,83763
1587014522890648,83763
1587014522892251,83763
1587014522893243,83763
1587014522896077,83763
1587014523402204,85197
1587014523403595,85197
1587014523404255,85197
1587014523405234,85197
1587014523406865,85197
1587014523410532,85197
1587014523421756,85197
1587014523426993,85197
1587014523427334,85197
1587014523428965,85197
1587014523440045,85197
1587014523451285,85197
1587014523451988,85197
1587014523973765,84335
1587014523974708,84335
1587014523975370,84335
1587014523976258,84335
1587014523979699,84335
1587014523981469,84335
1587014523983205,84335
1587014523985850,84335
1587014523987291,84335
1587014523987779,84335
1587014523991743,84335
1587014523993951,84335
1587014524005842,84335
1587014524514708,85169
1587014524525775,85169
1587014524536774,85169
1587014524539309,85169
1587014524550677,85169
1587014524551663,85169
1587014525557055,85169
1587014525567724,85169
1587014525568423,85169
1587014525570029,85169
1587014525580664,85169
1587014525581353,85169
1587014525581882,85169
1587014526084580,88928
1587014526098773,88928
1587014526100200,88928
1587014526101172,88928
1587014526113467,88928
1587014526116125,88928
1587014526119303,88928
1587014526121300,88928
1587014526135747,88928
1587014526136597,88928
1587014526149442,88928
1587014529166225,88928
1587014529167674,88928
1587014529669304,92421
1587014529672682,92421
1587014529675146,92421
1587014529691467,92421
1587014529694662,92421
1587014529699631,92421
1587014529702492,92421
1587014529706235,92421
1587014529707103,92421
1587014530709463,92421
1587014530720474,92421
1587014530731894,92421
1587014530733264,92421
1587014531255641,92145
1587014531268491,92145
1587014531269980,92145
1587014531272383,92145
1587014531276870,92145
1587014531289268,92145
1587014531291709,92145
1587014531293431,92145
1587014531298045,92145
1587014538686229,92145
1587014538688223,92145
1587014538701103,92145
1587014538704305,92145
1587014539208163,107174
1587014539219538,107174
1587014539222807,107174
1587014539236700,107174
1587014539248066,107174
1587014539253320,107174
1587014539254170,107174
1587014539266532,107174
1587014539267339,107174
1587014539270731,107174
1587014539282829,107174
1587014539294567,107174
1587014539296776,107174
1587014539801700,96171
1587014539802866,96171
1587014539804773,96171
1587014539809342,96171
1587014539810906,96171
1587014539816969,96171
1587014539817613,96171
1587014539818779,96171
1587014539820862,96171
1587014539824229,96171
1587014539824853,96171
1587014539846817,96171
1587014539861926,96171
1587014540375497,98257
1587014540378785,98257
1587014540380342,98257
1587014540385464,98257
1587014540389303,98257
1587014540390983,98257
1587014540394970,98257
1587014540398080,98257
1587014540411478,98257
1587014540412012,98257
1587014540416147,98257
1587014540429851,98257
1587014540430293,98257
1587014540951950,97135
1587014540964158,97135
1587014540968389,97135
1587014540973695,97135
1587014540974581,97135
1587014540988551,97135
1587014540991324,97135
1587014541002989,97135
1587014541007855,97135
1587014541009434,97135
1587014541012780,97135
1587014541013211,97135
1587014541015528,97135
1587014541523981,98932
1587014541527583,98932
1587014541528057,98932
1587014541528785,98932
1587014541529597,98932
1587014541537528,98932
1587014541542051,98932
1587014541556804,98932
1587014541561882,98932
1587014541574791,98932
1587014541580197,98932
1587014541581129,98932
1587014541581873,98932
1587014542095515,98827
1587014542097178,98827
1587014542100057,98827
1587014542101721,98827
1587014542107692,98827
1587014542109831,98827
1587014542112463,98827
1587014542115050,98827
1587014542127766,98827
1587014542131551,98827
1587014542143005,98827
1587014542158515,98827
1587014542159244,98827
1587014542665114,99720
1587014542669991,99720
1587014542673927,99720
1587014542675796,99720
1587014542677389,99720
1587014542678241,99720
1587014542679810,99720
1587014542683885,99720
1587014542686422,99720
1587014542687263,99720
1587014542689641,99720
1587014542691671,99720
1587014542693675,99720
1587014543198054,98827
1587014543212666,98827
1587014543226774,98827
1587014543230199,98827
1587014543231543,98827
1587014543235857,98827
1587014543246815,98827
1587014543259473,98827
1587014543281487,98827
1587014543282215,98827
1587014543292994,98827
1587014543304864,98827
1587014543305740,98827
1587014543829594,98797
1587014543830086,98797
1587014543832398,98797
1587014543834667,98797
1587014543836912,98797
1587014543837361,98797
1587014543839390,98797
1587014543851196,98797
1587014543853371,98797
1587014543866703,98797
1587014543867274,98797
1587014543891567,98797
1587014543892351,98797
1587014544408713,100588
1587014544421616,100588
1587014544436728,100588
1587014544438825,100588
1587014544442524,100588
1587014544455539,100588
1587014544466810,100588
1587014544469636,100588
1587014544470657,100588
1587014544474198,100588
1587014544474741,100588
1587014544475204,100588
1587014544488639,100588
1587014545002577,102278
1587014545005295,102278
1587014545007740,102278
1587014545008115,102278
1587014545019690,102278
1587014545025708,102278
1587014545026489,102278
1587014545028912,102278
1587014545041905,102278
1587014545054563,102278
1587014545055921,102278
1587014545061718,102278
1587014545072967,102278
1587014545577894,100979
1587014545580029,100979
1587014545582058,100979
1587014545582929,100979
1587014545594327,100979
1587014545595111,100979
1587014545595481,100979
1587014545597630,100979
1587014545601581,100979
1587014545612716,100979
1587014545615535,100979
1587014545617781,100979
1587014545630235,100979
1587014546149706,101554
1587014546161776,101554
1587014546166052,101554
1587014546177478,101554
1587014546189508,101554
1587014546202494,101554
1587014546206441,101554
1587014546218514,101554
1587014546223941,101554
1587014546234875,101554
1587014546248420,101554
1587014546261481,101554
1587014546263443,101554
1587014546778773,102529
1587014546793051,102529
1587014546796444,102529
1587014546799976,102529
1587014546803143,102529
1587014546804156,102529
1587014546806258,102529
1587014546815392,102529
1587014546818192,102529
1587014546830745,102529
1587014546831591,102529
1587014546834845,102529
1587014546852065,102529
1587014547522579,101602
1587014547536484,101602
1587014547540816,101602
1587014547541223,101602
1587014547556546,101602
1587014547567787,101602
1587014547570222,101602
1587014547572787,101602
1587014547586526,101602
1587014547595818,101602
1587014547597521,101602
1587014547598292,101602
1587014547600669,101602
1587014548109821,103876
1587014548124135,103876
1587014548128266,103876
1587014548141521,103876
1587014548145130,103876
1587014548157512,103876
1587014548158341,103876
1587014548160714,103876
1587014548165479,103876
1587014548166020,103876
1587014548178513,103876
1587014548190483,103876
1587014548194790,103876
1587014548701741,103298
1587014548716555,103298
1587014548730481,103298
1587014548733224,103298
1587014548735421,103298
1587014548749197,103298
1587014548761738,103298
1587014548770477,103298
1587014548774304,103298
1587014548799522,103298
1587014548800196,103298
1587014548802338,103298
1587014548804850,103298
1587014549322778,103815
1587014549326766,103815
1587014549328974,103815
1587014549332644,103815
1587014549345903,103815
1587014549348112,103815
1587014549360592,103815
1587014549363116,103815
1587014549365110,103815
1587014549378245,103815
1587014549393704,103815
1587014549397752,103815
1587014549411531,103815
1587014549918726,104582
1587014549919260,104582
1587014549922789,104582
1587014549923326,104582
1587014549923698,104582
1587014549938392,104582
1587014549942156,104582
1587014549956119,104582
1587014549969930,104582
1587014549983556,104582
1587014549984634,104582
1587014549995958,104582
1587014550007491,104582
1587014550512425,104553
1587014550526676,104553
1587014550528873,104553
1587014550540592,104553
1587014550565782,104553
1587014550566825,104553
1587014550580003,104553
1587014550582170,104553
1587014550595441,104553
1587014550596479,104553
1587014550609485,104553
1587014550622544,104553
1587014550625281,104553
1587014551131633,104794
1587014551135573,104794
1587014551137878,104794
1587014551140766,104794
1587014551153185,104794
1587014551164546,104794
1587014551167920,104794
1587014551190835,104794
1587014551195193,104794
1587014551198813,104794
1587014551222545,104794
1587014551227110,104794
1587014551241147,104794
1587014551754728,105272
1587014551758599,105272
1587014551760316,105272
1587014551763483,105272
1587014551766084,105272
1587014551778905,105272
1587014551793116,105272
1587014551793641,105272
1587014551796927,105272
1587014551799805,105272
1587014551803396,105272
1587014551807779,105272
1587014551809562,105272
1587014552372495,105918
1587014552373266,105918
1587014552374723,105918
1587014552377668,105918
1587014552389858,105918
1587014552392082,105918
1587014552395879,105918
1587014552399570,105918
1587014552402434,105918
1587014552407529,105918
1587014552407930,105918
1587014552423239,105918
1587014552424968,105918
1587014552937370,106288
1587014552941100,106288
1587014552941918,106288
1587014552948875,106288
1587014552952245,106288
1587014552954471,106288
1587014552967487,106288
1587014552979517,106288
1587014552981877,106288
1587014552986701,106288
1587014552989662,106288
1587014552991558,106288
1587014552994836,106288
1587014553510748,106993
1587014553513768,106993
1587014553526818,106993
1587014553541527,106993
1587014553542382,106993
1587014553562497,106993
1587014553568213,106993
1587014553569273,106993
1587014553572612,106993
1587014553575782,106993
1587014553577915,106993
1587014553580527,106993
1587014553580895,106993
1587014554095209,106590
1587014554095802,106590
1587014554097817,106590
1587014554119527,106590
1587014554125618,106590
1587014554129239,106590
1587014554152514,106590
1587014554155580,106590
1587014554171285,106590
1587014554185242,106590
1587014554189248,106590
1587014554200148,106590
1587014554216533,106590
1587014554718529,108743
1587014554732518,108743
1587014554736132,108743
1587014554740706,108743
1587014554752119,108743
1587014554767274,108743
1587014554778511,108743
1587014554785585,108743
1587014554798523,108743
1587014554809499,108743
1587014554827506,108743
1587014554841583,108743
1587014554845788,108743
1587014555352644,107770
1587014555364923,107770
1587014555366069,107770
1587014555377651,107770
1587014555381753,107770
1587014555394575,107770
1587014555397270,107770
1587014555400257,107770
1587014555404362,107770
1587014555418847,107770
1587014555431832,107770
1587014555447163,107770
1587014555468522,107770
1587014555972601,108097
1587014555975139,108097
1587014555978182,108097
1587014555991735,108097
1587014555992177,108097
1587014556004730,108097
1587014556006267,108097
1587014556008265,108097
1587014556010834,108097
1587014556028519,108097
1587014556041655,108097
1587014556046275,108097
1587014556689591,108097
1587014557199772,110691
1587014557202732,110691
1587014557203372,110691
1587014557206221,110691
1587014557208275,110691
1587014557212128,110691
1587014557230067,110691
1587014557231777,110691
1587014557245677,110691
1587014557248648,110691
1587014557251881,110691
1587014557258060,110691
1587014557260435,110691
1587014557765710,110294
1587014557766637,110294
1587014557769308,110294
1587014557769953,110294
1587014557772535,110294
1587014557777954,110294
1587014557789553,110294
1587014557803707,110294
1587014557807188,110294
1587014557811902,110294
1587014557812629,110294
1587014557816156,110294
1587014557819001,110294
1587014558324638,110753
1587014558327586,110753
1587014558341172,110753
1587014558345170,110753
1587014558347733,110753
1587014558363544,110753
1587014558364321,110753
1587014558368747,110753
1587014558372570,110753
1587014558383898,110753
1587014558388316,110753
1587014558396894,110753
1587014558400613,110753
1587014558905746,110910
1587014558907642,110910
1587014558909474,110910
1587014558913929,110910
1587014558920778,110910
1587014558963358,110910
1587014558976537,110910
1587014558980817,110910
1587014558993711,110910
1587014558996517,110910
1587014559000336,110910
1587014559008153,110910
1587014559020778,110910
1587014559540183,111495
1587014559546068,111495
1587014559547798,111495
1587014559552020,111495
1587014559558724,111495
1587014559561787,111495
1587014559574678,111495
1587014559590729,111495
1587014559592518,111495
1587014559594504,111495
1587014559599813,111495
1587014559606111,111495
1587014559606832,111495
1587014560149712,111768
1587014560162521,111768
1587014560175512,111768
1587014560179089,111768
1587014560183122,111768
1587014560199535,111768
1587014560201896,111768
1587014560216550,111768
1587014560222534,111768
1587014560226037,111768
1587014560226470,111768
1587014560229313,111768
1587014560241886,111768
1587014560744617,112907
1587014560773521,112907
1587014560777211,112907
1587014560792215,112907
1587014560805527,112907
1587014560814676,112907
1587014560817223,112907
1587014560829140,112907
1587014560830235,112907
1587014560833147,112907
1587014560837457,112907
1587014560839981,112907
1587014560842080,112907
1587014561368474,112546
1587014561381570,112546
1587014561394723,112546
1587014561395659,112546
1587014561399399,112546
1587014561411811,112546
1587014561416220,112546
1587014561429754,112546
1587014561442991,112546
1587014561444684,112546
1587014561446672,112546
1587014561447506,112546
1587014561450437,112546
1587014561962586,112935
1587014561963730,112935
1587014561966940,112935
1587014561969750,112935
1587014561982958,112935
1587014561983641,112935
1587014561997519,112935
1587014562000111,112935
1587014562002653,112935
1587014562006343,112935
1587014562008932,112935
1587014562013998,112935
1587014562025627,112935
1587014562527817,113633
1587014562541890,113633
1587014562543220,113633
1587014562548594,113633
1587014562553239,113633
1587014562567119,113633
1587014562570216,113633
1587014562584671,113633
1587014562587086,113633
1587014562592584,113633
1587014562603879,113633
1587014562607160,113633
1587014562611329,113633
1587014563125606,115118
1587014563128601,115118
1587014563129845,115118
1587014563141546,115118
1587014563144253,115118
1587014563152349,115118
1587014563155492,115118
1587014563156610,115118
1587014563160308,115118
1587014563161162,115118
1587014564381218,115118
1587014564385003,115118
1587014564396925,115118
1587014564904487,117348
1587014564907356,117348
1587014564908606,117348
1587014564909039,117348
1587014564910474,117348
1587014564926943,117348
1587014564928074,117348
1587014564935253,117348
1587014564940662,117348
1587014564944860,117348
1587014564957737,117348
1587014564958293,117348
1587014564961036,117348
1587014565471226,115872
1587014565476029,115872
1587014565479550,115872
1587014565482762,115872
1587014565493946,115872
1587014565495138,115872
1587014565506523,115872
1587014565508882,115872
1587014565514392,115872
1587014565517920,115872
1587014565533556,115872
1587014565546654,115872
1587014565555687,115872
1587014566067897,115829
1587014566069069,115829
1587014566070431,115829
1587014566075899,115829
1587014566087634,115829
1587014566094045,115829
1587014566111167,115829
1587014566141507,115829
1587014566144701,115829
1587014566149187,115829
1587014566164123,115829
1587014566180805,115829
1587014566183541,115829
1587014566707072,116590
1587014566720574,116590
1587014566725328,116590
1587014566741021,116590
1587014566754297,116590
1587014566754869,116590
1587014566766181,116590
1587014566770944,116590
1587014566772048,116590
1587014566784722,116590
1587014566787310,116590
1587014566791366,116590
1587014566804555,116590
1587014567310144,117356
1587014567326606,117356
1587014567329540,117356
1587014567330762,117356
1587014567331755,117356
1587014567336029,117356
1587014568350109,117356
1587014568366593,117356
1587014568373260,117356
1587014568388556,117356
1587014568389529,117356
1587014568394982,117356
1587014568396066,117356
1587014568912175,119745
1587014568919532,119745
1587014568923908,119745
1587014568945967,119745
1587014568955136,119745
1587014568959236,119745
1587014568970899,119745
1587014568985472,119745
1587014568987902,119745
1587014568991005,119745
1587014568993709,119745
1587014568996892,119745
1587014569008162,119745
1587014569523758,118608
1587014569535846,118608
1587014569540591,118608
1587014569541393,118608
1587014569542706,118608
1587014569546252,118608
1587014569547224,118608
1587014569553257,118608
1587014569555798,118608
1587014569577550,118608
1587014569578107,118608
1587014569580556,118608
1587014569585250,118608
1587014570096089,119070
1587014570112212,119070
1587014570115492,119070
1587014570117825,119070
1587014570120981,119070
1587014570123134,119070
1587014570140608,119070
1587014570144081,119070
1587014570158901,119070
1587014570161084,119070
1587014570164642,119070
1587014570170270,119070
1587014570173304,119070
1587014570675728,119365
1587014570680860,119365
1587014570694044,119365
1587014570697073,119365
1587014570699522,119365
1587014570705383,119365
1587014570708875,119365
1587014570710169,119365
1587014570711903,119365
1587014570727630,119365
1587014570730374,119365
1587014570730950,119365
1587014570735200,119365
1587014571275803,119169
1587014571277468,119169
1587014571281991,119169
1587014571287622,119169
1587014571299086,119169
1587014571301864,119169
1587014571303474,119169
1587014571304531,119169
1587014571316386,119169
1587014571319478,119169
1587014571323264,119169
1587014571334754,119169
1587014571348352,119169
1587014571853481,120358
1587014571867960,120358
1587014571871623,120358
1587014572497656,120358
1587014572500644,120358
1587014572504093,120358
1587014572516795,120358
1587014572521613,120358
1587014572522292,120358
1587014572525042,120358
1587014572529234,120358
1587014572529904,120358
1587014572531244,120358
1587014573044317,120797
1587014573050295,120797
1587014573054612,120797
1587014573057256,120797
1587014573061223,120797
1587014573064804,120797
1587014573067471,120797
1587014573069289,120797
1587014573074159,120797
1587014573075007,120797
1587014573077811,120797
1587014573081392,120797
1587014573094826,120797
1587014573596760,122042
1587014573601540,122042
1587014573604849,122042
1587014573619373,122042
1587014573622689,122042
1587014573623907,122042
1587014573625077,122042
1587014573629510,122042
1587014573632258,122042
1587014573633622,122042
1587014573639822,122042
1587014573643658,122042
1587014573644086,122042
1587014574156290,121301
1587014574156729,121301
1587014574160433,121301
1587014574172956,121301
1587014574176242,121301
1587014574177849,121301
1587014574182088,121301
1587014574184315,121301
1587014574188898,121301
1587014574193435,121301
1587014574196948,121301
1587014574200825,121301
1587014574222799,121301
1587014574733513,122279
1587014574734758,122279
1587014574736073,122279
1587014574740249,122279
1587014574753785,122279
1587014574757103,122279
1587014574759777,122279
1587014574764761,122279
1587014574767240,122279
1587014574769662,122279
1587014574775339,122279
1587014574786081,122279
1587014574811881,122279
1587014575318941,122216
1587014575327177,122216
1587014575338894,122216
1587014575353178,122216
1587014575355103,122216
1587014575358400,122216
1587014575362974,122216
1587014575366308,122216
1587014575367010,122216
1587014575367681,122216
1587014575373385,122216
1587014575379517,122216
1587014575404331,122216
1587014575912289,123632
1587014575918502,123632
1587014575922206,123632
1587014575927765,123632
1587014575932432,123632
1587014575946584,123632
1587014575952003,123632
1587014575955530,123632
1587014575960585,123632
1587014575972807,123632
1587014575975975,123632
1587014575976833,123632
1587014575983052,123632
1587014576487307,123576
1587014576492489,123576
1587014576504341,123576
1587014576517794,123576
1587014576522327,123576
1587014576525435,123576
1587014576531689,123576
1587014576542580,123576
1587014576556747,123576
1587014576571180,123576
1587014576573269,123576
1587014576579133,123576
1587014576588976,123576
1587014577103543,123911
1587014577104854,123911
1587014577109459,123911
1587014577122108,123911
1587014577124958,123911
1587014577126209,123911
1587014577129771,123911
1587014577135231,123911
1587014577138792,123911
1587014577142327,123911
1587014577158989,123911
1587014577160669,123911
1587014577167354,123911
1587014577674837,124211
1587014577676109,124211
1587014577684914,124211
1587014577693774,124211
1587014577712526,124211
1587014577716614,124211
1587014577729657,124211
1587014577732183,124211
1587014577732990,124211
1587014577736754,124211
1587014577744993,124211
1587014577765579,124211
1587014577766292,124211
1587014578268885,124676
1587014578272086,124676
1587014578273694,124676
1587014578278269,124676
1587014578284997,124676
1587014578298347,124676
1587014578301707,124676
1587014578302870,124676
1587014578316562,124676
1587014578319922,124676
1587014578325334,124676
1587014578326801,124676
1587014578331487,124676
1587014578837599,124878
1587014578838553,124878
1587014578842747,124878
1587014578851680,124878
1587014578864017,124878
1587014578864876,124878
1587014578870041,124878
1587014578877325,124878
1587014578877885,124878
1587014578880944,124878
1587014578895463,124878
1587014578898782,124878
1587014578901647,124878
1587014579336289,62
1587014579415000,125488
1587014579417602,125488
1587014579432792,125488
1587014579434210,125488
1587014579437493,125488
1587014579450285,125488
1587014579458517,125488
1587014579460104,125488
1587014579471245,125488
1587014579491067,125488
1587014579493790,125488
1587014579509536,125488
1587014579515170,125488
1587014580025740,125455
1587014580032291,125455
1587014580036596,125455
1587014580049129,125455
1587014580050564,125455
1587014580053955,125455
1587014580067799,125455
1587014580071848,125455
1587014580076839,125455
1587014580092920,125455
1587014580096237,125455
1587014580098916,125455
1587014580112354,125455
1587014580631053,126186
1587014580642030,126186
1587014580646326,126186
1587014580652367,126186
1587014580653179,126186
1587014580654052,126186
1587014580661722,126186
1587014580883571,126186
1587014580905575,126186
1587014580906612,126186
1587014580911043,126186
1587014580932747,126186
1587014580940303,126186
1587014581444928,126803
1587014581450418,126803
1587014581458117,126803
1587014581463321,126803
1587014581485824,126803
1587014581486920,126803
1587014581488479,126803
1587014581491009,126803
1587014581511563,126803
1587014581524555,126803
1587014581529086,126803
1587014581530081,126803
1587014584542398,126803
1587014585047860,133447
1587014585051252,133447
1587014585054946,133447
1587014585070597,133447
1587014585074772,133447
1587014585078598,133447
1587014585083928,133447
1587014585086791,133447
1587014585087906,133447
1587014585101864,133447
1587014585117521,133447
1587014585118329,133447
1587014585130596,133447
1587014585687717,129501
1587014585690765,129501
1587014585698004,129501
1587014585703255,129501
1587014585706276,129501
1587014585706940,129501
1587014585710485,129501
1587014585721855,129501
1587014585733557,129501
1587014585738586,129501
1587014585751893,129501
1587014585766007,129501
1587014585770762,129501
1587014586297572,130019
1587014586364356,130019
1587014586367833,130019
1587014586379252,130019
1587014586384575,130019
1587014586387126,130019
1587014586399160,130019
1587014586414626,130019
1587014586429825,130019
1587014586430797,130019
1587014586431562,130019
1587014586460661,130019
1587014586465851,130019
1587014586981038,131439
1587014586982325,131439
1587014586995310,131439
1587014587007614,131439
1587014587023876,131439
1587014587030199,131439
1587014587038451,131439
1587014587068916,131439
1587014587071597,131439
1587014587086081,131439
1587014587089375,131439
1587014587105015,131439
1587014587109474,131439
1587014587625023,130900
1587014587628818,130900
1587014587632033,130900
1587014587632539,130900
1587014587648724,130900
1587014587650142,130900
1587014587656013,130900
1587014587658931,130900
1587014587662735,130900
1587014587663738,130900
1587014587664337,130900
1587014587678268,130900
1587014587682706,130900
1587014588189126,131561
1587014588196539,131561
1587014588207920,131561
1587014588211339,131561
1587014588214269,131561
1587014588225683,131561
1587014588229622,131561
1587014588237291,131561
1587014588240492,131561
1587014588243533,131561
1587014588249031,131561
1587014588280491,131561
1587014588281102,131561
1587014588791623,131336
1587014588792619,131336
1587014588794598,131336
1587014588799186,131336
1587014588812969,131336
1587014588827464,131336
1587014588831494,131336
1587014588835333,131336
1587014588840380,131336
1587014588847523,131336
1587014588850224,131336
1587014588851957,131336
1587014588864555,131336
1587014589369448,132556
1587014589382289,132556
1587014589392176,132556
1587014589393151,132556
1587014589397993,132556
1587014589398859,132556
1587014589414004,132556
1587014589418203,132556
1587014589424527,132556
1587014589435554,132556
1587014589453052,132556
1587014589456652,132556
1587014589473760,132556
1587014589977913,133398
1587014589978704,133398
1587014590010852,133398
1587014590014395,133398
1587014590019052,133398
1587014590037599,133398
1587014590040671,133398
1587014590053799,133398
1587014590060072,133398
1587014590060584,133398
1587014590062461,133398
1587014590062955,133398
1587014590066909,133398
1587014590571210,133693
1587014590582942,133693
1587014590586393,133693
1587014590591031,133693
1587014590595027,133693
1587014590607572,133693
1587014590611997,133693
1587014590633966,133693
1587014590640428,133693
1587014590645811,133693
1587014590647157,133693
1587014590662538,133693
1587014590674584,133693
1587014591178802,134686
1587014591179772,134686
1587014591183515,134686
1587014591201246,134686
1587014591214608,134686
1587014591220814,134686
1587014591224894,134686
1587014591229869,134686
1587014591230435,134686
1587014591235608,134686
1587014591250056,134686
1587014591250919,134686
1587014591264298,134686
1587014591776732,133693
1587014591795503,133693
1587014591802700,133693
1587014591806304,133693
1587014591822089,133693
1587014591835964,133693
1587014591836604,133693
1587014591843322,133693
1587014591848172,133693
1587014591851470,133693
1587014591859049,133693
1587014591870742,133693
1587014591875692,133693
1587014592382344,134914
1587014592395526,134914
1587014592396628,134914
1587014592410488,134914
1587014592412455,134914
1587014592417217,134914
1587014592426267,134914
1587014592439916,134914
1587014592445184,134914
1587014592446160,134914
1587014592449216,134914
1587014592453967,134914
1587014592458364,134914
1587014592962834,134669
1587014592977582,134669
1587014592978252,134669
1587014592997211,134669
1587014593001872,134669
1587014593003724,134669
1587014593004678,134669
1587014593011168,134669
1587014593028614,134669
1587014593043504,134669
1587014593046504,134669
1587014593048437,134669
1587014593052443,134669
1587014593558567,136111
1587014593562910,136111
1587014593593901,136111
1587014593597445,136111
1587014593601342,136111
1587014593617840,136111
1587014593635884,136111
1587014593636942,136111
1587014593637784,136111
1587014593640860,136111
1587014593644737,136111
1587014593655362,136111
1587014593660764,136111
1587014594169452,135558
1587014594184559,135558
1587014594201761,135558
1587014594203634,135558
1587014594204040,135558
1587014594207465,135558
1587014594208386,135558
1587014594214588,135558
1587014594230930,135558
1587014594233950,135558
1587014594235437,135558
1587014594251680,135558
1587014594256328,135558
1587014594772929,136354
1587014594779082,136354
1587014594818738,136354
1587014594827639,136354
1587014594841709,136354
1587014594844140,136354
1587014594847500,136354
1587014594859357,136354
1587014594864023,136354
1587014594864968,136354
1587014594870922,136354
1587014594874756,136354
1587014594897555,136354
1587014595408286,136032
1587014595414188,136032
1587014595436576,136032
1587014595445894,136032
1587014595446869,136032
1587014595461156,136032
1587014595462878,136032
1587014595477401,136032
1587014595483733,136032
1587014595485521,136032
1587014595487624,136032
1587014595488339,136032
1587014595505798,136032
1587014596029519,136390
1587014596039806,136390
1587014596044770,136390
1587014596065855,136390
1587014596070476,136390
1587014596083546,136390
1587014596084886,136390
1587014596088538,136390
1587014596091725,136390
1587014596095710,136390
1587014596096174,136390
1587014596113903,136390
1587014596115437,136390
1587014596631097,136710
1587014596639087,136710
1587014596640646,136710
1587014596645424,136710
1587014596646330,136710
1587014596650906,136710
1587014596654608,136710
1587014596659539,136710
1587014596672040,136710
1587014596690857,136710
1587014596696990,136710
1587014596699992,136710
1587014596701953,136710
1587014597212354,136225
1587014597219522,136225
1587014597226539,136225
1587014597228773,136225
1587014597233487,136225
1587014597237072,136225
1587014597253476,136225
1587014597257228,136225
1587014597261626,136225
1587014597274243,136225
1587014597278380,136225
1587014597283433,136225
1587014597286292,136225
1587014597792677,137721
1587014597798009,137721
1587014597822320,137721
1587014597823111,137721
1587014597823846,137721
1587014597832015,137721
1587014597842952,137721
1587014597852232,137721
1587014597865959,137721
1587014597872638,137721
1587014597875766,137721
1587014597891475,137721
1587014597893593,137721
1587014598411107,137869
1587014598411771,137869
1587014598416591,137869
1587014598417998,137869
1587014598421862,137869
1587014598425534,137869
1587014598429369,137869
1587014598445210,137869
1587014598448196,137869
1587014598451999,137869
1587014598471012,137869
1587014598474144,137869
1587014598477189,137869
1587014598986751,138273
1587014598999071,138273
1587014599012275,138273
1587014599015503,138273
1587014599019048,138273
1587014599026672,138273
1587014599032957,138273
1587014599056573,138273
1587014599057437,138273
1587014599061512,138273
1587014599065561,138273
1587014599068653,138273
1587014599070794,138273
1587014599576603,138106
1587014599594552,138106
1587014599610225,138106
1587014599621763,138106
1587014599625352,138106
1587014599626527,138106
1587014599632670,138106
1587014599635657,138106
1587014599644792,138106
1587014599657563,138106
1587014599658676,138106
1587014599663664,138106
1587014599667042,138106
1587014600186281,138959
1587014600191150,138959
1587014600203565,138959
1587014600204967,138959
1587014600220598,138959
1587014600224713,138959
1587014600228091,138959
1587014600239795,138959
1587014600243242,138959
1587014600257573,138959
1587014600261017,138959
1587014600261911,138959
1587014600264797,138959
1587014600784631,139293
1587014600787381,139293
1587014600790596,139293
1587014600804973,139293
1587014600806585,139293
1587014600809966,139293
1587014600825882,139293
1587014600828162,139293
1587014600843480,139293
1587014600850721,139293
1587014600865037,139293
1587014600868401,139293
1587014600884555,139293
1587014601393998,139308
1587014601411233,139308
1587014601436494,139308
1587014601450739,139308
1587014601454236,139308
1587014601470707,139308
1587014601474122,139308
1587014601477828,139308
1587014601497308,139308
1587014601503291,139308
1587014601515715,139308
1587014601531473,139308
1587014601541751,139308
1587014602056715,139482
1587014602057764,139482
1587014602058706,139482
1587014602062183,139482
1587014602065741,139482
1587014602078976,139482
1587014602092884,139482
1587014602094454,139482
1587014602095784,139482
1587014602097554,139482
1587014602112571,139482
1587014602117566,139482
1587014602132583,139482
1587014602640115,140280
1587014602641482,140280
1587014602645831,140280
1587014602667904,140280
1587014602673145,140280
1587014602676067,140280
1587014602683501,140280
1587014602697880,140280
1587014602698775,140280
1587014602715347,140280
1587014602716035,140280
1587014602721209,140280
1587014602743793,140280
1587014603259394,140987
1587014603305924,140987
1587014603319955,140987
1587014603322624,140987
1587014603326325,140987
1587014603327562,140987
1587014603329356,140987
1587014603345228,140987
1587014603352066,140987
1587014603367569,140987
1587014603370495,140987
1587014603373865,140987
1587014603376606,140987
1587014603893505,141139
1587014603894446,141139
1587014603908589,141139
1587014603912755,141139
1587014603919771,141139
1587014603933837,141139
1587014603936314,141139
1587014603952616,141139
1587014603955521,141139
1587014603960861,141139
1587014603967669,141139
1587014603971494,141139
1587014603976385,141139
1587014604483925,140975
1587014604488835,140975
1587014604501568,140975
1587014604507441,140975
1587014604513482,140975
1587014604528189,140975
1587014604530913,140975
1587014604542838,140975
1587014604545893,140975
1587014604565806,140975
1587014604566484,140975
1587014604567397,140975
1587014604567884,140975
1587014605076761,141918
1587014605080320,141918
1587014605095994,141918
1587014605113916,141918
1587014605118959,141918
1587014605142475,141918
1587014605144369,141918
1587014605149625,141918
1587014605150711,141918
1587014605156328,141918
1587014605175098,141918
1587014605188546,141918
1587014605190900,141918
1587014605695795,141729
1587014605714780,141729
1587014605718781,141729
1587014605724741,141729
1587014605726771,141729
1587014605727553,141729
1587014605734577,141729
1587014605735059,141729
1587014605740789,141729
1587014605763143,141729
1587014605767463,141729
1587014605772116,141729
1587014605780796,141729
1587014606295777,142520
1587014606307839,142520
1587014606314375,142520
1587014606315097,142520
1587014606321936,142520
1587014606335282,142520
1587014606339306,142520
1587014606343336,142520
1587014606346279,142520
1587014606360781,142520
1587014606370142,142520
1587014606371164,142520
1587014606371977,142520
1587014606878938,142485
1587014606892219,142485
1587014606897390,142485
1587014606901473,142485
1587014606914584,142485
1587014606933548,142485
1587014606934879,142485
1587014606942515,142485
1587014606943319,142485
1587014606944350,142485
1587014606958607,142485
1587014606964589,142485
1587014606978517,142485
1587014607483856,142937
1587014607493735,142937
1587014607507738,142937
1587014607512069,142937
1587014607512920,142937
1587014607513758,142937
1587014607528882,142937
1587014607531965,142937
1587014607537630,142937
1587014607539578,142937
1587014607544451,142937
1587014607546024,142937
1587014607549560,142937
1587014608127883,143449
1587014608132101,143449
1587014608138900,143449
1587014608139929,143449
1587014608146914,143449
1587014608161211,143449
1587014608161946,143449
1587014608170522,143449
1587014608174712,143449
1587014608176290,143449
1587014608189543,143449
1587014608193814,143449
1587014608201829,143449
1587014608733731,144877
1587014608736759,144877
1587014608740716,144877
1587014608744334,144877
1587014608747628,144877
1587014608751345,144877
1587014608768585,144877
1587014608788363,144877
1587014608812557,144877
1587014608815919,144877
1587014608831638,144877
1587014608832855,144877
1587014608838455,144877
1587014609437888,144418
1587014609441827,144418
1587014609461518,144418
1587014609475614,144418
1587014609479653,144418
1587014609483104,144418
1587014609490416,144418
1587014609492196,144418
1587014609492794,144418
1587014609507908,144418
1587014609511732,144418
1587014609525945,144418
1587014609530100,144418
1587014610039645,145029
1587014610064564,145029
1587014610147392,145029
1587014610151778,145029
1587014610156360,145029
1587014610161031,145029
1587014610172724,145029
1587014610182530,145029
1587014610189268,145029
1587014610192077,145029
1587014610203847,145029
1587014610205949,145029
1587014610219584,145029
1587014610763257,146020
1587014610764257,146020
1587014610766790,146020
1587014610770662,146020
1587014610776260,146020
1587014610808818,146020
1587014610810047,146020
1587014610814274,146020
1587014610815124,146020
1587014610818822,146020
1587014610850941,146020
1587014610869340,146020
1587014610880068,146020
1587014611445611,147012
1587014611446928,147012
1587014611451122,147012
1587014611465025,147012
1587014611465971,147012
1587014611472382,147012
1587014611476562,147012
1587014611480510,147012
1587014611496971,147012
1587014611511110,147012
1587014611519868,147012
1587014611522557,147012
1587014611525017,147012
1587014612035217,146560
1587014612053678,146560
1587014612066569,146560
1587014612070534,146560
1587014612076562,146560
1587014612080250,146560
1587014612080971,146560
1587014612092841,146560
1587014612109206,146560
1587014612118383,146560
1587014612120216,146560
1587014612124515,146560
1587014612140057,146560
1587014612643357,146521
1587014612659851,146521
1587014612675636,146521
1587014612691448,146521
1587014612693000,146521
1587014612706844,146521
1587014612710121,146521
1587014612736523,146521
1587014612749006,146521
1587014612752715,146521
1587014612764681,146521
1587014612781648,146521
1587014612785908,146521
1587014613289464,146901
1587014613293958,146901
1587014613294719,146901
1587014613297540,146901
1587014613323474,146901
1587014613330832,146901
1587014613333907,146901
1587014613338240,146901
1587014613344848,146901
1587014613358849,146901
1587014613362765,146901
1587014613370072,146901
1587014613383576,146901
1587014613901986,147637
1587014613905705,147637
1587014613912099,147637
1587014613916606,147637
1587014613932013,147637
1587014613935669,147637
1587014613951557,147637
1587014613960247,147637
1587014613975805,147637
1587014613981220,147637
1587014613983858,147637
1587014613995783,147637
1587014614009625,147637
1587014614514226,147786
1587014614527172,147786
1587014614528287,147786
1587014614543394,147786
1587014614561326,147786
1587014614565643,147786
1587014614581751,147786
1587014614583048,147786
1587014614588354,147786
1587014614591098,147786
1587014614613921,147786
1587014614614840,147786
1587014614623824,147786
1587014615131043,147923
1587014615144819,147923
1587014615151114,147923
1587014615152970,147923
1587014615158180,147923
1587014615162343,147923
1587014615177118,147923
1587014615179927,147923
1587014615184995,147923
1587014615189292,147923
1587014615189816,147923
1587014615215888,147923
1587014615219824,147923
1587014615745973,147908
1587014615748784,147908
1587014615749962,147908
1587014615756154,147908
1587014615843646,147908
1587014618877533,147908
1587014618893793,147908
1587014618909596,147908
1587014618913758,147908
1587014618931477,147908
1587014618932513,147908
1587014618937691,147908
1587014618951604,147908
1587014619466051,154617
1587014619481660,154617
1587014619488025,154617
1587014619512754,154617
1587014619516121,154617
1587014619528914,154617
1587014619533147,154617
1587014619547746,154617
1587014619559658,154617
1587014619561821,154617
1587014619580842,154617
1587014619595288,154617
1587014619600793,154617
1587014620109884,151021
1587014620110503,151021
1587014620123604,151021
1587014620142612,151021
1587014620160591,151021
1587014620179841,151021
1587014620193622,151021
1587014620208818,151021
1587014620219470,151021
1587014620240610,151021
1587014620246894,151021
1587014620252497,151021
1587014620264678,151021
1587014620791743,150973
1587014620796974,150973
1587014620809564,150973
1587014620810925,150973
1587014620819895,150973
1587014620825608,150973
1587014620830643,150973
1587014620853952,150973
1587014620858919,150973
1587014620860231,150973
1587014620866300,150973
1587014620879618,150973
1587014620892597,150973
1587014621399228,151260
1587014621411582,151260
1587014621414150,151260
1587014621417517,151260
1587014621418308,151260
1587014621434588,151260
1587014621437968,151260
1587014621440890,151260
1587014621441906,151260
1587014621457370,151260
1587014621458081,151260
1587014621459053,151260
1587014621460019,151260
1587014621977583,152803
1587014621980571,152803
1587014621984922,152803
1587014622001796,152803
1587014622002668,152803
1587014622005821,152803
1587014622012113,152803
1587014622028088,152803
1587014622035002,152803
1587014622049828,152803
1587014622052935,152803
1587014622068268,152803
1587014622072645,152803
1587014622580973,152378
1587014622595751,152378
1587014622596998,152378
1587014622613528,152378
1587014622617463,152378
1587014622618395,152378
1587014622624242,152378
1587014622625059,152378
1587014622639377,152378
1587014622652560,152378
1587014622673442,152378
1587014622687175,152378
1587014622696749,152378
1587014623269695,152771
1587014623285593,152771
1587014623291561,152771
1587014623298339,152771
1587014623310199,152771
1587014623325677,152771
1587014623327534,152771
1587014623333546,152771
1587014623334877,152771
1587014623344362,152771
1587014623347605,152771
1587014623361604,152771
1587014623377591,152771
1587014623888558,154307
1587014623893696,154307
1587014623907483,154307
1587014623922158,154307
1587014630944185,154307
1587014630957582,154307
1587014630978057,154307
1587014630990618,154307
1587014631004769,154307
1587014631008976,154307
1587014631015123,154307
1587014631029587,154307
1587014631032088,154307
1587014631553463,164976
1587014631558026,164976
1587014631562266,164976
1587014631566897,164976
1587014631573091,164976
1587014631599192,164976
1587014631600873,164976
1587014631607615,164976
1587014631611194,164976
1587014631611745,164976
1587014631626672,164976
1587014631638600,164976
1587014631645027,164976
1587014632158486,158026
1587014632163211,158026
1587014632165511,158026
1587014632169651,158026
1587014632175739,158026
1587014632202546,158026
1587014632205983,158026
1587014632217695,158026
1587014632224024,158026
1587014633728516,158026
1587014633750766,158026
1587014633751488,158026
1587014633785367,158026
1587014634303538,161969
1587014634306818,161969
1587014634309337,161969
1587014634334596,161969
1587014634341628,161969
1587014634378636,161969
1587014634379927,161969
1587014634391223,161969
1587014634396809,161969
1587014634397503,161969
1587014634409418,161969
1587014634421614,161969
1587014634440629,161969
1587014634947954,160093
1587014634954582,160093
1587014634966781,160093
1587014634981722,160093
1587014634987537,160093
1587014634999595,160093
1587014635004225,160093
1587014635016063,160093
1587014635024238,160093
1587014635025042,160093
1587014635025733,160093
1587014635039814,160093
1587014635045821,160093
1587014635555965,159984
1587014635557218,159984
1587014635561094,159984
1587014635563935,159984
1587014635578331,159984
1587014635591041,159984
1587014635595652,159984
1587014635597503,159984
1587014635597957,159984
1587014635602990,159984
1587014636609385,159984
1587014636633766,159984
1587014636636999,159984
1587014637154549,162706
1587014637184497,162706
1587014637191936,162706
1587014637213609,162706
1587014637226544,162706
1587014637233151,162706
1587014637233814,162706
1587014637255609,162706
1587014637259385,162706
1587014637282157,162706
1587014637287260,162706
1587014637299315,162706
1587014637313427,162706
1587014637840114,161746
1587014637844129,161746
1587014637849760,161746
1587014637852208,161746
1587014637867543,161746
1587014637873443,161746
1587014637886787,161746
1587014637892748,161746
1587014637907971,161746
1587014637914856,161746
1587014637917481,161746
1587014637931265,161746
1587014637933104,161746
1587014638446026,161821
1587014638450780,161821
1587014638465058,161821
1587014638477721,161821
1587014638480555,161821
1587014638481384,161821
1587014638487368,161821
1587014638488254,161821
1587014638491577,161821
1587014638496625,161821
1587014638511085,161821
1587014638517725,161821
1587014638526884,161821
1587014639104707,161620
1587014639109235,161620
1587014639122860,161620
1587014639129224,161620
1587014639141495,161620
1587014639147639,161620
1587014639148745,161620
1587014639153719,161620
1587014639158735,161620
1587014639162326,161620
1587014639163374,161620
1587014639168269,161620
1587014639177518,161620
1587014639685025,162468
1587014639685705,162468
1587014639693231,162468
1587014639701267,162468
1587014639708713,162468
1587014639710061,162468
1587014639723261,162468
1587014639727231,162468
1587014639740006,162468
1587014639741345,162468
1587014639745625,162468
1587014639747061,162468
1587014639752372,162468
1587014640258335,162646
1587014640264140,162646
1587014640266683,162646
1587014640271512,162646
1587014640277269,162646
1587014640281031,162646
1587014640282027,162646
1587014640287481,162646
1587014640300610,162646
1587014640318571,162646
1587014640324058,162646
1587014640330106,162646
1587014640338189,162646
1587014640850932,162096
1587014640854594,162096
1587014640866969,162096
1587014640872181,162096
1587014640889687,162096
1587014640896972,162096
1587014640898074,162096
1587014640912472,162096
1587014640916911,162096
1587014640931364,162096
1587014640933344,162096
1587014640938384,162096
1587014640956547,162096
1587014641509012,163588
1587014641512357,163588
1587014641515212,163588
1587014641534258,163588
1587014641548504,163588
1587014641551581,163588
1587014641554705,163588
1587014641555398,163588
1587014641567664,163588
1587014641569984,163588
1587014641570588,163588
1587014641575878,163588
1587014641594030,163588
1587014642110434,162906
1587014642112188,162906
1587014643127620,162906
1587014643128324,162906
1587014643145153,162906
1587014643147528,162906
1587014643153721,162906
1587014643168073,162906
1587014643170449,162906
1587014643174201,162906
1587014643180508,162906
1587014643195262,162906
1587014643199060,162906
1587014643716555,166466
1587014643720715,166466
1587014643733098,166466
1587014643738672,166466
1587014643746252,166466
1587014643746910,166466
1587014643758960,166466
1587014643763115,166466
1587014643776750,166466
1587014643780880,166466
1587014643795240,166466
1587014643807604,166466
1587014643814968,166466
1587014644347582,164604
1587014644363010,164604
1587014644380166,164604
1587014644391630,164604
1587014644406052,164604
1587014644410223,164604
1587014644411898,164604
1587014644416841,164604
1587014644417601,164604
1587014644424305,164604
1587014644444032,164604
1587014644459853,164604
1587014644460633,164604
1587014644994030,164803
1587014645008129,164803
1587014645011373,164803
1587014645015891,164803
1587014645021828,164803
1587014645024773,164803
1587014645031757,164803
1587014645043678,164803
1587014645051232,164803
1587014645070937,164803
1587014645082705,164803
1587014645084427,164803
1587014645090464,164803
1587014645600537,165183
1587014645606905,165183
1587014645622453,165183
1587014645624974,165183
1587014645641073,165183
1587014645647516,165183
1587014645655672,165183
1587014645657340,165183
1587014645663693,165183
1587014645676517,165183
1587014645689106,165183
1587014645695692,165183
1587014645700948,165183
1587014646204082,166476
1587014646205284,166476
1587014646207686,166476
1587014646223937,166476
1587014646225841,166476
1587014646243137,166476
1587014646244973,166476
1587014646296699,166476
1587014646299385,166476
1587014646306240,166476
1587014646312467,166476
1587014646326849,166476
1587014646327558,166476
1587014646830769,166832
1587014646834220,166832
1587014646840528,166832
1587014646862630,166832
1587014646868300,166832
1587014646874793,166832
1587014646880247,166832
1587014646881883,166832
1587014646882420,166832
1587014646882864,166832
1587014646906647,166832
1587014646908617,166832
1587014646914292,166832
