1587014398785666,30
1587014398824563,23
1587014398839458,23
1587014398871368,23
1587014399217687,1676
1587014399219600,1676
1587014399220722,1676
1587014399781478,114
1587014399782589,1666
1587014399793343,1666
1587014399794730,1666
1587014399795827,1666
1587014399796564,1666
1587014400301100,1794
1587014400303320,1794
1587014400305694,1794
1587014400307058,1794
1587014400308352,1794
1587014400315146,1794
1587014400316492,1794
1587014400822624,2076
1587014400826972,2076
1587014400830053,2076
1587014400831121,2076
1587014400831980,2076
1587014400833753,2076
1587014400836569,2076
1587014400838233,2076
1587014401010943,190
1587014401341593,2652
1587014401343231,2652
1587014401345230,2652
1587014401346625,2652
1587014401347843,2652
1587014401348831,2652
1587014401366617,2652
1587014401369582,2652
1587014401386213,2652
1587014401388678,2652
1587014401892833,2756
1587014401894141,2756
1587014401895805,2756
1587014401904555,2756
1587014401906604,2756
1587014401907517,2756
1587014401934371,2756
1587014401952049,2756
1587014401957230,2756
1587014401958959,2756
1587014401973632,2756
1587014402087329,227
1587014402487350,3225
1587014402488324,3225
1587014402496972,3225
1587014402499236,3225
1587014402500561,3225
1587014402509553,3225
1587014402510952,3225
1587014402513093,3225
1587014402516654,3225
1587014402517075,3225
1587014402523028,3225
1587014402524257,3225
1587014402689645,264
1587014403159245,2949
1587014403160255,2949
1587014403164104,2949
1587014403165595,2949
1587014403167528,2949
1587014403169274,2949
1587014403170309,2949
1587014403174369,2949
1587014403176511,2949
1587014403177240,2949
1587014403178545,2949
1587014403193639,2949
1587014403194368,2949
1587014403222583,283
1587014403722277,4736
1587014403724577,4736
1587014403725513,4736
1587014403727708,4736
1587014403728861,4736
1587014403729697,4736
1587014403750260,4736
1587014403751191,4736
1587014403751907,4736
1587014403759081,4736
1587014403759455,4736
1587014403761618,4736
1587014403763750,4736
1587014404078326,320
1587014404267455,4441
1587014404268255,4441
1587014404270112,4441
1587014404271817,4441
1587014404272689,4441
1587014404273729,4441
1587014404278166,4441
1587014404284810,4441
1587014404285894,4441
1587014404287872,4441
1587014404302713,4441
1587014404320654,4441
1587014404321436,4441
1587014404827520,4705
1587014404828501,4705
1587014404831049,4705
1587014404836862,4705
1587014404837660,4705
1587014404837990,4705
1587014404840941,4705
1587014404841743,4705
1587014404847961,4705
1587014404848769,4705
1587014404850324,4705
1587014404853543,4705
1587014404854405,4705
1587014405357123,4646
1587014405357967,4646
1587014405358321,4646
1587014405360655,4646
1587014405361435,4646
1587014405362326,4646
1587014405363126,4646
1587014405382649,4646
1587014405383481,4646
1587014405384289,4646
1587014405385022,4646
1587014405435835,4646
1587014405436279,4646
1587014405500225,396
1587014405948297,5353
1587014405954379,5353
1587014405965377,5353
1587014405967524,5353
1587014405969731,5353
1587014405971204,5353
1587014405978932,5353
1587014405997199,5353
1587014406001373,5353
1587014406003478,5353
1587014406005601,5353
1587014406007882,5353
1587014406027287,5353
1587014406534684,5310
1587014406535266,5310
1587014406536156,5310
1587014406536701,5310
1587014406537028,5310
1587014406537313,5310
1587014406539290,5310
1587014406539668,5310
1587014406539944,5310
1587014406540410,5310
1587014406540967,5310
1587014406541511,5310
1587014406543206,5310
1587014406692898,415
1587014407049566,5234
1587014407050166,5234
1587014407051112,5234
1587014407051792,5234
1587014407053611,5234
1587014407053991,5234
1587014407055204,5234
1587014407056837,5234
1587014407057721,5234
1587014407058582,5234
1587014407059163,5234
1587014407059505,5234
1587014407060994,5234
1587014407561948,6347
1587014407562601,6347
1587014407562888,6347
1587014407563654,6347
1587014407564340,6347
1587014407565649,6347
1587014407569001,6347
1587014407571242,6347
1587014407579438,6347
1587014407581894,6347
1587014407583124,6347
1587014407585908,6347
1587014407589324,6347
1587014408092360,6629
1587014408096535,6629
1587014408097835,6629
1587014408725105,37
1587014410139320,37
1587014411293180,37
1587014412692902,6629
1587014412713656,414
1587014412727646,62
1587014412745749,6629
1587014412747796,6629
1587014412748482,6629
1587014412753815,6629
1587014412755195,6629
1587014412760171,6629
1587014412760933,6629
1587014412794466,61
1587014412840878,61
1587014412851146,59
1587014412854779,60
1587014412874157,61
1587014412878877,61
1587014412900162,61
1587014412904566,61
1587014412906523,61
1587014412990450,37
1587014413464718,410
1587014413765905,6629
1587014413766555,6629
1587014414282966,16306
1587014414289381,16306
1587014417294167,16306
1587014417295634,16306
1587014417306877,16306
1587014417307862,16306
1587014417311452,16306
1587014417312062,16306
1587014417312665,16306
1587014417314322,16306
1587014417315482,16306
1587014417316154,16306
1587014417317298,16306
1587014417818325,15513
1587014417818895,15513
1587014417819355,15513
1587014417821085,15513
1587014417823024,15513
1587014417823603,15513
1587014417825596,15513
1587014417826164,15513
1587014417828486,15513
1587014417829120,15513
1587014417830123,15513
1587014417830677,15513
1587014417831865,15513
1587014418333878,12555
1587014418335626,12555
1587014418338051,12555
1587014418339081,12555
1587014418340025,12555
1587014418340648,12555
1587014418343813,12555
1587014418345276,12555
1587014418345791,12555
1587014418346407,12555
1587014418347528,12555
1587014418348589,12555
1587014418350328,12555
1587014418852032,12940
1587014418852874,12940
1587014418853834,12940
1587014418854804,12940
1587014418855371,12940
1587014418856196,12940
1587014418859244,12940
1587014418861151,12940
1587014418862127,12940
1587014418862948,12940
1587014418863672,12940
1587014418864802,12940
1587014418866056,12940
1587014419372956,12900
1587014419374063,12900
1587014419374802,12900
1587014419375608,12900
1587014419376807,12900
1587014419377700,12900
1587014419380853,12900
1587014419381704,12900
1587014419383992,12900
1587014419386781,12900
1587014419387591,12900
1587014419389689,12900
1587014419390251,12900
1587014419527572,413
1587014419901014,13569
1587014419902197,13569
1587014419904124,13569
1587014419904927,13569
1587014419915474,13569
1587014419916608,13569
1587014419918047,13569
1587014419918830,13569
1587014419919614,13569
1587014419920402,13569
1587014419922564,13569
1587014419923489,13569
1587014419924139,13569
1587014420410125,61
1587014420429191,14573
1587014420430733,14573
1587014420431475,14573
1587014420432137,14573
1587014420432913,14573
1587014420433738,14573
1587014420441285,14573
1587014420453701,14573
1587014420454823,14573
1587014420455566,14573
1587014420457060,14573
1587014420457819,14573
1587014420458396,14573
1587014420961511,13686
1587014420962807,13686
1587014420963531,13686
1587014420964933,13686
1587014420965691,13686
1587014420967054,13686
1587014420967891,13686
1587014420971735,13686
1587014420972489,13686
1587014420973355,13686
1587014420974090,13686
1587014420975177,13686
1587014420975888,13686
1587014421480707,14406
1587014421481661,14406
1587014421481959,14406
1587014421482619,14406
1587014421483412,14406
1587014421484297,14406
1587014421485006,14406
1587014421485642,14406
1587014421486413,14406
1587014421487225,14406
1587014421487843,14406
1587014421488593,14406
1587014421489294,14406
1587014421648758,61
1587014421672524,61
1587014421996582,14511
1587014421999081,14511
1587014421999788,14511
1587014422000476,14511
1587014422001235,14511
1587014422002138,14511
1587014422002886,14511
1587014422003540,14511
1587014422004354,14511
1587014422004971,14511
1587014422005656,14511
1587014422006371,14511
1587014422007139,14511
1587014422517989,16787
1587014422518797,16787
1587014422519342,16787
1587014422520994,16787
1587014422521510,16787
1587014422532673,16787
1587014422533186,16787
1587014422533649,16787
1587014422534369,16787
1587014422534940,16787
1587014422536893,16787
1587014422537959,16787
1587014422540460,16787
1587014430054710,15608
1587014430056577,15608
1587014430058318,15608
1587014430060011,15608
1587014430061480,15608
1587014430063111,15608
1587014430064483,15608
1587014430065404,15608
1587014430067163,15608
1587014430068831,15608
1587014430081957,15608
1587014430083526,15608
1587014430084895,15608
1587014430620315,30025
1587014430622762,30025
1587014430625372,30025
1587014430629124,30025
1587014430631080,30025
1587014430634765,30025
1587014430637697,30025
1587014430639487,30025
1587014430641529,30025
1587014430643279,30025
1587014430644805,30025
1587014430645871,30025
1587014430656769,30025
1587014431162443,21246
1587014431164047,21246
1587014431165494,21246
1587014431167617,21246
1587014431168279,21246
1587014431169689,21246
1587014431173024,21246
1587014431174988,21246
1587014431177222,21246
1587014431178332,21246
1587014431179910,21246
1587014431181695,21246
1587014431182787,21246
1587014431686416,23654
1587014431687496,23654
1587014431688700,23654
1587014431689854,23654
1587014431692434,23654
1587014431693622,23654
1587014431698520,23654
1587014431710306,23654
1587014431722001,23654
1587014431726789,23654
1587014431727688,23654
1587014431728519,23654
1587014431730005,23654
1587014432231664,22432
1587014432232263,22432
1587014432232772,22432
1587014432233189,22432
1587014432233634,22432
1587014432234106,22432
1587014432235535,22432
1587014432236344,22432
1587014432241487,22432
1587014432242339,22432
1587014432242875,22432
1587014432244842,22432
1587014432245703,22432
1587014432760859,23225
1587014432762901,23225
1587014432764310,23225
1587014432765155,23225
1587014432765914,23225
1587014432767162,23225
1587014432768664,23225
1587014432769983,23225
1587014432771240,23225
1587014432772219,23225
1587014432773325,23225
1587014432774143,23225
1587014432775412,23225
1587014433099083,60
1587014433173087,61
1587014433279232,23458
1587014433284568,23458
1587014433286866,23458
1587014433288001,23458
1587014433290956,23458
1587014433292610,23458
1587014433293796,23458
1587014433294587,23458
1587014433298109,23458
1587014433300058,23458
1587014433301735,23458
1587014433306874,23458
1587014433310464,23458
1587014433820176,23737
1587014448863772,23737
1587014448865209,23737
1587014448871678,23737
1587014448873730,23737
1587014448874549,23737
1587014448887162,23737
1587014448904358,23737
1587014448907346,23737
1587014448909709,23737
1587014448910803,23737
1587014448911706,23737
1587014448912364,23737
1587014449415613,49524
1587014449417376,49524
1587014449423737,49524
1587014449425083,49524
1587014449426623,49524
1587014449428420,49524
1587014449443395,49524
1587014449446444,49524
1587014449449646,49524
1587014449450716,49524
1587014449451956,49524
1587014449454877,49524
1587014449456168,49524
1587014449957647,33532
1587014449958361,33532
1587014449962300,33532
1587014449963989,33532
1587014449969185,33532
1587014449972474,33532
1587014449974193,33532
1587014449976038,33532
1587014450981874,33532
1587014450982585,33532
1587014450983145,33532
1587014450983722,33532
1587014450984208,33532
1587014451493157,35002
1587014451494899,35002
1587014451495405,35002
1587014451497260,35002
1587014451498198,35002
1587014451498686,35002
1587014451499710,35002
1587014451500734,35002
1587014451501639,35002
1587014451502464,35002
1587014451502874,35002
1587014451503469,35002
1587014451509303,35002
1587014452012677,34003
1587014452013213,34003
1587014452013693,34003
1587014452014715,34003
1587014452015568,34003
1587014452027662,34003
1587014452028881,34003
1587014452029747,34003
1587014452040635,34003
1587014452041532,34003
1587014452041983,34003
1587014452047982,34003
1587014452050731,34003
1587014452555241,34881
1587014452556258,34881
1587014452561274,34881
1587014452561790,34881
1587014452562230,34881
1587014452573655,34881
1587014452574540,34881
1587014452575881,34881
1587014452576997,34881
1587014452578044,34881
1587014452579489,34881
1587014452580499,34881
1587014452581510,34881
1587014453082562,35646
1587014453083548,35646
1587014453083974,35646
1587014453084455,35646
1587014453091435,35646
1587014453102633,35646
1587014453104243,35646
1587014453104855,35646
1587014453105357,35646
1587014453105933,35646
1587014453106519,35646
1587014453109137,35646
1587014453110632,35646
1587014453612811,35336
1587014453613783,35336
1587014453614585,35336
1587014453615364,35336
1587014453615942,35336
1587014453616310,35336
1587014453616790,35336
1587014453617340,35336
1587014453617876,35336
1587014453619634,35336
1587014453620703,35336
1587014453621960,35336
1587014453623770,35336
1587014454129082,35651
1587014454129983,35651
1587014454130971,35651
1587014454131753,35651
1587014454133765,35651
1587014454134926,35651
1587014454135457,35651
1587014454135891,35651
1587014454136646,35651
1587014454137203,35651
1587014454145864,35651
1587014454146423,35651
1587014454147510,35651
1587014454649481,35455
1587014454650417,35455
1587014454651469,35455
1587014454654452,35455
1587014454656275,35455
1587014454656791,35455
1587014454657549,35455
1587014454658096,35455
1587014454659225,35455
1587014454660169,35455
1587014454660686,35455
1587014454661723,35455
1587014454662373,35455
1587014455163801,36856
1587014455164800,36856
1587014455165451,36856
1587014455166485,36856
1587014455168228,36856
1587014455168756,36856
1587014455169273,36856
1587014455169724,36856
1587014455170229,36856
1587014455170707,36856
1587014455171730,36856
1587014455172875,36856
1587014455173330,36856
1587014455675319,37140
1587014455677118,37140
1587014455677875,37140
1587014455678785,37140
1587014455680097,37140
1587014455681810,37140
1587014455683226,37140
1587014455692782,37140
1587014455696139,37140
1587014455697637,37140
1587014455699403,37140
1587014455700663,37140
1587014455701404,37140
1587014456205778,37790
1587014456207963,37790
1587014456209267,37790
1587014456211512,37790
1587014456213246,37790
1587014456224238,37790
1587014456227335,37790
1587014456230902,37790
1587014456232309,37790
1587014456234764,37790
1587014456236329,37790
1587014456237103,37790
1587014456238283,37790
1587014456739985,37016
1587014456742428,37016
1587014456744359,37016
1587014456749949,37016
1587014456753504,37016
1587014456755570,37016
1587014456757625,37016
1587014456759799,37016
1587014456762254,37016
1587014456764009,37016
1587014456764856,37016
1587014456765378,37016
1587014456765804,37016
1587014457267460,37919
1587014457268834,37919
1587014457271850,37919
1587014457273419,37919
1587014457274835,37919
1587014457276583,37919
1587014457278743,37919
1587014457280131,37919
1587014457281605,37919
1587014457283655,37919
1587014457285587,37919
1587014457288062,37919
1587014457288789,37919
1587014457792565,38936
1587014457794800,38936
1587014457821045,38936
1587014457827861,38936
1587014457830466,38936
1587014457837114,38936
1587014457845330,38936
1587014457849168,38936
1587014457857896,38936
1587014457862067,38936
1587014457864265,38936
1587014457865172,38936
1587014457866257,38936
1587014458381032,38688
1587014458383765,38688
1587014458386134,38688
1587014458400621,38688
1587014458406676,38688
1587014458411228,38688
1587014458415219,38688
1587014458420811,38688
1587014458422971,38688
1587014458425651,38688
1587014458427872,38688
1587014458430259,38688
1587014458431360,38688
1587014458944262,38987
1587014458953163,38987
1587014458957103,38987
1587014458959719,38987
1587014458962143,38987
1587014458971859,38987
1587014458987320,38987
1587014458990616,38987
1587014458993092,38987
1587014458997426,38987
1587014458999479,38987
1587014459000702,38987
1587014459001033,38987
1587014459502610,39475
1587014459504014,39475
1587014459505770,39475
1587014459506907,39475
1587014459508466,39475
1587014459528773,39475
1587014459533347,39475
1587014459546250,39475
1587014459562181,39475
1587014459564949,39475
1587014459567786,39475
1587014459568603,39475
1587014459569500,39475
1587014460090174,39365
1587014460092604,39365
1587014460095874,39365
1587014460099017,39365
1587014460103805,39365
1587014460107085,39365
1587014460109300,39365
1587014460111323,39365
1587014460114523,39365
1587014460128664,39365
1587014460135531,39365
1587014460137706,39365
1587014460138962,39365
1587014460643214,41145
1587014460645439,41145
1587014460661552,41145
1587014460665590,41145
1587014460669034,41145
1587014460671523,41145
1587014460674953,41145
1587014460677345,41145
1587014460679649,41145
1587014460683238,41145
1587014460685712,41145
1587014460686682,41145
1587014460687467,41145
1587014461190283,40977
1587014461192249,40977
1587014461195969,40977
1587014461205060,40977
1587014461207102,40977
1587014461210451,40977
1587014461213195,40977
1587014461215963,40977
1587014461217791,40977
1587014461220036,40977
1587014461222934,40977
1587014461225633,40977
1587014461228331,40977
1587014461755300,40663
1587014461759757,40663
1587014461761965,40663
1587014461769620,40663
1587014461774310,40663
1587014461778084,40663
1587014461782874,40663
1587014461787104,40663
1587014461789561,40663
1587014461791847,40663
1587014461794141,40663
1587014461796949,40663
1587014461797719,40663
1587014462317243,41202
1587014462320323,41202
1587014462323241,41202
1587014462326012,41202
1587014462329334,41202
1587014462333663,41202
1587014462337506,41202
1587014462340487,41202
1587014462342163,41202
1587014462344573,41202
1587014462346559,41202
1587014462354344,41202
1587014462359726,41202
1587014462867597,41774
1587014462870328,41774
1587014462872193,41774
1587014462874497,41774
1587014462876943,41774
1587014462879600,41774
1587014462883754,41774
1587014463887538,41774
1587014463888399,41774
1587014463889330,41774
1587014463889857,41774
1587014463890721,41774
1587014463891097,41774
1587014464393247,46177
1587014464393731,46177
1587014464396498,46177
1587014464408491,46177
1587014464419623,46177
1587014464421255,46177
1587014464422666,46177
1587014464424053,46177
1587014464425251,46177
1587014464426281,46177
1587014464437861,46177
1587014464439306,46177
1587014464440472,46177
1587014464941861,44083
1587014464944526,44083
1587014464945398,44083
1587014464945807,44083
1587014464946288,44083
1587014464946815,44083
1587014464947238,44083
1587014464947750,44083
1587014464948267,44083
1587014464948813,44083
1587014464951870,44083
1587014464952297,44083
1587014464953906,44083
1587014465455146,44791
1587014465455811,44791
1587014465456441,44791
1587014465457666,44791
1587014465458468,44791
1587014465458889,44791
1587014465459410,44791
1587014465459972,44791
1587014465461161,44791
1587014465461650,44791
1587014465462119,44791
1587014465462737,44791
1587014465463224,44791
1587014465973203,44662
1587014465984612,44662
1587014465986308,44662
1587014465987025,44662
1587014465987794,44662
1587014465988612,44662
1587014465989474,44662
1587014465990097,44662
1587014465990530,44662
1587014465991518,44662
1587014466002756,44662
1587014466003376,44662
1587014466005891,44662
1587014466515973,44582
1587014466526812,44582
1587014466528797,44582
1587014466530382,44582
1587014466531597,44582
1587014466532363,44582
1587014466533292,44582
1587014466534103,44582
1587014466534848,44582
1587014469541808,44582
1587014469543093,44582
1587014469543573,44582
1587014469544089,44582
1587014470045571,52383
1587014470046080,52383
1587014470055078,52383
1587014470056525,52383
1587014470057476,52383
1587014470058614,52383
1587014470059084,52383
1587014470059601,52383
1587014470060791,52383
1587014470061934,52383
1587014470063891,52383
1587014470064619,52383
1587014470065854,52383
1587014470567379,47345
1587014470568294,47345
1587014470568769,47345
1587014473575135,47345
1587014473575681,47345
1587014473576758,47345
1587014473577182,47345
1587014473578292,47345
1587014473578765,47345
1587014473579426,47345
1587014473580455,47345
1587014473581682,47345
1587014473582365,47345
1587014474083643,54855
1587014474084185,54855
1587014474084790,54855
1587014475091647,54855
1587014475092347,54855
1587014475105020,54855
1587014475107365,54855
1587014475108203,54855
1587014475108933,54855
1587014475109744,54855
1587014475110624,54855
1587014475111227,54855
1587014475111801,54855
1587014475614707,52908
1587014475616016,52908
1587014475616481,52908
1587014475617565,52908
1587014475617992,52908
1587014475618490,52908
1587014475620075,52908
1587014475621516,52908
1587014475623805,52908
1587014475625051,52908
1587014475625573,52908
1587014475626264,52908
1587014475626726,52908
1587014476139074,52286
1587014476140334,52286
1587014476143919,52286
1587014476144475,52286
1587014476145757,52286
1587014476146795,52286
1587014476147829,52286
1587014476149766,52286
1587014476150482,52286
1587014476151348,52286
1587014476152046,52286
1587014476152792,52286
1587014476153838,52286
1587014476667287,52473
1587014476669534,52473
1587014476670508,52473
1587014476671260,52473
1587014476671996,52473
1587014476674806,52473
1587014476675889,52473
1587014476682230,52473
1587014476683069,52473
1587014476684066,52473
1587014476684865,52473
1587014476692827,52473
1587014476693642,52473
1587014477196437,52834
1587014477197876,52834
1587014477198706,52834
1587014477199707,52834
1587014477200882,52834
1587014477201772,52834
1587014477203494,52834
1587014477204399,52834
1587014477205148,52834
1587014477205934,52834
1587014477206621,52834
1587014477207236,52834
1587014477208275,52834
1587014477709834,53107
1587014477710566,53107
1587014477711908,53107
1587014477712808,53107
1587014477713615,53107
1587014477714797,53107
1587014477717046,53107
1587014477717890,53107
1587014477718814,53107
1587014477721783,53107
1587014477723321,53107
1587014477724694,53107
1587014477725522,53107
1587014478228415,55005
1587014478229722,55005
1587014478231915,55005
1587014478232693,55005
1587014478233596,55005
1587014478234510,55005
1587014478235487,55005
1587014478236322,55005
1587014478237779,55005
1587014478238960,55005
1587014478239554,55005
1587014478241453,55005
1587014478243074,55005
1587014478744306,54518
1587014478744989,54518
1587014478747654,54518
1587014478748934,54518
1587014478749541,54518
1587014478750163,54518
1587014478750802,54518
1587014478754362,54518
1587014478754802,54518
1587014478755354,54518
1587014478755846,54518
1587014478756477,54518
1587014478761952,54518
1587014479272144,56123
1587014479273801,56123
1587014479275263,56123
1587014479275841,56123
1587014479276280,56123
1587014479277452,56123
1587014479277964,56123
1587014479279958,56123
1587014479280747,56123
1587014479281182,56123
1587014479281743,56123
1587014479282411,56123
1587014479283604,56123
1587014479794050,56018
1587014479794799,56018
1587014479795758,56018
1587014479797999,56018
1587014479799398,56018
1587014479799936,56018
1587014479801025,56018
1587014479802938,56018
1587014479804502,56018
1587014479805969,56018
1587014479806277,56018
1587014479807593,56018
1587014479808865,56018
1587014480313499,56129
1587014480314335,56129
1587014480315485,56129
1587014480316721,56129
1587014480317396,56129
1587014480318004,56129
1587014480322708,56129
1587014480323611,56129
1587014480326276,56129
1587014480327675,56129
1587014481330312,56129
1587014481331484,56129
1587014481332112,56129
1587014481834129,59014
1587014481836541,59014
1587014481837204,59014
1587014481838125,59014
1587014481839717,59014
1587014481841412,59014
1587014481842277,59014
1587014481843338,59014
1587014481844137,59014
1587014481845708,59014
1587014481856920,59014
1587014481867697,59014
1587014481869260,59014
1587014482370621,57757
1587014482371275,57757
1587014482372515,57757
1587014482373198,57757
1587014482373901,57757
1587014482376454,57757
1587014482377203,57757
1587014482378828,57757
1587014482380238,57757
1587014482381575,57757
1587014482383898,57757
1587014482384629,57757
1587014482385539,57757
1587014482903649,58583
1587014482906438,58583
1587014482906892,58583
1587014482918077,58583
1587014482918993,58583
1587014482929905,58583
1587014482931831,58583
1587014482932535,58583
1587014482933452,58583
1587014482934912,58583
1587014482936324,58583
1587014482938050,58583
1587014482939547,58583
1587014483449232,58924
1587014483461262,58924
1587014483462504,58924
1587014483474608,58924
1587014483475565,58924
1587014483476151,58924
1587014483476949,58924
1587014483489111,58924
1587014483493207,58924
1587014483494183,58924
1587014483496201,58924
1587014483497850,58924
1587014483499164,58924
1587014484005271,58922
1587014484006193,58922
1587014484007148,58922
1587014484007941,58922
1587014484008751,58922
1587014484019691,58922
1587014484021481,58922
1587014484022760,58922
1587014484023127,58922
1587014484024565,58922
1587014484030164,58922
1587014484030649,58922
1587014484031958,58922
1587014484536690,59029
1587014484538155,59029
1587014484538917,59029
1587014484540443,59029
1587014484540936,59029
1587014484542356,59029
1587014484543698,59029
1587014484647252,59029
1587014484648577,59029
1587014484649523,59029
1587014484651339,59029
1587014484652820,59029
1587014484653343,59029
1587014485174652,59352
1587014485175897,59352
1587014485177265,59352
1587014485188748,59352
1587014485189732,59352
1587014485190826,59352
1587014485195715,59352
1587014485197678,59352
1587014485198343,59352
1587014485199499,59352
1587014485201187,59352
1587014485202020,59352
1587014485202961,59352
1587014485714642,59059
1587014485715611,59059
1587014485717212,59059
1587014485717960,59059
1587014485718721,59059
1587014485719518,59059
1587014485720121,59059
1587014485730716,59059
1587014485735848,59059
1587014485736167,59059
1587014485736464,59059
1587014485747627,59059
1587014485758973,59059
1587014485860162,37
1587014486273008,60339
1587014488825287,37
1587014489283666,60339
1587014489285198,60339
1587014489285585,60339
1587014489297082,60339
1587014489298162,60339
1587014489311749,60339
1587014489312668,60339
1587014489315883,60339
1587014489317101,60339
1587014489317835,60339
1587014489328680,60339
1587014489332666,60339
1587014489835437,67353
1587014489842738,67353
1587014489843756,67353
1587014489844460,67353
1587014489845406,67353
1587014489846245,67353
1587014489859785,67353
1587014489862121,67353
1587014489862876,67353
1587014489863609,67353
1587014489865622,67353
1587014489878638,67353
1587014489879645,67353
1587014490381288,64664
1587014490382557,64664
1587014490383287,64664
1587014490384175,64664
1587014490385148,64664
1587014490385469,64664
1587014490387666,64664
1587014490394047,64664
1587014490416891,64664
1587014490424781,64664
1587014490426293,64664
1587014490427058,64664
1587014490427462,64664
1587014490934274,64493
1587014490935425,64493
1587014490936379,64493
1587014490937165,64493
1587014490938168,64493
1587014490940062,64493
1587014490940865,64493
1587014490941617,64493
1587014490943431,64493
1587014490943931,64493
1587014490944255,64493
1587014490945535,64493
1587014490946092,64493
1587014491449894,64154
1587014491450767,64154
1587014491451549,64154
1587014491452556,64154
1587014491452998,64154
1587014491453938,64154
1587014491458489,64154
1587014491459522,64154
1587014491460367,64154
1587014491461032,64154
1587014491461586,64154
1587014491466643,64154
1587014491467797,64154
1587014491972780,63983
1587014491976019,63983
1587014491977095,63983
1587014491977647,63983
1587014491978089,63983
1587014491978617,63983
1587014491979103,63983
1587014491979791,63983
1587014491980245,63983
1587014491980969,63983
1587014491986159,63983
1587014491987273,63983
1587014491987715,63983
1587014492489078,64041
1587014492489723,64041
1587014492490248,64041
1587014492491161,64041
1587014492491867,64041
1587014492493251,64041
1587014492493982,64041
1587014493323848,37
1587014497587181,37
1587014499246970,4
1587014502830581,37
1587014514341046,4
1587014523557938,64041
1587014523558776,64041
1587014523559214,64041
1587014523559763,64041
1587014523560368,64041
1587014523561726,64041
1587014524066366,107865
1587014524070881,107865
1587014524072206,107865
1587014524073625,107865
1587014524074203,107865
1587014524080465,107865
1587014524085530,107865
1587014524087729,107865
1587014524089048,107865
1587014524090296,107865
1587014524093014,107865
1587014524096434,107865
1587014524098260,107865
1587014524599810,84568
1587014524600448,84568
1587014524601463,84568
1587014524601966,84568
1587014524602521,84568
1587014524603374,84568
1587014524603893,84568
1587014524605106,84568
1587014524605716,84568
1587014524607823,84568
1587014524608650,84568
1587014524609747,84568
1587014524610315,84568
1587014525113409,87905
1587014525120023,87905
1587014525123362,87905
1587014525125170,87905
1587014525127250,87905
1587014525133361,87905
1587014525134209,87905
1587014525134759,87905
1587014525136937,87905
1587014525138274,87905
1587014525142463,87905
1587014525146334,87905
1587014525147939,87905
1587014525665122,85444
1587014525666237,85444
1587014525668457,85444
1587014525669252,85444
1587014525670802,85444
1587014525671874,85444
1587014525673681,85444
1587014525674454,85444
1587014525685657,85444
1587014525686717,85444
1587014525690035,85444
1587014525701088,85444
1587014525704903,85444
1587014526214453,88047
1587014526227041,88047
1587014526229525,88047
1587014526232124,88047
1587014526233015,88047
1587014526259474,88047
1587014526263247,88047
1587014526274905,88047
1587014526288623,88047
1587014526293025,88047
1587014526305706,88047
1587014526317498,88047
1587014526320632,88047
1587014526827555,88230
1587014526841743,88230
1587014526843156,88230
1587014526867414,88230
1587014526868832,88230
1587014526872151,88230
1587014526874302,88230
1587014526876148,88230
1587014526886846,88230
1587014526903483,88230
1587014526904667,88230
1587014526905699,88230
1587014526912143,88230
1587014527424674,87585
1587014527426777,87585
1587014527428584,87585
1587014527442729,87585
1587014527454011,87585
1587014527467622,87585
1587014527481899,87585
1587014527482766,87585
1587014527483615,87585
1587014527484463,87585
1587014527486324,87585
1587014527490891,87585
1587014527496769,87585
1587014528009109,88338
1587014528011364,88338
1587014528014138,88338
1587014528026852,88338
1587014528028607,88338
1587014528031461,88338
1587014528031859,88338
1587014528035969,88338
1587014528048371,88338
1587014528063462,88338
1587014528065139,88338
1587014528079443,88338
1587014528083450,88338
1587014528586027,87992
1587014528799648,87992
1587014528802480,87992
1587014528803553,87992
1587014528806476,87992
1587014528807374,87992
1587014528810236,87992
1587014528812855,87992
1587014528813487,87992
1587014528814794,87992
1587014528815893,87992
1587014528816739,87992
1587014528817898,87992
1587014529136744,62
1587014529148486,63
1587014529321521,89517
1587014529325926,89517
1587014529326600,89517
1587014529331020,89517
1587014529333304,89517
1587014529340332,89517
1587014529341762,89517
1587014529344324,89517
1587014529347521,89517
1587014529348122,89517
1587014529353903,89517
1587014529354728,89517
1587014529358922,89517
1587014529861294,89029
1587014529864014,89029
1587014529865578,89029
1587014529866093,89029
1587014529867122,89029
1587014529867663,89029
1587014529873673,89029
1587014529874924,89029
1587014529876281,89029
1587014529877511,89029
1587014530881996,89029
1587014530883687,89029
1587014530885952,89029
1587014531388357,92517
1587014531389727,92517
1587014531390373,92517
1587014531392787,92517
1587014531393361,92517
1587014531396442,92517
1587014531397291,92517
1587014531406859,92517
1587014531408636,92517
1587014531409663,92517
1587014531422237,92517
1587014531428607,92517
1587014531431157,92517
1587014531932513,90828
1587014531933629,90828
1587014531935049,90828
1587014531936656,90828
1587014531938810,90828
1587014531940063,90828
1587014531942024,90828
1587014531942583,90828
1587014531943608,90828
1587014531946525,90828
1587014531947016,90828
1587014531950302,90828
1587014531951184,90828
1587014532329868,63
1587014532338593,63
1587014532340976,61
1587014532453831,91594
1587014532455441,91594
1587014532457039,91594
1587014532459584,91594
1587014532461823,91594
1587014532464238,91594
1587014532464805,91594
1587014532465531,91594
1587014532466770,91594
1587014532467287,91594
1587014532470300,91594
1587014532471610,91594
1587014532473973,91594
1587014532976220,91785
1587014532983661,91785
1587014532985698,91785
1587014532989338,91785
1587014532992812,91785
1587014532994813,91785
1587014533007189,91785
1587014533008234,91785
1587014533020021,91785
1587014533021846,91785
1587014533022459,91785
1587014533024232,91785
1587014533036427,91785
1587014533537779,92231
1587014533539850,92231
1587014533540655,92231
1587014533542292,92231
1587014533542951,92231
1587014533544205,92231
1587014533546083,92231
1587014533548414,92231
1587014533550301,92231
1587014533553253,92231
1587014533554068,92231
1587014533559578,92231
1587014533560361,92231
1587014534003640,61
1587014534062907,92261
1587014534065315,92261
1587014534066548,92261
1587014534070445,92261
1587014534073744,92261
1587014534207950,63
1587014534271776,37
1587014534303809,37
1587014534376830,37
1587014534400047,37
1587014534435377,37
1587014534467627,37
1587014534557448,37
1587014534599139,37
1587014534652674,37
1587014534653599,61
1587014534654131,63
1587014534655971,63
1587014534682249,37
1587014534718706,37
1587014541502084,92261
1587014541506474,92261
1587014541508533,92261
1587014541510250,92261
1587014541516019,92261
1587014541520376,92261
1587014541531774,92261
1587014541536400,92261
1587014542037722,109196
1587014542043273,109196
1587014542045460,109196
1587014542048296,109196
1587014542052477,109196
1587014542054556,109196
1587014542057790,109196
1587014542063689,109196
1587014542066001,109196
1587014542068761,109196
1587014542070196,109196
1587014542072066,109196
1587014542078316,109196
1587014542579800,99341
1587014542581205,99341
1587014542583664,99341
1587014542585423,99341
1587014542586271,99341
1587014542594352,99341
1587014542596055,99341
1587014542599310,99341
1587014542602194,99341
1587014542602779,99341
1587014542604496,99341
1587014542605691,99341
1587014542606812,99341
1587014543113937,98536
1587014543118031,98536
1587014543122420,98536
1587014543124790,98536
1587014543134259,98536
1587014543135969,98536
1587014543141608,98536
1587014543150186,98536
1587014543154110,98536
1587014543159189,98536
1587014543159762,98536
1587014543161927,98536
1587014543162438,98536
1587014543664526,99123
1587014543666902,99123
1587014543667597,99123
1587014543671308,99123
1587014543671779,99123
1587014543673574,99123
1587014543675447,99123
1587014543677272,99123
1587014543677945,99123
1587014543680497,99123
1587014543683889,99123
1587014543686541,99123
1587014543689329,99123
1587014544191734,100650
1587014544194905,100650
1587014544201782,100650
1587014544203648,100650
1587014544206814,100650
1587014544208377,100650
1587014544211879,100650
1587014544213611,100650
1587014544214139,100650
1587014544214613,100650
1587014544218899,100650
1587014544221733,100650
1587014544222599,100650
1587014544724124,102185
1587014544724962,102185
1587014544726544,102185
1587014544728880,102185
1587014544730652,102185
1587014544738452,102185
1587014544739780,102185
1587014544740834,102185
1587014544743342,102185
1587014544746122,102185
1587014544769480,102185
1587014544778116,102185
1587014544788099,102185
1587014545292906,100950
1587014545293866,100950
1587014545295458,100950
1587014545297349,100950
1587014545297974,100950
1587014545302156,100950
1587014545303989,100950
1587014545306337,100950
1587014545310907,100950
1587014545311719,100950
1587014545312266,100950
1587014545317142,100950
1587014545318730,100950
1587014545821982,101423
1587014545822643,101423
1587014545825508,101423
1587014545829014,101423
1587014545830230,101423
1587014545831495,101423
1587014545833078,101423
1587014545835424,101423
1587014545837550,101423
1587014545838141,101423
1587014545841439,101423
1587014545845029,101423
1587014545848342,101423
1587014546352692,101722
1587014546353542,101722
1587014546355095,101722
1587014546357927,101722
1587014546359923,101722
1587014546361475,101722
1587014546364773,101722
1587014546366321,101722
1587014546367508,101722
1587014546369608,101722
1587014546371645,101722
1587014546372228,101722
1587014546374814,101722
1587014546877208,102294
1587014546880127,102294
1587014546881644,102294
1587014546883298,102294
1587014546886183,102294
1587014546887708,102294
1587014546889294,102294
1587014546889947,102294
1587014546891667,102294
1587014546895011,102294
1587014546897327,102294
1587014546899283,102294
1587014546903266,102294
1587014547406290,102793
1587014547409065,102793
1587014547411755,102793
1587014547412231,102793
1587014547414938,102793
1587014547415449,102793
1587014547416190,102793
1587014547417190,102793
1587014547418782,102793
1587014547419616,102793
1587014547421996,102793
1587014547422834,102793
1587014547423418,102793
1587014547926617,103310
1587014547927077,103310
1587014547931962,103310
1587014547934355,103310
1587014547935907,103310
1587014547938886,103310
1587014547941618,103310
1587014547943395,103310
1587014547944002,103310
1587014547944540,103310
1587014547949692,103310
1587014547956713,103310
1587014547958330,103310
1587014548464921,103122
1587014548686335,103122
1587014548688050,103122
1587014548696550,103122
1587014548699553,103122
1587014548703567,103122
1587014548707823,103122
1587014548709466,103122
1587014548710944,103122
1587014548711545,103122
1587014548713405,103122
1587014548715436,103122
1587014548717957,103122
1587014549220294,104279
1587014549224050,104279
1587014549227972,104279
1587014549228492,104279
1587014549229006,104279
1587014549232413,104279
1587014549234311,104279
1587014549238763,104279
1587014549240886,104279
1587014549241576,104279
1587014549243624,104279
1587014549245233,104279
1587014549245909,104279
1587014549748681,104190
1587014549749216,104190
1587014549749763,104190
1587014549761546,104190
1587014549762824,104190
1587014549763633,104190
1587014549764176,104190
1587014549769625,104190
1587014549770940,104190
1587014549773709,104190
1587014549785074,104190
1587014549787158,104190
1587014549788654,104190
1587014550295360,104060
1587014550296669,104060
1587014550298664,104060
1587014550301721,104060
1587014550302219,104060
1587014550305868,104060
1587014550315153,104060
1587014550317397,104060
1587014550319064,104060
1587014550320034,104060
1587014550322432,104060
1587014550323317,104060
1587014550324131,104060
1587014550826400,104499
1587014550827993,104499
1587014550830769,104499
1587014550834300,104499
1587014550846180,104499
1587014550850069,104499
1587014550850590,104499
1587014550851153,104499
1587014550854528,104499
1587014550858085,104499
1587014550863939,104499
1587014550865748,104499
1587014550866337,104499
1587014551370101,104952
1587014551373310,104952
1587014551375086,104952
1587014551376786,104952
1587014551379597,104952
1587014551382896,104952
1587014551385211,104952
1587014551387277,104952
1587014551388165,104952
1587014551388978,104952
1587014551390460,104952
1587014551392293,104952
1587014551393564,104952
1587014551896651,105648
1587014551898221,105648
1587014551900969,105648
1587014551901722,105648
1587014551902655,105648
1587014551903651,105648
1587014551906168,105648
1587014551907586,105648
1587014551908163,105648
1587014551913665,105648
1587014551915091,105648
1587014551918948,105648
1587014551922187,105648
1587014552426149,105925
1587014552426857,105925
1587014552427362,105925
1587014552429790,105925
1587014552434144,105925
1587014552437078,105925
1587014552443705,105925
1587014552447068,105925
1587014552448455,105925
1587014552450415,105925
1587014552453287,105925
1587014552455497,105925
1587014552457556,105925
1587014552959863,105953
1587014552960999,105953
1587014555968888,105953
1587014555972042,105953
1587014555985553,105953
1587014555987600,105953
1587014555989485,105953
1587014555990520,105953
1587014555991244,105953
1587014555992292,105953
1587014556007607,105953
1587014556019776,105953
1587014556022537,105953
1587014556533597,111441
1587014556534492,111441
1587014556537812,111441
1587014556540796,111441
1587014556554970,111441
1587014556555890,111441
1587014556556570,111441
1587014556559582,111441
1587014556571484,111441
1587014556574048,111441
1587014556577685,111441
1587014556590336,111441
1587014556591356,111441
1587014557102584,110483
1587014557103414,110483
1587014557107668,110483
1587014557112329,110483
1587014557113118,110483
1587014557128892,110483
1587014557130873,110483
1587014557135776,110483
1587014557138169,110483
1587014557138567,110483
1587014557153459,110483
1587014557158247,110483
1587014557162176,110483
1587014557669120,110379
1587014557673462,110379
1587014557674167,110379
1587014557675441,110379
1587014557676436,110379
1587014557678001,110379
1587014557679429,110379
1587014557685086,110379
1587014557691038,110379
1587014557694168,110379
1587014557707691,110379
1587014557709502,110379
1587014557714044,110379
1587014558222656,110532
1587014558226197,110532
1587014558229575,110532
1587014558233910,110532
1587014558237120,110532
1587014558240279,110532
1587014558244564,110532
1587014558249650,110532
1587014558253805,110532
1587014558255261,110532
1587014558258837,110532
1587014558259417,110532
1587014558260643,110532
1587014558766309,110813
1587014558768764,110813
1587014558770974,110813
1587014558771796,110813
1587014558772991,110813
1587014558778576,110813
1587014558779206,110813
1587014558781040,110813
1587014558783555,110813
1587014558785369,110813
1587014558786152,110813
1587014558786989,110813
1587014558790104,110813
1587014559293567,110645
1587014559297637,110645
1587014559300430,110645
1587014559303196,110645
1587014559305207,110645
1587014559308507,110645
1587014559308963,110645
1587014559312264,110645
1587014559318157,110645
1587014559322808,110645
1587014559326123,110645
1587014559326668,110645
1587014559331094,110645
1587014559834482,111968
1587014559836156,111968
1587014559838878,111968
1587014559843225,111968
1587014559844697,111968
1587014559847826,111968
1587014559850223,111968
1587014559850747,111968
1587014559854313,111968
1587014559856337,111968
1587014559858657,111968
1587014559860893,111968
1587014559863733,111968
1587014560365003,112471
1587014560369161,112471
1587014560370745,112471
1587014560376398,112471
1587014560378081,112471
1587014560378634,112471
1587014560380677,112471
1587014560382260,112471
1587014560383894,112471
1587014560385623,112471
1587014560391022,112471
1587014560393261,112471
1587014560396448,112471
1587014560900747,112560
1587014560905199,112560
1587014560907253,112560
1587014560908819,112560
1587014560912610,112560
1587014560916073,112560
1587014560917572,112560
1587014560918914,112560
1587014560921278,112560
1587014560922787,112560
1587014560924734,112560
1587014560926400,112560
1587014560928331,112560
1587014561429645,112117
1587014561432809,112117
1587014561436009,112117
1587014561436494,112117
1587014561439382,112117
1587014561439876,112117
1587014561442488,112117
1587014561443084,112117
1587014561444894,112117
1587014561447309,112117
1587014561449803,112117
1587014561450668,112117
1587014561454809,112117
1587014561958442,113336
1587014561958939,113336
1587014561959426,113336
1587014561963483,113336
1587014561964793,113336
1587014561967912,113336
1587014561970348,113336
1587014561971673,113336
1587014561973366,113336
1587014561975072,113336
1587014561975881,113336
1587014561976401,113336
1587014561978620,113336
1587014562488376,113735
1587014562489932,113735
1587014562493421,113735
1587014562494643,113735
1587014562498848,113735
1587014562503206,113735
1587014562504350,113735
1587014562507250,113735
1587014562521136,113735
1587014562526635,113735
1587014562529738,113735
1587014562532133,113735
1587014562535015,113735
1587014563042794,114849
1587014563045490,114849
1587014563046314,114849
1587014563053681,114849
1587014563054533,114849
1587014563058955,114849
1587014563062592,114849
1587014563063547,114849
1587014563064222,114849
1587014563066818,114849
1587014563067626,114849
1587014563069923,114849
1587014563070468,114849
1587014563574210,114152
1587014563576177,114152
1587014563580087,114152
1587014563586754,114152
1587014563590379,114152
1587014563595951,114152
1587014563599725,114152
1587014563602755,114152
1587014563612642,114152
1587014563617103,114152
1587014563618297,114152
1587014563623167,114152
1587014563626854,114152
1587014564130249,115090
1587014564131079,115090
1587014564131822,115090
1587014564134041,115090
1587014564135489,115090
1587014564135991,115090
1587014564137970,115090
1587014564151405,115090
1587014564154235,115090
1587014564155078,115090
1587014565159775,115090
1587014565164719,115090
1587014565166117,115090
1587014565670542,117417
1587014565672190,117417
1587014565673197,117417
1587014565675659,117417
1587014565678382,117417
1587014565679094,117417
1587014565683431,117417
1587014565685668,117417
1587014565691194,117417
1587014565694860,117417
1587014565697774,117417
1587014565700856,117417
1587014565702604,117417
1587014566207206,116772
1587014566215368,116772
1587014566217415,116772
1587014566221358,116772
1587014566222754,116772
1587014566228416,116772
1587014566229446,116772
1587014566232915,116772
1587014566235747,116772
1587014566237751,116772
1587014566238268,116772
1587014566241817,116772
1587014566243733,116772
1587014566746924,116704
1587014566749456,116704
1587014566750492,116704
1587014566751094,116704
1587014566753110,116704
1587014566754333,116704
1587014566762490,116704
1587014566763473,116704
1587014566765743,116704
1587014566767936,116704
1587014566773119,116704
1587014566774035,116704
1587014566774853,116704
1587014567276530,117003
1587014567279988,117003
1587014567281233,117003
1587014567287739,117003
1587014567290983,117003
1587014567295435,117003
1587014567301956,117003
1587014567307520,117003
1587014567311928,117003
1587014567312492,117003
1587014567315194,117003
1587014567316218,117003
1587014567319481,117003
1587014567822407,117482
1587014567823095,117482
1587014567824022,117482
1587014567827176,117482
1587014567837889,117482
1587014567844558,117482
1587014567846417,117482
1587014567849558,117482
1587014567857986,117482
1587014567860417,117482
1587014567863346,117482
1587014567867958,117482
1587014567868538,117482
1587014568370785,117569
1587014568377924,117569
1587014568388059,117569
1587014568390644,117569
1587014568394203,117569
1587014568399115,117569
1587014568403866,117569
1587014568407089,117569
1587014568409131,117569
1587014568411858,117569
1587014568415771,117569
1587014568423082,117569
1587014568426142,117569
1587014568928766,118667
1587014568930083,118667
1587014568934120,118667
1587014568935522,118667
1587014568937524,118667
1587014568938838,118667
1587014569947085,118667
1587014569948246,118667
1587014569953410,118667
1587014569955184,118667
1587014569958368,118667
1587014569960313,118667
1587014569963274,118667
1587014570464624,120825
1587014570465957,120825
1587014570466633,120825
1587014570468953,120825
1587014570475684,120825
1587014570479912,120825
1587014570482108,120825
1587014570485006,120825
1587014570488195,120825
1587014570489551,120825
1587014570490146,120825
1587014570500873,120825
1587014570502916,120825
1587014571005185,119142
1587014571005750,119142
1587014571008003,119142
1587014571013338,119142
1587014571015478,119142
1587014571016848,119142
1587014571018791,119142
1587014571020107,119142
1587014571022284,119142
1587014571022808,119142
1587014571025049,119142
1587014571025669,119142
1587014571031163,119142
1587014571533919,119928
1587014571536621,119928
1587014571541814,119928
1587014571542323,119928
1587014571545364,119928
1587014571549322,119928
1587014571551372,119928
1587014571553435,119928
1587014571555609,119928
1587014571557227,119928
1587014571560328,119928
1587014571561984,119928
1587014571562478,119928
1587014572065809,119733
1587014572068370,119733
1587014572069990,119733
1587014587118490,119733
1587014587124152,119733
1587014587126306,119733
1587014587131833,119733
1587014587132829,119733
1587014587138265,119733
1587014587140119,119733
1587014587142857,119733
1587014587143688,119733
1587014587150021,119733
1587014587657328,151019
1587014587660661,151019
1587014587661772,151019
1587014587663762,151019
1587014587666436,151019
1587014587671195,151019
1587014587673548,151019
1587014587674862,151019
1587014587675869,151019
1587014587677761,151019
1587014587682707,151019
1587014587685803,151019
1587014587688785,151019
1587014588191837,131357
1587014588195247,131357
1587014588199294,131357
1587014588202201,131357
1587014588204426,131357
1587014588208476,131357
1587014588211005,131357
1587014588211852,131357
1587014588215767,131357
1587014588218329,131357
1587014588221490,131357
1587014588224779,131357
1587014588227710,131357
1587014588731583,131341
1587014588735935,131341
1587014588738776,131341
1587014588739570,131341
1587014588743436,131341
1587014588748329,131341
1587014588748969,131341
1587014588754797,131341
1587014588758096,131341
1587014588761414,131341
1587014588769897,131341
1587014588772398,131341
1587014589774961,131341
1587014590280376,135141
1587014590281058,135141
1587014590281698,135141
1587014590285939,135141
1587014590287658,135141
1587014590290085,135141
1587014590291274,135141
1587014590295583,135141
1587014590296345,135141
1587014590301478,135141
1587014590305863,135141
1587014590308907,135141
1587014590315026,135141
1587014590818370,133429
1587014590820117,133429
1587014590824301,133429
1587014590826094,133429
1587014590827685,133429
1587014590828586,133429
1587014590833476,133429
1587014590839273,133429
1587014590840010,133429
1587014590846532,133429
1587014590849422,133429
1587014590852052,133429
1587014590855159,133429
1587014591356814,134500
1587014591359071,134500
1587014591361414,134500
1587014591366035,134500
1587014591366625,134500
1587014591372850,134500
1587014591379285,134500
1587014591389503,134500
1587014591393609,134500
1587014591396481,134500
1587014591397921,134500
1587014591402095,134500
1587014591406662,134500
1587014591913769,134158
1587014591916207,134158
1587014591919615,134158
1587014591922366,134158
1587014591926223,134158
1587014591927755,134158
1587014591929819,134158
1587014591933554,134158
1587014591934684,134158
1587014591943998,134158
1587014591944677,134158
1587014591948644,134158
1587014591951715,134158
1587014592459417,134710
1587014592468084,134710
1587014592474338,134710
1587014592478159,134710
1587014592481378,134710
1587014592482186,134710
1587014592486938,134710
1587014592489898,134710
1587014592491926,134710
1587014592494259,134710
1587014592496219,134710
1587014592498663,134710
1587014592499729,134710
1587014593001638,135545
1587014593008592,135545
1587014593011968,135545
1587014593015062,135545
1587014593016458,135545
1587014593017284,135545
1587014593023907,135545
1587014593028012,135545
1587014593041131,135545
1587014593048461,135545
1587014593054012,135545
1587014593057370,135545
1587014593062295,135545
1587014593570683,134578
1587014593574501,134578
1587014593575355,134578
1587014593575933,134578
1587014593581489,134578
1587014593584822,134578
1587014593596745,134578
1587014593602156,134578
1587014593608586,134578
1587014593610017,134578
1587014593612549,134578
1587014593617424,134578
1587014593621631,134578
1587014594128581,136254
1587014594133549,136254
1587014594136823,136254
1587014594139826,136254
1587014594164189,136254
1587014594165007,136254
1587014594168633,136254
1587014594171167,136254
1587014594171899,136254
1587014594174024,136254
1587014594174652,136254
1587014594179183,136254
1587014594182063,136254
1587014594686624,136015
1587014594695196,136015
1587014594700685,136015
1587014594701275,136015
1587014594706641,136015
1587014594707722,136015
1587014594711448,136015
1587014594715707,136015
1587014595935426,136015
1587014595936165,136015
1587014595940817,136015
1587014595944036,136015
1587014595944948,136015
1587014596451973,137525
1587014596452790,137525
1587014596455233,137525
1587014596457509,137525
1587014596462188,137525
1587014596478031,137525
1587014596480275,137525
1587014596485273,137525
1587014596489263,137525
1587014596500045,137525
1587014596503716,137525
1587014596507422,137525
1587014596508092,137525
1587014597015823,136847
1587014597019010,136847
1587014597021412,136847
1587014597024021,136847
1587014597027911,136847
1587014597030771,136847
1587014597033910,136847
1587014597034528,136847
1587014597037044,136847
1587014597041283,136847
1587014597047352,136847
1587014597050956,136847
1587014597056576,136847
1587014597559092,137075
1587014597564521,137075
1587014597570532,137075
1587014597573905,137075
1587014597574694,137075
1587014597581496,137075
1587014597584057,137075
1587014597586206,137075
1587014597590058,137075
1587014597593086,137075
1587014597600979,137075
1587014597601733,137075
1587014597607273,137075
1587014598110764,137500
1587014598118765,137500
1587014598121936,137500
1587014598124976,137500
1587014598130681,137500
1587014598131545,137500
1587014598132348,137500
1587014598133084,137500
1587014598136730,137500
1587014598145857,137500
1587014598152042,137500
1587014598160469,137500
1587014598162493,137500
1587014598670680,138542
1587014598671740,138542
1587014598679522,138542
1587014598682165,138542
1587014598684074,138542
1587014598686031,138542
1587014598688532,138542
1587014598690911,138542
1587014598693245,138542
1587014598698563,138542
1587014598701923,138542
1587014598705527,138542
1587014598708936,138542
1587014599212241,138168
1587014599212868,138168
1587014599216961,138168
1587014599217997,138168
1587014599223892,138168
1587014599228259,138168
1587014599231016,138168
1587014599234821,138168
1587014599237004,138168
1587014599240483,138168
1587014599243569,138168
1587014599250066,138168
1587014599257465,138168
1587014599772987,138397
1587014599773825,138397
1587014599774577,138397
1587014599779524,138397
1587014599784266,138397
1587014599790471,138397
1587014599794914,138397
1587014599797755,138397
1587014599800891,138397
1587014599803166,138397
1587014599806077,138397
1587014599807487,138397
1587014599810190,138397
1587014600317526,139002
1587014600322653,139002
1587014600331286,139002
1587014600337356,139002
1587014600338343,139002
1587014600341620,139002
1587014600344407,139002
1587014600346260,139002
1587014600351106,139002
1587014600352122,139002
1587014600361491,139002
1587014600366532,139002
1587014600367682,139002
1587014600879309,139175
1587014600881165,139175
1587014600884774,139175
1587014600885892,139175
1587014600886610,139175
1587014600890322,139175
1587014600891315,139175
1587014600898919,139175
1587014600901531,139175
1587014600904364,139175
1587014600907034,139175
1587014600907817,139175
1587014600911706,139175
1587014601418501,139293
1587014601422144,139293
1587014601426202,139293
1587014601430493,139293
1587014601433519,139293
1587014601437025,139293
1587014601439730,139293
1587014601444031,139293
1587014601446337,139293
1587014601446984,139293
1587014601451987,139293
1587014601459947,139293
1587014601464095,139293
1587014601969996,139426
1587014601976332,139426
1587014601983585,139426
1587014601984611,139426
1587014601985749,139426
1587014601989413,139426
1587014601997852,139426
1587014602005401,139426
1587014602006945,139426
1587014602008123,139426
1587014602008942,139426
1587014605024020,139426
1587014605027249,139426
1587014605538694,145780
1587014605545734,145780
1587014605548330,145780
1587014605553232,145780
1587014605559764,145780
1587014605564782,145780
1587014605568073,145780
1587014605574852,145780
1587014605577091,145780
1587014605583562,145780
1587014605588288,145780
1587014605593063,145780
1587014605598253,145780
1587014606106021,142368
1587014606112217,142368
1587014606114470,142368
1587014606118348,142368
1587014606121174,142368
1587014606122950,142368
1587014606125162,142368
1587014606128539,142368
1587014606130637,142368
1587014606136433,142368
1587014606140881,142368
1587014606145730,142368
1587014606148725,142368
1587014606654160,142428
1587014606657655,142428
1587014606660536,142428
1587014606663049,142428
1587014606663809,142428
1587014606667431,142428
1587014606672333,142428
1587014606676357,142428
1587014606679799,142428
1587014606687677,142428
1587014606689353,142428
1587014606694593,142428
1587014606699986,142428
1587014607202325,142565
1587014607220764,142565
1587014607229314,142565
1587014607232829,142565
1587014607235857,142565
1587014607239668,142565
1587014607245678,142565
1587014607248551,142565
1587014607253631,142565
1587014607254639,142565
1587014607256286,142565
1587014607258573,142565
1587014607259173,142565
1587014607762815,144163
1587014607765332,144163
1587014607769430,144163
1587014607774601,144163
1587014607775723,144163
1587014607778886,144163
1587014607782771,144163
1587014607783416,144163
1587014607786830,144163
1587014607794088,144163
1587014607798145,144163
1587014607800341,144163
1587014607803865,144163
1587014608050911,63
1587014608307466,143735
1587014608308062,143735
1587014608312722,143735
1587014608318539,143735
1587014608319475,143735
1587014608327479,143735
1587014608329179,143735
1587014608333415,143735
1587014608337907,143735
1587014608342583,143735
1587014608347700,143735
1587014608352158,143735
1587014608360329,143735
1587014608863561,145896
1587014608864195,145896
1587014608869528,145896
1587014608877349,145896
1587014608881165,145896
1587014608884192,145896
1587014608888153,145896
1587014608891556,145896
1587014608894417,145896
1587014608899163,145896
1587014608901671,145896
1587014608908064,145896
1587014608909569,145896
1587014609411005,144985
1587014609417124,144985
1587014609424809,144985
1587014609431791,144985
1587014609444626,144985
1587014609456426,144985
1587014609464173,144985
1587014609468268,144985
1587014609474788,144985
1587014609475281,144985
1587014609490607,144985
1587014609491402,144985
1587014609496060,144985
1587014610005825,144816
1587014610008915,144816
1587014610014471,144816
1587014610026995,144816
1587014610030200,144816
1587014610032714,144816
1587014610036373,144816
1587014610040275,144816
1587014610049587,144816
1587014610055436,144816
1587014610058865,144816
1587014610059611,144816
1587014610064279,144816
1587014610575823,146065
1587014610581825,146065
1587014610586579,146065
1587014610590296,146065
1587014610594397,146065
1587014610599986,146065
1587014610601076,146065
1587014610601793,146065
1587014610607459,146065
1587014610611438,146065
1587014610619515,146065
1587014610624021,146065
1587014610627545,146065
1587014611131043,146593
1587014611137482,146593
1587014611143590,146593
1587014611144274,146593
1587014611147295,146593
1587014611152090,146593
1587014611156071,146593
1587014611156910,146593
1587014611167269,146593
1587014611169450,146593
1587014611172850,146593
1587014611179547,146593
1587014611180777,146593
1587014611686767,145912
1587014611687834,145912
1587014611690107,145912
1587014611693023,145912
1587014611696370,145912
1587014611704271,145912
1587014611709844,145912
1587014611710785,145912
1587014611712358,145912
1587014611718657,145912
1587014611721125,145912
1587014611724819,145912
1587014611728429,145912
1587014612234869,146470
1587014612238280,146470
1587014612244098,146470
1587014612264680,146470
1587014612267709,146470
1587014612270717,146470
1587014612277478,146470
1587014612278511,146470
1587014612279267,146470
1587014612282692,146470
1587014612285489,146470
1587014612289170,146470
1587014612294248,146470
1587014612797732,146466
1587014612799691,146466
1587014612806183,146466
1587014612807675,146466
1587014612813371,146466
1587014612817664,146466
1587014612822912,146466
1587014612827507,146466
1587014612830549,146466
1587014612835984,146466
1587014612836812,146466
1587014612842163,146466
1587014612845084,146466
1587014613352468,146810
1587014613354572,146810
1587014613366675,146810
1587014613372871,146810
1587014613376902,146810
1587014613381913,146810
1587014613387423,146810
1587014613391346,146810
1587014613394615,146810
1587014613406875,146810
1587014613413062,146810
1587014613420683,146810
1587014613425107,146810
1587014613927672,146857
1587014620956379,146857
1587014620959772,146857
1587014620962282,146857
1587014620963257,146857
1587014620967062,146857
1587014620972697,146857
1587014620976781,146857
1587014620985531,146857
1587014620990861,146857
1587014620996412,146857
1587014620997763,146857
1587014621005050,146857
1587014621509297,158776
1587014621512108,158776
1587014621520897,158776
1587014621527225,158776
1587014621531023,158776
1587014621534078,158776
1587014621546540,158776
1587014621551527,158776
1587014621555379,158776
1587014621558472,158776
1587014621563748,158776
1587014621565894,158776
1587014621569169,158776
1587014622076967,151621
1587014622080193,151621
1587014622084426,151621
1587014622088843,151621
1587014622089771,151621
1587014622097752,151621
1587014622106120,151621
1587014622117923,151621
1587014622121860,151621
1587014622127935,151621
1587014622132645,151621
1587014622135829,151621
1587014622139615,151621
1587014622651266,152632
1587014622652819,152632
1587014622654192,152632
1587014622655124,152632
1587014622657880,152632
1587014622665417,152632
1587014622670164,152632
1587014622675442,152632
1587014622681495,152632
1587014622685860,152632
1587014622689105,152632
1587014622697290,152632
1587014622698025,152632
1587014623200228,152983
1587014623204732,152983
1587014623209370,152983
1587014623213178,152983
1587014623222877,152983
1587014623228171,152983
1587014623231758,152983
1587014623237624,152983
1587014623242260,152983
1587014623246377,152983
1587014623250855,152983
1587014623253712,152983
1587014623263655,152983
1587014623766526,153719
1587014623769442,153719
1587014623774115,153719
1587014623778499,153719
1587014623779528,153719
1587014623780775,153719
1587014623781655,153719
1587014623782496,153719
1587014623789476,153719
1587014623794506,153719
1587014623795837,153719
1587014623798561,153719
1587014623800755,153719
1587014624305966,153906
1587014624309108,153906
1587014624312346,153906
1587014624316638,153906
1587014624319879,153906
1587014624321925,153906
1587014624324290,153906
1587014624325048,153906
1587014624329739,153906
1587014624331502,153906
1587014624339101,153906
1587014624344191,153906
1587014624345894,153906
1587014624854082,154148
1587014624858456,154148
1587014624862589,154148
1587014624870250,154148
1587014624878657,154148
1587014624881897,154148
1587014624887457,154148
1587014624888713,154148
1587014624891349,154148
1587014624897748,154148
1587014624900968,154148
1587014624908995,154148
1587014624914684,154148
1587014625429934,154700
1587014625433278,154700
1587014625434729,154700
1587014625442130,154700
1587014625448884,154700
1587014625454225,154700
1587014625454959,154700
1587014625460108,154700
1587014625464381,154700
1587014625472666,154700
1587014625477953,154700
1587014625479475,154700
1587014625481365,154700
1587014625987504,154197
1587014625990030,154197
1587014625992408,154197
1587014625997518,154197
1587014625998981,154197
1587014626004284,154197
1587014626007071,154197
1587014626013743,154197
1587014626015117,154197
1587014626021416,154197
1587014626026470,154197
1587014626034093,154197
1587014626036018,154197
1587014626539406,155882
1587014626541681,155882
1587014626542503,155882
1587014626546567,155882
1587014626550781,155882
1587014626561779,155882
1587014626573303,155882
1587014626578857,155882
1587014626580266,155882
1587014626581035,155882
1587014626597471,155882
1587014626599857,155882
1587014626600961,155882
1587014627105817,155422
1587014627111632,155422
1587014627118440,155422
1587014627119867,155422
1587014627121040,155422
1587014627131199,155422
1587014627140023,155422
1587014627142216,155422
1587014627147517,155422
1587014627151022,155422
1587014627154339,155422
1587014627155930,155422
1587014627157616,155422
1587014627663627,156151
1587014627668492,156151
1587014627669875,156151
1587014627678182,156151
1587014627691986,156151
1587014627700023,156151
1587014627703155,156151
1587014627705883,156151
1587014627715444,156151
1587014627726666,156151
1587014627728922,156151
1587014627736721,156151
1587014627745843,156151
1587014628248772,156114
1587014628258062,156114
1587014628264100,156114
1587014628264997,156114
1587014628265999,156114
1587014628269503,156114
1587014628287267,156114
1587014628299897,156114
1587014628312629,156114
1587014628346739,156114
1587014628352513,156114
1587014628359913,156114
1587014628370571,156114
1587014628879282,156378
1587014628880098,156378
1587014628884722,156378
1587014628888751,156378
1587014628895072,156378
1587014628923038,156378
1587014628927574,156378
1587014628945153,156378
1587014628946917,156378
1587014628962695,156378
1587014628966978,156378
1587014628974780,156378
1587014628991852,156378
1587014629496429,157391
1587014629499147,157391
1587014629503449,157391
1587014629511671,157391
1587014629517154,157391
1587014629518040,157391
1587014629522349,157391
1587014629527676,157391
1587014629532593,157391
1587014629538917,157391
1587014629543127,157391
1587014629552484,157391
1587014629556810,157391
1587014630064850,156980
1587014630066153,156980
1587014630070767,156980
1587014630072058,156980
1587014630073183,156980
1587014630078598,156980
1587014630080660,156980
1587014630084837,156980
1587014630094942,156980
1587014630096122,156980
1587014630100251,156980
1587014630110178,156980
1587014630111858,156980
1587014630615753,157090
1587014630623674,157090
1587014630624995,157090
1587014630631270,157090
1587014630632515,157090
1587014630641284,157090
1587014630648023,157090
1587014630649701,157090
1587014630652716,157090
1587014630657457,157090
1587014630665548,157090
1587014630673096,157090
1587014630682307,157090
1587014631185873,157622
1587014631187341,157622
1587014631188450,157622
1587014631193207,157622
1587014631196278,157622
1587014631197336,157622
1587014631206022,157622
1587014631209990,157622
1587014631215439,157622
1587014631221935,157622
1587014631224855,157622
1587014631228922,157622
1587014631240157,157622
1587014631743373,157737
1587014631747108,157737
1587014631757960,157737
1587014631763894,157737
1587014631770469,157737
1587014631771253,157737
1587014631772882,157737
1587014631780732,157737
1587014631781595,157737
1587014631784419,157737
1587014631787032,157737
1587014631791319,157737
1587014631796626,157737
1587014632299163,157968
1587014632308219,157968
1587014632328476,157968
1587014632337976,157968
1587014632343547,157968
1587014632344726,157968
1587014632351942,157968
1587014632354597,157968
1587014632356317,157968
1587014632361310,157968
1587014632364596,157968
1587014632367421,157968
1587014632372306,157968
1587014632881188,159139
1587014632882690,159139
1587014632890260,159139
1587014632901684,159139
1587014632909524,159139
1587014632917174,159139
1587014632922882,159139
1587014632923929,159139
1587014632928948,159139
1587014632929634,159139
1587014632934998,159139
1587014632939939,159139
1587014632943863,159139
1587014633455647,159227
1587014633460349,159227
1587014633461152,159227
1587014633465729,159227
1587014633470356,159227
1587014634475946,159227
1587014634478651,159227
1587014635707912,159227
1587014635710706,159227
1587014635711676,159227
1587014635712725,159227
1587014636941012,159227
1587014636948446,159227
1587014637465775,165127
1587014637467774,165127
1587014637474030,165127
1587014637476294,165127
1587014637480694,165127
1587014637483141,165127
1587014637487725,165127
1587014637492582,165127
1587014637500263,165127
1587014637505085,165127
1587014637509177,165127
1587014637510298,165127
1587014637518240,165127
1587014638026700,161687
1587014638031995,161687
1587014638035021,161687
1587014638036808,161687
1587014638039972,161687
1587014638043286,161687
1587014638047733,161687
1587014638053303,161687
1587014638061438,161687
1587014638068732,161687
1587014638073667,161687
1587014638077002,161687
1587014638082506,161687
1587014638596478,161703
1587014638599340,161703
1587014638602770,161703
1587014638606011,161703
1587014638612238,161703
1587014638622019,161703
1587014638627162,161703
1587014638628433,161703
1587014638636293,161703
1587014638641117,161703
1587014638642369,161703
1587014638643686,161703
1587014638651765,161703
1587014639160566,161903
1587014639162298,161903
1587014639170109,161903
1587014639175217,161903
1587014639184160,161903
1587014639191444,161903
1587014639195524,161903
1587014639199811,161903
1587014639207065,161903
1587014639215380,161903
1587014639223001,161903
1587014639227343,161903
1587014639232137,161903
1587014639738737,162003
1587014639739725,162003
1587014639743236,162003
1587014639750662,162003
1587014639757234,162003
1587014639761007,162003
1587014639763757,162003
1587014639775060,162003
1587014639779373,162003
1587014639783734,162003
1587014639787577,162003
1587014639793866,162003
1587014639795447,162003
1587014641302819,162640
1587014641306016,162640
1587014641309833,162640
1587014641316216,162640
1587014641321165,162640
1587014641322043,162640
1587014641322763,162640
1587014641334247,162640
1587014641336191,162640
1587014641341645,162640
1587014641344006,162640
1587014641346231,162640
1587014641348362,162640
1587014641856329,163987
1587014641857303,163987
1587014641867454,163987
1587014641868882,163987
1587014641871560,163987
1587014641873812,163987
1587014641877851,163987
1587014641884868,163987
1587014641889288,163987
1587014641890484,163987
1587014641896836,163987
1587014641902210,163987
1587014641903613,163987
1587014642406981,163387
1587014642407804,163387
1587014642408683,163387
1587014642412574,163387
1587014642415380,163387
1587014642419455,163387
1587014642423299,163387
1587014642430083,163387
1587014642434075,163387
1587014642434880,163387
1587014642435723,163387
1587014642444308,163387
1587014642445309,163387
1587014642948072,164909
1587014642952213,164909
1587014642957174,164909
1587014642960792,164909
1587014642962337,164909
1587014642972556,164909
1587014642976005,164909
1587014642978766,164909
1587014642984485,164909
1587014642985354,164909
1587014642989033,164909
1587014642994766,164909
1587014643005588,164909
1587014643513269,164776
1587014643522994,164776
1587014643525888,164776
1587014643530442,164776
1587014643535790,164776
1587014643541378,164776
1587014643546947,164776
1587014643551472,164776
1587014643552314,164776
1587014643553088,164776
1587014643560249,164776
1587014643571725,164776
1587014643572658,164776
1587014644077548,164323
1587014644082531,164323
1587014644087124,164323
1587014644088973,164323
1587014644090843,164323
1587014644092503,164323
1587014644105207,164323
1587014644111816,164323
1587014644114812,164323
1587014644120530,164323
1587014644127655,164323
1587014644128513,164323
1587014644130749,164323
1587014644640115,164331
1587014644644157,164331
1587014644652449,164331
1587014644653457,164331
1587014644662359,164331
1587014644667576,164331
1587014644673833,164331
1587014644678709,164331
1587014644681538,164331
1587014644682988,164331
1587014644686835,164331
1587014644691663,164331
1587014644696908,164331
1587014645202684,165609
1587014645208873,165609
1587014645214926,165609
1587014645216978,165609
1587014645220597,165609
1587014645221978,165609
1587014645226864,165609
1587014645230805,165609
1587014645234874,165609
1587014645236028,165609
1587014645241423,165609
1587014645244162,165609
1587014645244899,165609
1587014645752234,165453
1587014645758578,165453
1587014645766904,165453
1587014645772952,165453
1587014645781300,165453
1587014645788867,165453
1587014645791706,165453
1587014645802648,165453
1587014645807835,165453
1587014645815635,165453
1587014645820730,165453
1587014645825760,165453
1587014645830517,165453
1587014646340519,165998
1587014646346573,165998
1587014646352528,165998
1587014646362225,165998
1587014646363724,165998
1587014646378655,165998
1587014646385069,165998
1587014646390782,165998
1587014646391647,165998
1587014646396071,165998
1587014646402716,165998
1587014646404919,165998
1587014646413369,165998
1587014646921514,167203
1587014646932358,167203
1587014646941302,167203
1587014646943833,167203
1587014646947234,167203
1587014646951357,167203
1587014646965025,167203
1587014646975042,167203
1587014646979511,167203
1587014646985618,167203
1587014646992054,167203
1587014646998112,167203
1587014647008127,167203
