1587014401753992,31
1587014401829452,23
1587014402198535,18
1587014402538052,37
1587014402539524,23
1587014402548629,64
1587014402549892,64
1587014402551959,64
1587014402552831,64
1587014402554422,64
1587014402556156,64
1587014402557801,64
1587014402565199,64
1587014402566802,64
1587014402567340,64
1587014402568455,64
1587014402569380,64
1587014402569869,64
1587014402652020,23
1587014403075984,2630
1587014403079631,2630
1587014403082659,2630
1587014403085985,2630
1587014403094176,2630
1587014403103942,2630
1587014403108532,2630
1587014403114283,2630
1587014403118110,2630
1587014403119943,2630
1587014403124076,2630
1587014403124562,2630
1587014403125676,2630
1587014403506958,321
1587014413714638,414
1587014413723931,414
1587014413785859,413
1587014413969863,414
1587014414042269,416
1587014414083924,19336
1587014414331898,19336
1587014414357951,19336
1587014414360815,19336
1587014414363604,19336
1587014414364879,19336
1587014414382823,19336
1587014414383859,19336
1587014414386104,19336
1587014414908705,412
1587014417392138,19336
1587014417405196,19336
1587014417407799,19336
1587014417408597,19336
1587014417916351,18925
1587014417917365,18925
1587014417918754,18925
1587014417919485,18925
1587014417921549,18925
1587014417922250,18925
1587014417922970,18925
1587014417924003,18925
1587014417928736,18925
1587014417932176,18925
1587014417933196,18925
1587014417934886,18925
1587014417935530,18925
1587014418437061,12465
1587014418438268,12465
1587014418440430,12465
1587014418441065,12465
1587014418442124,12465
1587014418443816,12465
1587014418444973,12465
1587014418447930,12465
1587014418449322,12465
1587014418453616,12465
1587014418454455,12465
1587014418456298,12465
1587014418457799,12465
1587014418962219,13071
1587014418962855,13071
1587014418963492,13071
1587014418964623,13071
1587014418966289,13071
1587014418968852,13071
1587014418970014,13071
1587014418971635,13071
1587014418972373,13071
1587014418974199,13071
1587014418975241,13071
1587014418975838,13071
1587014418976454,13071
1587014419477973,13526
1587014419479470,13526
1587014419480096,13526
1587014419482696,13526
1587014419495435,13526
1587014419496105,13526
1587014419498456,13526
1587014419499680,13526
1587014419501261,13526
1587014419502375,13526
1587014419503324,13526
1587014419512977,13526
1587014419514890,13526
1587014420027422,13731
1587014420028743,13731
1587014420029300,13731
1587014420029843,13731
1587014420030596,13731
1587014420031674,13731
1587014420032352,13731
1587014420033613,13731
1587014420044498,13731
1587014420045340,13731
1587014420046410,13731
1587014420047032,13731
1587014420047961,13731
1587014420556289,14343
1587014420557007,14343
1587014420557964,14343
1587014420558756,14343
1587014420559864,14343
1587014420571217,14343
1587014420572087,14343
1587014420572974,14343
1587014420573533,14343
1587014420574220,14343
1587014420576017,14343
1587014420577342,14343
1587014420578459,14343
1587014421080694,13662
1587014421081847,13662
1587014421082459,13662
1587014421083666,13662
1587014421086078,13662
1587014421097238,13662
1587014421106730,13662
1587014421109267,13662
1587014421110917,13662
1587014421114014,13662
1587014421116560,13662
1587014421119417,13662
1587014421120359,13662
1587014421431099,61
1587014421625140,13880
1587014421626898,13880
1587014421627751,13880
1587014421635057,13880
1587014421637417,13880
1587014421648237,13880
1587014421652496,13880
1587014421653559,13880
1587014421656069,13880
1587014421657339,13880
1587014421658247,13880
1587014421663218,13880
1587014421676511,13880
1587014422470616,61
1587014422472008,14347
1587014422478686,14347
1587014422479661,14347
1587014422480656,14347
1587014422481422,14347
1587014422492681,14347
1587014422493672,14347
1587014422494390,14347
1587014423504231,14347
1587014423507467,14347
1587014423508234,14347
1587014423510228,14347
1587014423521215,14347
1587014424026138,19034
1587014424027070,19034
1587014424039290,19034
1587014424040314,19034
1587014424041442,19034
1587014424042171,19034
1587014424043215,19034
1587014424056203,19034
1587014424058821,19034
1587014424060106,19034
1587014424085062,19034
1587014424098149,19034
1587014424100886,19034
1587014424603535,16856
1587014424616239,16856
1587014424617667,16856
1587014424618459,16856
1587014424625244,16856
1587014424626637,16856
1587014424631971,16856
1587014424633370,16856
1587014424635941,16856
1587014424647877,16856
1587014424674222,16856
1587014424676360,16856
1587014424687960,16856
1587014425191672,16329
1587014425192580,16329
1587014425194712,16329
1587014425195623,16329
1587014425208118,16329
1587014425212830,16329
1587014425213770,16329
1587014425225330,16329
1587014425237253,16329
1587014425242934,16329
1587014425245076,16329
1587014425245537,16329
1587014425246551,16329
1587014425757207,16573
1587014425768234,16573
1587014425779265,16573
1587014425780866,16573
1587014425781252,16573
1587014425781853,16573
1587014425782734,16573
1587014425784030,16573
1587014425787465,16573
1587014425792400,16573
1587014425796651,16573
1587014425811469,16573
1587014425825107,16573
1587014426331230,17268
1587014426331984,17268
1587014426333071,17268
1587014426333813,17268
1587014426334438,17268
1587014426335514,17268
1587014426347223,17268
1587014426348823,17268
1587014426361598,17268
1587014426363156,17268
1587014426365056,17268
1587014426365750,17268
1587014426368945,17268
1587014426881582,16944
1587014426883130,16944
1587014426884628,16944
1587014426885020,16944
1587014426886450,16944
1587014426898334,16944
1587014426911223,16944
1587014426915737,16944
1587014426917873,16944
1587014426929314,16944
1587014426940671,16944
1587014426943468,16944
1587014426945498,16944
1587014427463759,17419
1587014427464320,17419
1587014427466673,17419
1587014427468564,17419
1587014427468872,17419
1587014427469607,17419
1587014427470708,17419
1587014427474222,17419
1587014427475506,17419
1587014427476142,17419
1587014427479470,17419
1587014427480000,17419
1587014427480291,17419
1587014427984025,18484
1587014427996257,18484
1587014427998582,18484
1587014428011335,18484
1587014428013092,18484
1587014428014507,18484
1587014428016824,18484
1587014428020739,18484
1587014428024699,18484
1587014428026409,18484
1587014428027284,18484
1587014428028386,18484
1587014428040226,18484
1587014428552215,18456
1587014428557574,18456
1587014428558412,18456
1587014428561464,18456
1587014428562836,18456
1587014428574145,18456
1587014428574934,18456
1587014428577855,18456
1587014428579068,18456
1587014428591221,18456
1587014428602252,18456
1587014428603138,18456
1587014428604171,18456
1587014429115176,18970
1587014429117362,18970
1587014429128201,18970
1587014429129039,18970
1587014429130098,18970
1587014429141448,18970
1587014429143333,18970
1587014429143747,18970
1587014429146438,18970
1587014429157475,18970
1587014429170369,18970
1587014429175304,18970
1587014429177690,18970
1587014429681516,18624
1587014429692161,18624
1587014429703173,18624
1587014429704106,18624
1587014429706807,18624
1587014429708946,18624
1587014429709950,18624
1587014429710825,18624
1587014429711979,18624
1587014429712592,18624
1587014429713462,18624
1587014429726818,18624
1587014429742693,18624
1587014430254181,18756
1587014430255997,18756
1587014430256745,18756
1587014430257402,18756
1587014433263758,18756
1587014433264338,18756
1587014433264964,18756
1587014433266221,18756
1587014433267394,18756
1587014433268051,18756
1587014433268510,18756
1587014433269014,18756
1587014433269832,18756
1587014433772455,31172
1587014433773632,31172
1587014433774493,31172
1587014433775357,31172
1587014433776351,31172
1587014433777212,31172
1587014433780741,31172
1587014433781626,31172
1587014433782450,31172
1587014433783030,31172
1587014433783635,31172
1587014433784313,31172
1587014433786497,31172
1587014434287891,23098
1587014434288960,23098
1587014434289753,23098
1587014434290646,23098
1587014434291441,23098
1587014434292000,23098
1587014434293478,23098
1587014434294320,23098
1587014434295054,23098
1587014434299741,23098
1587014434300306,23098
1587014434300771,23098
1587014434301297,23098
1587014434803797,24241
1587014434806211,24241
1587014434807178,24241
1587014434808089,24241
1587014434809093,24241
1587014434809862,24241
1587014434810330,24241
1587014434811005,24241
1587014434812195,24241
1587014434813302,24241
1587014434813810,24241
1587014434814789,24241
1587014434815376,24241
1587014435317004,24026
1587014435317859,24026
1587014435318684,24026
1587014435319427,24026
1587014435320197,24026
1587014435321725,24026
1587014435322481,24026
1587014435323244,24026
1587014435324074,24026
1587014435324567,24026
1587014435325312,24026
1587014435327534,24026
1587014435328962,24026
1587014435849794,25422
1587014435852475,25422
1587014435853296,25422
1587014435854694,25422
1587014435866597,25422
1587014435870034,25422
1587014435871936,25422
1587014435873599,25422
1587014435876947,25422
1587014435878342,25422
1587014435879245,25422
1587014435880124,25422
1587014435880952,25422
1587014436402219,25127
1587014436405598,25127
1587014436406671,25127
1587014436409463,25127
1587014436410915,25127
1587014436412656,25127
1587014436414894,25127
1587014436415886,25127
1587014436421203,25127
1587014436425427,25127
1587014436426218,25127
1587014436429562,25127
1587014436431266,25127
1587014436937227,25235
1587014436938745,25235
1587014436941039,25235
1587014436944891,25235
1587014436945725,25235
1587014436947967,25235
1587014436951320,25235
1587014436954504,25235
1587014436956423,25235
1587014436958117,25235
1587014436966790,25235
1587014436970534,25235
1587014436972948,25235
1587014437479645,26306
1587014437480920,26306
1587014437482385,26306
1587014437483151,26306
1587014437484694,26306
1587014437485943,26306
1587014437489623,26306
1587014437502068,26306
1587014437504358,26306
1587014437506069,26306
1587014437507215,26306
1587014437508456,26306
1587014437518056,26306
1587014438019455,26554
1587014438020080,26554
1587014438020947,26554
1587014438021780,26554
1587014438022595,26554
1587014438023301,26554
1587014438024093,26554
1587014438024956,26554
1587014438025676,26554
1587014438027138,26554
1587014438027844,26554
1587014438028355,26554
1587014438030387,26554
1587014438532299,26517
1587014438536248,26517
1587014438537516,26517
1587014438540423,26517
1587014438542640,26517
1587014438543811,26517
1587014438544889,26517
1587014438545891,26517
1587014438547257,26517
1587014438548075,26517
1587014438551552,26517
1587014438558071,26517
1587014438559089,26517
1587014439069656,27428
1587014439070555,27428
1587014439071487,27428
1587014439072393,27428
1587014439073235,27428
1587014439074213,27428
1587014439075601,27428
1587014439077089,27428
1587014439078098,27428
1587014439082948,27428
1587014439083547,27428
1587014439084122,27428
1587014439087476,27428
1587014439588630,27273
1587014439589179,27273
1587014439589629,27273
1587014439590066,27273
1587014439590558,27273
1587014439591030,27273
1587014439591514,27273
1587014439594825,27273
1587014439595642,27273
1587014439596144,27273
1587014439596628,27273
1587014439597126,27273
1587014439600347,27273
1587014440101541,26890
1587014440104692,26890
1587014440105289,26890
1587014440106402,26890
1587014440107007,26890
1587014440107605,26890
1587014440108120,26890
1587014440114367,26890
1587014440115659,26890
1587014440116737,26890
1587014440118456,26890
1587014440118919,26890
1587014440119439,26890
1587014440624797,27757
1587014440625572,27757
1587014440626435,27757
1587014440627250,27757
1587014440638188,27757
1587014440639693,27757
1587014440640361,27757
1587014440641301,27757
1587014440645472,27757
1587014440650060,27757
1587014440651311,27757
1587014440651983,27757
1587014440663537,27757
1587014441173097,27994
1587014441176702,27994
1587014441177783,27994
1587014441178647,27994
1587014441179432,27994
1587014441180125,27994
1587014441180883,27994
1587014441192450,27994
1587014441193383,27994
1587014441193937,27994
1587014441195599,27994
1587014441196787,27994
1587014441204093,27994
1587014441710176,28381
1587014441711415,28381
1587014441718332,28381
1587014441719065,28381
1587014441720371,28381
1587014441722503,28381
1587014441723052,28381
1587014441723523,28381
1587014441724171,28381
1587014441724708,28381
1587014441725224,28381
1587014441725684,28381
1587014441726137,28381
1587014442227510,28999
1587014442228362,28999
1587014442228974,28999
1587014442229550,28999
1587014442230149,28999
1587014442230702,28999
1587014442231177,28999
1587014442231650,28999
1587014442232169,28999
1587014442232697,28999
1587014442233150,28999
1587014442233676,28999
1587014442234143,28999
1587014442735430,28966
1587014442736070,28966
1587014442736568,28966
1587014442737074,28966
1587014442738051,28966
1587014442738610,28966
1587014442739644,28966
1587014442740406,28966
1587014442741928,28966
1587014442742535,28966
1587014442743197,28966
1587014442743700,28966
1587014442744300,28966
1587014442900361,62
1587014443245720,28853
1587014443246313,28853
1587014443247048,28853
1587014443247549,28853
1587014443248131,28853
1587014443248689,28853
1587014443249227,28853
1587014443249685,28853
1587014443250275,28853
1587014443251281,28853
1587014443251962,28853
1587014443252727,28853
1587014443253254,28853
1587014443757733,29824
1587014443759065,29824
1587014443759689,29824
1587014443760295,29824
1587014443761472,29824
1587014443761939,29824
1587014443762440,29824
1587014443762932,29824
1587014443763363,29824
1587014443763946,29824
1587014443764367,29824
1587014443764929,29824
1587014443765456,29824
1587014444266508,29417
1587014444267053,29417
1587014444268062,29417
1587014444268571,29417
1587014444269046,29417
1587014444269690,29417
1587014444270143,29417
1587014444270693,29417
1587014444271160,29417
1587014444271659,29417
1587014444272116,29417
1587014444272603,29417
1587014444273079,29417
1587014444775075,29640
1587014444775810,29640
1587014444776603,29640
1587014444777769,29640
1587014444778956,29640
1587014444779459,29640
1587014444780239,29640
1587014444780819,29640
1587014444781727,29640
1587014444783180,29640
1587014444783883,29640
1587014444784594,29640
1587014444785941,29640
1587014445292560,29715
1587014445294703,29715
1587014445299373,29715
1587014445302670,29715
1587014445304102,29715
1587014445307521,29715
1587014445309053,29715
1587014445312168,29715
1587014445312747,29715
1587014445313043,29715
1587014445324298,29715
1587014445325615,29715
1587014445325894,29715
1587014445838893,32256
1587014445840490,32256
1587014445841722,32256
1587014445844204,32256
1587014445851555,32256
1587014445852337,32256
1587014445855269,32256
1587014445857664,32256
1587014448863344,32256
1587014448865770,32256
1587014448866201,32256
1587014448866781,32256
1587014448868300,32256
1587014449369492,35483
1587014449370149,35483
1587014449371210,35483
1587014449371716,35483
1587014449377390,35483
1587014449378304,35483
1587014449378765,35483
1587014449379239,35483
1587014449379820,35483
1587014449380302,35483
1587014449383801,35483
1587014449395374,35483
1587014449396162,35483
1587014449897784,33823
1587014449899070,33823
1587014449899618,33823
1587014449901793,33823
1587014449902426,33823
1587014449904341,33823
1587014449904815,33823
1587014449906059,33823
1587014449906526,33823
1587014449908748,33823
1587014449909266,33823
1587014449909925,33823
1587014449910456,33823
1587014450411882,33637
1587014450412568,33637
1587014450415747,33637
1587014450416196,33637
1587014450416755,33637
1587014450417684,33637
1587014450419166,33637
1587014450419685,33637
1587014450420225,33637
1587014450420940,33637
1587014450421955,33637
1587014450424019,33637
1587014450424483,33637
1587014450925982,33560
1587014450926522,33560
1587014450933326,33560
1587014450936660,33560
1587014450940336,33560
1587014450941049,33560
1587014450941475,33560
1587014450941944,33560
1587014450942841,33560
1587014450943210,33560
1587014450943722,33560
1587014450944459,33560
1587014450945564,33560
1587014451446544,33636
1587014451447279,33636
1587014451447718,33636
1587014451448347,33636
1587014451448766,33636
1587014451449250,33636
1587014451449770,33636
1587014451450179,33636
1587014451451392,33636
1587014451452250,33636
1587014451452727,33636
1587014451453864,33636
1587014451454346,33636
1587014451956473,35167
1587014451958716,35167
1587014451960059,35167
1587014451960551,35167
1587014451961576,35167
1587014451962115,35167
1587014451962579,35167
1587014451963172,35167
1587014451963722,35167
1587014451964159,35167
1587014451964595,35167
1587014451967209,35167
1587014451972754,35167
1587014452474964,34956
1587014452476138,34956
1587014452477461,34956
1587014452478884,34956
1587014452486956,34956
1587014452489326,34956
1587014452490213,34956
1587014452491716,34956
1587014452495037,34956
1587014452497798,34956
1587014452499076,34956
1587014452499618,34956
1587014452500285,34956
1587014453013388,35377
1587014453015039,35377
1587014453017350,35377
1587014453018248,35377
1587014453019096,35377
1587014453020035,35377
1587014453021465,35377
1587014453024561,35377
1587014453025238,35377
1587014453025957,35377
1587014453027472,35377
1587014453028504,35377
1587014453055548,35377
1587014453572559,34996
1587014453574297,34996
1587014453575899,34996
1587014453577155,34996
1587014453578162,34996
1587014453579196,34996
1587014453580227,34996
1587014453581383,34996
1587014453582417,34996
1587014453588624,34996
1587014453592836,34996
1587014453594650,34996
1587014453596497,34996
1587014454110230,36207
1587014454113965,36207
1587014454115636,36207
1587014454117207,36207
1587014454118578,36207
1587014454126480,36207
1587014454128384,36207
1587014454129543,36207
1587014454130333,36207
1587014454131074,36207
1587014454134541,36207
1587014454136013,36207
1587014454137242,36207
1587014454644358,36614
1587014454646175,36614
1587014454647751,36614
1587014454648547,36614
1587014454650999,36614
1587014454653559,36614
1587014454655588,36614
1587014454657326,36614
1587014454666003,36614
1587014454668594,36614
1587014454670820,36614
1587014454671760,36614
1587014454672898,36614
1587014455175766,36521
1587014455179180,36521
1587014455182066,36521
1587014455184837,36521
1587014455186469,36521
1587014455187358,36521
1587014455197248,36521
1587014455198962,36521
1587014455200766,36521
1587014455202668,36521
1587014455205376,36521
1587014455206047,36521
1587014455206729,36521
1587014455718248,36502
1587014455719288,36502
1587014455719883,36502
1587014455720748,36502
1587014455722563,36502
1587014455724967,36502
1587014455726516,36502
1587014455727798,36502
1587014455731311,36502
1587014455732493,36502
1587014455733164,36502
1587014455734308,36502
1587014455735401,36502
1587014456238374,38806
1587014456239691,38806
1587014456240777,38806
1587014456242877,38806
1587014456243782,38806
1587014456244846,38806
1587014456245888,38806
1587014456248980,38806
1587014456261156,38806
1587014456264066,38806
1587014456265483,38806
1587014457267831,38806
1587014457271112,38806
1587014457776105,38896
1587014457776639,38896
1587014457777090,38896
1587014457779722,38896
1587014457780238,38896
1587014457780720,38896
1587014457781998,38896
1587014457782430,38896
1587014457782922,38896
1587014457783972,38896
1587014457784969,38896
1587014457785499,38896
1587014457798497,38896
1587014458299612,38497
1587014458300751,38497
1587014458302467,38497
1587014458302953,38497
1587014458303342,38497
1587014458303797,38497
1587014458304897,38497
1587014458309305,38497
1587014458309773,38497
1587014458311264,38497
1587014458311737,38497
1587014458312183,38497
1587014458312863,38497
1587014458817353,39505
1587014458818044,39505
1587014458819434,39505
1587014458820049,39505
1587014458821311,39505
1587014458822589,39505
1587014458823644,39505
1587014458824839,39505
1587014458828069,39505
1587014458828500,39505
1587014458828897,39505
1587014458829301,39505
1587014458829718,39505
1587014459331873,39388
1587014459333007,39388
1587014459333795,39388
1587014459345536,39388
1587014459346589,39388
1587014459347692,39388
1587014459348474,39388
1587014459349252,39388
1587014459349745,39388
1587014459360232,39388
1587014459361957,39388
1587014459362787,39388
1587014459363678,39388
1587014459865923,39216
1587014459866876,39216
1587014459868821,39216
1587014459879051,39216
1587014459880020,39216
1587014459883301,39216
1587014459884306,39216
1587014459888332,39216
1587014459888970,39216
1587014459889828,39216
1587014459890573,39216
1587014459891336,39216
1587014459892473,39216
1587014460398131,40642
1587014460399042,40642
1587014460400697,40642
1587014460401400,40642
1587014460402467,40642
1587014460404107,40642
1587014460405102,40642
1587014460407313,40642
1587014460418864,40642
1587014460421759,40642
1587014460434115,40642
1587014460438157,40642
1587014460440074,40642
1587014460964106,41155
1587014460968614,41155
1587014460970370,41155
1587014460974326,41155
1587014460977316,41155
1587014460979029,41155
1587014460988229,41155
1587014461003030,41155
1587014461005174,41155
1587014461006694,41155
1587014461008424,41155
1587014461011483,41155
1587014461012474,41155
1587014461515085,40696
1587014461516030,40696
1587014461517209,40696
1587014461517997,40696
1587014461519207,40696
1587014461521732,40696
1587014461525611,40696
1587014461528607,40696
1587014461530777,40696
1587014461532552,40696
1587014461536433,40696
1587014461538578,40696
1587014461540789,40696
1587014462042151,41353
1587014462043249,41353
1587014462046435,41353
1587014462049023,41353
1587014462049807,41353
1587014462050992,41353
1587014462052075,41353
1587014462052961,41353
1587014462079532,41353
1587014462080895,41353
1587014462081895,41353
1587014462082475,41353
1587014462082798,41353
1587014462585370,41153
1587014462586713,41153
1587014462587589,41153
1587014462591889,41153
1587014462593189,41153
1587014462593826,41153
1587014462595402,41153
1587014462597946,41153
1587014462603832,41153
1587014462609105,41153
1587014462614132,41153
1587014462618504,41153
1587014462621080,41153
1587014463122199,42808
1587014463122884,42808
1587014463130874,42808
1587014463132829,42808
1587014463134998,42808
1587014463137049,42808
1587014463139757,42808
1587014463142710,42808
1587014463147334,42808
1587014463162295,42808
1587014463164650,42808
1587014463166884,42808
1587014463168453,42808
1587014463680899,42853
1587014463682693,42853
1587014463684975,42853
1587014463686589,42853
1587014463688769,42853
1587014463690665,42853
1587014463692865,42853
1587014463695261,42853
1587014463696349,42853
1587014463697567,42853
1587014463698388,42853
1587014463699554,42853
1587014463706508,42853
1587014464208543,44061
1587014464230041,44061
1587014464232452,44061
1587014464234525,44061
1587014464239560,44061
1587014464241824,44061
1587014464243177,44061
1587014464245133,44061
1587014464246271,44061
1587014464247439,44061
1587014464249476,44061
1587014464252448,44061
1587014464253264,44061
1587014464776732,43580
1587014464779269,43580
1587014464781606,43580
1587014464782953,43580
1587014464786493,43580
1587014464787332,43580
1587014464790479,43580
1587014464792112,43580
1587014464795251,43580
1587014464796613,43580
1587014464798113,43580
1587014464798988,43580
1587014464802060,43580
1587014465313266,44527
1587014465327629,44527
1587014465340302,44527
1587014465342136,44527
1587014465343185,44527
1587014465347755,44527
1587014465348516,44527
1587014465350427,44527
1587014465352831,44527
1587014465354616,44527
1587014465355998,44527
1587014465359266,44527
1587014465370765,44527
1587014465876990,44770
1587014465878285,44770
1587014465879340,44770
1587014465880978,44770
1587014465881836,44770
1587014465882630,44770
1587014465883571,44770
1587014465885339,44770
1587014465887365,44770
1587014465888797,44770
1587014465889483,44770
1587014465889951,44770
1587014465891146,44770
1587014466392282,44636
1587014466393523,44636
1587014466406767,44636
1587014466409192,44636
1587014466410639,44636
1587014466412280,44636
1587014466413025,44636
1587014466414399,44636
1587014466415067,44636
1587014466417056,44636
1587014466417753,44636
1587014466419093,44636
1587014466420452,44636
1587014466921616,45432
1587014466923968,45432
1587014466924938,45432
1587014466925819,45432
1587014466926380,45432
1587014466928389,45432
1587014466928815,45432
1587014466934044,45432
1587014466935439,45432
1587014466938169,45432
1587014466939304,45432
1587014466941389,45432
1587014466942853,45432
1587014467444080,45672
1587014467444763,45672
1587014467445504,45672
1587014467445998,45672
1587014467446479,45672
1587014467447004,45672
1587014467447785,45672
1587014467448698,45672
1587014467449131,45672
1587014467449685,45672
1587014467451116,45672
1587014467451693,45672
1587014467452217,45672
1587014467953358,45386
1587014467954880,45386
1587014467957107,45386
1587014467957709,45386
1587014467958158,45386
1587014467961617,45386
1587014467962256,45386
1587014467962755,45386
1587014467963209,45386
1587014467963683,45386
1587014467964623,45386
1587014467965118,45386
1587014467965673,45386
1587014468468959,46451
1587014468470801,46451
1587014468475174,46451
1587014468475830,46451
1587014468476990,46451
1587014468478025,46451
1587014468479557,46451
1587014468480452,46451
1587014468481685,46451
1587014468483044,46451
1587014468484142,46451
1587014468484459,46451
1587014468485889,46451
1587014468987614,47095
1587014469001229,47095
1587014469002089,47095
1587014469008668,47095
1587014469009977,47095
1587014469011191,47095
1587014469011945,47095
1587014469023191,47095
1587014469026295,47095
1587014469027116,47095
1587014469028186,47095
1587014469029151,47095
1587014469029873,47095
1587014469532052,47259
1587014469533475,47259
1587014469534016,47259
1587014469534578,47259
1587014469539548,47259
1587014469542429,47259
1587014469543251,47259
1587014469544176,47259
1587014469544875,47259
1587014469545778,47259
1587014469546303,47259
1587014469547377,47259
1587014469547897,47259
1587014470050656,47369
1587014470051166,47369
1587014470051814,47369
1587014470052271,47369
1587014470053655,47369
1587014470054691,47369
1587014470055795,47369
1587014470058226,47369
1587014470059180,47369
1587014470061981,47369
1587014470064467,47369
1587014470066412,47369
1587014470067288,47369
1587014470568669,48325
1587014470569264,48325
1587014470570666,48325
1587014470572644,48325
1587014470573429,48325
1587014470575728,48325
1587014470577110,48325
1587014470578351,48325
1587014470581231,48325
1587014470583740,48325
1587014470585011,48325
1587014470585755,48325
1587014470586161,48325
1587014471088062,49029
1587014471088523,49029
1587014471089591,49029
1587014471090996,49029
1587014471091569,49029
1587014471092254,49029
1587014471092780,49029
1587014471093673,49029
1587014471094143,49029
1587014471094591,49029
1587014471095648,49029
1587014471096682,49029
1587014471098638,49029
1587014471600701,48689
1587014471601675,48689
1587014471602192,48689
1587014471602605,48689
1587014471603007,48689
1587014471603485,48689
1587014471604225,48689
1587014471604643,48689
1587014471605418,48689
1587014471606284,48689
1587014471606947,48689
1587014471607512,48689
1587014471608733,48689
1587014471648212,61
1587014471669670,62
1587014471671396,60
1587014471675438,63
1587014472110173,49240
1587014472110735,49240
1587014472111241,49240
1587014472112548,49240
1587014472112982,49240
1587014472113451,49240
1587014472114543,49240
1587014472115002,49240
1587014472115451,49240
1587014472115898,49240
1587014472116413,49240
1587014472117720,49240
1587014472118156,49240
1587014472619189,49700
1587014472619671,49700
1587014472620458,49700
1587014472620883,49700
1587014472621453,49700
1587014472622342,49700
1587014472623427,49700
1587014472623933,49700
1587014472624872,49700
1587014472625400,49700
1587014472625815,49700
1587014472626458,49700
1587014472626980,49700
1587014473128080,49902
1587014473128633,49902
1587014473129895,49902
1587014473131348,49902
1587014473131777,49902
1587014473136100,49902
1587014473137271,49902
1587014473137690,49902
1587014473138360,49902
1587014473139108,49902
1587014473139629,49902
1587014473142687,49902
1587014473143295,49902
1587014473650593,50607
1587014473651938,50607
1587014473653224,50607
1587014473653969,50607
1587014473655132,50607
1587014473669587,50607
1587014473672766,50607
1587014473678455,50607
1587014473689352,50607
1587014473690258,50607
1587014473690676,50607
1587014473691346,50607
1587014473701082,50607
1587014473719432,37
1587014474208737,50793
1587014474209551,50793
1587014474210023,50793
1587014474210574,50793
1587014474210983,50793
1587014474211519,50793
1587014474212718,50793
1587014474214741,50793
1587014474215257,50793
1587014474215695,50793
1587014474216202,50793
1587014474216627,50793
1587014474217146,50793
1587014474718676,50878
1587014474719215,50878
1587014474719841,50878
1587014474720823,50878
1587014474721747,50878
1587014474723758,50878
1587014474724187,50878
1587014474725462,50878
1587014474726804,50878
1587014474727411,50878
1587014474728520,50878
1587014474728934,50878
1587014474729447,50878
1587014475230824,51323
1587014475231373,51323
1587014475232486,51323
1587014475232871,51323
1587014475233383,51323
1587014475235437,51323
1587014475235938,51323
1587014475236936,51323
1587014475237389,51323
1587014475238677,51323
1587014475239380,51323
1587014475239801,51323
1587014475240196,51323
1587014475743702,51934
1587014475744499,51934
1587014475745313,51934
1587014475745936,51934
1587014475749741,51934
1587014475756559,51934
1587014475757518,51934
1587014475757875,51934
1587014475761403,51934
1587014475762570,51934
1587014475764620,51934
1587014475765102,51934
1587014475776304,51934
1587014476279415,52362
1587014476280582,52362
1587014476281255,52362
1587014476282002,52362
1587014476282972,52362
1587014476285927,52362
1587014476286661,52362
1587014476287446,52362
1587014476299427,52362
1587014476303697,52362
1587014476305252,52362
1587014476305770,52362
1587014476306874,52362
1587014476815410,52787
1587014476816121,52787
1587014476816836,52787
1587014476819047,52787
1587014476821437,52787
1587014476823193,52787
1587014476834255,52787
1587014476837919,52787
1587014476841206,52787
1587014476841687,52787
1587014476844563,52787
1587014476845624,52787
1587014476846620,52787
1587014477350350,52847
1587014477351003,52847
1587014477352339,52847
1587014477352887,52847
1587014477354404,52847
1587014477354997,52847
1587014477356355,52847
1587014477357527,52847
1587014477358574,52847
1587014477360995,52847
1587014477362761,52847
1587014477364404,52847
1587014477365526,52847
1587014477909578,53510
1587014477911474,53510
1587014477915361,53510
1587014477926195,53510
1587014477927643,53510
1587014477941385,53510
1587014477944120,53510
1587014477945387,53510
1587014477945806,53510
1587014477957202,53510
1587014477961203,53510
1587014477974196,53510
1587014477976012,53510
1587014478487981,55808
1587014478489195,55808
1587014478501219,55808
1587014478502608,55808
1587014478503115,55808
1587014478503650,55808
1587014478514191,55808
1587014478515475,55808
1587014478518882,55808
1587014478519473,55808
1587014478530235,55808
1587014478531068,55808
1587014478532913,55808
1587014479050437,55031
1587014479051447,55031
1587014479051998,55031
1587014479053936,55031
1587014479054623,55031
1587014479059973,55031
1587014479062762,55031
1587014479063850,55031
1587014479064338,55031
1587014479065070,55031
1587014479066339,55031
1587014479066756,55031
1587014479072644,55031
1587014479584336,56115
1587014479596281,56115
1587014479597239,56115
1587014479598341,56115
1587014479599651,56115
1587014479611156,56115
1587014479623708,56115
1587014479625024,56115
1587014479627564,56115
1587014479636853,56115
1587014479638227,56115
1587014479638648,56115
1587014479639489,56115
1587014480154595,55747
1587014480155444,55747
1587014480156593,55747
1587014480160644,55747
1587014480164179,55747
1587014480164685,55747
1587014480165407,55747
1587014480166703,55747
1587014480167520,55747
1587014480168421,55747
1587014480179261,55747
1587014480180205,55747
1587014480180977,55747
1587014480694802,55952
1587014480695996,55952
1587014480696913,55952
1587014480697969,55952
1587014480699130,55952
1587014480700137,55952
1587014480701860,55952
1587014480705463,55952
1587014480706141,55952
1587014480707775,55952
1587014480709303,55952
1587014480710357,55952
1587014480718707,55952
1587014481223215,57333
1587014481235184,57333
1587014481236274,57333
1587014481238166,57333
1587014481238852,57333
1587014481239588,57333
1587014481240492,57333
1587014481241198,57333
1587014481243721,57333
1587014481244387,57333
1587014481249892,57333
1587014481251180,57333
1587014481251806,57333
1587014481838832,57256
1587014481841461,57256
1587014481843287,57256
1587014481844955,57256
1587014481846107,57256
1587014481846848,57256
1587014481849386,57256
1587014481861998,57256
1587014481863013,57256
1587014481863933,57256
1587014481877174,57256
1587014481878487,57256
1587014481879225,57256
1587014482381639,57739
1587014482382526,57739
1587014482383451,57739
1587014482385424,57739
1587014482386834,57739
1587014482387658,57739
1587014482388568,57739
1587014482400897,57739
1587014482401653,57739
1587014482413195,57739
1587014482414404,57739
1587014482415063,57739
1587014482416220,57739
1587014482919010,58455
1587014482920643,58455
1587014482921831,58455
1587014482922570,58455
1587014482924372,58455
1587014482925279,58455
1587014482926265,58455
1587014482927219,58455
1587014482928256,58455
1587014482929129,58455
1587014482930041,58455
1587014482930983,58455
1587014482931934,58455
1587014483439567,58510
1587014483442088,58510
1587014483443718,58510
1587014483444825,58510
1587014483445568,58510
1587014483446087,58510
1587014483456816,58510
1587014483458312,58510
1587014483459504,58510
1587014483460544,58510
1587014483472183,58510
1587014483484466,58510
1587014483485797,58510
1587014484003202,58501
1587014484004478,58501
1587014484005428,58501
1587014484006392,37
1587014484006610,58501
1587014484007356,58501
1587014484008665,58501
1587014484010301,58501
1587014484011227,58501
1587014484012080,58501
1587014484013429,58501
1587014484014604,58501
1587014484015201,58501
1587014484027113,58501
1587014484081310,37
1587014484531521,59208
1587014484532418,59208
1587014484533612,59208
1587014484534383,59208
1587014484535331,59208
1587014484536173,59208
1587014484537284,59208
1587014484538463,59208
1587014484539223,59208
1587014484540309,59208
1587014484543230,59208
1587014484544291,59208
1587014484546509,59208
1587014485051867,59503
1587014485053116,59503
1587014485053395,59503
1587014485054372,59503
1587014485055742,59503
1587014485056171,59503
1587014485057650,59503
1587014485059364,59503
1587014485064114,59503
1587014485070818,59503
1587014485083555,59503
1587014485095491,59503
1587014485096401,59503
1587014485610191,59304
1587014485611503,59304
1587014485612362,59304
1587014485613820,59304
1587014485614753,59304
1587014485615468,59304
1587014485616779,59304
1587014485617671,59304
1587014485618966,59304
1587014485619740,59304
1587014485630891,59304
1587014485633031,59304
1587014485634075,59304
1587014485884089,37
1587014486148172,59659
1587014486159160,59659
1587014486160809,59659
1587014486161779,59659
1587014486162472,59659
1587014486163241,59659
1587014486166043,59659
1587014486166737,59659
1587014486167419,59659
1587014486168434,59659
1587014486169048,59659
1587014486171201,59659
1587014486172181,59659
1587014486679537,60547
1587014486690836,60547
1587014486693991,60547
1587014486694652,60547
1587014486695375,60547
1587014486696132,60547
1587014486698391,60547
1587014486709189,60547
1587014488901753,37
1587014489717364,60547
1587014489717842,60547
1587014489718401,60547
1587014489729305,60547
1587014489732585,60547
1587014490239924,67514
1587014490251507,67514
1587014490262214,67514
1587014490264090,67514
1587014490275214,67514
1587014490286217,67514
1587014490297523,67514
1587014490299080,67514
1587014490300068,67514
1587014490301929,67514
1587014490302988,67514
1587014490303701,67514
1587014490304586,67514
1587014490811111,63310
1587014490811754,63310
1587014490813046,63310
1587014490825165,63310
1587014490826923,63310
1587014490838168,63310
1587014490838867,63310
1587014490839565,63310
1587014490840101,63310
1587014490840526,63310
1587014490842472,63310
1587014490842945,63310
1587014490844345,63310
1587014491353439,64538
1587014491354209,64538
1587014491355579,64538
1587014491356067,64538
1587014491356577,64538
1587014491356898,64538
1587014491357412,64538
1587014491368647,64538
1587014491370145,64538
1587014491372659,64538
1587014491384473,64538
1587014491386071,64538
1587014491388413,64538
1587014491906199,63396
1587014491917214,63396
1587014491919107,63396
1587014491919831,63396
1587014491931138,63396
1587014491931887,63396
1587014491932316,63396
1587014491933631,63396
1587014491936124,63396
1587014491947210,63396
1587014491948178,63396
1587014491949655,63396
1587014491950891,63396
1587014492458271,63492
1587014492458572,63492
1587014492459149,63492
1587014492470167,63492
1587014492471360,63492
1587014492472078,63492
1587014492472941,63492
1587014492484324,63492
1587014492486825,63492
1587014492500258,63492
1587014492503688,63492
1587014492505736,63492
1587014492508291,63492
1587014493013310,65474
1587014493014860,65474
1587014493015775,65474
1587014493016407,65474
1587014493017942,65474
1587014493018864,65474
1587014493019291,65474
1587014493019773,65474
1587014493025764,65474
1587014493037961,65474
1587014493038684,65474
1587014493039648,65474
1587014493040412,65474
1587014493542142,65085
1587014493542852,65085
1587014493543244,65085
1587014493544252,65085
1587014494294665,63
1587014494402606,4
1587014495273630,4
1587014496406438,4
1587014496432378,37
1587014499886546,4
1587014501531912,37
1587014506433149,37
1587014506492359,37
1587014508580111,65085
1587014508581410,65085
1587014508583329,65085
1587014508585087,65085
1587014508586777,65085
1587014508588458,65085
1587014508589187,65085
1587014508589761,65085
1587014508590192,65085
1587014509093578,91361
1587014509097548,91361
1587014509098702,91361
1587014516118597,91361
1587014516119222,91361
1587014516120420,91361
1587014516121208,91361
1587014516122253,91361
1587014516129711,91361
1587014516137347,91361
1587014516139493,91361
1587014516149654,91361
1587014516155364,91361
1587014516656538,86117
1587014516657100,86117
1587014516658861,86117
1587014516662392,86117
1587014516664762,86117
1587014516667426,86117
1587014516669320,86117
1587014516670723,86117
1587014516671657,86117
1587014516672964,86117
1587014516674516,86117
1587014516686461,86117
1587014516687380,86117
1587014517188747,78689
1587014517189200,78689
1587014517193365,78689
1587014517193942,78689
1587014517194400,78689
1587014518195554,78689
1587014518196250,78689
1587014518196687,78689
1587014518197230,78689
1587014518197650,78689
1587014518198194,78689
1587014518198974,78689
1587014518199535,78689
1587014518701988,79095
1587014518702738,79095
1587014518703220,79095
1587014518704046,79095
1587014518704597,79095
1587014518705315,79095
1587014518705880,79095
1587014518706359,79095
1587014518707921,79095
1587014518708539,79095
1587014518709332,79095
1587014518711059,79095
1587014518712748,79095
1587014519215420,79981
1587014519226442,79981
1587014519227271,79981
1587014519238208,79981
1587014519239781,79981
1587014519240326,79981
1587014519243275,79981
1587014519244033,79981
1587014519246372,79981
1587014519247278,79981
1587014519248080,79981
1587014519249426,79981
1587014519262257,79981
1587014519767694,79507
1587014519768235,79507
1587014519770214,79507
1587014522777099,79507
1587014522788230,79507
1587014522788921,79507
1587014522790661,79507
1587014522791549,79507
1587014522802266,79507
1587014522802975,79507
1587014522805918,79507
1587014522806618,79507
1587014523807884,79507
1587014524313425,89412
1587014524314022,89412
1587014524318880,89412
1587014524332630,89412
1587014524339873,89412
1587014524351326,89412
1587014524354614,89412
1587014524357677,89412
1587014524358635,89412
1587014524359063,89412
1587014524373124,89412
1587014524373862,89412
1587014524374982,89412
1587014524876292,87903
1587014524879452,87903
1587014524882652,87903
1587014524884641,87903
1587014524887092,87903
1587014524888027,87903
1587014524889393,87903
1587014524890973,87903
1587014524892271,87903
1587014524894164,87903
1587014524894715,87903
1587014524902097,87903
1587014524903343,87903
1587014525426568,87254
1587014525427973,87254
1587014525428461,87254
1587014525430054,87254
1587014525431783,87254
1587014525433700,87254
1587014525435227,87254
1587014525436475,87254
1587014525438047,87254
1587014525654383,87254
1587014525656682,87254
1587014526659952,87254
1587014526661196,87254
1587014527163757,89211
1587014527165582,89211
1587014527166068,89211
1587014527166499,89211
1587014527168407,89211
1587014527168954,89211
1587014527170601,89211
1587014527173806,89211
1587014527175772,89211
1587014527177224,89211
1587014527183036,89211
1587014527185342,89211
1587014527187413,89211
1587014527690365,87790
1587014527691002,87790
1587014527692372,87790
1587014527692959,87790
1587014527693519,87790
1587014527699711,87790
1587014527700372,87790
1587014527701956,87790
1587014527705962,87790
1587014527711577,87790
1587014527713391,87790
1587014527714732,87790
1587014527716220,87790
1587014528218023,87840
1587014528221477,87840
1587014528222867,87840
1587014528223445,87840
1587014528225277,87840
1587014528226048,87840
1587014528227974,87840
1587014528228689,87840
1587014528229259,87840
1587014528231162,87840
1587014528232204,87840
1587014528232674,87840
1587014528237937,87840
1587014528739533,88628
1587014528750945,88628
1587014528752849,88628
1587014528754051,88628
1587014528754634,88628
1587014528756526,88628
1587014528760389,88628
1587014528762611,88628
1587014530198325,88628
1587014530201431,88628
1587014530203983,88628
1587014530205831,88628
1587014530206569,88628
1587014530709367,92591
1587014530712984,92591
1587014530713553,92591
1587014530714170,92591
1587014530715540,92591
1587014530716305,92591
1587014530717681,92591
1587014530720191,92591
1587014530722557,92591
1587014530726670,92591
1587014530727340,92591
1587014530728380,92591
1587014530730582,92591
1587014531236413,90089
1587014531244523,90089
1587014531257463,90089
1587014531263294,90089
1587014531286447,90089
1587014531287190,90089
1587014531288642,90089
1587014531289350,90089
1587014534339709,90089
1587014534340365,90089
1587014534342113,90089
1587014534343939,90089
1587014534345513,90089
1587014534847773,95314
1587014534850609,95314
1587014534853935,95314
1587014534855655,95314
1587014534857205,95314
1587014534863195,95314
1587014535865633,95314
1587014535866996,95314
1587014535869974,95314
1587014535879931,95314
1587014535882528,95314
1587014535884989,95314
1587014535888344,95314
1587014536401044,94600
1587014536402085,94600
1587014536402957,94600
1587014536403485,94600
1587014536417565,94600
1587014536422169,94600
1587014536424685,94600
1587014536436322,94600
1587014536439892,94600
1587014536443835,94600
1587014536446116,94600
1587014536449114,94600
1587014536452298,94600
1587014536964165,92826
1587014536966557,92826
1587014536967771,92826
1587014536968514,92826
1587014536969286,92826
1587014536970071,92826
1587014536983386,92826
1587014536983985,92826
1587014536988211,92826
1587014536990346,92826
1587014536994422,92826
1587014552019877,92826
1587014552027197,92826
1587014552529737,128329
1587014552531563,128329
1587014552532163,128329
1587014552533112,128329
1587014552536787,128329
1587014552537438,128329
1587014552540626,128329
1587014552541236,128329
1587014552546951,128329
1587014552548245,128329
1587014552553238,128329
1587014552554228,128329
1587014552562974,128329
1587014553067496,105648
1587014553069620,105648
1587014553070744,105648
1587014553072100,105648
1587014553073545,105648
1587014553074242,105648
1587014553077563,105648
1587014553078808,105648
1587014553079356,105648
1587014553082750,105648
1587014553085092,105648
1587014553087787,105648
1587014553090567,105648
1587014553596750,107059
1587014553599655,107059
1587014553601639,107059
1587014553605438,107059
1587014553608102,107059
1587014553611870,107059
1587014553618777,107059
1587014553631319,107059
1587014553634556,107059
1587014553636534,107059
1587014553637997,107059
1587014553639740,107059
1587014553640575,107059
1587014554144185,107703
1587014554147676,107703
1587014554148280,107703
1587014554151660,107703
1587014554154038,107703
1587014554154531,107703
1587014554157501,107703
1587014554158004,107703
1587014554158604,107703
1587014554160442,107703
1587014554161883,107703
1587014554163564,107703
1587014554166216,107703
1587014554185813,61
1587014554671500,107840
1587014554674325,107840
1587014554677286,107840
1587014554679004,107840
1587014554679541,107840
1587014554682361,107840
1587014554685170,107840
1587014554689362,107840
1587014554690971,107840
1587014554692939,107840
1587014554693707,107840
1587014554695588,107840
1587014554696211,107840
1587014555199310,107986
1587014555200975,107986
1587014555205540,107986
1587014555207235,107986
1587014555207870,107986
1587014555209557,107986
1587014555210046,107986
1587014555212448,107986
1587014555216325,107986
1587014555218477,107986
1587014555222096,107986
1587014555224798,107986
1587014555226477,107986
1587014555729532,107758
1587014555733627,107758
1587014555738564,107758
1587014555741751,107758
1587014555744750,107758
1587014555755095,107758
1587014555757068,107758
1587014555759490,107758
1587014555761525,107758
1587014555764450,107758
1587014555765026,107758
1587014555767437,107758
1587014555772125,107758
1587014556277097,109101
1587014556280845,109101
1587014556286530,109101
1587014556288543,109101
1587014556294052,109101
1587014556300220,109101
1587014556301126,109101
1587014556303931,109101
1587014556315353,109101
1587014556317843,109101
1587014556322135,109101
1587014556324051,109101
1587014556324596,109101
1587014556830993,109953
1587014556837642,109953
1587014556838298,109953
1587014556842111,109953
1587014556842627,109953
1587014556846631,109953
1587014556847153,109953
1587014556852165,109953
1587014556857887,109953
1587014556858647,109953
1587014556861263,109953
1587014556862931,109953
1587014556863585,109953
1587014557368149,109670
1587014557368668,109670
1587014557373320,109670
1587014557373932,109670
1587014557374438,109670
1587014557381814,109670
1587014557383540,109670
1587014557386929,109670
1587014557389433,109670
1587014557392391,109670
1587014557394107,109670
1587014557396716,109670
1587014557401091,109670
1587014557903826,110274
1587014557911449,110274
1587014557914820,110274
1587014557916497,110274
1587014557919671,110274
1587014557924410,110274
1587014557926222,110274
1587014557929886,110274
1587014557930451,110274
1587014557934514,110274
1587014557935581,110274
1587014557938084,110274
1587014557942038,110274
1587014558448645,111083
1587014558452128,111083
1587014558452630,111083
1587014558455363,111083
1587014558456837,111083
1587014558460061,111083
1587014558462523,111083
1587014558463185,111083
1587014558466290,111083
1587014558466933,111083
1587014558467497,111083
1587014558473378,111083
1587014558474822,111083
1587014558979756,110803
1587014558983864,110803
1587014558987182,110803
1587014558990162,110803
1587014558995585,110803
1587014558996117,110803
1587014559000388,110803
1587014559008392,110803
1587014559008895,110803
1587014559014119,110803
1587014559017510,110803
1587014559023691,110803
1587014559029185,110803
1587014560985322,110786
1587014560988324,110786
1587014561000577,110786
1587014561013051,110786
1587014561018151,110786
1587014561018875,110786
1587014561022392,110786
1587014561025874,110786
1587014561027658,110786
1587014561029120,110786
1587014561031119,110786
1587014561032891,110786
1587014561033493,110786
1587014561541801,115145
1587014561545809,115145
1587014561547625,115145
1587014561550084,115145
1587014561553297,115145
1587014561556179,115145
1587014561557881,115145
1587014561559570,115145
1587014561566099,115145
1587014561567662,115145
1587014561568250,115145
1587014561571758,115145
1587014561575894,115145
1587014562082084,112975
1587014562084671,112975
1587014562088726,112975
1587014562091873,112975
1587014562096152,112975
1587014562099293,112975
1587014562319393,112975
1587014562322559,112975
1587014562323158,112975
1587014562327187,112975
1587014562333402,112975
1587014562337480,112975
1587014562339007,112975
1587014562843846,114856
1587014562844449,114856
1587014562846953,114856
1587014562849833,114856
1587014562852410,114856
1587014562860692,114856
1587014562863627,114856
1587014562866346,114856
1587014562869454,114856
1587014562870074,114856
1587014562874034,114856
1587014562879119,114856
1587014563493588,114856
1587014563996143,116457
1587014563997681,116457
1587014563999105,116457
1587014564003424,116457
1587014564004829,116457
1587014564005415,116457
1587014564007663,116457
1587014564009770,116457
1587014564010404,116457
1587014564016007,116457
1587014564017059,116457
1587014564017744,116457
1587014564023091,116457
1587014564525994,114975
1587014564530773,114975
1587014564541216,114975
1587014564547596,114975
1587014564553859,114975
1587014564559659,114975
1587014564565024,114975
1587014564573474,114975
1587014564579429,114975
1587014564581882,114975
1587014564584335,114975
1587014564586753,114975
1587014564591221,114975
1587014565093963,114983
1587014565094580,114983
1587014565097012,114983
1587014565100563,114983
1587014565102233,114983
1587014565105054,114983
1587014565107006,114983
1587014572436738,114983
1587014572440106,114983
1587014572441320,114983
1587014572445228,114983
1587014572448864,114983
1587014572453156,114983
1587014572957833,129939
1587014572960382,129939
1587014572961226,129939
1587014572962250,129939
1587014572962886,129939
1587014572969045,129939
1587014572971193,129939
1587014572976976,129939
1587014572980978,129939
1587014572981966,129939
1587014572986793,129939
1587014572991061,129939
1587014572991804,129939
1587014573495461,120962
1587014573496094,120962
1587014573501547,120962
1587014573505608,120962
1587014573510721,120962
1587014573512321,120962
1587014573512979,120962
1587014573513552,120962
1587014573520682,120962
1587014573525913,120962
1587014573527721,120962
1587014573530472,120962
1587014573535208,120962
1587014574037633,121724
1587014574042021,121724
1587014574043095,121724
1587014574044285,121724
1587014574051886,121724
1587014574066949,121724
1587014574072919,121724
1587014574077509,121724
1587014574080646,121724
1587014574083432,121724
1587014574087680,121724
1587014574089838,121724
1587014574095037,121724
1587014574598018,121535
1587014574599137,121535
1587014574601524,121535
1587014574605839,121535
1587014574610576,121535
1587014574612921,121535
1587014574617557,121535
1587014574623312,121535
1587014574630435,121535
1587014574631393,121535
1587014574636542,121535
1587014574641385,121535
1587014574645634,121535
1587014575148415,122506
1587014575151891,122506
1587014575154024,122506
1587014575156525,122506
1587014575160939,122506
1587014575163126,122506
1587014575172115,122506
1587014575177172,122506
1587014575182821,122506
1587014575187006,122506
1587014575192030,122506
1587014575194820,122506
1587014575196803,122506
1587014575699761,123006
1587014575702683,123006
1587014575703918,123006
1587014575704769,123006
1587014575707293,123006
1587014575709426,123006
1587014575710003,123006
1587014575711143,123006
1587014575717990,123006
1587014575720054,123006
1587014575720751,123006
1587014575721573,123006
1587014575724448,123006
1587014576228803,123031
1587014576230390,123031
1587014576238831,123031
1587014576245031,123031
1587014576250505,123031
1587014576251208,123031
1587014576253998,123031
1587014576255505,123031
1587014576258626,123031
1587014576262783,123031
1587014576265542,123031
1587014576268828,123031
1587014576270297,123031
1587014576774135,124391
1587014576776240,124391
1587014576776787,124391
1587014576778624,124391
1587014576780431,124391
1587014576784664,124391
1587014576787887,124391
1587014576790250,124391
1587014576791062,124391
1587014576793019,124391
1587014576796502,124391
1587014576799926,124391
1587014576800454,124391
1587014577304349,123778
1587014577313373,123778
1587014577313982,123778
1587014577319037,123778
1587014577321153,123778
1587014577323084,123778
1587014577324702,123778
1587014577326673,123778
1587014577338224,123778
1587014577340015,123778
1587014577347961,123778
1587014577350211,123778
1587014577351875,123778
1587014577858183,123451
1587014577861989,123451
1587014577872131,123451
1587014577872961,123451
1587014577878100,123451
1587014577878778,123451
1587014577879304,123451
1587014577884035,123451
1587014577894685,123451
1587014577900471,123451
1587014577906400,123451
1587014577907095,123451
1587014577907606,123451
1587014578417276,125527
1587014578418793,125527
1587014578419335,125527
1587014578427874,125527
1587014578430838,125527
1587014578432834,125527
1587014578436530,125527
1587014578443682,125527
1587014578446083,125527
1587014578447787,125527
1587014578448649,125527
1587014578452363,125527
1587014578454481,125527
1587014578959740,125169
1587014578964089,125169
1587014578964789,125169
1587014578965585,125169
1587014578966333,125169
1587014578967020,125169
1587014578972281,125169
1587014578974834,125169
1587014578975592,125169
1587014578979129,125169
1587014578982521,125169
1587014578984209,125169
1587014578987553,125169
1587014579493603,125064
1587014579494673,125064
1587014579509434,125064
1587014579514483,125064
1587014579518654,125064
1587014579523381,125064
1587014579525579,125064
1587014579530961,125064
1587014579531687,125064
1587014579532315,125064
1587014579533934,125064
1587014579534538,125064
1587014579539540,125064
1587014580044132,125732
1587014580048178,125732
1587014580052104,125732
1587014580056110,125732
1587014580060239,125732
1587014580061638,125732
1587014580071030,125732
1587014580073111,125732
1587014580076202,125732
1587014580081272,125732
1587014580082108,125732
1587014580086418,125732
1587014580089057,125732
1587014580591075,126471
1587014580596961,126471
1587014580602279,126471
1587014580608233,126471
1587014580611521,126471
1587014580614534,126471
1587014580617723,126471
1587014580624574,126471
1587014580630725,126471
1587014580634883,126471
1587014580639210,126471
1587014580644741,126471
1587014580647848,126471
1587014581158017,126220
1587014581161574,126220
1587014581165936,126220
1587014581170996,126220
1587014581176546,126220
1587014581190701,126220
1587014581193405,126220
1587014581194445,126220
1587014581196772,126220
1587014581198313,126220
1587014581202408,126220
1587014581211665,126220
1587014581215946,126220
1587014581718116,126637
1587014581722405,126637
1587014581723918,126637
1587014581727319,126637
1587014581730555,126637
1587014584739883,126637
1587014584740615,126637
1587014584743659,126637
1587014584744560,126637
1587014584745944,126637
1587014584759550,126637
1587014584760470,126637
1587014584764039,126637
1587014585266666,133278
1587014585267707,133278
1587014585270611,133278
1587014585271724,133278
1587014585274735,133278
1587014585278980,133278
1587014585281045,133278
1587014585282982,133278
1587014585283564,133278
1587014585285359,133278
1587014585287230,133278
1587014585288222,133278
1587014585292385,133278
1587014585795971,129756
1587014585799590,129756
1587014585800254,129756
1587014585803048,129756
1587014585804060,129756
1587014585808499,129756
1587014585813737,129756
1587014585814799,129756
1587014585818693,129756
1587014585822308,129756
1587014585823838,129756
1587014585825733,129756
1587014585830980,129756
1587014586332706,129500
1587014586333287,129500
1587014586337882,129500
1587014586341534,129500
1587014586354921,129500
1587014586360623,129500
1587014586361659,129500
1587014586365455,129500
1587014586373781,129500
1587014586378251,129500
1587014586379037,129500
1587014586381650,129500
1587014586387494,129500
1587014586890337,131522
1587014586891077,131522
1587014586895308,131522
1587014586898425,131522
1587014586903377,131522
1587014586904114,131522
1587014586907079,131522
1587014586919123,131522
1587014586923285,131522
1587014586927073,131522
1587014586929543,131522
1587014586931079,131522
1587014586933109,131522
1587014587435027,130677
1587014587435791,130677
1587014587444250,130677
1587014587446765,130677
1587014587447329,130677
1587014587454941,130677
1587014587457444,130677
1587014587458088,130677
1587014587459169,130677
1587014587469295,130677
1587014587490367,130677
1587014587494114,130677
1587014587494983,130677
1587014588006128,131189
1587014588009119,131189
1587014588012714,131189
1587014588018622,131189
1587014588021572,131189
1587014588026063,131189
1587014588028445,131189
1587014588033226,131189
1587014588035168,131189
1587014588035898,131189
1587014588036796,131189
1587014588045087,131189
1587014588055526,131189
1587014588560645,131607
1587014588565215,131607
1587014588568553,131607
1587014588575002,131607
1587014588578011,131607
1587014588578666,131607
1587014588583974,131607
1587014588585674,131607
1587014588589777,131607
1587014588591938,131607
1587014588594340,131607
1587014588597493,131607
1587014588599017,131607
1587014589107738,131599
1587014589109303,131599
1587014589112583,131599
1587014589119018,131599
1587014589122585,131599
1587014589123551,131599
1587014589126387,131599
1587014589126998,131599
1587014589132687,131599
1587014589135355,131599
1587014589139028,131599
1587014589140951,131599
1587014589144298,131599
1587014589646161,133410
1587014589654198,133410
1587014589656711,133410
1587014589660741,133410
1587014589674577,133410
1587014589678724,133410
1587014589679426,133410
1587014589681723,133410
1587014589682825,133410
1587014589687338,133410
1587014589690239,133410
1587014589698041,133410
1587014589705216,133410
1587014590208619,134013
1587014590210874,134013
1587014590216230,134013
1587014590218802,134013
1587014590223874,134013
1587014590227984,134013
1587014590233492,134013
1587014590239307,134013
1587014590239996,134013
1587014590240537,134013
1587014590246128,134013
1587014590248488,134013
1587014590252459,134013
1587014590754416,134463
1587014590755727,134463
1587014590762620,134463
1587014590763637,134463
1587014590766100,134463
1587014590768583,134463
1587014590770457,134463
1587014590772944,134463
1587014590780796,134463
1587014590782874,134463
1587014590787735,134463
1587014590790866,134463
1587014590791449,134463
1587014591295722,133509
1587014591301406,133509
1587014591306093,133509
1587014591306749,133509
1587014591307282,133509
1587014591310052,133509
1587014591315650,133509
1587014591319976,133509
1587014591326934,133509
1587014591328934,133509
1587014591335093,133509
1587014591338173,133509
1587014591342842,133509
1587014591847016,133942
1587014591853743,133942
1587014591861011,133942
1587014591865409,133942
1587014591868307,133942
1587014591877240,133942
1587014591878766,133942
1587014591882896,133942
1587014591886925,133942
1587014591892822,133942
1587014591898242,133942
1587014591901027,133942
1587014591902318,133942
1587014592405212,134051
1587014592407481,134051
1587014592409687,134051
1587014592412605,134051
1587014592415471,134051
1587014592419532,134051
1587014592422058,134051
1587014592423877,134051
1587014592424655,134051
1587014592428971,134051
1587014592432237,134051
1587014592436482,134051
1587014592440701,134051
1587014592949631,134963
1587014592961624,134963
1587014592967945,134963
1587014592972774,134963
1587014592974763,134963
1587014592977957,134963
1587014592978828,134963
1587014592980989,134963
1587014592988899,134963
1587014592989573,134963
1587014592990115,134963
1587014592993435,134963
1587014593002653,134963
1587014593513324,136229
1587014593517144,136229
1587014593518375,136229
1587014593522360,136229
1587014593523297,136229
1587014593529286,136229
1587014593530027,136229
1587014593532728,136229
1587014593534146,136229
1587014593539217,136229
1587014593541656,136229
1587014593544275,136229
1587014593549948,136229
1587014594057766,135659
1587014594059989,135659
1587014594060776,135659
1587014594070006,135659
1587014594075876,135659
1587014594078950,135659
1587014594081474,135659
1587014594082266,135659
1587014594096318,135659
1587014594099052,135659
1587014594099961,135659
1587014594114850,135659
1587014594118077,135659
1587014594630962,135919
1587014594633605,135919
1587014594636657,135919
1587014594637273,135919
1587014594640152,135919
1587014594643242,135919
1587014594649175,135919
1587014594657087,135919
1587014594660768,135919
1587014594668763,135919
1587014594671265,135919
1587014594673640,135919
1587014594676223,135919
1587014595179346,135905
1587014595188314,135905
1587014595191084,135905
1587014595194935,135905
1587014595198396,135905
1587014595200630,135905
1587014595204371,135905
1587014595206216,135905
1587014595212101,135905
1587014595213770,135905
1587014595214357,135905
1587014595216839,135905
1587014595221120,135905
1587014595725369,136254
1587014595726844,136254
1587014595735638,136254
1587014595738060,136254
1587014595738647,136254
1587014595741457,136254
1587014595744659,136254
1587014595752467,136254
1587014595757611,136254
1587014595763755,136254
1587014595769085,136254
1587014595775394,136254
1587014595776793,136254
1587014596282150,136677
1587014596282891,136677
1587014596287402,136677
1587014596289481,136677
1587014596293857,136677
1587014596297502,136677
1587014596300550,136677
1587014596305978,136677
1587014596308262,136677
1587014596313134,136677
1587014596314951,136677
1587014596322724,136677
1587014596325248,136677
1587014596826950,136779
1587014596828816,136779
1587014596842085,136779
1587014596845854,136779
1587014596851361,136779
1587014596859516,136779
1587014596861774,136779
1587014596863248,136779
1587014596867953,136779
1587014596871582,136779
1587014596878551,136779
1587014596879612,136779
1587014596881944,136779
1587014597387734,136544
1587014597388562,136544
1587014597395424,136544
1587014597397509,136544
1587014597403375,136544
1587014597403987,136544
1587014597411112,136544
1587014597413884,136544
1587014597421914,136544
1587014597424708,136544
1587014597427448,136544
1587014597428214,136544
1587014597430079,136544
1587014597934779,137643
1587014597940402,137643
1587014597945197,137643
1587014597951984,137643
1587014597953843,137643
1587014597956956,137643
1587014597957575,137643
1587014597961311,137643
1587014597961868,137643
1587014597962673,137643
1587014597966855,137643
1587014597967822,137643
1587014597970568,137643
1587014598475805,137595
1587014598481217,137595
1587014598487742,137595
1587014598490523,137595
1587014598491508,137595
1587014598496243,137595
1587014598499244,137595
1587014598504025,137595
1587014598506429,137595
1587014598508756,137595
1587014598511705,137595
1587014598514795,137595
1587014598517562,137595
1587014599019178,138897
1587014599026673,138897
1587014599027405,138897
1587014599029971,138897
1587014599032833,138897
1587014599036611,138897
1587014599037626,138897
1587014599042283,138897
1587014599045877,138897
1587014599046796,138897
1587014599050062,138897
1587014599054301,138897
1587014599057640,138897
1587014599565048,138025
1587014599570636,138025
1587014599573116,138025
1587014599575559,138025
1587014599581354,138025
1587014599587334,138025
1587014599593696,138025
1587014599598095,138025
1587014599599036,138025
1587014599605210,138025
1587014599608752,138025
1587014599609651,138025
1587014602051185,138025
1587014602555537,142410
1587014602559786,142410
1587014602563184,142410
1587014602564940,142410
1587014602565888,142410
1587014602570695,142410
1587014602574961,142410
1587014602578825,142410
1587014602589188,142410
1587014602591926,142410
1587014602595355,142410
1587014602596070,142410
1587014602600133,142410
1587014603103622,140484
1587014603106577,140484
1587014603110258,140484
1587014603112680,140484
1587014603115349,140484
1587014603118480,140484
1587014603125899,140484
1587014603132223,140484
1587014603135379,140484
1587014603154028,140484
1587014603160541,140484
1587014603166616,140484
1587014603167445,140484
1587014603678439,141039
1587014603682268,141039
1587014603683953,141039
1587014603688328,141039
1587014603692691,141039
1587014603697188,141039
1587014603704604,141039
1587014603707948,141039
1587014603709552,141039
1587014603716156,141039
1587014603716707,141039
1587014603723877,141039
1587014603726915,141039
1587014604237789,140998
1587014604241024,140998
1587014604244728,140998
1587014604251976,140998
1587014604255305,140998
1587014604257312,140998
1587014604258561,140998
1587014604259285,140998
1587014604260211,140998
1587014604264064,140998
1587014604267544,140998
1587014604268423,140998
1587014604274094,140998
1587014604776933,141449
1587014604787589,141449
1587014604793061,141449
1587014604796141,141449
1587014604797064,141449
1587014604803550,141449
1587014604804958,141449
1587014604805599,141449
1587014604806336,141449
1587014604811243,141449
1587014604814348,141449
1587014604817223,141449
1587014604822755,141449
1587014605329168,141593
1587014605331247,141593
1587014605333439,141593
1587014605336498,141593
1587014605345112,141593
1587014605347085,141593
1587014605351988,141593
1587014605359377,141593
1587014605360430,141593
1587014605368692,141593
1587014605369571,141593
1587014605376642,141593
1587014605382136,141593
1587014605890609,142229
1587014605894043,142229
1587014605898420,142229
1587014605901422,142229
1587014605905630,142229
1587014605909311,142229
1587014605910707,142229
1587014605914116,142229
1587014605922356,142229
1587014605924874,142229
1587014605925932,142229
1587014605936551,142229
1587014605952027,142229
1587014606459999,142337
1587014606464017,142337
1587014606470843,142337
1587014606471500,142337
1587014606475262,142337
1587014606476394,142337
1587014606481125,142337
1587014606485471,142337
1587014606492246,142337
1587014606497386,142337
1587014606499836,142337
1587014606503522,142337
1587014606509466,142337
1587014607014729,142648
1587014607019993,142648
1587014607026885,142648
1587014607029729,142648
1587014607035831,142648
1587014607039778,142648
1587014607047856,142648
1587014607052520,142648
1587014607057220,142648
1587014607062184,142648
1587014607063123,142648
1587014607068080,142648
1587014607071134,142648
1587014607577357,143685
1587014607589448,143685
1587014607595776,143685
1587014607597131,143685
1587014607598249,143685
1587014607605400,143685
1587014607609178,143685
1587014607611601,143685
1587014607614963,143685
1587014607620021,143685
1587014607621170,143685
1587014607627106,143685
1587014607630818,143685
1587014608140283,143975
1587014608144335,143975
1587014608149532,143975
1587014608161131,143975
1587014608164359,143975
1587014608170667,143975
1587014608175581,143975
1587014608181830,143975
1587014608186312,143975
1587014608186879,143975
1587014608187490,143975
1587014608194470,143975
1587014608195584,143975
1587014608697632,144051
1587014608700412,144051
1587014608704712,144051
1587014608714520,144051
1587014608717460,144051
1587014608718245,144051
1587014608720024,144051
1587014608722549,144051
1587014608723621,144051
1587014608726666,144051
1587014608735115,144051
1587014608735689,144051
1587014608742369,144051
1587014609244085,145972
1587014609249790,145972
1587014609254186,145972
1587014609257865,145972
1587014609261112,145972
1587014609273287,145972
1587014609276719,145972
1587014609280643,145972
1587014609289356,145972
1587014609292617,145972
1587014609299199,145972
1587014609308718,145972
1587014609314802,145972
1587014609819699,145466
1587014609827176,145466
1587014609830443,145466
1587014609834869,145466
1587014609838124,145466
1587014609842528,145466
1587014609846594,145466
1587014609849982,145466
1587014609854654,145466
1587014609858005,145466
1587014609860070,145466
1587014609862185,145466
1587014609871118,145466
1587014610375377,145485
1587014610376457,145485
1587014610384575,145485
1587014610388056,145485
1587014610389883,145485
1587014610392619,145485
1587014610395371,145485
1587014610401851,145485
1587014610402534,145485
1587014610403095,145485
1587014610408365,145485
1587014610411737,145485
1587014610419280,145485
1587014610922739,146491
1587014610928519,146491
1587014610929540,146491
1587014610933873,146491
1587014610940704,146491
1587014610941406,146491
1587014610944128,146491
1587014610948670,146491
1587014610949288,146491
1587014610954171,146491
1587014610955246,146491
1587014610958344,146491
1587014610963957,146491
1587014611469952,146003
1587014611470649,146003
1587014611474312,146003
1587014611483574,146003
1587014611487402,146003
1587014611499623,146003
1587014611500323,146003
1587014611503861,146003
1587014611504456,146003
1587014611508294,146003
1587014611509401,146003
1587014611512130,146003
1587014611516735,146003
1587014612020234,146624
1587014612020922,146624
1587014612026345,146624
1587014612027049,146624
1587014612035187,146624
1587014612036343,146624
1587014612040166,146624
1587014612046737,146624
1587014612048062,146624
1587014612048982,146624
1587014612049519,146624
1587014612052510,146624
1587014612061006,146624
1587014612566990,146310
1587014612574552,146310
1587014612576931,146310
1587014612579702,146310
1587014612584958,146310
1587014612590983,146310
1587014612597830,146310
1587014612602508,146310
1587014612613183,146310
1587014612625349,146310
1587014612632653,146310
1587014612637207,146310
1587014612641580,146310
1587014613148082,146874
1587014613151554,146874
1587014613152158,146874
1587014613155174,146874
1587014613156773,146874
1587014613160849,146874
1587014613164142,146874
1587014613165057,146874
1587014613170582,146874
1587014613173501,146874
1587014613176280,146874
1587014613176963,146874
1587014613179494,146874
1587014613697151,146671
1587014613700929,146671
1587014613703751,146671
1587014613707220,146671
1587014613708009,146671
1587014613712245,146671
1587014613715698,146671
1587014613718771,146671
1587014613722475,146671
1587014613724777,146671
1587014613729241,146671
1587014613730081,146671
1587014613737198,146671
1587014614240938,148359
1587014614243609,148359
1587014614250439,148359
1587014614252257,148359
1587014614257392,148359
1587014614258567,148359
1587014614259405,148359
1587014614262323,148359
1587014614267978,148359
1587014614269723,148359
1587014614272641,148359
1587014614276253,148359
1587014614280592,148359
1587014614785609,147800
1587014614786760,147800
1587014614787710,147800
1587014614789845,147800
1587014614792582,147800
1587014614796836,147800
1587014614797725,147800
1587014614801288,147800
1587014614802533,147800
1587014614808954,147800
1587014614809633,147800
1587014614810176,147800
1587014614815783,147800
1587014615319797,147752
1587014615325020,147752
1587014615325800,147752
1587014615328929,147752
1587014615331621,147752
1587014615336367,147752
1587014615339649,147752
1587014615340441,147752
1587014615343011,147752
1587014615346132,147752
1587014615346996,147752
1587014615350219,147752
1587014615351224,147752
1587014615861463,148444
1587014615867597,148444
1587014615872066,148444
1587014615875710,148444
1587014615878428,148444
1587014615879538,148444
1587014615883843,148444
1587014615887608,148444
1587014615893069,148444
1587014615895841,148444
1587014615899963,148444
1587014615902264,148444
1587014615904862,148444
1587014616413262,148404
1587014616415626,148404
1587014616417195,148404
1587014616418006,148404
1587014616423374,148404
1587014616427001,148404
1587014616430501,148404
1587014616434168,148404
1587014616439836,148404
1587014616443698,148404
1587014616444361,148404
1587014616447655,148404
1587014616455232,148404
1587014616956953,148975
1587014616962072,148975
1587014616969025,148975
1587014616973173,148975
1587014616978827,148975
1587014616980699,148975
1587014616981687,148975
1587014616982396,148975
1587014616985339,148975
1587014616992782,148975
1587014617006394,148975
1587014617014348,148975
1587014617018244,148975
1587014617524225,149683
1587014617525730,149683
1587014617530980,149683
1587014617538431,149683
1587014617544530,149683
1587014617549043,149683
1587014617550060,149683
1587014617554869,149683
1587014617560064,149683
1587014617562622,149683
1587014617564286,149683
1587014617566555,149683
1587014617568746,149683
1587014618074365,150230
1587014618076332,150230
1587014618077435,150230
1587014618078163,150230
1587014618082992,150230
1587014618088344,150230
1587014618091299,150230
1587014618102299,150230
1587014618116614,150230
1587014618120604,150230
1587014618123509,150230
1587014618124666,150230
1587014618132072,150230
1587014618645083,150356
1587014618646491,150356
1587014618647786,150356
1587014618648487,150356
1587014618653318,150356
1587014618656641,150356
1587014618659429,150356
1587014618660711,150356
1587014618664130,150356
1587014618669244,150356
1587014618686798,150356
1587014618687498,150356
1587014618692464,150356
1587014622201118,150633
1587014622202186,150633
1587014622204440,150633
1587014622205067,150633
1587014622210635,150633
1587014622214483,150633
1587014622215202,150633
1587014622219232,150633
1587014622221589,150633
1587014622229893,150633
1587014622230820,150633
1587014622237062,150633
1587014622240115,150633
1587014622743988,155987
1587014622746043,155987
1587014622751881,155987
1587014622755697,155987
1587014622758710,155987
1587014622764105,155987
1587014622766957,155987
1587014622770695,155987
1587014622774749,155987
1587014622778090,155987
1587014622781578,155987
1587014622784482,155987
1587014622791747,155987
1587014623299850,152412
1587014623304403,152412
1587014623307207,152412
1587014623308645,152412
1587014623311037,152412
1587014623312919,152412
1587014623313723,152412
1587014623321845,152412
1587014623326976,152412
1587014623327761,152412
1587014623333824,152412
1587014623337724,152412
1587014623344816,152412
1587014623849824,153630
1587014623852725,153630
1587014623855938,153630
1587014623862233,153630
1587014623865839,153630
1587014623871239,153630
1587014623876061,153630
1587014623877540,153630
1587014623878403,153630
1587014623881454,153630
1587014623883711,153630
1587014623886313,153630
1587014623887022,153630
1587014624403524,154123
1587014624409166,154123
1587014624420844,154123
1587014624425337,154123
1587014624428297,154123
1587014624429500,154123
1587014624432170,154123
1587014624438325,154123
1587014624441236,154123
1587014624444062,154123
1587014624447932,154123
1587014624449457,154123
1587014624452576,154123
1587014624956678,154067
1587014624959295,154067
1587014624963213,154067
1587014624967207,154067
1587014624972469,154067
1587014624973734,154067
1587014624974546,154067
1587014624977844,154067
1587014624986146,154067
1587014624988831,154067
1587014624989929,154067
1587014624990639,154067
1587014624995555,154067
1587014625501923,154638
1587014625506315,154638
1587014625509652,154638
1587014625512236,154638
1587014625515372,154638
1587014625518131,154638
1587014625526372,154638
1587014625529914,154638
1587014625534619,154638
1587014625538697,154638
1587014625545017,154638
1587014625549048,154638
1587014625551889,154638
1587014626055035,154380
1587014626057211,154380
1587014626057804,154380
1587014626062091,154380
1587014626063092,154380
1587014626228489,63
1587014629069744,154380
1587014629076842,154380
1587014629084566,154380
1587014629086182,154380
1587014629094202,154380
1587014629099804,154380
1587014629109433,154380
1587014629118300,154380
1587014629627230,160716
1587014629628151,160716
1587014629633914,160716
1587014629641952,160716
1587014629650326,160716
1587014629653041,160716
1587014629656969,160716
1587014629660280,160716
1587014629667336,160716
1587014629670536,160716
1587014629677600,160716
1587014629682758,160716
1587014629683522,160716
1587014630187783,157075
1587014630191312,157075
1587014630195195,157075
1587014630198739,157075
1587014630201467,157075
1587014630203315,157075
1587014630213764,157075
1587014630225621,157075
1587014630229046,157075
1587014630234635,157075
1587014630244791,157075
1587014630250458,157075
1587014630252130,157075
1587014630759805,157589
1587014630766647,157589
1587014630769779,157589
1587014630772586,157589
1587014630775562,157589
1587014630777595,157589
1587014630778417,157589
1587014630782899,157589
1587014630791600,157589
1587014630796415,157589
1587014630801954,157589
1587014630805535,157589
1587014630808253,157589
1587014631310211,157825
1587014631317010,157825
1587014631318127,157825
1587014631325841,157825
1587014631329451,157825
1587014631332400,157825
1587014631340007,157825
1587014631341236,157825
1587014631342338,157825
1587014631346680,157825
1587014631347791,157825
1587014631355156,157825
1587014631355832,157825
1587014631859650,157373
1587014631865559,157373
1587014631868715,157373
1587014631876563,157373
1587014631879823,157373
1587014631885514,157373
1587014631886670,157373
1587014631887634,157373
1587014631888391,157373
1587014631890450,157373
1587014631897946,157373
1587014631902943,157373
1587014631904268,157373
1587014632407713,158629
1587014632408401,158629
1587014632413652,158629
1587014632417110,158629
1587014632418542,158629
1587014632421239,158629
1587014632424813,158629
1587014632425544,158629
1587014632429802,158629
1587014632435196,158629
1587014632440570,158629
1587014632447148,158629
1587014632451239,158629
1587014632955015,159463
1587014632961800,159463
1587014632962971,159463
1587014632963689,159463
1587014632968538,159463
1587014632971222,159463
1587014632972034,159463
1587014632978441,159463
1587014632981083,159463
1587014632981775,159463
1587014632994518,159463
1587014633003269,159463
1587014633004721,159463
1587014633509990,158464
1587014633510716,158464
1587014633514636,158464
1587014633516186,158464
1587014633524079,158464
1587014633529721,158464
1587014633530458,158464
1587014633534819,158464
1587014633535483,158464
1587014633545065,158464
1587014633548853,158464
1587014633552049,158464
1587014633556716,158464
1587014634064390,159529
1587014634067228,159529
1587014634068147,159529
1587014634069408,159529
1587014634070331,159529
1587014634074504,159529
1587014634079213,159529
1587014634081960,159529
1587014634084144,159529
1587014634088869,159529
1587014634089589,159529
1587014634096537,159529
1587014634099844,159529
1587014634604585,160012
1587014634606354,160012
1587014634609654,160012
1587014634611475,160012
1587014634614043,160012
1587014634616032,160012
1587014634616753,160012
1587014634621313,160012
1587014634624145,160012
1587014634628158,160012
1587014634629073,160012
1587014634632259,160012
1587014634639251,160012
1587014635142995,160069
1587014635145186,160069
1587014635149274,160069
1587014635154625,160069
1587014635158453,160069
1587014635168426,160069
1587014635169218,160069
1587014635173122,160069
1587014635185435,160069
1587014635189321,160069
1587014635194304,160069
1587014635199400,160069
1587014635202980,160069
1587014635709651,159523
1587014635712063,159523
1587014635713534,159523
1587014635717868,159523
1587014635720540,159523
1587014635732845,159523
1587014635741086,159523
1587014635744544,159523
1587014635745605,159523
1587014635747806,159523
1587014635748746,159523
1587014635749395,159523
1587014635753343,159523
1587014636256836,161017
1587014636260870,161017
1587014636261658,161017
1587014636268971,161017
1587014636276277,161017
1587014636277527,161017
1587014636281989,161017
1587014636286134,161017
1587014636293364,161017
1587014636307383,161017
1587014636312360,161017
1587014636315894,161017
1587014636316671,161017
1587014636826713,161446
1587014636827618,161446
1587014636845251,161446
1587014636850256,161446
1587014636856435,161446
1587014636860626,161446
1587014636867944,161446
1587014636868746,161446
1587014636869488,161446
1587014636877271,161446
1587014637099100,161446
1587014637102721,161446
1587014637104421,161446
1587014637622699,161576
1587014637633121,161576
1587014637633850,161576
1587014637645418,161576
1587014637657397,161576
1587014637662432,161576
1587014637663263,161576
1587014637669823,161576
1587014637675583,161576
1587014637677176,161576
1587014637683699,161576
1587014637687735,161576
1587014638689588,161576
1587014639199231,162687
1587014639203159,162687
1587014639204034,162687
1587014639208729,162687
1587014639210733,162687
1587014639214752,162687
1587014639221712,162687
1587014639224588,162687
1587014639226429,162687
1587014639229388,162687
1587014639233365,162687
1587014639236334,162687
1587014639243110,162687
1587014639746418,162383
1587014639752926,162383
1587014639756349,162383
1587014639759031,162383
1587014640763141,162383
1587014640771724,162383
1587014640774304,162383
1587014640777502,162383
1587014640778205,162383
1587014640783745,162383
1587014640786310,162383
1587014640787858,162383
1587014640792884,162383
1587014641297558,163980
1587014641302797,163980
1587014641305525,163980
1587014641306540,163980
1587014641309150,163980
1587014641312283,163980
1587014641317180,163980
1587014641320143,163980
1587014641326469,163980
1587014641327217,163980
1587014641327801,163980
1587014641332397,163980
1587014641339869,163980
1587014641841825,163340
1587014641842509,163340
1587014641852736,163340
1587014641853745,163340
1587014641860211,163340
1587014641866731,163340
1587014641868287,163340
1587014641873178,163340
1587014641877166,163340
1587014641881163,163340
1587014641885009,163340
1587014641897122,163340
1587014641902821,163340
1587014642411078,163882
1587014642413771,163882
1587014642414626,163882
1587014642420379,163882
1587014642421805,163882
1587014642422500,163882
1587014642427586,163882
1587014642430572,163882
1587014642431215,163882
1587014642433944,163882
1587014642436983,163882
1587014642440366,163882
1587014642457051,163882
1587014642964393,164340
1587014642965192,164340
1587014642965978,164340
1587014642978352,164340
1587014642983427,164340
1587014644626642,164340
1587014644630384,164340
1587014644632557,164340
1587014644635802,164340
1587014644639387,164340
1587014644645390,164340
1587014644647126,164340
1587014644651264,164340
1587014645161741,166891
1587014645163179,166891
1587014645167975,166891
1587014645171447,166891
1587014645174212,166891
1587014645176839,166891
1587014645178485,166891
1587014645179353,166891
1587014645182700,166891
1587014645184063,166891
1587014645185603,166891
1587014645193417,166891
1587014645197948,166891
1587014645703478,165328
1587014645705819,165328
1587014645706963,165328
1587014645709619,165328
1587014645712004,165328
1587014645715971,165328
1587014645719056,165328
1587014645719799,165328
1587014645730713,165328
1587014645737512,165328
1587014645743645,165328
1587014645745153,165328
1587014645746197,165328
1587014646253301,165811
1587014646258564,165811
1587014646263268,165811
1587014646278022,165811
1587014646281713,165811
1587014646286113,165811
1587014646291808,165811
1587014646292676,165811
1587014646293185,165811
1587014646299387,165811
1587014646309549,165811
1587014646317614,165811
1587014646324791,165811
1587014646828997,167421
1587014646835071,167421
1587014646839463,167421
1587014646840324,167421
1587014646850576,167421
1587014646862223,167421
1587014646866939,167421
1587014646873635,167421
1587014646879811,167421
1587014646885603,167421
1587014646895028,167421
1587014646899307,167421
1587014646905169,167421
