1587014409034269,30
1587014410074202,23
1587014411364657,23
1587014411402745,27
1587014411404337,27
1587014411406527,27
1587014411418014,23
1587014411418301,27
1587014411420064,27
1587014411421243,27
1587014411421919,27
1587014411422684,27
1587014411424918,27
1587014411425927,27
1587014411427005,27
1587014411427794,27
1587014411428438,27
1587014411930243,27
1587014411933786,27
1587014411935218,27
1587014411936307,27
1587014411936925,27
1587014411938283,27
1587014411946330,27
1587014411957377,27
1587014411972477,27
1587014411974069,27
1587014411975481,27
1587014411976430,27
1587014411977305,27
1587014412517679,2814
1587014412519414,2814
1587014412526776,2814
1587014412528331,2814
1587014412528907,2814
1587014412551457,2814
1587014412553328,2814
1587014412561923,2814
1587014412564317,2814
1587014412569408,2814
1587014412570813,2814
1587014412576826,2814
1587014412579388,2814
1587014413093659,2281
1587014413094492,2281
1587014413095863,2281
1587014413102250,2281
1587014413103120,2281
1587014413112004,2281
1587014413133093,2281
1587014413134309,2281
1587014413141377,2281
1587014413142116,2281
1587014413143369,2281
1587014413153714,2281
1587014413158119,2281
1587014413667768,12609
1587014413679798,12609
1587014413693503,12609
1587014413694484,12609
1587014413695304,12609
1587014413696991,12609
1587014413698032,12609
1587014413699689,12609
1587014413700656,12609
1587014413706333,12609
1587014413712819,12609
1587014413727515,12609
1587014413782967,12609
1587014414291047,7113
1587014414291868,7113
1587014414293028,7113
1587014414296631,7113
1587014414297096,7113
1587014414298700,7113
1587014414300073,7113
1587014414303489,7113
1587014414305547,7113
1587014414307740,7113
1587014414308981,7113
1587014414310050,7113
1587014414345665,7113
1587014414864684,7675
1587014414871900,7675
1587014414874251,7675
1587014414879201,7675
1587014414881099,7675
1587014414882931,7675
1587014414886832,7675
1587014414888207,7675
1587014414892442,7675
1587014414911087,7675
1587014414913423,7675
1587014414930352,7675
1587014414933192,7675
1587014415437765,8331
1587014415442893,8331
1587014415445657,8331
1587014415447352,8331
1587014415449847,8331
1587014415451352,8331
1587014415454000,8331
1587014415458198,8331
1587014415459758,8331
1587014415460663,8331
1587014415466418,8331
1587014415473314,8331
1587014415485573,8331
1587014415988071,13517
1587014415989434,13517
1587014415990475,13517
1587014415990926,13517
1587014415992451,13517
1587014415994741,13517
1587014416011171,13517
1587014416012761,13517
1587014416017560,13517
1587014416018720,13517
1587014416019489,13517
1587014416020572,13517
1587014416021619,13517
1587014416525782,11915
1587014416538271,11915
1587014416540581,11915
1587014416541997,11915
1587014416543063,11915
1587014416545738,11915
1587014416557040,11915
1587014416568632,11915
1587014416571149,11915
1587014416574667,11915
1587014416580898,11915
1587014416582748,11915
1587014416586329,11915
1587014417091129,10365
1587014417092457,10365
1587014417094001,10365
1587014417096365,10365
1587014417099770,10365
1587014417101134,10365
1587014417103045,10365
1587014417103861,10365
1587014417108909,10365
1587014417110800,10365
1587014417112840,10365
1587014417114584,10365
1587014417117284,10365
1587014417627725,10364
1587014417629310,10364
1587014417630056,10364
1587014417631674,10364
1587014417632798,10364
1587014417633727,10364
1587014417634317,10364
1587014417635538,10364
1587014417635885,10364
1587014417639000,10364
1587014417642694,10364
1587014417644355,10364
1587014417645278,10364
1587014418164210,12675
1587014418165378,12675
1587014418167915,12675
1587014418169198,12675
1587014418171315,12675
1587014418174622,12675
1587014418175869,12675
1587014418176779,12675
1587014418178253,12675
1587014418183833,12675
1587014418194289,12675
1587014418199640,12675
1587014418200295,12675
1587014418711641,11282
1587014418712883,11282
1587014418714001,11282
1587014418714378,11282
1587014418717084,11282
1587014418718220,11282
1587014418719179,11282
1587014418722196,11282
1587014418724229,11282
1587014418725644,11282
1587014418727753,11282
1587014418735405,11282
1587014418747935,11282
1587014419255663,11224
1587014419256853,11224
1587014419257850,11224
1587014419258916,11224
1587014419260215,11224
1587014419263400,11224
1587014419277653,11224
1587014419279395,11224
1587014419942975,37
1587014420400449,37
1587014422291075,11224
1587014422291630,11224
1587014422293293,11224
1587014422293865,11224
1587014422295205,11224
1587014422801033,21979
1587014422802033,21979
1587014422804516,21979
1587014422806286,21979
1587014422806786,21979
1587014422809001,21979
1587014422811619,21979
1587014422812524,21979
1587014422814916,21979
1587014422816784,21979
1587014422818693,21979
1587014422820276,21979
1587014422820803,21979
1587014423040027,37
1587014423323354,15883
1587014423328148,15883
1587014423329610,15883
1587014423330955,15883
1587014423331525,15883
1587014423335518,15883
1587014423339376,15883
1587014423340172,15883
1587014423340581,15883
1587014423342023,15883
1587014423342681,15883
1587014423343821,15883
1587014423345016,15883
1587014423543259,37
1587014423880951,16560
1587014423882141,16560
1587014423883986,16560
1587014423885027,16560
1587014423886063,16560
1587014423887454,16560
1587014423889123,16560
1587014423889572,16560
1587014423890320,16560
1587014423891526,16560
1587014423893557,16560
1587014423894280,16560
1587014423896105,16560
1587014424398346,17632
1587014424399621,17632
1587014424401698,17632
1587014424403782,17632
1587014424404964,17632
1587014424406134,17632
1587014424409862,17632
1587014424420321,17632
1587014424427954,17632
1587014424434941,17632
1587014424441051,17632
1587014424444277,17632
1587014424447582,17632
1587014424977392,16715
1587014424985476,16715
1587014424994007,16715
1587014425000960,16715
1587014425008578,16715
1587014425012546,16715
1587014425019181,16715
1587014425026204,16715
1587014425034270,16715
1587014425045724,16715
1587014425062452,16715
1587014425076059,16715
1587014425083978,16715
1587014425590321,18769
1587014425592876,18769
1587014425596335,18769
1587014425597823,18769
1587014425601530,18769
1587014425603978,18769
1587014425606574,18769
1587014425608440,18769
1587014425610451,18769
1587014425613378,18769
1587014425616085,18769
1587014425619317,18769
1587014425624356,18769
1587014426142656,18622
1587014426144927,18622
1587014426147276,18622
1587014426149046,18622
1587014426150630,18622
1587014426152592,18622
1587014426154540,18622
1587014426159128,18622
1587014426161079,18622
1587014426162369,18622
1587014426166010,18622
1587014426172624,18622
1587014426174052,18622
1587014426695616,18438
1587014426697620,18438
1587014426699299,18438
1587014426701564,18438
1587014426702861,18438
1587014426707138,18438
1587014426709639,18438
1587014426717070,18438
1587014426719255,18438
1587014426720950,18438
1587014426722243,18438
1587014426723258,18438
1587014426731993,18438
1587014427248847,18487
1587014427252418,18487
1587014427259443,18487
1587014427263501,18487
1587014427267549,18487
1587014427270936,18487
1587014427272395,18487
1587014427274764,18487
1587014427277067,18487
1587014427278399,18487
1587014427280238,18487
1587014427281535,18487
1587014427282840,18487
1587014427794008,18656
1587014427796438,18656
1587014427810324,18656
1587014427811503,18656
1587014427812877,18656
1587014427815522,18656
1587014427817588,18656
1587014427818942,18656
1587014427819742,18656
1587014427820701,18656
1587014427825406,18656
1587014427826446,18656
1587014427828919,18656
1587014428340966,20672
1587014428341944,20672
1587014428342868,20672
1587014428345779,20672
1587014428347824,20672
1587014428349949,20672
1587014428357998,20672
1587014428359436,20672
1587014428360718,20672
1587014433067711,61
1587014433144510,61
1587014433428857,62
1587014459423668,20672
1587014459425209,20672
1587014459427241,20672
1587014459430857,20672
1587014459932841,63232
1587014459933999,63232
1587014459935781,63232
1587014459936767,63232
1587014459937409,63232
1587014459938531,63232
1587014459939342,63232
1587014459940107,63232
1587014459940794,63232
1587014459943092,63232
1587014459943854,63232
1587014459945667,63232
1587014459946386,63232
1587014460450313,39610
1587014460461845,39610
1587014460463103,39610
1587014460464112,39610
1587014460464762,39610
1587014460467846,39610
1587014460468921,39610
1587014460469952,39610
1587014460471044,39610
1587014460474431,39610
1587014460485447,39610
1587014460487470,39610
1587014460488125,39610
1587014460990226,41608
1587014460992082,41608
1587014460993463,41608
1587014460994649,41608
1587014460997363,41608
1587014460999329,41608
1587014461000632,41608
1587014461002536,41608
1587014461003365,41608
1587014461004643,41608
1587014461007788,41608
1587014461016985,41608
1587014461018464,41608
1587014461522105,40627
1587014461523416,40627
1587014461524647,40627
1587014461525256,40627
1587014461528317,40627
1587014461531052,40627
1587014461532037,40627
1587014461533930,40627
1587014461535397,40627
1587014461537575,40627
1587014461540058,40627
1587014461551518,40627
1587014461552875,40627
1587014462060125,41535
1587014462060641,41535
1587014462063014,41535
1587014462064034,41535
1587014462065044,41535
1587014462066852,41535
1587014462068896,41535
1587014462071418,41535
1587014462072897,41535
1587014462074903,41535
1587014462076607,41535
1587014462077888,41535
1587014462079323,41535
1587014462596007,41133
1587014462604571,41133
1587014462607437,41133
1587014462609180,41133
1587014462611369,41133
1587014462615022,41133
1587014462617898,41133
1587014462618910,41133
1587014462620448,41133
1587014462621406,41133
1587014462622270,41133
1587014462622811,41133
1587014462624207,41133
1587014463126125,43778
1587014463126817,43778
1587014463129326,43778
1587014463131179,43778
1587014463131989,43778
1587014463133005,43778
1587014463134615,43778
1587014463136228,43778
1587014463137590,43778
1587014463138938,43778
1587014463144325,43778
1587014463147663,43778
1587014463148886,43778
1587014463650477,43493
1587014463651998,43493
1587014463652929,43493
1587014463655756,43493
1587014463657064,43493
1587014463657870,43493
1587014463658425,43493
1587014463660074,43493
1587014463661189,43493
1587014463662364,43493
1587014463664243,43493
1587014463664738,43493
1587014463665358,43493
1587014464166581,43222
1587014464167483,43222
1587014464169106,43222
1587014464180690,43222
1587014464181745,43222
1587014464183168,43222
1587014464183931,43222
1587014464186930,43222
1587014465189040,43222
1587014465189782,43222
1587014466198706,43222
1587014466199694,43222
1587014466200720,43222
1587014466702129,47864
1587014466702850,47864
1587014466703415,47864
1587014466704032,47864
1587014466705417,47864
1587014466707497,47864
1587014466708208,47864
1587014466709418,47864
1587014466710048,47864
1587014466710628,47864
1587014466711794,47864
1587014466712350,47864
1587014466713072,47864
1587014467214373,45385
1587014467217438,45385
1587014467218379,45385
1587014467218941,45385
1587014467219338,45385
1587014467220761,45385
1587014467221927,45385
1587014467222482,45385
1587014467223291,45385
1587014467224619,45385
1587014467225912,45385
1587014467226983,45385
1587014467227701,45385
1587014467729476,45684
1587014467730025,45684
1587014467730608,45684
1587014467731601,45684
1587014467738230,45684
1587014467739098,45684
1587014467739637,45684
1587014467740317,45684
1587014467741430,45684
1587014467742527,45684
1587014467743695,45684
1587014467744308,45684
1587014467745686,45684
1587014468255664,45892
1587014468257073,45892
1587014468264662,45892
1587014468266529,45892
1587014468267081,45892
1587014468278689,45892
1587014468280413,45892
1587014468281125,45892
1587014468290549,45892
1587014468292357,45892
1587014468293245,45892
1587014468293978,45892
1587014468298533,45892
1587014468800188,46056
1587014468800767,46056
1587014468803403,46056
1587014468804469,46056
1587014468805249,46056
1587014468806690,46056
1587014468808406,46056
1587014468808972,46056
1587014468809580,46056
1587014468817340,46056
1587014468818392,46056
1587014468821116,46056
1587014468822262,46056
1587014469324414,46942
1587014469324955,46942
1587014469325465,46942
1587014469326217,46942
1587014469327133,46942
1587014469328320,46942
1587014469328798,46942
1587014469329271,46942
1587014469329863,46942
1587014469330327,46942
1587014469330851,46942
1587014469331401,46942
1587014469332930,46942
1587014469834021,47970
1587014469834588,47970
1587014469835167,47970
1587014470837753,47970
1587014470840136,47970
1587014470841196,47970
1587014470842029,47970
1587014470842514,47970
1587014470844287,47970
1587014470845220,47970
1587014470846505,47970
1587014470847666,47970
1587014470848536,47970
1587014471350737,50485
1587014471351268,50485
1587014471351801,50485
1587014471352563,50485
1587014471353319,50485
1587014471356042,50485
1587014471369099,50485
1587014471381366,50485
1587014471382774,50485
1587014471383621,50485
1587014471384088,50485
1587014471385518,50485
1587014471387039,50485
1587014471899828,49579
1587014471901791,49579
1587014471914632,49579
1587014471917692,49579
1587014471918867,49579
1587014471919692,49579
1587014471921242,49579
1587014471922252,49579
1587014471925423,49579
1587014471926490,49579
1587014471928209,49579
1587014471929431,49579
1587014471934191,49579
1587014472446769,49452
1587014472448209,49452
1587014472449072,49452
1587014472470175,49452
1587014472470957,49452
1587014472473091,49452
1587014472473841,49452
1587014472475189,49452
1587014472476519,49452
1587014472477219,49452
1587014472478629,49452
1587014472479785,49452
1587014472480442,49452
1587014472993134,49746
1587014472994277,49746
1587014472995465,49746
1587014472996495,49746
1587014472998553,49746
1587014472999540,49746
1587014473000698,49746
1587014473001402,49746
1587014473002880,49746
1587014473008685,49746
1587014473010852,49746
1587014473011908,49746
1587014473013268,49746
1587014473516204,50229
1587014473516767,50229
1587014473517791,50229
1587014473519245,50229
1587014473531508,50229
1587014473533538,50229
1587014473545878,50229
1587014473557507,50229
1587014473558387,50229
1587014473561637,50229
1587014473563006,50229
1587014473564044,50229
1587014473566234,50229
1587014473672398,37
1587014474067487,50592
1587014474068069,50592
1587014474069618,50592
1587014474070127,50592
1587014474071343,50592
1587014474072355,50592
1587014474072913,50592
1587014474074629,50592
1587014474075222,50592
1587014474075720,50592
1587014474076988,50592
1587014474077609,50592
1587014474078630,50592
1587014475581952,51141
1587014475585257,51141
1587014475587709,51141
1587014475589725,51141
1587014475590490,51141
1587014475594190,51141
1587014475606596,51141
1587014475608273,51141
1587014475616777,51141
1587014475618417,51141
1587014475619290,51141
1587014475621087,51141
1587014475622390,51141
1587014476131777,53800
1587014476132857,53800
1587014476144081,53800
1587014476145425,53800
1587014476146213,53800
1587014476147736,53800
1587014476148655,53800
1587014476159698,53800
1587014476162620,53800
1587014476163468,53800
1587014476164957,53800
1587014476166240,53800
1587014476167217,53800
1587014476668981,51675
1587014476671544,51675
1587014476673411,51675
1587014476675962,51675
1587014476677684,51675
1587014476678739,51675
1587014476680540,51675
1587014476681403,51675
1587014476682111,51675
1587014476683276,51675
1587014476685694,51675
1587014476686954,51675
1587014476687811,51675
1587014477191501,53476
1587014477192959,53476
1587014477193616,53476
1587014477194343,53476
1587014477194921,53476
1587014477195380,53476
1587014477195860,53476
1587014477196549,53476
1587014477197337,53476
1587014477199906,53476
1587014477200400,53476
1587014477202392,53476
1587014477203432,53476
1587014477739721,54502
1587014477741991,54502
1587014477743962,54502
1587014477748439,54502
1587014477750410,54502
1587014477751369,54502
1587014477752812,54502
1587014477754210,54502
1587014477755410,54502
1587014477757077,54502
1587014477758376,54502
1587014477760476,54502
1587014477760832,54502
1587014478264504,54645
1587014478266114,54645
1587014478268283,54645
1587014478269501,54645
1587014478271735,54645
1587014478273393,54645
1587014478274843,54645
1587014478276136,54645
1587014478278477,54645
1587014478280900,54645
1587014478283442,54645
1587014478284210,54645
1587014478284742,54645
1587014478787122,54845
1587014478788406,54845
1587014478790419,54845
1587014478792428,54845
1587014478794642,54845
1587014478796520,54845
1587014478798570,54845
1587014478799873,54845
1587014478801398,54845
1587014478802586,54845
1587014479804252,54845
1587014479805007,54845
1587014479807588,54845
1587014480309868,57590
1587014480310621,57590
1587014480311378,57590
1587014480312858,57590
1587014480314092,57590
1587014480315403,57590
1587014480320507,57590
1587014480324094,57590
1587014480326100,57590
1587014480326919,57590
1587014480327707,57590
1587014480328698,57590
1587014480329668,57590
1587014480832064,56796
1587014480845501,56796
1587014480847460,56796
1587014480849506,56796
1587014480851393,56796
1587014480852070,56796
1587014480863768,56796
1587014480864862,56796
1587014480867487,56796
1587014480868707,56796
1587014480869763,56796
1587014480871822,56796
1587014480872253,56796
1587014481378791,57423
1587014481380666,57423
1587014481381605,57423
1587014481382787,57423
1587014481384476,57423
1587014481386719,57423
1587014481389238,57423
1587014481391164,57423
1587014481393529,57423
1587014481399206,57423
1587014481400675,57423
1587014481401960,57423
1587014481403673,57423
1587014481917150,57422
1587014481918840,57422
1587014481920814,57422
1587014481923143,57422
1587014481927257,57422
1587014481928694,57422
1587014481929998,57422
1587014481931226,57422
1587014481932768,57422
1587014481933840,57422
1587014481935567,57422
1587014481936850,57422
1587014481937753,57422
1587014482441864,58069
1587014482451813,58069
1587014482454883,58069
1587014482457202,58069
1587014482461273,58069
1587014482465678,58069
1587014482467575,58069
1587014482470626,58069
1587014482485961,58069
1587014482487853,58069
1587014482489773,58069
1587014482490422,58069
1587014482491271,58069
1587014482996232,58247
1587014482998457,58247
1587014483000354,58247
1587014483001961,58247
1587014483006681,58247
1587014483007619,58247
1587014483008813,58247
1587014483021341,58247
1587014483036020,58247
1587014483049430,58247
1587014483055959,58247
1587014483058582,58247
1587014483061257,58247
1587014483583020,58703
1587014483585722,58703
1587014483587990,58703
1587014483590231,58703
1587014483592449,58703
1587014483595300,58703
1587014483600688,58703
1587014483604451,58703
1587014483606070,58703
1587014483608823,58703
1587014483610890,58703
1587014483612080,58703
1587014483614029,58703
1587014484133592,59107
1587014484134408,59107
1587014484136607,59107
1587014484139308,59107
1587014484140747,59107
1587014484146041,59107
1587014484147624,59107
1587014484152318,59107
1587014484160093,59107
1587014484163308,59107
1587014484166259,59107
1587014484168571,59107
1587014484169901,59107
1587014484682380,59218
1587014484684226,59218
1587014484685711,59218
1587014484689301,59218
1587014484691591,59218
1587014484705798,59218
1587014484713085,59218
1587014484722109,59218
1587014484724280,59218
1587014485735615,59218
1587014485746524,59218
1587014485757440,59218
1587014485758541,59218
1587014486264830,61837
1587014486266253,61837
1587014486266595,61837
1587014486268026,61837
1587014486269402,61837
1587014486281128,61837
1587014486284137,61837
1587014486285782,61837
1587014486288046,61837
1587014486298432,61837
1587014486299961,61837
1587014486300548,61837
1587014486300914,61837
1587014486802801,60169
1587014486804861,60169
1587014486806331,60169
1587014486806970,60169
1587014486810082,60169
1587014486811651,60169
1587014486822440,60169
1587014486823224,60169
1587014486823568,60169
1587014486823948,60169
1587014486825237,60169
1587014486825909,60169
1587014486827313,60169
1587014487333534,60487
1587014487335582,60487
1587014487336343,60487
1587014487337310,60487
1587014487339931,60487
1587014487340422,60487
1587014487343382,60487
1587014487347481,60487
1587014487355739,60487
1587014487366528,60487
1587014487377670,60487
1587014487379482,60487
1587014487381096,60487
1587014487885844,60692
1587014487889202,60692
1587014487889961,60692
1587014487891565,60692
1587014487892146,60692
1587014487894646,60692
1587014487895860,60692
1587014487896563,60692
1587014487899961,60692
1587014487900349,60692
1587014487913444,60692
1587014487914641,60692
1587014487916225,60692
1587014488428676,61352
1587014488430215,61352
1587014488430920,61352
1587014488432001,61352
1587014488432974,61352
1587014488445719,61352
1587014488447107,61352
1587014488448093,61352
1587014488449184,61352
1587014488453988,61352
1587014488455238,61352
1587014488458090,61352
1587014488463871,61352
1587014488981347,37
1587014488981747,62267
1587014488983291,62267
1587014488983693,62267
1587014488994753,62267
1587014489000236,62267
1587014489002840,62267
1587014489014044,62267
1587014489016905,62267
1587014489019003,62267
1587014489020049,62267
1587014489022138,62267
1587014489023114,62267
1587014489023928,62267
1587014489529690,63022
1587014489540721,63022
1587014489541873,63022
1587014489552649,63022
1587014489554345,63022
1587014490563613,63022
1587014490564960,63022
1587014490565872,63022
1587014493322353,37
1587014493571852,63022
1587014493572668,63022
1587014493584742,63022
1587014493586052,63022
1587014493587232,63022
1587014494089229,70448
1587014494090895,70448
1587014494091751,70448
1587014494092868,70448
1587014494094165,70448
1587014494095066,70448
1587014494096317,70448
1587014494097102,70448
1587014494228931,70448
1587014494230813,70448
1587014494232257,70448
1587014494233421,70448
1587014494234873,70448
1587014497943372,37
1587014499818475,4
1587014504158319,37
1587014506343359,4
1587014507236949,62
1587014508661132,4
1587014509687500,37
1587014509764884,65570
1587014509766523,65570
1587014509777598,65570
1587014509778871,65570
1587014509780454,65570
1587014509783092,65570
1587014509795088,65570
1587014509795806,65570
1587014509796468,65570
1587014509797882,65570
1587014509798490,65570
1587014509799143,65570
1587014509800013,65570
1587014510308418,92670
1587014510309756,92670
1587014514582994,61
1587014517333783,92670
1587014517334520,92670
1587014517337694,92670
1587014517340648,92670
1587014517342438,92670
1587014517343879,92670
1587014517344479,92670
1587014517345028,92670
1587014517345910,92670
1587014517347835,92670
1587014517348796,92670
1587014517852673,85707
1587014517853302,85707
1587014517853947,85707
1587014517854547,85707
1587014517858771,85707
1587014517859548,85707
1587014517860064,85707
1587014517860615,85707
1587014517959761,85707
1587014517962252,85707
1587014517963226,85707
1587014517964554,85707
1587014517966304,85707
1587014518470370,79865
1587014518472442,79865
1587014518475243,79865
1587014518477005,79865
1587014518478214,79865
1587014518480926,79865
1587014518482320,79865
1587014518483274,79865
1587014518486466,79865
1587014518487774,79865
1587014518491525,79865
1587014518493263,79865
1587014518495120,79865
1587014519000978,79789
1587014519003771,79789
1587014519004897,79789
1587014519011651,79789
1587014519013007,79789
1587014519016011,79789
1587014519018129,79789
1587014519019286,79789
1587014519022112,79789
1587014519029409,79789
1587014519032542,79789
1587014519033621,79789
1587014519036830,79789
1587014519538565,79740
1587014519540869,79740
1587014519541449,79740
1587014519541968,79740
1587014519542545,79740
1587014519544126,79740
1587014519544765,79740
1587014519545457,79740
1587014519546324,79740
1587014519547040,79740
1587014519547725,79740
1587014519549343,79740
1587014519550985,79740
1587014520052765,81643
1587014520053370,81643
1587014520053976,81643
1587014520055989,81643
1587014520057954,81643
1587014520058547,81643
1587014520059449,81643
1587014520060037,81643
1587014520060554,81643
1587014520061447,81643
1587014520075985,81643
1587014520077024,81643
1587014520079189,81643
1587014520587262,80440
1587014520588460,80440
1587014520589690,80440
1587014520600538,80440
1587014520601851,80440
1587014520603623,80440
1587014520604860,80440
1587014520606845,80440
1587014520608451,80440
1587014520610454,80440
1587014520621571,80440
1587014520626515,80440
1587014520627150,80440
1587014521132490,82466
1587014521133483,82466
1587014521135638,82466
1587014521148461,82466
1587014521150414,82466
1587014521153640,82466
1587014521154237,82466
1587014521154873,82466
1587014521155768,82466
1587014521157908,82466
1587014521158454,82466
1587014521159998,82466
1587014521162279,82466
1587014521675062,83779
1587014521686511,83779
1587014521688576,83779
1587014521699604,83779
1587014521710495,83779
1587014521721590,83779
1587014521722411,83779
1587014521733540,83779
1587014521734505,83779
1587014521745535,83779
1587014521748310,83779
1587014521750335,83779
1587014521751093,83779
1587014522260397,82601
1587014522271700,82601
1587014522274236,82601
1587014525281178,82601
1587014525282008,82601
1587014525282866,82601
1587014525284385,82601
1587014525285431,82601
1587014525286076,82601
1587014525286684,82601
1587014525288223,82601
1587014525288804,82601
1587014525290231,82601
1587014525797635,92484
1587014525799506,92484
1587014525804744,92484
1587014525809975,92484
1587014525810711,92484
1587014525812821,92484
1587014525815760,92484
1587014525818178,92484
1587014525822829,92484
1587014525826655,92484
1587014525833448,92484
1587014525836926,92484
1587014525837600,92484
1587014526339773,87546
1587014526341414,87546
1587014526342112,87546
1587014526343103,87546
1587014526345565,87546
1587014526348271,87546
1587014526352123,87546
1587014526353723,87546
1587014526357042,87546
1587014526360401,87546
1587014526362838,87546
1587014526366022,87546
1587014526369562,87546
1587014526872243,87867
1587014526873067,87867
1587014526874420,87867
1587014526878700,87867
1587014533887665,87867
1587014533893985,87867
1587014533895188,87867
1587014533899056,87867
1587014533900377,87867
1587014533901024,87867
1587014533903447,87867
1587014533909569,87867
1587014533910771,87867
1587014534413021,101764
1587014534413754,101764
1587014534415299,101764
1587014534419006,101764
1587014534425572,101764
1587014534426502,101764
1587014534427722,101764
1587014534428639,101764
1587014534430208,101764
1587014534432576,101764
1587014534435418,101764
1587014534436109,101764
1587014534437770,101764
1587014534941953,93417
1587014534943456,93417
1587014534944455,93417
1587014534946768,93417
1587014534947721,93417
1587014534948429,93417
1587014534949401,93417
1587014534954682,93417
1587014534956906,93417
1587014534958893,93417
1587014534963313,93417
1587014534964774,93417
1587014534965806,93417
1587014535469826,94129
1587014535470438,94129
1587014535471101,94129
1587014535473194,94129
1587014535475348,94129
1587014535478266,94129
1587014535479090,94129
1587014535482145,94129
1587014535482723,94129
1587014535488077,94129
1587014535489244,94129
1587014535491034,94129
1587014535493422,94129
1587014535994975,93626
1587014535996380,93626
1587014535997196,93626
1587014536010959,93626
1587014536019540,93626
1587014536023500,93626
1587014536029351,93626
1587014536030410,93626
1587014536036073,93626
1587014536037942,93626
1587014536046346,93626
1587014536048934,93626
1587014536068169,93626
1587014536571890,93979
1587014536572888,93979
1587014536577863,93979
1587014536581240,93979
1587014536585075,93979
1587014536589732,93979
1587014536598886,93979
1587014536601057,93979
1587014536601734,93979
1587014536602957,93979
1587014536615316,93979
1587014536618676,93979
1587014536619533,93979
1587014537121911,94859
1587014537123119,94859
1587014537125631,94859
1587014537127144,94859
1587014537130629,94859
1587014537132099,94859
1587014537134101,94859
1587014537134698,94859
1587014537135333,94859
1587014537141599,94859
1587014537143291,94859
1587014537144710,94859
1587014537146122,94859
1587014537655278,95512
1587014537656603,95512
1587014537661135,95512
1587014537664297,95512
1587014537665736,95512
1587014537670171,95512
1587014537671613,95512
1587014537676273,95512
1587014537679876,95512
1587014537684831,95512
1587014537685623,95512
1587014537689430,95512
1587014537691189,95512
1587014538193899,95757
1587014538195414,95757
1587014538199099,95757
1587014538200855,95757
1587014538202426,95757
1587014539215662,95757
1587014539218173,95757
1587014539219514,95757
1587014539220098,95757
1587014539222691,95757
1587014539225434,95757
1587014539226567,95757
1587014539227623,95757
1587014539730184,98800
1587014539732197,98800
1587014539744612,98800
1587014539748348,98800
1587014539750774,98800
1587014539751442,98800
1587014539757011,98800
1587014539757717,98800
1587014539758628,98800
1587014539765096,98800
1587014539768375,98800
1587014539771889,98800
1587014539786335,98800
1587014540289917,97354
1587014540291114,97354
1587014540294070,97354
1587014540309944,97354
1587014540315401,97354
1587014540318621,97354
1587014540319582,97354
1587014540320784,97354
1587014540321896,97354
1587014540323138,97354
1587014540325995,97354
1587014540331590,97354
1587014540336486,97354
1587014540840701,98461
1587014540843418,98461
1587014540856335,98461
1587014540858908,98461
1587014540860106,98461
1587014540867414,98461
1587014540872294,98461
1587014540883363,98461
1587014540898540,98461
1587014540901651,98461
1587014540904248,98461
1587014540907177,98461
1587014540908732,98461
1587014541412535,97692
1587014541414455,97692
1587014541417008,97692
1587014541418834,97692
1587014541422140,97692
1587014541423479,97692
1587014541426136,97692
1587014544438217,97692
1587014544449620,97692
1587014544457297,97692
1587014545463129,97692
1587014545465638,97692
1587014545466324,97692
1587014545968688,107393
1587014545969485,107393
1587014545974087,107393
1587014545974970,107393
1587014545979112,107393
1587014545981126,107393
1587014545981767,107393
1587014545983667,107393
1587014545986631,107393
1587014545987422,107393
1587014545991715,107393
1587014545992541,107393
1587014545993501,107393
1587014546496061,102009
1587014546500012,102009
1587014546502713,102009
1587014546504923,102009
1587014546506616,102009
1587014546508058,102009
1587014546512603,102009
1587014546513628,102009
1587014546515586,102009
1587014546516982,102009
1587014546517780,102009
1587014546518525,102009
1587014546519317,102009
1587014547027329,102555
1587014547031773,102555
1587014547034055,102555
1587014547034654,102555
1587014547049806,102555
1587014547061652,102555
1587014547063943,102555
1587014547066955,102555
1587014547068859,102555
1587014547070894,102555
1587014547073479,102555
1587014547076680,102555
1587014547079028,102555
1587014547586006,102429
1587014547590465,102429
1587014547597882,102429
1587014547599600,102429
1587014547604495,102429
1587014547606305,102429
1587014547611840,102429
1587014547612454,102429
1587014547613731,102429
1587014547614316,102429
1587014547614974,102429
1587014547616389,102429
1587014547622365,102429
1587014548123720,102188
1587014548125337,102188
1587014548126946,102188
1587014548128416,102188
1587014548129629,102188
1587014548131245,102188
1587014548131861,102188
1587014548134238,102188
1587014548141897,102188
1587014548144684,102188
1587014551163248,102188
1587014551166426,102188
1587014551169039,102188
1587014551673528,109065
1587014551679102,109065
1587014551681265,109065
1587014551683299,109065
1587014551683924,109065
1587014551687637,109065
1587014551696295,109065
1587014551698601,109065
1587014551701282,109065
1587014551703778,109065
1587014551707275,109065
1587014551710122,109065
1587014551712403,109065
1587014552215103,106219
1587014552221467,106219
1587014552226311,106219
1587014552228675,106219
1587014552229424,106219
1587014552239827,106219
1587014552241060,106219
1587014552244688,106219
1587014552249045,106219
1587014552265589,106219
1587014552267648,106219
1587014552271601,106219
1587014552277820,106219
1587014552782287,105516
1587014552784052,105516
1587014552785503,105516
1587014552788511,105516
1587014552794303,105516
1587014552798232,105516
1587014552799091,105516
1587014552800326,105516
1587014552801029,105516
1587014552802178,105516
1587014552811467,105516
1587014552813738,105516
1587014552819344,105516
1587014553322770,107136
1587014553324318,107136
1587014553331192,107136
1587014553334919,107136
1587014553336752,107136
1587014553337955,107136
1587014553343121,107136
1587014553348120,107136
1587014553351692,107136
1587014553353411,107136
1587014553354641,107136
1587014553360110,107136
1587014553363850,107136
1587014553866402,107145
1587014553870803,107145
1587014553874418,107145
1587014553880150,107145
1587014553883446,107145
1587014553884113,107145
1587014553884823,107145
1587014553891187,107145
1587014553892400,107145
1587014553894838,107145
1587014553897916,107145
1587014553899624,107145
1587014553901424,107145
1587014554402825,107483
1587014554407870,107483
1587014554411232,107483
1587014554413654,107483
1587014554415650,107483
1587014554416535,107483
1587014554419464,107483
1587014554421938,107483
1587014554426656,107483
1587014554431807,107483
1587014554434439,107483
1587014554435053,107483
1587014554436634,107483
1587014554948021,108066
1587014554966041,108066
1587014554970405,108066
1587014554979683,108066
1587014554983287,108066
1587014554987453,108066
1587014554991375,108066
1587014554995520,108066
1587014555004840,108066
1587014555009459,108066
1587014555014103,108066
1587014555018151,108066
1587014555019195,108066
1587014555521737,107866
1587014555523110,107866
1587014555526221,107866
1587014555534543,107866
1587014555538208,107866
1587014555541534,107866
1587014555547001,107866
1587014555548853,107866
1587014555562328,107866
1587014555571678,107866
1587014555572818,107866
1587014555576095,107866
1587014555579506,107866
1587014556081756,108102
1587014556086471,108102
1587014556087208,108102
1587014556090907,108102
1587014556094544,108102
1587014556098194,108102
1587014556099125,108102
1587014556102727,108102
1587014556103332,108102
1587014556104198,108102
1587014556104855,108102
1587014556112236,108102
1587014556116421,108102
1587014556621616,108431
1587014556625062,108431
1587014556630722,108431
1587014556634128,108431
1587014556636871,108431
1587014556642620,108431
1587014556645711,108431
1587014556652075,108431
1587014556653236,108431
1587014556657999,108431
1587014556659983,108431
1587014556660895,108431
1587014556671270,108431
1587014557180317,110472
1587014557183515,110472
1587014557187305,110472
1587014557188726,110472
1587014557193884,110472
1587014557197072,110472
1587014557211573,110472
1587014557216762,110472
1587014557220443,110472
1587014557224997,110472
1587014557229558,110472
1587014557230397,110472
1587014557233992,110472
1587014557739825,110416
1587014557740655,110416
1587014557742165,110416
1587014557744773,110416
1587014557746265,110416
1587014557748003,110416
1587014557749745,110416
1587014557755324,110416
1587014557758719,110416
1587014557759385,110416
1587014557763864,110416
1587014557767169,110416
1587014557767775,110416
1587014558273777,110138
1587014558277745,110138
1587014558278536,110138
1587014558283645,110138
1587014558284376,110138
1587014558286186,110138
1587014558287017,110138
1587014558288742,110138
1587014558290945,110138
1587014558293872,110138
1587014558294464,110138
1587014558297198,110138
1587014558298719,110138
1587014558801957,110316
1587014558803888,110316
1587014558804469,110316
1587014558810597,110316
1587014558814005,110316
1587014558814661,110316
1587014558815466,110316
1587014558816106,110316
1587014558816619,110316
1587014558820232,110316
1587014558821577,110316
1587014558822920,110316
1587014558823565,110316
1587014559327529,111561
1587014559330262,111561
1587014559334147,111561
1587014559335054,111561
1587014559337910,111561
1587014559341950,111561
1587014559343983,111561
1587014559348237,111561
1587014559348850,111561
1587014559351149,111561
1587014559354714,111561
1587014559358128,111561
1587014559362291,111561
1587014559866882,111516
1587014559867675,111516
1587014559869323,111516
1587014559870051,111516
1587014559871741,111516
1587014559872737,111516
1587014559877292,111516
1587014559879660,111516
1587014559882505,111516
1587014559883304,111516
1587014559883886,111516
1587014559888559,111516
1587014559892345,111516
1587014560395748,112532
1587014560401004,112532
1587014560402703,112532
1587014560405182,112532
1587014560406093,112532
1587014560407855,112532
1587014560409374,112532
1587014560411050,112532
1587014560413423,112532
1587014560417214,112532
1587014560420544,112532
1587014560422106,112532
1587014560426631,112532
1587014560930781,112278
1587014560936760,112278
1587014560940296,112278
1587014560943493,112278
1587014560946246,112278
1587014560949805,112278
1587014560955960,112278
1587014560956816,112278
1587014560962969,112278
1587014560964849,112278
1587014560966905,112278
1587014560967546,112278
1587014560969605,112278
1587014561471690,111741
1587014561473501,111741
1587014561475642,111741
1587014561477425,111741
1587014561478262,111741
1587014561480583,111741
1587014561482093,111741
1587014561483749,111741
1587014561484496,111741
1587014561485536,111741
1587014561490182,111741
1587014561492297,111741
1587014561493862,111741
1587014561998955,113694
1587014562002278,113694
1587014562002898,113694
1587014562007075,113694
1587014562009099,113694
1587014562010823,113694
1587014562013384,113694
1587014562014617,113694
1587014562015592,113694
1587014562019429,113694
1587014562020146,113694
1587014562021647,113694
1587014562024132,113694
1587014562528359,114665
1587014562529180,114665
1587014562534993,114665
1587014562538152,114665
1587014562538998,114665
1587014562542045,114665
1587014562547473,114665
1587014562551036,114665
1587014562558018,114665
1587014562560314,114665
1587014562564151,114665
1587014562564980,114665
1587014562567261,114665
1587014563073678,114342
1587014563075416,114342
1587014563077634,114342
1587014563079358,114342
1587014563080309,114342
1587014563089731,114342
1587014563091871,114342
1587014563095492,114342
1587014563099355,114342
1587014563099924,114342
1587014563100764,114342
1587014563102724,114342
1587014563104823,114342
1587014563607305,114560
1587014563614129,114560
1587014563618827,114560
1587014563619714,114560
1587014563620833,114560
1587014563622937,114560
1587014563627275,114560
1587014563629198,114560
1587014563630832,114560
1587014563634728,114560
1587014563635491,114560
1587014563639315,114560
1587014563640951,114560
1587014564144210,115627
1587014564145009,115627
1587014564146304,115627
1587014564147731,115627
1587014564148330,115627
1587014564151924,115627
1587014564156291,115627
1587014564172135,115627
1587014564186025,115627
1587014564193012,115627
1587014564193798,115627
1587014564196937,115627
1587014564198147,115627
1587014564704441,115197
1587014564705070,115197
1587014564709730,115197
1587014564715660,115197
1587014564729477,115197
1587014564738926,115197
1587014564741226,115197
1587014564754930,115197
1587014564761017,115197
1587014564766798,115197
1587014564768266,115197
1587014564774555,115197
1587014564778767,115197
1587014565281663,115427
1587014565282415,115427
1587014565285048,115427
1587014565286855,115427
1587014565288974,115427
1587014565291584,115427
1587014565293590,115427
1587014565303025,115427
1587014565305693,115427
1587014565308436,115427
1587014565311691,115427
1587014565314433,115427
1587014565318279,115427
1587014565823373,116494
1587014565824347,116494
1587014565826066,116494
1587014565827564,116494
1587014565829082,116494
1587014565835790,116494
1587014565838102,116494
1587014565839234,116494
1587014565849874,116494
1587014565851505,116494
1587014565853499,116494
1587014565857594,116494
1587014565862148,116494
1587014566363492,116475
1587014566366433,116475
1587014566370458,116475
1587014566370998,116475
1587014566375006,116475
1587014566378041,116475
1587014566384287,116475
1587014566389472,116475
1587014566391370,116475
1587014566609883,116475
1587014566611108,116475
1587014566613702,116475
1587014566615501,116475
1587014567119600,116708
1587014567128100,116708
1587014567134833,116708
1587014567137690,116708
1587014567140681,116708
1587014567145654,116708
1587014567146332,116708
1587014567149838,116708
1587014567153657,116708
1587014567159035,116708
1587014567164380,116708
1587014567165937,116708
1587014567169648,116708
1587014567676643,117094
1587014567681497,117094
1587014567686867,117094
1587014567690679,117094
1587014567692220,117094
1587014567694760,117094
1587014567699382,117094
1587014567700362,117094
1587014567705268,117094
1587014567709332,117094
1587014567710485,117094
1587014567713986,117094
1587014567718375,117094
1587014568221889,117514
1587014568222528,117514
1587014568226105,117514
1587014568228888,117514
1587014568229497,117514
1587014568235401,117514
1587014568238692,117514
1587014568242862,117514
1587014568249848,117514
1587014568254943,117514
1587014568267284,117514
1587014568270042,117514
1587014568272647,117514
1587014568782257,118163
1587014568784409,118163
1587014568785094,118163
1587014568787796,118163
1587014568789807,118163
1587014568791834,118163
1587014568795079,118163
1587014568795646,118163
1587014568801034,118163
1587014568805624,118163
1587014568808059,118163
1587014568811252,118163
1587014568811949,118163
1587014569319424,118898
1587014569320280,118898
1587014569325035,118898
1587014569328325,118898
1587014569331783,118898
1587014569333418,118898
1587014569335781,118898
1587014569337535,118898
1587014569338186,118898
1587014569340335,118898
1587014569342564,118898
1587014569343250,118898
1587014569345202,118898
1587014569847176,118529
1587014569849681,118529
1587014569851399,118529
1587014569853658,118529
1587014569859230,118529
1587014569862131,118529
1587014569863710,118529
1587014569871586,118529
1587014569872351,118529
1587014569872941,118529
1587014569878729,118529
1587014569882850,118529
1587014569884620,118529
1587014570391969,119417
1587014570394639,119417
1587014570395190,119417
1587014570399265,119417
1587014570400938,119417
1587014570404643,119417
1587014570405729,119417
1587014570409568,119417
1587014570412336,119417
1587014570415887,119417
1587014570417943,119417
1587014570418878,119417
1587014570422458,119417
1587014570926727,119130
1587014570928562,119130
1587014570929263,119130
1587014570934364,119130
1587014570935922,119130
1587014570936656,119130
1587014570938103,119130
1587014570939880,119130
1587014570941998,119130
1587014570942641,119130
1587014570949726,119130
1587014570958764,119130
1587014570961786,119130
1587014571464261,118774
1587014571466248,118774
1587014571467844,118774
1587014571475715,118774
1587014571479094,118774
1587014571480378,118774
1587014571485019,118774
1587014571488540,118774
1587014571489989,118774
1587014571492868,118774
1587014571493725,118774
1587014571494656,118774
1587014571497015,118774
1587014571999558,120254
1587014572000868,120254
1587014572002702,120254
1587014572003298,120254
1587014572006477,120254
1587014572008218,120254
1587014572010051,120254
1587014572012207,120254
1587014572013681,120254
1587014572015472,120254
1587014572018241,120254
1587014572019147,120254
1587014572024274,120254
1587014572527301,120324
1587014572528958,120324
1587014572529880,120324
1587014572531407,120324
1587014572534370,120324
1587014572536294,120324
1587014572540595,120324
1587014572542397,120324
1587014572545239,120324
1587014572546525,120324
1587014572548032,120324
1587014572552929,120324
1587014572553926,120324
1587014573059090,120875
1587014573061391,120875
1587014573066265,120875
1587014573703494,120875
1587014573706412,120875
1587014573709461,120875
1587014573711705,120875
1587014573712721,120875
1587014573714115,120875
1587014573715961,120875
1587014573718958,120875
1587014573725559,120875
1587014573728510,120875
1587014574231044,122607
1587014574235302,122607
1587014574238111,122607
1587014574242771,122607
1587014574244369,122607
1587014574247382,122607
1587014574248018,122607
1587014574251963,122607
1587014574255357,122607
1587014574258001,122607
1587014574259365,122607
1587014574263932,122607
1587014574266929,122607
1587014574775254,122003
1587014574781285,122003
1587014574782009,122003
1587014574786854,122003
1587014574792921,122003
1587014574797573,122003
1587014574803368,122003
1587014574805797,122003
1587014574808688,122003
1587014574813465,122003
1587014574814417,122003
1587014574815937,122003
1587014574821631,122003
1587014575325906,122741
1587014575332474,122741
1587014575334560,122741
1587014575338112,122741
1587014575339169,122741
1587014575343349,122741
1587014575347626,122741
1587014575348623,122741
1587014575350053,122741
1587014575351423,122741
1587014575355684,122741
1587014575358286,122741
1587014575363104,122741
1587014575867650,122401
1587014575870673,122401
1587014575874625,122401
1587014575875963,122401
1587014575878196,122401
1587014575883411,122401
1587014575887078,122401
1587014575893358,122401
1587014575895790,122401
1587014575897988,122401
1587014575900654,122401
1587014575904521,122401
1587014575910462,122401
1587014576413019,123619
1587014576417421,123619
1587014576422818,123619
1587014576424940,123619
1587014576428031,123619
1587014576430316,123619
1587014576432431,123619
1587014576435828,123619
1587014576440236,123619
1587014576446577,123619
1587014576447613,123619
1587014576450408,123619
1587014579458114,123619
1587014579970610,129579
1587014579974928,129579
1587014579978905,129579
1587014579993382,129579
1587014579996451,129579
1587014580012004,129579
1587014580016713,129579
1587014580017827,129579
1587014580031253,129579
1587014580034793,129579
1587014580036400,129579
1587014580037586,129579
1587014580044230,129579
1587014580571699,125818
1587014580578233,125818
1587014580578925,125818
1587014580581265,125818
1587014580583107,125818
1587014580584388,125818
1587014580594684,125818
1587014580597854,125818
1587014580598649,125818
1587014580606215,125818
1587014580610301,125818
1587014580615850,125818
1587014580619670,125818
1587014581125951,126831
1587014581130231,126831
1587014581132774,126831
1587014581135284,126831
1587014581140240,126831
1587014581141384,126831
1587014581142500,126831
1587014581144095,126831
1587014581145993,126831
1587014581148033,126831
1587014581149778,126831
1587014581157762,126831
1587014581160017,126831
1587014581666236,126326
1587014581668801,126326
1587014581669703,126326
1587014581674011,126326
1587014581679084,126326
1587014581682258,126326
1587014581686863,126326
1587014581692044,126326
1587014581694326,126326
1587014581699549,126326
1587014581702199,126326
1587014581707862,126326
1587014581713763,126326
1587014582217132,126121
1587014582217852,126121
1587014582222672,126121
1587014582226344,126121
1587014582229920,126121
1587014582233661,126121
1587014582236978,126121
1587014582251967,126121
1587014582252833,126121
1587014582254531,126121
1587014582257022,126121
1587014582258793,126121
1587014582264387,126121
1587014582776128,127738
1587014582778588,127738
1587014582781073,127738
1587014582783499,127738
1587014582791031,127738
1587014582792076,127738
1587014582801317,127738
1587014582807423,127738
1587014582810318,127738
1587014582812577,127738
1587014582814997,127738
1587014582818481,127738
1587014582821505,127738
1587014583328113,128711
1587014583329296,128711
1587014583330666,128711
1587014583334423,128711
1587014583338112,128711
1587014583338883,128711
1587014583342474,128711
1587014583345071,128711
1587014583347131,128711
1587014583356306,128711
1587014583358801,128711
1587014583360998,128711
1587014583363148,128711
1587014583868560,128592
1587014583870395,128592
1587014583875556,128592
1587014583877487,128592
1587014583882322,128592
1587014583889248,128592
1587014583891302,128592
1587014583893956,128592
1587014583896984,128592
1587014583907875,128592
1587014583927781,128592
1587014583928660,128592
1587014583929226,128592
1587014584446586,128372
1587014584451111,128372
1587014584456578,128372
1587014584461419,128372
1587014584478383,128372
1587014584480115,128372
1587014584480961,128372
1587014584486418,128372
1587014584501644,128372
1587014584511167,128372
1587014584512880,128372
1587014584515935,128372
1587014584516548,128372
1587014585025879,129410
1587014586045501,129410
1587014586048740,129410
1587014586051354,129410
1587014586054780,129410
1587014586060085,129410
1587014586061127,129410
1587014586064636,129410
1587014586067408,129410
1587014586071475,129410
1587014586080929,129410
1587014586082600,129410
1587014586085529,129410
1587014586590599,131113
1587014586593559,131113
1587014586595636,131113
1587014586609548,131113
1587014586613817,131113
1587014586617627,131113
1587014586623561,131113
1587014586644095,131113
1587014586660362,131113
1587014586661381,131113
1587014586661954,131113
1587014586673519,131113
1587014586678124,131113
1587014587202676,131106
1587014587206143,131106
1587014587220612,131106
1587014587224003,131106
1587014587225329,131106
1587014587236830,131106
1587014587241956,131106
1587014587242666,131106
1587014587255784,131106
1587014587260232,131106
1587014587268716,131106
1587014587269841,131106
1587014587270517,131106
1587014587772820,131705
1587014587778897,131705
1587014587781584,131705
1587014587782811,131705
1587014587820634,131705
1587014587821931,131705
1587014587825279,131705
1587014587833393,131705
1587014587846291,131705
1587014587865266,131705
1587014587878808,131705
1587014587884234,131705
1587014587893377,131705
1587014588405608,131266
1587014588421472,131266
1587014588433507,131266
1587014588438481,131266
1587014588444859,131266
1587014588447220,131266
1587014588460544,131266
1587014588463709,131266
1587014588480340,131266
1587014588483150,131266
1587014588498894,131266
1587014588522484,131266
1587014588535326,131266
1587014589049537,132515
1587014589074299,132515
1587014589099317,132515
1587014589121677,132515
1587014589125513,132515
1587014589134775,132515
1587014589136368,132515
1587014589153425,132515
1587014589155742,132515
1587014589157024,132515
1587014589158020,132515
1587014589163506,132515
1587014589171120,132515
1587014589680801,133116
1587014589682881,133116
1587014589706529,133116
1587014589719784,133116
1587014589724128,133116
1587014589737811,133116
1587014589739685,133116
1587014589743294,133116
1587014589744284,133116
1587014589760335,133116
1587014589764548,133116
1587014589765456,133116
1587014589771088,133116
1587014590281348,133897
1587014590285628,133897
1587014590289277,133897
1587014590290270,133897
1587014590291467,133897
1587014590296233,133897
1587014590300684,133897
1587014590302098,133897
1587014590303059,133897
1587014590305477,133897
1587014590306456,133897
1587014590309147,133897
1587014590310136,133897
1587014590814195,134557
1587014590820697,134557
1587014590824712,134557
1587014590828297,134557
1587014590832987,134557
1587014590835451,134557
1587014590837093,134557
1587014590841123,134557
1587014590841926,134557
1587014590845894,134557
1587014590849247,134557
1587014590855256,134557
1587014590856504,134557
1587014591360022,133446
1587014591363140,133446
1587014591365900,133446
1587014591369376,133446
1587014591370097,133446
1587014591376181,133446
1587014591377750,133446
1587014591380084,133446
1587014591381032,133446
1587014591385112,133446
1587014591390966,133446
1587014591398096,133446
1587014591399083,133446
1587014591904048,133852
1587014591907936,133852
1587014591908767,133852
1587014591911673,133852
1587014591917180,133852
1587014591919802,133852
1587014591923171,133852
1587014591924118,133852
1587014591928419,133852
1587014591930013,133852
1587014591933206,133852
1587014591937404,133852
1587014591945178,133852
1587014592449238,134851
1587014592452247,134851
1587014592453033,134851
1587014592455484,134851
1587014592456485,134851
1587014592459108,134851
1587014592468814,134851
1587014592472184,134851
1587014592472872,134851
1587014592476784,134851
1587014592481536,134851
1587014592485453,134851
1587014592486835,134851
1587014593013565,135604
1587014593019620,135604
1587014593021523,135604
1587014593026706,135604
1587014593032117,135604
1587014593048137,135604
1587014593067376,135604
1587014593068936,135604
1587014593072456,135604
1587014593075945,135604
1587014593079120,135604
1587014593086327,135604
1587014593100603,135604
1587014593604398,135508
1587014593611074,135508
1587014593615516,135508
1587014593625059,135508
1587014593626615,135508
1587014593629859,135508
1587014593634230,135508
1587014593637698,135508
1587014593644276,135508
1587014593656472,135508
1587014593657914,135508
1587014593671277,135508
1587014593672781,135508
1587014594187819,135369
1587014594196214,135369
1587014594202279,135369
1587014594217530,135369
1587014594222986,135369
1587014594231464,135369
1587014594465642,135369
1587014594481406,135369
1587014594482662,135369
1587014594496496,135369
1587014594501499,135369
1587014594502828,135369
1587014594506875,135369
1587014595013514,136760
1587014595014263,136760
1587014595030406,136760
1587014595047350,136760
1587014595052942,136760
1587014595057454,136760
1587014595063917,136760
1587014595067934,136760
1587014595070325,136760
1587014595082580,136760
1587014595087059,136760
1587014595090185,136760
1587014595091516,136760
1587014595597721,136131
1587014595605869,136131
1587014595610023,136131
1587014595627191,136131
1587014595631474,136131
1587014595633347,136131
1587014595642094,136131
1587014595647044,136131
1587014595649458,136131
1587014595654530,136131
1587014595657149,136131
1587014595659137,136131
1587014595664459,136131
1587014596174623,136771
1587014596190424,136771
1587014596196810,136771
1587014596202078,136771
1587014596214207,136771
1587014596216135,136771
1587014596222314,136771
1587014596226682,136771
1587014596228825,136771
1587014596234239,136771
1587014596238211,136771
1587014596239414,136771
1587014596241393,136771
1587014596767171,136253
1587014596772263,136253
1587014596773335,136253
1587014596777302,136253
1587014596801124,136253
1587014596802547,136253
1587014596809689,136253
1587014596812420,136253
1587014596820211,136253
1587014596827549,136253
1587014596837260,136253
1587014596840803,136253
1587014596858961,136253
1587014597367212,137036
1587014597375068,137036
1587014597378742,137036
1587014597383828,137036
1587014597387718,137036
1587014597388743,137036
1587014597403680,137036
1587014597405359,137036
1587014597414258,137036
1587014597415427,137036
1587014597422892,137036
1587014597428531,137036
1587014597429680,137036
1587014597951377,137613
1587014597956352,137613
1587014597960309,137613
1587014597966576,137613
1587014597968106,137613
1587014597983647,137613
1587014597988558,137613
1587014597989205,137613
1587014598004109,137613
1587014598008412,137613
1587014598012786,137613
1587014598016567,137613
1587014598020489,137613
1587014598523506,138660
1587014598532030,138660
1587014598547703,138660
1587014598551911,138660
1587014598554390,138660
1587014598560248,138660
1587014598573825,138660
1587014598576683,138660
1587014598581082,138660
1587014598588485,138660
1587014598591700,138660
1587014598594300,138660
1587014598600687,138660
1587014599104070,138170
1587014599119180,138170
1587014599134699,138170
1587014599141287,138170
1587014599142759,138170
1587014599148796,138170
1587014599150275,138170
1587014599151915,138170
1587014599156151,138170
1587014599162243,138170
1587014599178025,138170
1587014599181293,138170
1587014599183133,138170
1587014599687813,138395
1587014599691135,138395
1587014599706310,138395
1587014599715131,138395
1587014599723712,138395
1587014599742187,138395
1587014599744704,138395
1587014599778101,138395
1587014599778902,138395
1587014599792795,138395
1587014599798312,138395
1587014599803105,138395
1587014599804942,138395
1587014600324206,138630
1587014600324893,138630
1587014600325915,138630
1587014600329598,138630
1587014600332328,138630
1587014600339298,138630
1587014600342570,138630
1587014600344556,138630
1587014600356592,138630
1587014600358861,138630
1587014600364924,138630
1587014600368405,138630
1587014600373744,138630
1587014600911505,139414
1587014600913026,139414
1587014600917473,139414
1587014600924195,139414
1587014600936940,139414
1587014600942629,139414
1587014600950562,139414
1587014600953595,139414
1587014600959754,139414
1587014600972360,139414
1587014600979058,139414
1587014600988139,139414
1587014601016434,139414
1587014601521065,139473
1587014601524338,139473
1587014601533346,139473
1587014601536551,139473
1587014601555498,139473
1587014601596244,139473
1587014601618309,139473
1587014601638535,139473
1587014601652396,139473
1587014601664506,139473
1587014601677315,139473
1587014601678766,139473
1587014601683992,139473
1587014602208463,139964
1587014602209998,139964
1587014602211122,139964
1587014602216334,139964
1587014602234523,139964
1587014602249372,139964
1587014602265299,139964
1587014602266728,139964
1587014602268580,139964
1587014602269725,139964
1587014602270533,139964
1587014602285354,139964
1587014602289795,139964
1587014602804425,139762
1587014602808036,139762
1587014602823383,139762
1587014602836235,139762
1587014602848598,139762
1587014602865412,139762
1587014602898552,139762
1587014602901355,139762
1587014602906560,139762
1587014602912706,139762
1587014602920716,139762
1587014602933869,139762
1587014602937727,139762
1587014603452575,141320
1587014603457703,141320
1587014603458542,141320
1587014603477065,141320
1587014603478342,141320
1587014603482738,141320
1587014603486644,141320
1587014603495097,141320
1587014603496290,141320
1587014603497793,141320
1587014603510665,141320
1587014603514852,141320
1587014603518029,141320
1587014604022256,141242
1587014604029944,141242
1587014604031210,141242
1587014604033905,141242
1587014604037582,141242
1587014604051399,141242
1587014604053657,141242
1587014604055839,141242
1587014604057481,141242
1587014604066099,141242
1587014604069189,141242
1587014604069702,141242
1587014604070788,141242
1587014604593931,141076
1587014604599654,141076
1587014604604285,141076
1587014604605583,141076
1587014604606871,141076
1587014604616105,141076
1587014604619415,141076
1587014604624517,141076
1587014604625794,141076
1587014604637908,141076
1587014604654860,141076
1587014604659619,141076
1587014604663064,141076
1587014605183828,141832
1587014605187603,141832
1587014605200930,141832
1587014605206293,141832
1587014605210630,141832
1587014605212095,141832
1587014605216768,141832
1587014605221745,141832
1587014605222754,141832
1587014605224734,141832
1587014605229028,141832
1587014605232770,141832
1587014605249287,141832
1587014605753666,142414
1587014605759425,142414
1587014605765105,142414
1587014605766319,142414
1587014605770296,142414
1587014605774907,142414
1587014605779456,142414
1587014605781576,142414
1587014605786020,142414
1587014605802607,142414
1587014605812193,142414
1587014605816267,142414
1587014605822804,142414
1587014606326888,142313
1587014606330369,142313
1587014606337021,142313
1587014606350455,142313
1587014606354919,142313
1587014606358638,142313
1587014606362862,142313
1587014606372475,142313
1587014606378526,142313
1587014606386925,142313
1587014606391612,142313
1587014606392488,142313
1587014606403865,142313
1587014606913231,142400
1587014606913967,142400
1587014606922421,142400
1587014606923751,142400
1587014606930979,142400
1587014606941176,142400
1587014606955765,142400
1587014607019116,142400
1587014607037364,142400
1587014607044935,142400
1587014607049607,142400
1587014607052975,142400
1587014607059253,142400
1587014607611426,143248
1587014607617269,143248
1587014607622139,143248
1587014607626924,143248
1587014607632051,143248
1587014607641588,143248
1587014607655055,143248
1587014607658803,143248
1587014607662298,143248
1587014607670756,143248
1587014607678211,143248
1587014607698002,143248
1587014607706349,143248
1587014608226792,144056
1587014608230108,144056
1587014608231047,144056
1587014608231755,144056
1587014608241753,144056
1587014608248923,144056
1587014608257586,144056
1587014608270204,144056
1587014608277462,144056
1587014608280736,144056
1587014608282549,144056
1587014608284560,144056
1587014608291200,144056
1587014608799328,144703
1587014608800509,144703
1587014608800970,144703
1587014608806677,144703
1587014608815896,144703
1587014608821301,144703
1587014608822399,144703
1587014608827513,144703
1587014608830167,144703
1587014608838126,144703
1587014608841150,144703
1587014608848206,144703
1587014608860613,144703
1587014609369247,146140
1587014609385421,146140
1587014609397224,146140
1587014609404348,146140
1587014609408313,146140
1587014609415506,146140
1587014609425117,146140
1587014609425994,146140
1587014609430341,146140
1587014609434059,146140
1587014609438242,146140
1587014609439623,146140
1587014609440531,146140
1587014609945352,144976
1587014609946251,144976
1587014609946715,144976
1587014609947265,144976
1587014609961991,144976
1587014609963539,144976
1587014609979696,144976
1587014609982140,144976
1587014609992326,144976
1587014610002810,144976
1587014610016814,144976
1587014610023980,144976
1587014610027008,144976
1587014610530790,146254
1587014610536021,146254
1587014610537240,146254
1587014610540415,146254
1587014610543134,146254
1587014610546862,146254
1587014610550419,146254
1587014610554018,146254
1587014610554814,146254
1587014610557812,146254
1587014610565172,146254
1587014610567139,146254
1587014610579542,146254
1587014611086228,146167
1587014611089112,146167
1587014611091498,146167
1587014611096418,146167
1587014611101331,146167
1587014611106118,146167
1587014611107415,146167
1587014611112885,146167
1587014611119943,146167
1587014611126437,146167
1587014611129802,146167
1587014611132598,146167
1587014611133913,146167
1587014611639480,145841
1587014611647416,145841
1587014611648273,145841
1587014611655866,145841
1587014611659762,145841
1587014611661687,145841
1587014611672649,145841
1587014611674106,145841
1587014611677068,145841
1587014611677980,145841
1587014611682420,145841
1587014611689263,145841
1587014611692224,145841
1587014612196469,146500
1587014612199695,146500
1587014612202263,146500
1587014612205503,146500
1587014612207954,146500
1587014612215470,146500
1587014612222304,146500
1587014612225407,146500
1587014612229196,146500
1587014612232544,146500
1587014612233328,146500
1587014612238567,146500
1587014612250874,146500
1587014612763329,146525
1587014612767063,146525
1587014612772666,146525
1587014612774833,146525
1587014614228966,146525
1587014614234193,146525
1587014614240690,146525
1587014614245520,146525
1587014614246384,146525
1587014614249500,146525
1587014614252917,146525
1587014614253755,146525
1587014614260619,146525
1587014614765204,149513
1587014614767070,149513
1587014614775096,149513
1587014614778937,149513
1587014614785993,149513
1587014614787173,149513
1587014614790182,149513
1587014614790974,149513
1587014614799876,149513
1587014614800979,149513
1587014614804311,149513
1587014614806752,149513
1587014614811672,149513
1587014615319557,147440
1587014615323409,147440
1587014615328642,147440
1587014615333257,147440
1587014615340036,147440
1587014615343923,147440
1587014615347146,147440
1587014615349414,147440
1587014615352878,147440
1587014615356941,147440
1587014615359380,147440
1587014615360300,147440
1587014615362269,147440
1587014615866535,147844
1587014615872960,147844
1587014615878258,147844
1587014615885348,147844
1587014615887168,147844
1587014615891602,147844
1587014615893184,147844
1587014615895975,147844
1587014615900551,147844
1587014615902610,147844
1587014615904697,147844
1587014615908064,147844
1587014615911004,147844
1587014616421279,148287
1587014616422613,148287
1587014616429695,148287
1587014616439622,148287
1587014616441338,148287
1587014616443124,148287
1587014616443954,148287
1587014616457184,148287
1587014616470383,148287
1587014616491320,148287
1587014616492777,148287
1587014616506338,148287
1587014616519920,148287
1587014617022748,149587
1587014617025208,149587
1587014617026337,149587
1587014617029688,149587
1587014617030836,149587
1587014617032132,149587
1587014617035465,149587
1587014617042016,149587
1587014617045329,149587
1587014617047525,149587
1587014617053067,149587
1587014617055556,149587
1587014617061529,149587
1587014617573240,149740
1587014617574105,149740
1587014617578841,149740
1587014617585408,149740
1587014617593118,149740
1587014617595034,149740
1587014617599053,149740
1587014617603412,149740
1587014617607213,149740
1587014617612922,149740
1587014617617728,149740
1587014617624233,149740
1587014617626874,149740
1587014618143508,150300
1587014618144253,150300
1587014618148430,150300
1587014618150891,150300
1587014619155342,150300
1587014619160061,150300
1587014619162023,150300
1587014619163936,150300
1587014619168812,150300
1587014619174931,150300
1587014619180140,150300
1587014619181113,150300
1587014619187910,150300
1587014619691445,151361
1587014619692322,151361
1587014619698422,151361
1587014619699459,151361
1587014619703436,151361
1587014619706262,151361
1587014619707267,151361
1587014619713893,151361
1587014619715381,151361
1587014619718310,151361
1587014619721019,151361
1587014619724699,151361
1587014619727628,151361
1587014620230867,150273
1587014620231829,150273
1587014620242694,150273
1587014620247038,150273
1587014620250116,150273
1587014620252821,150273
1587014620258354,150273
1587014620259422,150273
1587014620262809,150273
1587014620266147,150273
1587014620268844,150273
1587014620270503,150273
1587014620275724,150273
1587014620795421,151271
1587014620796808,151271
1587014620803257,151271
1587014620811965,151271
1587014620815300,151271
1587014620820642,151271
1587014620826206,151271
1587014620830657,151271
1587014620835648,151271
1587014620845810,151271
1587014620849719,151271
1587014620853522,151271
1587014620858644,151271
1587014621362440,151662
1587014621369149,151662
1587014621372270,151662
1587014621375933,151662
1587014621378686,151662
1587014621382876,151662
1587014621384730,151662
1587014621390224,151662
1587014621392847,151662
1587014621401484,151662
1587014621402375,151662
1587014621408195,151662
1587014621410580,151662
1587014621918754,152154
1587014621922860,152154
1587014621938407,152154
1587014621941087,152154
1587014621946114,152154
1587014621950736,152154
1587014621954911,152154
1587014621959764,152154
1587014621964405,152154
1587014621971609,152154
1587014621977536,152154
1587014621982061,152154
1587014621982863,152154
1587014622488228,152586
1587014622490557,152586
1587014622495966,152586
1587014622498149,152586
1587014622503391,152586
1587014622504892,152586
1587014622510493,152586
1587014622520087,152586
1587014622526662,152586
1587014622528329,152586
1587014622530184,152586
1587014622530908,152586
1587014622531641,152586
1587014623035968,153114
1587014623041391,153114
1587014623043684,153114
1587014623050442,153114
1587014623056682,153114
1587014623061759,153114
1587014623062604,153114
1587014623064642,153114
1587014623068605,153114
1587014623071958,153114
1587014623081929,153114
1587014623088715,153114
1587014623089967,153114
1587014623597988,153010
1587014623604719,153010
1587014623609505,153010
1587014623615758,153010
1587014623616597,153010
1587014623628785,153010
1587014623631389,153010
1587014623640605,153010
1587014623643633,153010
1587014623644900,153010
1587014623648943,153010
1587014623652660,153010
1587014623660570,153010
1587014624165360,154107
1587014624168559,154107
1587014624173701,154107
1587014624176579,154107
1587014624183218,154107
1587014624186250,154107
1587014624190458,154107
1587014624195191,154107
1587014624196148,154107
1587014624200631,154107
1587014624203832,154107
1587014624206018,154107
1587014624206825,154107
1587014624711869,153838
1587014624713029,153838
1587014624718654,153838
1587014624722130,153838
1587014624728912,153838
1587014624730066,153838
1587014624731178,153838
1587014624737834,153838
1587014624744233,153838
1587014624745322,153838
1587014624749806,153838
1587014624759791,153838
1587014624762208,153838
1587014625267149,154662
1587014625272626,154662
1587014625273482,154662
1587014625282268,154662
1587014625286532,154662
1587014625293093,154662
1587014625294368,154662
1587014625298736,154662
1587014625299760,154662
1587014625305072,154662
1587014625306144,154662
1587014625311955,154662
1587014625316192,154662
1587014625818004,154375
1587014625819075,154375
1587014625825615,154375
1587014625829871,154375
1587014625831571,154375
1587014625835441,154375
1587014625838955,154375
1587014625841561,154375
1587014625845516,154375
1587014625848941,154375
1587014625849911,154375
1587014625852568,154375
1587014625859896,154375
1587014626363084,155134
1587014626367992,155134
1587014626374145,155134
1587014626375201,155134
1587014626386318,155134
1587014626392433,155134
1587014626396042,155134
1587014626399095,155134
1587014626399939,155134
1587014626404871,155134
1587014626406286,155134
1587014626411134,155134
1587014626417711,155134
1587014626923438,155621
1587014626929299,155621
1587014626933921,155621
1587014626939428,155621
1587014626943276,155621
1587014626952981,155621
1587014626953944,155621
1587014626960377,155621
1587014626963041,155621
1587014626966605,155621
1587014626970912,155621
1587014626974567,155621
1587014626983500,155621
1587014627485733,156147
1587014627493371,156147
1587014627504352,156147
1587014627506906,156147
1587014627508068,156147
1587014627510845,156147
1587014627517619,156147
1587014627522171,156147
1587014627531542,156147
1587014627536280,156147
1587014627540224,156147
1587014627546705,156147
1587014627555199,156147
1587014628060836,156801
1587014628061476,156801
1587014628066140,156801
1587014628069269,156801
1587014628075599,156801
1587014628076949,156801
1587014628083961,156801
1587014628088131,156801
1587014628090976,156801
1587014628092013,156801
1587014628097391,156801
1587014628101911,156801
1587014628111478,156801
1587014628615126,156017
1587014628618327,156017
1587014628621249,156017
1587014628624830,156017
1587014628628811,156017
1587014628630925,156017
1587014628635729,156017
1587014628640145,156017
1587014628646486,156017
1587014628649699,156017
1587014628650520,156017
1587014628655314,156017
1587014628656088,156017
1587014629161588,156921
1587014629172023,156921
1587014629172997,156921
1587014629183890,156921
1587014629401554,156921
1587014629408299,156921
1587014629416119,156921
1587014629418362,156921
1587014629421732,156921
1587014629432041,156921
1587014629433300,156921
1587014629434359,156921
1587014629439127,156921
1587014629956443,157289
1587014629959939,157289
1587014629967075,157289
1587014629971260,157289
1587014629978802,157289
1587014629980020,157289
1587014629994087,157289
1587014629996870,157289
1587014630004417,157289
1587014630015971,157289
1587014630016845,157289
1587014630030219,157289
1587014630030946,157289
1587014630543800,157372
1587014630558014,157372
1587014630569989,157372
1587014630573195,157372
1587014630574149,157372
1587014630581970,157372
1587014630586193,157372
1587014630587118,157372
1587014630590634,157372
1587014630592929,157372
1587014630604238,157372
1587014630605299,157372
1587014630610515,157372
1587014631115444,157443
1587014631120612,157443
1587014631126104,157443
1587014631127483,157443
1587014631133472,157443
1587014631134730,157443
1587014631142946,157443
1587014631146208,157443
1587014631148243,157443
1587014631150704,157443
1587014646388192,157443
1587014646394249,157443
1587014646395316,157443
1587014646902279,181753
1587014646909362,181753
1587014646914026,181753
1587014646922942,181753
1587014646929124,181753
1587014646933541,181753
1587014646938913,181753
1587014646941650,181753
1587014646946357,181753
1587014646951879,181753
1587014646952924,181753
1587014646964561,181753
1587014646965550,181753
