1587014404051361,30
1587014405221602,23
1587014405302802,23
1587014405599971,23
1587014406000173,1414
1587014406003387,1414
1587014406004042,1414
1587014406005360,1414
1587014406006613,1414
1587014406007720,1414
1587014406008449,1414
1587014406010009,1414
1587014406011180,1414
1587014406012294,1414
1587014406013432,1414
1587014406015363,1414
1587014406016803,1414
1587014406582553,1345
1587014406584100,1345
1587014406585190,1345
1587014406586218,1345
1587014406588370,1345
1587014406590096,1345
1587014406603234,1345
1587014406604307,1345
1587014406605758,1345
1587014406630063,1345
1587014406659686,1345
1587014406678383,1345
1587014406695022,1345
1587014407196570,2507
1587014407197975,2507
1587014407198788,2507
1587014407200308,2507
1587014407200768,2507
1587014407205980,2507
1587014407207189,2507
1587014407208169,2507
1587014407209270,413
1587014407209891,2507
1587014407211557,2507
1587014407217324,2507
1587014407220490,2507
1587014407221200,2507
1587014407724619,2669
1587014407725511,2669
1587014407733812,2669
1587014407735079,2669
1587014407735526,2669
1587014407737344,2669
1587014407749898,2669
1587014407754814,2669
1587014407774138,2669
1587014407798550,2669
1587014407807670,2669
1587014407819306,2669
1587014407833108,2669
1587014408342218,413
1587014408428155,2602
1587014408429149,2602
1587014408429861,2602
1587014408430421,2602
1587014408431710,2602
1587014408432322,2602
1587014408454654,2602
1587014408574633,2602
1587014408576735,2602
1587014408578816,2602
1587014408579396,2602
1587014408580155,2602
1587014408580893,2602
1587014409085419,4590
1587014409086485,4590
1587014409090247,4590
1587014409091202,4590
1587014409092057,4590
1587014409092720,4590
1587014409093414,4590
1587014409094633,4590
1587014409095813,4590
1587014409099568,4590
1587014409100993,4590
1587014409102672,4590
1587014409104655,4590
1587014409610483,3132
1587014409621790,3132
1587014409622791,3132
1587014409626262,3132
1587014409634870,3132
1587014409640596,3132
1587014409655595,3132
1587014409678244,3132
1587014409695376,3132
1587014409709961,3132
1587014409712575,3132
1587014409713892,3132
1587014409731555,3132
1587014410234855,3352
1587014410235447,3352
1587014410236430,3352
1587014410238904,3352
1587014410258034,3352
1587014410258793,3352
1587014410264102,3352
1587014410265982,3352
1587014410266926,3352
1587014410270341,3352
1587014410271859,3352
1587014410274349,3352
1587014410275980,3352
1587014410778802,6204
1587014410781214,6204
1587014410784296,6204
1587014410791523,6204
1587014410792395,6204
1587014410803339,6204
1587014410804264,6204
1587014410807696,6204
1587014410820211,6204
1587014410825723,6204
1587014410827472,6204
1587014410838124,6204
1587014410856024,6204
1587014410971615,412
1587014411363514,5096
1587014411364754,5096
1587014411366656,5096
1587014411367844,5096
1587014411368823,5096
1587014411369635,5096
1587014411374023,5096
1587014411376291,5096
1587014411382179,5096
1587014411385348,5096
1587014411390891,5096
1587014411404343,5096
1587014411406081,5096
1587014411916987,5023
1587014411929011,5023
1587014411930918,5023
1587014411940885,5023
1587014418958020,5023
1587014418958733,5023
1587014418959327,5023
1587014419012064,5023
1587014419018864,5023
1587014419020115,5023
1587014419030920,5023
1587014419031649,5023
1587014419032359,5023
1587014419535491,14076
1587014419540370,14076
1587014419541458,14076
1587014419542284,14076
1587014419588531,14076
1587014419594582,14076
1587014419595992,14076
1587014419596856,14076
1587014419659986,37
1587014421334133,14076
1587014421351429,14076
1587014421359475,14076
1587014421360566,14076
1587014421361625,14076
1587014422717160,412
1587014421343447,4
1587014436428339,61
1587014436449542,37
1587014436450870,43912
1587014436452145,43912
1587014436454815,43912
1587014436467924,43912
1587014436474711,43912
1587014436522061,43912
1587014436538090,43912
1587014436541191,43912
1587014436559727,43912
1587014436845355,43912
1587014436849817,43912
1587014436851089,43912
1587014436852712,43912
1587014437365938,24469
1587014437368239,24469
1587014437370079,24469
1587014437371696,24469
1587014437374569,24469
1587014437392717,24469
1587014437395897,24469
1587014437407884,24469
1587014437411403,24469
1587014437423833,24469
1587014437441968,24469
1587014437445065,24469
1587014437447703,24469
1587014437956042,23606
1587014437957330,23606
1587014437958725,23606
1587014437964623,23606
1587014437965845,23606
1587014437966940,23606
1587014437969916,23606
1587014437982146,23606
1587014437983247,23606
1587014437985211,23606
1587014437991423,23606
1587014438001972,23606
1587014438003990,23606
1587014438512957,22831
1587014438514619,22831
1587014438516980,22831
1587014438518158,22831
1587014438519364,22831
1587014438534182,22831
1587014438548514,22831
1587014438563645,22831
1587014438567755,22831
1587014438569631,22831
1587014438572422,22831
1587014438579908,22831
1587014438583104,22831
1587014439085176,23171
1587014439087124,23171
1587014439088982,23171
1587014439095386,23171
1587014439099115,23171
1587014439106930,23171
1587014439121869,23171
1587014439125463,23171
1587014439134207,23171
1587014439135715,23171
1587014439141613,23171
1587014439154103,23171
1587014439155838,23171
1587014439662033,24257
1587014439663176,24257
1587014439665309,24257
1587014439667994,24257
1587014439673279,24257
1587014439689043,24257
1587014439698049,24257
1587014439701592,24257
1587014439716143,24257
1587014439718538,24257
1587014439720204,24257
1587014439721580,24257
1587014439723677,24257
1587014440232655,23743
1587014440235549,23743
1587014440246823,23743
1587014440250429,23743
1587014440253262,23743
1587014440255048,23743
1587014440269453,23743
1587014440274039,23743
1587014440277873,23743
1587014440291145,23743
1587014440294539,23743
1587014440296128,23743
1587014440298766,23743
1587014440801233,24982
1587014440808658,24982
1587014440814536,24982
1587014440822640,24982
1587014440849506,24982
1587014440880782,24982
1587014440895783,24982
1587014440898996,24982
1587014440914971,24982
1587014440916411,24982
1587014440917253,24982
1587014440929052,24982
1587014440931903,24982
1587014441436665,25421
1587014441437774,25421
1587014441438681,25421
1587014441444167,25421
1587014441445377,25421
1587014441446618,25421
1587014441449635,25421
1587014441450703,25421
1587014441452179,25421
1587014441455732,25421
1587014441457291,25421
1587014441462730,25421
1587014441465096,25421
1587014441975299,25538
1587014441976736,25538
1587014441978063,25538
1587014441979514,25538
1587014441980659,25538
1587014441983672,25538
1587014441987734,25538
1587014442001245,25538
1587014442015553,25538
1587014442017698,25538
1587014442029980,25538
1587014442031690,25538
1587014442033038,25538
1587014444578427,24889
1587014444578860,24889
1587014444580291,24889
1587014444581176,24889
1587014444581903,24889
1587014444582574,24889
1587014444583619,24889
1587014444584271,24889
1587014444585461,24889
1587014444586485,24889
1587014444588103,24889
1587014444588885,24889
1587014444589853,24889
1587014445097078,32121
1587014445098328,32121
1587014445099012,32121
1587014445100032,32121
1587014445111004,32121
1587014445111905,32121
1587014445113332,32121
1587014445124074,32121
1587014445126206,32121
1587014445127375,32121
1587014445127757,32121
1587014445128674,32121
1587014445140211,32121
1587014445645158,28757
1587014445646294,28757
1587014445657269,28757
1587014445658001,28757
1587014445659096,28757
1587014445660422,28757
1587014445671088,28757
1587014445682163,28757
1587014445693169,28757
1587014445693658,28757
1587014445694336,28757
1587014445695369,28757
1587014445706011,28757
1587014446228082,28012
1587014446229373,28012
1587014446230251,28012
1587014446231372,28012
1587014446232293,28012
1587014446233150,28012
1587014446233933,28012
1587014446234668,28012
1587014446237683,28012
1587014446238720,28012
1587014446239649,28012
1587014446254623,28012
1587014446257186,28012
1587014446769853,28236
1587014446770715,28236
1587014446783613,28236
1587014446784534,28236
1587014446787391,28236
1587014446788101,28236
1587014446799066,28236
1587014446802902,28236
1587014446804917,28236
1587014446805269,28236
1587014446805594,28236
1587014446816991,28236
1587014446818733,28236
1587014447325680,29636
1587014447327174,29636
1587014447327974,29636
1587014447340032,29636
1587014447353221,29636
1587014447354405,29636
1587014447355257,29636
1587014447355941,29636
1587014447358462,29636
1587014447365065,29636
1587014447365828,29636
1587014447369129,29636
1587014447369724,29636
1587014448518152,29451
1587014448519096,29451
1587014448520333,29451
1587014448525084,29451
1587014448526149,29451
1587014448527031,29451
1587014448530247,29451
1587014448536291,29451
1587014448538298,29451
1587014448541853,29451
1587014448546830,29451
1587014448548630,29451
1587014448563111,29451
1587014449073284,30866
1587014449074281,30866
1587014449075758,30866
1587014449078045,30866
1587014449079371,30866
1587014449080276,30866
1587014449081325,30866
1587014449082769,30866
1587014449083562,30866
1587014449087090,30866
1587014449098515,30866
1587014449103150,30866
1587014449105064,30866
1587014449609070,32485
1587014449614245,32485
1587014449615807,32485
1587014449622279,32485
1587014449625476,32485
1587014449626886,32485
1587014449628156,32485
1587014449628963,32485
1587014449633527,32485
1587014449635399,32485
1587014449636200,32485
1587014449637232,32485
1587014449637903,32485
1587014450145975,32303
1587014450146965,32303
1587014450147814,32303
1587014450150412,32303
1587014450151349,32303
1587014450152254,32303
1587014450153717,32303
1587014450156252,32303
1587014450157227,32303
1587014450158439,32303
1587014450158925,32303
1587014450160338,32303
1587014450171798,32303
1587014450680989,32244
1587014450691699,32244
1587014450693357,32244
1587014450695667,32244
1587014450696670,32244
1587014450697417,32244
1587014450698556,32244
1587014450699366,32244
1587014450703137,32244
1587014450704003,32244
1587014450704851,32244
1587014450705837,32244
1587014450706886,32244
1587014451646200,31859
1587014451647258,31859
1587014451648353,31859
1587014451649267,31859
1587014451650010,31859
1587014451659784,31859
1587014451666962,31859
1587014451678504,31859
1587014451679968,31859
1587014451691719,31859
1587014451692731,31859
1587014451693710,31859
1587014451694628,31859
1587014452197026,33538
1587014452207986,33538
1587014452209235,33538
1587014452210271,33538
1587014452211149,33538
1587014452211980,33538
1587014452212383,33538
1587014452214024,33538
1587014452214993,33538
1587014452215821,33538
1587014452216697,33538
1587014452218986,33538
1587014452220622,33538
1587014452722287,33647
1587014452733315,33647
1587014452735480,33647
1587014452737061,33647
1587014452748163,33647
1587014452749051,33647
1587014452749700,33647
1587014452750548,33647
1587014452751639,33647
1587014452752583,33647
1587014452753036,33647
1587014452754253,33647
1587014452754914,33647
1587014453258909,34280
1587014453260034,34280
1587014453270964,34280
1587014453271662,34280
1587014453272317,34280
1587014453273612,34280
1587014453274914,34280
1587014453275306,34280
1587014453275625,34280
1587014453276571,34280
1587014453277327,34280
1587014453290074,34280
1587014453290727,34280
1587014453846455,33794
1587014453847244,33794
1587014453848620,33794
1587014453849666,33794
1587014453850071,33794
1587014453851487,33794
1587014453852314,33794
1587014453853146,33794
1587014453854354,33794
1587014453855730,33794
1587014453857153,33794
1587014453859880,33794
1587014453885316,33794
1587014454386871,34618
1587014454387846,34618
1587014454388924,34618
1587014454389718,34618
1587014454390949,34618
1587014454391315,34618
1587014454391847,34618
1587014454393051,34618
1587014454393633,34618
1587014454395807,34618
1587014454404169,34618
1587014454405801,34618
1587014454406570,34618
1587014454762566,61
1587014454908080,35104
1587014454909792,35104
1587014454910708,35104
1587014454921975,35104
1587014454922641,35104
1587014454933989,35104
1587014454934945,35104
1587014454936327,35104
1587014454937546,35104
1587014454938936,35104
1587014454940010,35104
1587014454941290,35104
1587014454942540,35104
1587014455462422,35711
1587014455463271,35711
1587014455464229,35711
1587014455465873,35711
1587014455466885,35711
1587014455478459,35711
1587014455479084,35711
1587014455480048,35711
1587014455481538,35711
1587014455489852,35711
1587014455490977,35711
1587014455491518,35711
1587014455496059,35711
1587014456018762,35003
1587014456019587,35003
1587014456021043,35003
1587014456022252,35003
1587014456023122,35003
1587014456023680,35003
1587014456024240,35003
1587014456025541,35003
1587014456026723,35003
1587014456028408,35003
1587014456081521,35003
1587014456084269,35003
1587014456085141,35003
1587014456601987,36086
1587014456603255,36086
1587014456603940,36086
1587014456605561,36086
1587014456607640,36086
1587014456612489,36086
1587014456613619,36086
1587014456614829,36086
1587014456615652,36086
1587014456617778,36086
1587014456629088,36086
1587014456630116,36086
1587014456631507,36086
1587014457133211,36703
1587014457134585,36703
1587014457135452,36703
1587014457136239,36703
1587014457137230,36703
1587014457152385,36703
1587014457153641,36703
1587014457154220,36703
1587014457155530,36703
1587014457157386,36703
1587014457158028,36703
1587014457158805,36703
1587014457159885,36703
1587014457668972,36644
1587014457669605,36644
1587014457670820,36644
1587014457672042,36644
1587014457672677,36644
1587014457673814,36644
1587014457675158,36644
1587014457687044,36644
1587014457687720,36644
1587014457698972,36644
1587014457699632,36644
1587014457700066,36644
1587014457701124,36644
1587014458205900,36571
1587014458208350,36571
1587014458210662,36571
1587014458215138,36571
1587014458216366,36571
1587014458227006,36571
1587014458237954,36571
1587014458238677,36571
1587014458239074,36571
1587014458239859,36571
1587014458240220,36571
1587014458240529,36571
1587014458241712,36571
1587014458898985,37844
1587014458899899,37844
1587014458900715,37844
1587014458901616,37844
1587014458903254,37844
1587014458904144,37844
1587014458907687,37844
1587014458908603,37844
1587014458909384,37844
1587014458910484,37844
1587014458922098,37844
1587014458925303,37844
1587014458939778,37844
1587014459443681,38510
1587014459444947,38510
1587014459448780,38510
1587014459450296,38510
1587014459451228,38510
1587014459452370,38510
1587014459454361,38510
1587014459460485,38510
1587014459471651,38510
1587014459477897,38510
1587014459479321,38510
1587014459480775,38510
1587014459482850,38510
1587014459992616,37984
1587014459993494,37984
1587014459994411,37984
1587014459995689,37984
1587014459998797,37984
1587014460000182,37984
1587014460001409,37984
1587014460002215,37984
1587014460007079,37984
1587014460020558,37984
1587014460038426,37984
1587014460048419,37984
1587014460053273,37984
1587014460568011,38180
1587014460570219,38180
1587014460572543,38180
1587014460574465,38180
1587014460575178,38180
1587014460576819,38180
1587014460582661,38180
1587014460584980,38180
1587014460585968,38180
1587014460592717,38180
1587014460606271,38180
1587014460608357,38180
1587014460609428,38180
1587014461119946,38934
1587014461122592,38934
1587014461125794,38934
1587014461134275,38934
1587014461135879,38934
1587014461137227,38934
1587014461138215,38934
1587014461139067,38934
1587014461141217,38934
1587014461142903,38934
1587014461144271,38934
1587014461145102,38934
1587014461145824,38934
1587014461655800,39796
1587014461656422,39796
1587014461657279,39796
1587014461659565,39796
1587014461660372,39796
1587014461661215,39796
1587014461661496,39796
1587014461661785,39796
1587014461663109,39796
1587014461663895,39796
1587014461667123,39796
1587014461669588,39796
1587014461670287,39796
1587014462184186,39153
1587014462185707,39153
1587014462189020,39153
1587014462190024,39153
1587014462196139,39153
1587014462196595,39153
1587014462197386,39153
1587014462198606,39153
1587014462200168,39153
1587014462201985,39153
1587014462212991,39153
1587014462213871,39153
1587014462214488,39153
1587014462722446,39373
1587014462724187,39373
1587014462736950,39373
1587014462737578,39373
1587014462738659,39373
1587014462739233,39373
1587014462740583,39373
1587014462740932,39373
1587014462741641,39373
1587014462743633,39373
1587014462744399,39373
1587014462755195,39373
1587014462756606,39373
1587014463259335,41022
1587014463259972,41022
1587014463260817,41022
1587014463261572,41022
1587014463269633,41022
1587014463270140,41022
1587014463271405,41022
1587014463272031,41022
1587014463274145,41022
1587014463275130,41022
1587014463275504,41022
1587014463286263,41022
1587014463297120,41022
1587014463799683,40516
1587014463800255,40516
1587014463801211,40516
1587014463801736,40516
1587014463803095,40516
1587014463805315,40516
1587014463816099,40516
1587014463816873,40516
1587014463817224,40516
1587014463818411,40516
1587014463819912,40516
1587014463820495,40516
1587014463821498,40516
1587014464325558,40589
1587014464326123,40589
1587014464327121,40589
1587014464337990,40589
1587014464339923,40589
1587014464344532,40589
1587014464345330,40589
1587014464346333,40589
1587014464346912,40589
1587014464347256,40589
1587014464347641,40589
1587014464348362,40589
1587014464361963,40589
1587014464867852,41161
1587014464875064,41161
1587014464875692,41161
1587014464876813,41161
1587014464877589,41161
1587014464889198,41161
1587014464890887,41161
1587014464891375,41161
1587014464891984,41161
1587014464906172,41161
1587014464906926,41161
1587014464907916,41161
1587014464908592,41161
1587014466420330,41401
1587014466421863,41401
1587014466422903,41401
1587014466423533,41401
1587014466424838,41401
1587014466438030,41401
1587014466438671,41401
1587014466439873,41401
1587014466440469,41401
1587014466443170,41401
1587014466443790,41401
1587014466444779,41401
1587014466456118,41401
1587014466958129,46818
1587014466958946,46818
1587014466960275,46818
1587014466962073,46818
1587014466962785,46818
1587014466964027,46818
1587014466965291,46818
1587014466966156,46818
1587014466966807,46818
1587014466980087,46818
1587014466981225,46818
1587014466992132,46818
1587014466992682,46818
1587014467505254,44181
1587014467506350,44181
1587014467507569,44181
1587014467508186,44181
1587014467509544,44181
1587014467510490,44181
1587014467510816,44181
1587014467511581,44181
1587014467513771,44181
1587014467514311,44181
1587014467515418,44181
1587014467525942,44181
1587014467526498,44181
1587014468128987,45260
1587014468130340,45260
1587014468141169,45260
1587014468142069,45260
1587014468144497,45260
1587014468144975,45260
1587014468147205,45260
1587014468156483,45260
1587014468157440,45260
1587014468158278,45260
1587014468160207,45260
1587014468161054,45260
1587014468161866,45260
1587014468663501,44519
1587014468665329,44519
1587014468676136,44519
1587014468676727,44519
1587014468677841,44519
1587014468678579,44519
1587014468679613,44519
1587014468680882,44519
1587014468691911,44519
1587014468702932,44519
1587014468704203,44519
1587014468704484,44519
1587014468712133,44519
1587014469213802,45342
1587014469215667,45342
1587014469226991,45342
1587014469228345,45342
1587014469228903,45342
1587014469230200,45342
1587014469230505,45342
1587014469231045,45342
1587014469232398,45342
1587014469234405,45342
1587014469235106,45342
1587014469235670,45342
1587014469236265,45342
1587014469739101,44802
1587014469740201,44802
1587014469742670,44802
1587014469744353,44802
1587014469745557,44802
1587014469746321,44802
1587014469746851,44802
1587014469747384,44802
1587014469748342,44802
1587014469759514,44802
1587014469771105,44802
1587014469773934,44802
1587014469776390,44802
1587014470323489,45796
1587014470324378,45796
1587014470324787,45796
1587014470325813,45796
1587014470326495,45796
1587014470327740,45796
1587014470328948,45796
1587014470342104,45796
1587014470343246,45796
1587014470344255,45796
1587014470345726,45796
1587014470349608,45796
1587014470350881,45796
1587014470862281,45828
1587014470863419,45828
1587014470864323,45828
1587014470865250,45828
1587014470866231,45828
1587014470866974,45828
1587014470867946,45828
1587014470868688,45828
1587014470881069,45828
1587014470881704,45828
1587014470882305,45828
1587014470883460,45828
1587014470884190,45828
1587014471386954,46644
1587014471388286,46644
1587014471389603,46644
1587014471390540,46644
1587014471391922,46644
1587014471402956,46644
1587014471404496,46644
1587014471419003,46644
1587014471419885,46644
1587014471421224,46644
1587014471422478,46644
1587014471437831,46644
1587014471438835,46644
1587014471947726,47388
1587014471948232,47388
1587014471948522,47388
1587014471951207,47388
1587014471951632,47388
1587014471952690,47388
1587014471953272,47388
1587014471954449,47388
1587014471956224,47388
1587014471956901,47388
1587014471957881,47388
1587014471959070,47388
1587014471970736,47388
1587014472491993,47297
1587014472493503,47297
1587014472494130,47297
1587014472494836,47297
1587014472496170,47297
1587014472497396,47297
1587014472508733,47297
1587014472509577,47297
1587014472511142,47297
1587014472521930,47297
1587014472523154,47297
1587014472524500,47297
1587014472531399,47297
1587014473038579,48560
1587014473040889,48560
1587014473050769,48560
1587014473052613,48560
1587014473054057,48560
1587014473055550,48560
1587014473066440,48560
1587014473067446,48560
1587014473068367,48560
1587014474076232,48560
1587014474077362,48560
1587014474078198,48560
1587014474078979,48560
1587014474583904,53318
1587014474585018,53318
1587014474597825,53318
1587014474607594,53318
1587014474619692,53318
1587014474621043,53318
1587014474622324,53318
1587014474623416,53318
1587014474624837,53318
1587014474638100,53318
1587014474639924,53318
1587014474640955,53318
1587014474643919,53318
1587014475158929,51334
1587014475160312,51334
1587014475161579,51334
1587014475162556,51334
1587014475163575,51334
1587014475165840,51334
1587014475168270,51334
1587014475169692,51334
1587014475170522,51334
1587014475171253,51334
1587014475172095,51334
1587014475173840,51334
1587014475175522,51334
1587014475683810,51342
1587014475685726,51342
1587014475686466,51342
1587014475698521,51342
1587014475699531,51342
1587014475700291,51342
1587014475703773,51342
1587014475705838,51342
1587014475707867,51342
1587014475708952,51342
1587014475709907,51342
1587014475721514,51342
1587014475722460,51342
1587014476224285,51853
1587014476225656,51853
1587014476226404,51853
1587014476227470,51853
1587014476228601,51853
1587014476232473,51853
1587014476233179,51853
1587014476233989,51853
1587014476234941,51853
1587014476235722,51853
1587014476236088,51853
1587014476237038,51853
1587014476251173,51853
1587014476762848,52323
1587014476763757,52323
1587014476765811,52323
1587014476767321,52323
1587014476768493,52323
1587014476769202,52323
1587014476770644,52323
1587014476784904,52323
1587014476788869,52323
1587014476801115,52323
1587014476802193,52323
1587014476803216,52323
1587014476814062,52323
1587014477278702,414
1587014477324207,51967
1587014477336468,51967
1587014477338265,51967
1587014477339073,51967
1587014477340225,51967
1587014477341037,51967
1587014477344485,51967
1587014477346220,51967
1587014477346757,51967
1587014477348381,51967
1587014477349135,51967
1587014477350020,51967
1587014477350854,51967
1587014477853998,53132
1587014477855247,53132
1587014477856411,53132
1587014477857513,53132
1587014477857905,53132
1587014477858654,53132
1587014477859754,53132
1587014477860381,53132
1587014477860925,53132
1587014477869332,53132
1587014477874216,53132
1587014477874953,53132
1587014477875538,53132
1587014478390002,55425
1587014478391485,55425
1587014478392151,55425
1587014478395435,55425
1587014478395861,55425
1587014478406956,55425
1587014478408639,55425
1587014478409758,55425
1587014478410408,55425
1587014478411050,55425
1587014478412443,55425
1587014478413650,55425
1587014478425556,55425
1587014478927236,54821
1587014478928482,54821
1587014478938967,54821
1587014478939794,54821
1587014478940173,54821
1587014478941250,54821
1587014478942426,54821
1587014478943628,54821
1587014478946133,54821
1587014478957086,54821
1587014478957819,54821
1587014478958963,54821
1587014478960456,54821
1587014479473010,54974
1587014479474419,54974
1587014479475328,54974
1587014479476314,54974
1587014479477597,54974
1587014479478787,54974
1587014479480114,54974
1587014479482115,54974
1587014479482445,54974
1587014479493244,54974
1587014479493686,54974
1587014479495843,54974
1587014479506975,54974
1587014480014320,55373
1587014480015499,55373
1587014480026670,55373
1587014480028268,55373
1587014480029346,55373
1587014480030898,55373
1587014480042469,55373
1587014480054113,55373
1587014480055667,55373
1587014480058835,55373
1587014480070037,55373
1587014480080978,55373
1587014480084366,55373
1587014480621131,55492
1587014480631947,55492
1587014480645017,55492
1587014480657041,55492
1587014480661869,55492
1587014480663786,55492
1587014480674964,55492
1587014480675403,55492
1587014480677166,55492
1587014480677666,55492
1587014480678916,55492
1587014480680210,55492
1587014480691092,55492
1587014481202904,56616
1587014481204147,56616
1587014481214973,56616
1587014481216640,56616
1587014481218280,56616
1587014481218623,56616
1587014481219013,56616
1587014481220128,56616
1587014481225679,56616
1587014481228108,56616
1587014481229354,56616
1587014481230530,56616
1587014481236243,56616
1587014481741729,57030
1587014481742139,57030
1587014481742689,57030
1587014481743056,57030
1587014481754041,57030
1587014481754812,57030
1587014481755564,57030
1587014481756704,57030
1587014481757978,57030
1587014481760723,57030
1587014481761909,57030
1587014481764062,57030
1587014481764685,57030
1587014482268920,57377
1587014482270446,57377
1587014482271165,57377
1587014482271535,57377
1587014482275885,57377
1587014482276614,57377
1587014482277432,57377
1587014482288968,57377
1587014482291145,57377
1587014482327910,57377
1587014482342038,57377
1587014482343575,57377
1587014482344570,57377
1587014482860035,59138
1587014482871079,59138
1587014482883175,59138
1587014482883943,59138
1587014482886179,59138
1587014482886719,59138
1587014482887819,59138
1587014482888183,59138
1587014482888543,59138
1587014482891389,59138
1587014482891733,59138
1587014482893564,59138
1587014482897542,59138
1587014483414018,58567
1587014483415733,58567
1587014483428011,58567
1587014483430543,58567
1587014483431968,58567
1587014483433534,58567
1587014483436176,58567
1587014483436840,58567
1587014483438263,58567
1587014483439568,58567
1587014483441128,58567
1587014483441500,58567
1587014483441909,58567
1587014483951861,58502
1587014483954960,58502
1587014483956836,58502
1587014483959813,58502
1587014483960847,58502
1587014483962288,58502
1587014483963149,58502
1587014483964624,58502
1587014483965505,58502
1587014483967148,58502
1587014483968018,58502
1587014483968862,58502
1587014483969525,58502
1587014484482506,58923
1587014484487635,58923
1587014484489640,58923
1587014484492538,58923
1587014484493272,58923
1587014484494115,58923
1587014484495258,58923
1587014484496133,58923
1587014484497791,58923
1587014484498098,58923
1587014484499887,58923
1587014484502364,58923
1587014484513199,58923
1587014485029001,58564
1587014485031096,58564
1587014485042078,58564
1587014485045203,58564
1587014485057436,58564
1587014485058360,58564
1587014485061649,58564
1587014485062200,58564
1587014485065857,58564
1587014485066639,58564
1587014485067798,58564
1587014485068718,58564
1587014485070854,58564
1587014485580791,60121
1587014485581847,60121
1587014485583105,60121
1587014485583843,60121
1587014485595809,60121
1587014485598455,60121
1587014485599641,60121
1587014485600779,60121
1587014485601243,60121
1587014485605215,60121
1587014485606819,60121
1587014485608135,60121
1587014485618998,60121
1587014486125702,60440
1587014486127099,60440
1587014486138962,60440
1587014486151342,60440
1587014486153066,60440
1587014486153853,60440
1587014486156042,60440
1587014486156396,60440
1587014486157959,60440
1587014486171424,60440
1587014486183858,60440
1587014486184913,60440
1587014486185793,60440
1587014486699907,61113
1587014486701066,61113
1587014486702095,61113
1587014486703130,61113
1587014486704040,61113
1587014486706064,61113
1587014486707213,61113
1587014486707954,61113
1587014486708824,61113
1587014486709978,61113
1587014486710868,61113
1587014486711260,61113
1587014486722589,61113
1587014487237222,60564
1587014487238205,60564
1587014487239140,60564
1587014487240131,60564
1587014487241703,60564
1587014487242913,60564
1587014487244014,60564
1587014487244549,60564
1587014487248483,60564
1587014487251548,60564
1587014487263580,60564
1587014487265024,60564
1587014487266505,60564
1587014487777974,60916
1587014487779375,60916
1587014487781057,60916
1587014487781885,60916
1587014487783071,60916
1587014487784372,60916
1587014487795144,60916
1587014487796725,60916
1587014487798010,60916
1587014487809232,60916
1587014487820005,60916
1587014487820392,60916
1587014487821877,60916
1587014488327588,61421
1587014488328942,61421
1587014491342000,61421
1587014491353042,61421
1587014491353957,61421
1587014491355248,61421
1587014491365991,61421
1587014491376958,61421
1587014491377695,61421
1587014491378373,61421
1587014491379784,61421
1587014491380808,61421
1587014491604873,61421
1587014491681944,37
1587014492111527,68078
1587014492112784,68078
1587014492113311,68078
1587014492113960,68078
1587014492115479,68078
1587014492126094,68078
1587014492136979,68078
1587014492138480,68078
1587014492149773,68078
1587014492150776,68078
1587014492152723,68078
1587014492153546,68078
1587014492154559,68078
1587014492666059,64235
1587014495507377,4
1587014495682024,64235
1587014495693018,64235
1587014495695937,37
1587014495696179,64235
1587014495707039,64235
1587014495708160,64235
1587014495708781,64235
1587014495710211,64235
1587014495711619,64235
1587014495723527,64235
1587014495734302,64235
1587014495734800,64235
1587014495735416,64235
1587014496255217,67979
1587014496256028,67979
1587014496267134,67979
1587014496268612,67979
1587014497270931,67979
1587014497271918,67979
1587014497272895,67979
1587014497286017,67979
1587014497286437,67979
1587014497298593,67979
1587014497299841,67979
1587014497301279,67979
1587014497302136,67979
1587014497825331,67444
1587014497837101,67444
1587014497838679,67444
1587014497850068,67444
1587014498092519,67444
1587014498105405,67444
1587014498107341,67444
1587014498108951,67444
1587014498120123,67444
1587014498123188,67444
1587014498134408,67444
1587014498134922,67444
1587014498140956,67444
1587014498649988,67118
1587014498661174,67118
1587014498672006,67118
1587014498672735,67118
1587014498673402,67118
1587014498675977,67118
1587014498677862,67118
1587014498678644,67118
1587014500650670,37
1587014505699042,67118
1587014505709996,67118
1587014505710489,67118
1587014505721221,67118
1587014505721688,67118
1587014505805927,37
1587014506234602,81355
1587014506246043,81355
1587014506246546,81355
1587014506257205,81355
1587014506268482,81355
1587014506269206,81355
1587014506280152,81355
1587014506291018,81355
1587014506303480,81355
1587014506315048,81355
1587014506315944,81355
1587014506317719,81355
1587014506318399,81355
1587014506820792,71807
1587014506821452,71807
1587014506822154,71807
1587014506822584,71807
1587014506824724,71807
1587014506825866,71807
1587014506828961,71807
1587014506840101,71807
1587014506851014,71807
1587014506861979,71807
1587014506862610,71807
1587014506865031,71807
1587014506876473,71807
1587014507385954,71840
1587014507386586,71840
1587014507387312,71840
1587014507387927,71840
1587014507389591,71840
1587014507390739,71840
1587014507392996,71840
1587014507416102,71840
1587014507427295,71840
1587014507428182,71840
1587014507430380,71840
1587014507441119,71840
1587014507451972,71840
1587014507966639,72709
1587014507978483,72709
1587014507978901,72709
1587014507979857,72709
1587014507981614,72709
1587014508015071,72709
1587014508037584,72709
1587014508038311,72709
1587014508039960,72709
1587014508040878,72709
1587014508053666,72709
1587014508054771,72709
1587014508068390,72709
1587014508581086,72849
1587014508583183,72849
1587014508594020,72849
1587014508595114,72849
1587014508595497,72849
1587014508606050,72849
1587014508617084,72849
1587014508639650,72849
1587014508641643,72849
1587014508653355,72849
1587014508664047,72849
1587014508669492,72849
1587014508673602,72849
1587014509189190,73398
1587014509200375,73398
1587014509211053,73398
1587014509211821,73398
1587014509217807,73398
1587014509229364,73398
1587014509899547,37
1587014514233526,4
1587014516783535,61
1587014524260086,73398
1587014524260606,73398
1587014524262370,73398
1587014524263000,73398
1587014524264556,73398
1587014524265169,73398
1587014524265527,73398
1587014524780911,103549
1587014524792617,103549
1587014524798215,103549
1587014524801264,103549
1587014524804025,103549
1587014524810709,103549
1587014524811276,103549
1587014524824988,103549
1587014524839936,103549
1587014524842714,103549
1587014524855860,103549
1587014524858304,103549
1587014524859131,103549
1587014525370221,84311
1587014525370955,84311
1587014525372920,84311
1587014525384254,84311
1587014525395426,84311
1587014525396580,84311
1587014525400622,84311
1587014525412288,84311
1587014525423216,84311
1587014525424314,84311
1587014525425582,84311
1587014525429630,84311
1587014525441724,84311
1587014525947021,84819
1587014525949283,84819
1587014525960265,84819
1587014525961063,84819
1587014525963096,84819
1587014525963540,84819
1587014525965623,84819
1587014525966414,84819
1587014525968105,84819
1587014525972573,84819
1587014525973180,84819
1587014525975076,84819
1587014525986055,84819
1587014526488963,85246
1587014526490851,85246
1587014526502454,85246
1587014526504628,85246
1587014526505053,85246
1587014526506787,85246
1587014526518162,85246
1587014526519268,85246
1587014526521379,85246
1587014526521772,85246
1587014526522358,85246
1587014526522977,85246
1587014526525170,85246
1587014527059013,85052
1587014527060199,85052
1587014527071222,85052
1587014527072267,85052
1587014527072937,85052
1587014527075037,85052
1587014527076905,85052
1587014527077458,85052
1587014527078693,85052
1587014527079334,85052
1587014527083870,85052
1587014527085220,85052
1587014527086963,85052
1587014527590796,87635
1587014527602596,87635
1587014527616803,87635
1587014527628527,87635
1587014527635479,87635
1587014527646814,87635
1587014527659871,87635
1587014527671431,87635
1587014527671898,87635
1587014527675571,87635
1587014527697803,87635
1587014527709554,87635
1587014527715027,87635
1587014528232783,86793
1587014529235407,86793
1587014529238466,86793
1587014529250360,86793
1587014529254947,86793
1587014529256881,86793
1587014529257695,86793
1587014529258438,86793
1587014529259192,86793
1587014529261578,86793
1587014529273026,86793
1587014529276514,86793
1587014529287307,86793
1587014529801865,88842
1587014529802714,88842
1587014529803387,88842
1587014529805538,88842
1587014529806971,88842
1587014529808008,88842
1587014529809535,88842
1587014529821691,88842
1587014529833574,88842
1587014529835797,88842
1587014529847323,88842
1587014529850116,88842
1587014529853407,88842
1587014530360605,87740
1587014530362058,87740
1587014530364836,87740
1587014530365551,87740
1587014530367857,87740
1587014530369966,87740
1587014530392033,87740
1587014530392788,87740
1587014530402457,87740
1587014530404873,87740
1587014530406584,87740
1587014530407937,87740
1587014530431797,87740
1587014531130407,88065
1587014531136812,88065
1587014531143725,88065
1587014531146952,88065
1587014531148551,88065
1587014531151288,88065
1587014531156550,88065
1587014531163520,88065
1587014531164179,88065
1587014531165596,88065
1587014531167098,88065
1587014531167790,88065
1587014531168472,88065
1587014531682789,89353
1587014531684034,89353
1587014531688054,89353
1587014531701143,89353
1587014531701725,89353
1587014531715729,89353
1587014531716426,89353
1587014531727828,89353
1587014531744049,89353
1587014531760079,89353
1587014531763417,89353
1587014531766323,89353
1587014531767695,89353
1587014532290878,89055
1587014532303468,89055
1587014532314801,89055
1587014532318169,89055
1587014532321883,89055
1587014532323545,89055
1587014533334058,89055
1587014533347874,89055
1587014533349812,89055
1587014533350801,89055
1587014533353926,89055
1587014533361948,89055
1587014533362679,89055
1587014533872184,92691
1587014533874328,92691
1587014533878947,92691
1587014533887356,92691
1587014533901294,92691
1587014533913628,92691
1587014533925957,92691
1587014533948078,92691
1587014533953808,92691
1587014533954215,92691
1587014533955957,92691
1587014533958302,92691
1587014533960400,92691
1587014534473916,90455
1587014534475059,90455
1587014534476597,90455
1587014534477651,90455
1587014534478882,90455
1587014534481977,90455
1587014534482632,90455
1587014534488545,90455
1587014534500964,90455
1587014534501501,90455
1587014534514040,90455
1587014534516208,90455
1587014534529066,90455
1587014534954555,37
1587014535040477,91463
1587014535041477,91463
1587014535043811,91463
1587014535045551,91463
1587014535046422,91463
1587014535047328,91463
1587014535050245,91463
1587014535054042,91463
1587014535067900,91463
1587014535068339,91463
1587014535070125,91463
1587014535082890,91463
1587014535083490,91463
1587014535589975,92206
1587014535591626,92206
1587014535592848,92206
1587014535595535,92206
1587014535607378,92206
1587014535610533,92206
1587014535611441,92206
1587014535613397,92206
1587014535616419,92206
1587014535620106,92206
1587014535632033,92206
1587014535643453,92206
1587014535645903,92206
1587014536159776,91737
1587014536173091,91737
1587014537182037,91737
1587014537195989,91737
1587014537198022,91737
1587014537199293,91737
1587014537199975,91737
1587014537220904,91737
1587014537222321,91737
1587014537235258,91737
1587014537247577,91737
1587014537250564,91737
1587014537266730,91737
1587014537771815,97163
1587014537772814,97163
1587014537773957,97163
1587014537792960,97163
1587014537795476,97163
1587014537796920,97163
1587014537810953,97163
1587014537823803,97163
1587014537825934,97163
1587014537838641,97163
1587014537839937,97163
1587014537841157,97163
1587014537844001,97163
1587014538355383,94071
1587014538370219,94071
1587014538371008,94071
1587014538374333,94071
1587014538376444,94071
1587014538380092,94071
1587014538381691,94071
1587014538409849,94071
1587014538411292,94071
1587014538415376,94071
1587014538419076,94071
1587014538435767,94071
1587014538437274,94071
1587014538942932,95429
1587014538944534,95429
1587014538945949,95429
1587014538958938,95429
1587014538961622,95429
1587014538969250,95429
1587014538988069,95429
1587014538989194,95429
1587014538990887,95429
1587014538992567,95429
1587014538993517,95429
1587014538997531,95429
1587014539010259,95429
1587014539514654,95492
1587014539517393,95492
1587014539520838,95492
1587014539679066,95492
1587014539680312,95492
1587014539684766,95492
1587014539685570,95492
1587014539687666,95492
1587014539688096,95492
1587014539702021,95492
1587014539714947,95492
1587014539728842,95492
1587014539729723,95492
1587014540243173,97138
1587014540244426,97138
1587014540247248,97138
1587014540248933,97138
1587014540251431,97138
1587014540266725,97138
1587014540268420,97138
1587014540280904,97138
1587014540281663,97138
1587014540284484,97138
1587014540287151,97138
1587014540299379,97138
1587014540301921,97138
1587014540826843,96412
1587014540838411,96412
1587014540840537,96412
1587014540843458,96412
1587014540844817,96412
1587014540859217,96412
1587014540859978,96412
1587014540863322,96412
1587014540863701,96412
1587014540865758,96412
1587014540867127,96412
1587014540871042,96412
1587014540871533,96412
1587014541377162,97263
1587014541377531,97263
1587014541384187,97263
1587014541396046,97263
1587014541409812,97263
1587014541412905,97263
1587014541413614,97263
1587014541415199,97263
1587014541425293,97263
1587014541427923,97263
1587014541428767,97263
1587014541429897,97263
1587014541430994,97263
1587014541935684,97474
1587014541940083,97474
1587014541953807,97474
1587014541954685,97474
1587014541968690,97474
1587014541969238,97474
1587014541982518,97474
1587014541995115,97474
1587014541998200,97474
1587014542002366,97474
1587014542006712,97474
1587014542008865,97474
1587014542009626,97474
1587014542515740,97877
1587014542516958,97877
1587014542520825,97877
1587014542522187,97877
1587014542525013,97877
1587014542539207,97877
1587014542543348,97877
1587014542545439,97877
1587014542546656,97877
1587014542551036,97877
1587014542564364,97877
1587014542564958,97877
1587014542577717,97877
1587014542919303,62
1587014543084286,99389
1587014543086370,99389
1587014543090244,99389
1587014543092032,99389
1587014543097696,99389
1587014543098516,99389
1587014544100592,99389
1587014544113389,99389
1587014544116170,99389
1587014544118402,99389
1587014544133692,99389
1587014544138569,99389
1587014544140422,99389
1587014544644294,101017
1587014544645501,101017
1587014544652269,101017
1587014544653349,101017
1587014544655951,101017
1587014544658237,101017
1587014544670981,101017
1587014544679099,101017
1587014544682078,101017
1587014544685597,101017
1587014544686028,101017
1587014544699218,101017
1587014544727875,101017
1587014545244200,101440
1587014545245845,101440
1587014545249126,101440
1587014545253817,101440
1587014545266594,101440
1587014545268065,101440
1587014545270438,101440
1587014545272828,101440
1587014545273233,101440
1587014545276267,101440
1587014545277897,101440
1587014545278290,101440
1587014545280889,101440
1587014545789373,101941
1587014545793442,101941
1587014545796053,101941
1587014545798219,101941
1587014545799237,101941
1587014545800429,101941
1587014545805164,101941
1587014545818061,101941
1587014545820843,101941
1587014545823519,101941
1587014545824806,101941
1587014545838925,101941
1587014545840169,101941
1587014546420850,101086
1587014546425534,101086
1587014546428043,101086
1587014546432178,101086
1587014546444839,101086
1587014546458093,101086
1587014546458553,101086
1587014546461947,101086
1587014546474134,101086
1587014546475215,101086
1587014546478734,101086
1587014546480661,101086
1587014546483616,101086
1587014546990682,101348
1587014546992110,101348
1587014546994166,101348
1587014547006866,101348
1587014547008155,101348
1587014547008557,101348
1587014547011621,101348
1587014547014264,101348
1587014547027067,101348
1587014547029098,101348
1587014547039824,101348
1587014547044324,101348
1587014547047094,101348
1587014547688471,102655
1587014547693974,102655
1587014547694360,102655
1587014547706802,102655
1587014547718441,102655
1587014547735817,102655
1587014547736978,102655
1587014547737867,102655
1587014547739898,102655
1587014547747116,102655
1587014548772477,102655
1587014548786848,102655
1587014548797812,102655
1587014549314840,106323
1587014549323241,106323
1587014549325708,106323
1587014549338642,106323
1587014549339121,106323
1587014549341110,106323
1587014549354819,106323
1587014549356211,106323
1587014549371781,106323
1587014549375648,106323
1587014549398835,106323
1587014549399292,106323
1587014549403250,106323
1587014549908990,103634
1587014549922048,103634
1587014549922629,103634
1587014549925130,103634
1587014549935360,103634
1587014549942538,103634
1587014549945450,103634
1587014549949373,103634
1587014549962842,103634
1587014549966925,103634
1587014549979050,103634
1587014549994055,103634
1587014549994464,103634
1587014550496533,105256
1587014550497040,105256
1587014550510187,105256
1587014550522741,105256
1587014550526961,105256
1587014550530488,105256
1587014550532439,105256
1587014550546377,105256
1587014550559827,105256
1587014550560914,105256
1587014550579573,105256
1587014550594017,105256
1587014550597783,105256
1587014551110345,104236
1587014551122850,104236
1587014551137005,104236
1587014551142199,104236
1587014551153334,104236
1587014551153679,104236
1587014551158181,104236
1587014551173436,104236
1587014551178548,104236
1587014551190764,104236
1587014551202248,104236
1587014551204808,104236
1587014551206847,104236
1587014551716578,105514
1587014551719463,105514
1587014551723188,105514
1587014551725251,105514
1587014551725786,105514
1587014551740444,105514
1587014551752897,105514
1587014551757203,105514
1587014551770980,105514
1587014551778303,105514
1587014551790945,105514
1587014551793225,105514
1587014551796207,105514
1587014552303099,105349
1587014552305574,105349
1587014552306301,105349
1587014552317258,105349
1587014552319162,105349
1587014552332075,105349
1587014552332478,105349
1587014552336461,105349
1587014552349816,105349
1587014552362044,105349
1587014552365537,105349
1587014552368256,105349
1587014552370136,105349
1587014552876214,105810
1587014552878740,105810
1587014552892930,105810
1587014552905400,105810
1587014552908786,105810
1587014552912960,105810
1587014552915438,105810
1587014552930573,105810
1587014552934216,105810
1587014552947596,105810
1587014552962490,105810
1587014552969071,105810
1587014552972763,105810
1587014553474876,106141
1587014553487618,106141
1587014553492166,106141
1587014553499902,106141
1587014553513839,106141
1587014553515619,106141
1587014553521111,106141
1587014553523213,106141
1587014553535829,106141
1587014553538051,106141
1587014553549441,106141
1587014553551943,106141
1587014553564805,106141
1587014554081784,106188
1587014554084095,106188
1587014554086285,106188
1587014554102856,106188
1587014554113860,106188
1587014554128833,106188
1587014554129600,106188
1587014554131917,106188
1587014554136089,106188
1587014554139333,106188
1587014554162824,106188
1587014554167829,106188
1587014554170603,106188
1587014554687842,107169
1587014554690097,107169
1587014554693940,107169
1587014554708837,107169
1587014554723771,107169
1587014554736512,107169
1587014554741860,107169
1587014554757863,107169
1587014554772804,107169
1587014554775024,107169
1587014554775776,107169
1587014554776157,107169
1587014554778251,107169
1587014555283706,109149
1587014555287166,109149
1587014555290951,109149
1587014555303830,109149
1587014555326049,109149
1587014555328394,109149
1587014555336880,109149
1587014555341126,109149
1587014555344506,109149
1587014555345146,109149
1587014555357831,109149
1587014555369381,109149
1587014555371566,109149
1587014555894831,107935
1587014555908855,107935
1587014555927856,107935
1587014555933299,107935
1587014555945828,107935
1587014555958847,107935
1587014555961163,107935
1587014555966383,107935
1587014555966835,107935
1587014555969458,107935
1587014555983833,107935
1587014555984924,107935
1587014556078095,107935
1587014556587934,108361
1587014556588520,108361
1587014556606644,108361
1587014556607098,108361
1587014556619864,108361
1587014556622590,108361
1587014556628573,108361
1587014556635303,108361
1587014556637071,108361
1587014556641086,108361
1587014556654196,108361
1587014556654591,108361
1587014556655387,108361
1587014557163548,108840
1587014557166095,108840
1587014557178797,108840
1587014557180988,108840
1587014557194389,108840
1587014557198218,108840
1587014557201135,108840
1587014557201500,108840
1587014557215740,108840
1587014557217508,108840
1587014557218301,108840
1587014557220871,108840
1587014557225401,108840
1587014557738866,110978
1587014557741449,110978
1587014557745303,110978
1587014557745762,110978
1587014557746915,110978
1587014557748487,110978
1587014557750562,110978
1587014557765037,110978
1587014557770905,110978
1587014557771756,110978
1587014557785105,110978
1587014557786207,110978
1587014557786769,110978
1587014558293585,110467
1587014558294784,110467
1587014558298125,110467
1587014558300517,110467
1587014558307508,110467
1587014558320194,110467
1587014558320656,110467
1587014558325113,110467
1587014558338598,110467
1587014558339412,110467
1587014558362880,110467
1587014558366968,110467
1587014558369415,110467
1587014558887222,110563
1587014558888012,110563
1587014558888800,110563
1587014558891783,110563
1587014558892885,110563
1587014558896731,110563
1587014558899075,110563
1587014558903195,110563
1587014558909047,110563
1587014558971847,110563
1587014558972836,110563
1587014558984655,110563
1587014558998837,110563
1587014559513435,110788
1587014559517199,110788
1587014559517923,110788
1587014559521721,110788
1587014559534844,110788
1587014559540362,110788
1587014559554379,110788
1587014559569368,110788
1587014559573565,110788
1587014559574772,110788
1587014559591657,110788
1587014559595199,110788
1587014559597111,110788
1587014560164973,112031
1587014560326658,63
1587014561182281,112031
1587014561182937,112031
1587014561185640,112031
1587014561199085,112031
1587014561211479,112031
1587014561213979,112031
1587014561217224,112031
1587014561221327,112031
1587014561233857,112031
1587014561249128,112031
1587014561252001,112031
1587014561255113,112031
1587014561761146,114704
1587014561775869,114704
1587014561788145,114704
1587014561792560,114704
1587014561795094,114704
1587014561797606,114704
1587014561798694,114704
1587014561801424,114704
1587014561808358,114704
1587014561809374,114704
1587014561821410,114704
1587014561824332,114704
1587014561825104,114704
1587014562332650,112977
1587014562333335,112977
1587014562344799,112977
1587014562346193,112977
1587014562347554,112977
1587014562350001,112977
1587014562352482,112977
1587014562355685,112977
1587014562357560,112977
1587014562359356,112977
1587014562362938,112977
1587014562367334,112977
1587014562370926,112977
1587014562881087,114082
1587014562883723,114082
1587014562886881,114082
1587014565899103,114082
1587014565912214,114082
1587014565925478,114082
1587014565928004,114082
1587014565934263,114082
1587014565936602,114082
1587014565941597,114082
1587014565955404,114082
1587014565967274,114082
1587014565980857,114082
1587014566488377,120612
1587014566491665,120612
1587014566495144,120612
1587014566520358,120612
1587014566524046,120612
1587014566530110,120612
1587014566541357,120612
1587014566545135,120612
1587014566547860,120612
1587014566550931,120612
1587014566551589,120612
1587014566554439,120612
1587014566558280,120612
1587014567062433,116667
1587014567064361,116667
1587014567070663,116667
1587014567078895,116667
1587014567081073,116667
1587014567087090,116667
1587014567087884,116667
1587014567092686,116667
1587014567114879,116667
1587014567120429,116667
1587014567120914,116667
1587014567124214,116667
1587014567125014,116667
1587014567637124,117088
1587014567640420,117088
1587014567641660,117088
1587014567646674,117088
1587014567650119,117088
1587014567651261,117088
1587014567652062,117088
1587014567655105,117088
1587014567674875,117088
1587014567676878,117088
1587014567679882,117088
1587014567691231,117088
1587014567694763,117088
1587014568199718,116799
1587014568200209,116799
1587014568214372,116799
1587014568226503,116799
1587014568230279,116799
1587014568231558,116799
1587014568239042,116799
1587014568241147,116799
1587014568243269,116799
1587014568246660,116799
1587014568250036,116799
1587014568250929,116799
1587014568263710,116799
1587014568769186,117491
1587014568771228,117491
1587014568774070,117491
1587014568778735,117491
1587014568783796,117491
1587014568787575,117491
1587014568792120,117491
1587014568804876,117491
1587014568806705,117491
1587014568809732,117491
1587014568824332,117491
1587014568837024,117491
1587014568843606,117491
1587014569347079,117724
1587014570360114,117724
1587014570361330,117724
1587014570368523,117724
1587014570371645,117724
1587014570372051,117724
1587014570375422,117724
1587014570376478,117724
1587014570377511,117724
1587014570390117,117724
1587014570402335,117724
1587014570405313,117724
1587014570409773,117724
1587014570920394,121480
1587014570920950,121480
1587014570930545,121480
1587014570931532,121480
1587014570936627,121480
1587014570948065,121480
1587014570949258,121480
1587014570964130,121480
1587014570965027,121480
1587014570978140,121480
1587014570987496,121480
1587014570988244,121480
1587014570991373,121480
1587014571505904,119260
1587014571506550,119260
1587014571514408,119260
1587014571524955,119260
1587014571536375,119260
1587014571550405,119260
1587014571554104,119260
1587014571556826,119260
1587014571559318,119260
1587014571571872,119260
1587014571573717,119260
1587014571575426,119260
1587014571576583,119260
1587014572083771,119834
1587014572096258,119834
1587014572099783,119834
1587014572102904,119834
1587014572105942,119834
1587014572119891,119834
1587014572123278,119834
1587014572129070,119834
1587014572150871,119834
1587014572153434,119834
1587014572158960,119834
1587014572163180,119834
1587014572174717,119834
1587014572696562,121288
1587014572699416,121288
1587014572711885,121288
1587014572718419,121288
1587014572731827,121288
1587014572734878,121288
1587014572748173,121288
1587014572751152,121288
1587014572752258,121288
1587014572752953,121288
1587014572754238,121288
1587014572754881,121288
1587014572759950,121288
1587014573275246,120705
1587014573278552,120705
1587014573290875,120705
1587014573301920,120705
1587014573303274,120705
1587014573308612,120705
1587014573309295,120705
1587014573310183,120705
1587014573311425,120705
1587014573313891,120705
1587014573317071,120705
1587014573328179,120705
1587014573332498,120705
1587014573845129,121343
1587014573846544,121343
1587014573847333,121343
1587014573847762,121343
1587014573850189,121343
1587014573851341,121343
1587014573855950,121343
1587014573858599,121343
1587014573859439,121343
1587014573873309,121343
1587014573886869,121343
1587014573888726,121343
1587014573905110,121343
1587014574416837,121918
1587014574440095,121918
1587014574442464,121918
1587014574446234,121918
1587014574450118,121918
1587014574461316,121918
1587014574475800,121918
1587014574488879,121918
1587014574492726,121918
1587014574493899,121918
1587014574496124,121918
1587014574503764,121918
1587014574507295,121918
1587014575068156,121923
1587014575070656,121923
1587014575072965,121923
1587014575074642,121923
1587014575090922,121923
1587014575102418,121923
1587014575105392,121923
1587014575107665,121923
1587014575121015,121923
1587014575124865,121923
1587014575142825,121923
1587014575146943,121923
1587014575160930,121923
1587014575669754,123056
1587014575673197,123056
1587014575676575,123056
1587014575678568,123056
1587014575681230,123056
1587014575684116,123056
1587014575686195,123056
1587014575705704,123056
1587014575708979,123056
1587014575711324,123056
1587014575733694,123056
1587014575736194,123056
1587014575745232,123056
1587014576260897,123084
1587014576264075,123084
1587014576265086,123084
1587014576268440,123084
1587014576281889,123084
1587014576283186,123084
1587014576294881,123084
1587014576295892,123084
1587014576299628,123084
1587014576300092,123084
1587014576305566,123084
1587014576306327,123084
1587014576308932,123084
1587014576818661,123109
1587014576821644,123109
1587014576827112,123109
1587014576830603,123109
1587014576973047,123109
1587014576985345,123109
1587014576987576,123109
1587014577001848,123109
1587014577014393,123109
1587014577015566,123109
1587014577019636,123109
1587014577020256,123109
1587014577023026,123109
1587014577549852,124495
1587014577550535,124495
1587014577568782,124495
1587014577571992,124495
1587014577584587,124495
1587014577598992,124495
1587014577601897,124495
1587014577616033,124495
1587014577617380,124495
1587014577620037,124495
1587014577621026,124495
1587014577635595,124495
1587014577639232,124495
1587014578154137,124309
1587014578154670,124309
1587014578171562,124309
1587014578174014,124309
1587014578177533,124309
1587014578192372,124309
1587014578210906,124309
1587014578213304,124309
1587014578216035,124309
1587014578217122,124309
1587014578233577,124309
1587014578235377,124309
1587014578236569,124309
1587014578759305,125141
1587014578765569,125141
1587014578767165,125141
1587014578769347,125141
1587014578772456,125141
1587014578785635,125141
1587014578786562,125141
1587014578800872,125141
1587014578802357,125141
1587014578805878,125141
1587014578817612,125141
1587014578821436,125141
1587014578825237,125141
1587014579336235,125668
1587014579350007,125668
1587014579350508,125668
1587014579364248,125668
1587014579365316,125668
1587014579369768,125668
1587014579372252,125668
1587014579374404,125668
1587014579382900,125668
1587014579390001,125668
1587014579390656,125668
1587014579392035,125668
1587014579393288,125668
1587014579914879,125640
1587014579918307,125640
1587014579927959,125640
1587014580110520,125640
1587014580112974,125640
1587014580118305,125640
1587014580120857,125640
1587014580121399,125640
1587014580122461,125640
1587014580126177,125640
1587014580148273,125640
1587014580159448,125640
1587014580160057,125640
1587014580665884,126063
1587014580678194,126063
1587014580678788,126063
1587014580694836,126063
1587014580697975,126063
1587014580699343,126063
1587014580713145,126063
1587014580718642,126063
1587014580736029,126063
1587014580757605,126063
1587014580766471,126063
1587014580792879,126063
1587014580794083,126063
1587014581321631,126621
1587014581324018,126621
1587014581327632,126621
1587014581346290,126621
1587014581349698,126621
1587014581355848,126621
1587014581367681,126621
1587014581380113,126621
1587014581383408,126621
1587014581384346,126621
1587014581387451,126621
1587014581390733,126621
1587014581404895,126621
1587014582010005,126479
1587014582019315,126479
1587014582046991,126479
1587014582051007,126479
1587014582052925,126479
1587014582054307,126479
1587014582056567,126479
1587014582060947,126479
1587014582067665,126479
1587014582068587,126479
1587014582069610,126479
1587014582070781,126479
1587014582073999,126479
1587014582584381,127645
1587014582595659,127645
1587014582597109,127645
1587014582602046,127645
1587014582610306,127645
1587014582615219,127645
1587014582640058,127645
1587014582643081,127645
1587014582645611,127645
1587014582657881,127645
1587014582659840,127645
1587014582662201,127645
1587014582662650,127645
1587014583183897,127457
1587014583205856,127457
1587014583207170,127457
1587014583207817,127457
1587014583208304,127457
1587014583210884,127457
1587014583215665,127457
1587014583219828,127457
1587014583231189,127457
1587014583234513,127457
1587014583235509,127457
1587014583251233,127457
1587014583254525,127457
1587014583762497,128974
1587014583768665,128974
1587014583772429,128974
1587014583785888,128974
1587014583798907,128974
1587014583799410,128974
1587014583802227,128974
1587014583802675,128974
1587014583818782,128974
1587014583823365,128974
1587014583828734,128974
1587014583832129,128974
1587014590872987,128974
1587014591387104,143761
1587014591401142,143761
1587014591405396,143761
1587014591406319,143761
1587014591408869,143761
1587014591413696,143761
1587014591427846,143761
1587014591429073,143761
1587014591432481,143761
1587014591444896,143761
1587014591445784,143761
1587014591457198,143761
1587014591460143,143761
1587014591965594,133820
1587014591968620,133820
1587014591975517,133820
1587014591989322,133820
1587014591991700,133820
1587014592006060,133820
1587014592019411,133820
1587014592020361,133820
1587014592023592,133820
1587014592027186,133820
1587014592028319,133820
1587014592032334,133820
1587014592046266,133820
1587014592555045,133977
1587014592558306,133977
1587014592566669,133977
1587014592579999,133977
1587014592582342,133977
1587014592586587,133977
1587014592589728,133977
1587014592591987,133977
1587014592597282,133977
1587014592609147,133977
1587014592621444,133977
1587014592625849,133977
1587014592626734,133977
1587014593196239,135836
1587014593199228,135836
1587014593207012,135836
1587014593220800,135836
1587014593232685,135836
1587014593233972,135836
1587014593238584,135836
1587014593255876,135836
1587014593260529,135836
1587014593267632,135836
1587014593283828,135836
1587014593295230,135836
1587014593301189,135836
1587014593817933,135374
1587014593832920,135374
1587014593839063,135374
1587014593852473,135374
1587014593854994,135374
1587014593858230,135374
1587014593871029,135374
1587014593891263,135374
1587014593903048,135374
1587014593907681,135374
1587014593910559,135374
1587014593932896,135374
1587014593939333,135374
1587014594453868,135615
1587014594457374,135615
1587014594471859,135615
1587014594473008,135615
1587014594475391,135615
1587014594481334,135615
1587014594482657,135615
1587014594498732,135615
1587014594513237,135615
1587014594515097,135615
1587014594519962,135615
1587014594520528,135615
1587014594531881,135615
1587014595043434,136480
1587014595047261,136480
1587014595058922,136480
1587014595062387,136480
1587014595066056,136480
1587014595070411,136480
1587014595074889,136480
1587014595096885,136480
1587014595099591,136480
1587014595107629,136480
1587014595110446,136480
1587014595111412,136480
1587014595128228,136480
1587014595632591,136127
1587014595645467,136127
1587014595652823,136127
1587014595654581,136127
1587014595704940,136127
1587014595709202,136127
1587014595713047,136127
1587014595718475,136127
1587014595740963,136127
1587014595742179,136127
1587014595757868,136127
1587014595764579,136127
1587014595767270,136127
1587014596275565,136702
1587014596287436,136702
1587014596292235,136702
1587014596305914,136702
1587014596319471,136702
1587014596320005,136702
1587014596327003,136702
1587014596327540,136702
1587014596330134,136702
1587014596332024,136702
1587014596336541,136702
1587014596349913,136702
1587014596356754,136702
1587014596879362,136466
1587014596891894,136466
1587014596892856,136466
1587014596895536,136466
1587014596902093,136466
1587014596916859,136466
1587014596919374,136466
1587014596930333,136466
1587014596936359,136466
1587014596949721,136466
1587014596953556,136466
1587014596969866,136466
1587014596981199,136466
1587014597501928,137161
1587014597514862,137161
1587014597515362,137161
1587014597520164,137161
1587014597520709,137161
1587014597523433,137161
1587014597530418,137161
1587014597555162,137161
1587014597570137,137161
1587014597582355,137161
1587014597587568,137161
1587014597588773,137161
1587014597603660,137161
1587014598117212,137213
1587014598118233,137213
1587014598127893,137213
1587014598133534,137213
1587014598145029,137213
1587014598158923,137213
1587014598171098,137213
1587014598175175,137213
1587014598192615,137213
1587014598201935,137213
1587014598214997,137213
1587014598230866,137213
1587014598231835,137213
1587014598740105,137624
1587014598754503,137624
1587014598767396,137624
1587014598769267,137624
1587014598769759,137624
1587014598770573,137624
1587014598774765,137624
1587014598788409,137624
1587014598793696,137624
1587014598794799,137624
1587014598804561,137624
1587014598806888,137624
1587014598814273,137624
1587014599318564,137830
1587014599323349,137830
1587014599337187,137830
1587014599339957,137830
1587014599344482,137830
1587014599362589,137830
1587014599376309,137830
1587014599376720,137830
1587014599380156,137830
1587014599381383,137830
1587014599385866,137830
1587014599391167,137830
1587014599393058,137830
1587014599905420,138565
1587014599908536,138565
1587014599919887,138565
1587014599921271,138565
1587014599936978,138565
1587014599945247,138565
1587014599962775,138565
1587014599964117,138565
1587014599975626,138565
1587014599988882,138565
1587014599990572,138565
1587014599996604,138565
1587014600002505,138565
1587014600518820,138616
1587014600521246,138616
1587014600521677,138616
1587014600537886,138616
1587014600549309,138616
1587014600562906,138616
1587014600569584,138616
1587014600572061,138616
1587014600581598,138616
1587014600598482,138616
1587014600602658,138616
1587014600605106,138616
1587014600611396,138616
1587014601151723,139844
1587014601156261,139844
1587014601160712,139844
1587014601167382,139844
1587014601183844,139844
1587014601187304,139844
1587014601192094,139844
1587014601204853,139844
1587014601219442,139844
1587014601220622,139844
1587014601221531,139844
1587014601222103,139844
1587014601225723,139844
1587014601750620,138984
1587014601756325,138984
1587014601759195,138984
1587014601772594,138984
1587014601784808,138984
1587014601785892,138984
1587014601787469,138984
1587014601788331,138984
1587014601793725,138984
1587014601798628,138984
1587014601801808,138984
1587014601815205,138984
1587014601821525,138984
1587014602327204,139917
1587014602344805,139917
1587014602346026,139917
1587014602351557,139917
1587014602356124,139917
1587014602359614,139917
1587014602360954,139917
1587014602368801,139917
1587014602383345,139917
1587014602391181,139917
1587014602405176,139917
1587014602408833,139917
1587014602423538,139917
1587014603059337,140320
1587014603063762,140320
1587014603067043,140320
1587014603071297,140320
1587014603075637,140320
1587014603078779,140320
1587014603079278,140320
1587014603083514,140320
1587014603097564,140320
1587014603102115,140320
1587014603104078,140320
1587014603105073,140320
1587014603106839,140320
1587014603617114,141647
1587014603631968,141647
1587014603637830,141647
1587014603652265,141647
1587014603653549,141647
1587014603656634,141647
1587014603673680,141647
1587014603675167,141647
1587014603677178,141647
1587014603681772,141647
1587014603682326,141647
1587014603700244,141647
1587014603704887,141647
1587014604216111,140877
1587014604265106,140877
1587014604268550,140877
1587014604269098,140877
1587014604272770,140877
1587014604274352,140877
1587014604276447,140877
1587014604279335,140877
1587014604282071,140877
1587014604282528,140877
1587014604287031,140877
1587014604292785,140877
1587014604307873,140877
1587014604876196,140798
1587014604881655,140798
1587014604882866,140798
1587014604885833,140798
1587014604897903,140798
1587014604899108,140798
1587014604902409,140798
1587014604903055,140798
1587014604908406,140798
1587014604921912,140798
1587014604924979,140798
1587014604931670,140798
1587014604934909,140798
1587014605457715,141826
1587014605461297,141826
1587014605462535,141826
1587014605468949,141826
1587014605477382,141826
1587014605479811,141826
1587014605493063,141826
1587014605493561,141826
1587014605508175,141826
1587014605510236,141826
1587014605522075,141826
1587014605535073,141826
1587014605536961,141826
1587014606043305,141978
1587014606047944,141978
1587014606062270,141978
1587014606065625,141978
1587014606073236,141978
1587014606083276,141978
1587014606098059,141978
1587014606107492,141978
1587014606108868,141978
1587014606112490,141978
1587014606144699,141978
1587014606148652,141978
1587014606153866,141978
1587014606790768,142307
1587014606803957,142307
1587014606821549,142307
1587014606838420,142307
1587014606839405,142307
1587014606839928,142307
1587014606841641,142307
1587014606855701,142307
1587014606863312,142307
1587014606865325,142307
1587014606872215,142307
1587014606873409,142307
1587014606877299,142307
1587014607386073,142075
1587014607392707,142075
1587014607407992,142075
1587014607412084,142075
1587014607426738,142075
1587014607440035,142075
1587014607444004,142075
1587014607459938,142075
1587014607466785,142075
1587014607482886,142075
1587014607492026,142075
1587014607506367,142075
1587014607509794,142075
1587014608017249,142961
1587014608031192,142961
1587014608035482,142961
1587014608038955,142961
1587014608043096,142961
1587014608058933,142961
1587014608065620,142961
1587014608080706,142961
1587014608097082,142961
1587014608097906,142961
1587014608103665,142961
1587014608109487,142961
1587014608110989,142961
1587014608621576,142793
1587014608624199,142793
1587014608638030,142793
1587014608642413,142793
1587014608648573,142793
1587014608667883,142793
1587014608683889,142793
1587014608684916,142793
1587014608692706,142793
1587014608905429,142793
1587014608909430,142793
1587014608924057,142793
1587014608943993,142793
1587014609453156,143549
1587014609454076,143549
1587014609458173,143549
1587014609469645,143549
1587014609471333,143549
1587014609477653,143549
1587014609482480,143549
1587014609494050,143549
1587014609502535,143549
1587014609519238,143549
1587014609531635,143549
1587014609538134,143549
1587014616554259,143549
1587014617057587,158775
1587014617061251,158775
1587014617076917,158775
1587014617092408,158775
1587014617095508,158775
1587014617109695,158775
1587014617112219,158775
1587014617114644,158775
1587014617129235,158775
1587014617134334,158775
1587014617139660,158775
1587014617140422,158775
1587014617145405,158775
1587014617751622,150151
1587014617765050,150151
1587014617771696,150151
1587014617778685,150151
1587014617781894,150151
1587014617785507,150151
1587014617809997,150151
1587014617811363,150151
1587014617823805,150151
1587014617828519,150151
1587014617835071,150151
1587014617838804,150151
1587014617851202,150151
1587014618373966,149901
1587014618383044,149901
1587014618394705,149901
1587014618401500,149901
1587014618408536,149901
1587014618423515,149901
1587014618424852,149901
1587014618441628,149901
1587014618442259,149901
1587014618442663,149901
1587014618446844,149901
1587014618448123,149901
1587014618452898,149901
1587014619011345,149830
1587014619019328,149830
1587014619024712,149830
1587014619030989,149830
1587014619045842,149830
1587014619052159,149830
1587014619055693,149830
1587014619082241,149830
1587014619104902,149830
1587014619108689,149830
1587014619119954,149830
1587014619136013,149830
1587014619137088,149830
1587014619655321,151028
1587014619661355,151028
1587014619681060,151028
1587014619692723,151028
1587014619699169,151028
1587014619712976,151028
1587014619717096,151028
1587014619723731,151028
1587014619724398,151028
1587014619730374,151028
1587014619733028,151028
1587014619733595,151028
1587014619750536,151028
1587014620268691,150799
1587014620271462,150799
1587014620280379,150799
1587014620301976,150799
1587014620303279,150799
1587014620310841,150799
1587014620326039,150799
1587014620327516,150799
1587014620330146,150799
1587014620350494,150799
1587014620351673,150799
1587014620356211,150799
1587014620379072,150799
1587014620894007,150322
1587014620909965,150322
1587014620926813,150322
1587014620929867,150322
1587014620931936,150322
1587014620934929,150322
1587014621060710,150322
1587014621061482,150322
1587014621061942,150322
1587014621077230,150322
1587014621079240,150322
1587014621083957,150322
1587014621084691,150322
1587014621602955,151059
1587014621610066,151059
1587014621616792,151059
1587014621617936,151059
1587014621633005,151059
1587014621637409,151059
1587014621644887,151059
1587014621651255,151059
1587014621675003,151059
1587014621681451,151059
1587014621686459,151059
1587014621692895,151059
1587014621710035,151059
1587014622226813,151326
1587014622233105,151326
1587014622240206,151326
1587014622245902,151326
1587014622246687,151326
1587014622250422,151326
1587014622253798,151326
1587014622269566,151326
1587014622280890,151326
1587014622286413,151326
1587014622299072,151326
1587014622303672,151326
1587014622316617,151326
1587014622901329,151867
1587014622909726,151867
1587014622935437,151867
1587014622950014,151867
1587014622962215,151867
1587014622964354,151867
1587014622974785,151867
1587014622989051,151867
1587014622997353,151867
1587014623019065,151867
1587014623033908,151867
1587014623045887,151867
1587014623050146,151867
1587014623557893,152328
1587014623565551,152328
1587014623570114,152328
1587014623570765,152328
1587014623571204,152328
1587014623577592,152328
1587014623578372,152328
1587014623596035,152328
1587014623617973,152328
1587014623619540,152328
1587014623623855,152328
1587014623628381,152328
1587014623640183,152328
1587014624156236,152165
1587014624171829,152165
1587014624173530,152165
1587014624182553,152165
1587014624188095,152165
1587014624202631,152165
1587014624203314,152165
1587014624217031,152165
1587014624231399,152165
1587014624237868,152165
1587014624242188,152165
1587014624245704,152165
1587014624246971,152165
1587014624771379,152929
1587014624778803,152929
1587014624783054,152929
1587014625810007,152929
1587014625817316,152929
1587014625832024,152929
1587014625833639,152929
1587014625834211,152929
1587014625836114,152929
1587014625840089,152929
1587014625845898,152929
1587014625850782,152929
1587014625852409,152929
1587014626362693,154619
1587014626363984,154619
1587014626382606,154619
1587014626384108,154619
1587014626391152,154619
1587014626397003,154619
1587014626398484,154619
1587014626403212,154619
1587014626406583,154619
1587014626416226,154619
1587014626428888,154619
1587014626433798,154619
1587014626438914,154619
1587014627082896,153147
1587014627084133,153147
1587014627090184,153147
1587014627108079,153147
1587014627112140,153147
1587014627135514,153147
1587014627143427,153147
1587014627145327,153147
1587014627149895,153147
1587014627162539,153147
1587014627167797,153147
1587014627169632,153147
1587014627177251,153147
1587014627686990,154865
1587014627691528,154865
1587014627708119,154865
1587014627818662,154865
1587014627830739,154865
1587014627835392,154865
1587014627839338,154865
1587014627864017,154865
1587014627877254,154865
1587014627880331,154865
1587014627885122,154865
1587014627887038,154865
1587014627895800,154865
1587014628414514,154839
1587014628429604,154839
1587014628437047,154839
1587014628445280,154839
1587014628447436,154839
1587014628455989,154839
1587014628457359,154839
1587014628459172,154839
1587014628479045,154839
1587014628486438,154839
1587014628487948,154839
1587014628489348,154839
1587014628492524,154839
1587014629017577,155703
1587014629019058,155703
1587014629028240,155703
1587014629030829,155703
1587014629035659,155703
1587014629039995,155703
1587014629066899,155703
1587014629071945,155703
1587014629074842,155703
1587014629078373,155703
1587014629092517,155703
1587014629100659,155703
1587014629102936,155703
1587014629790810,155513
1587014629810504,155513
1587014629813076,155513
1587014629823415,155513
1587014629829903,155513
1587014629834052,155513
1587014629844036,155513
1587014629861007,155513
1587014629863716,155513
1587014629880576,155513
1587014629901518,155513
1587014629902277,155513
1587014629902692,155513
1587014630411798,156463
1587014630416559,156463
1587014630421403,156463
1587014630435981,156463
1587014630445205,156463
1587014630453036,156463
1587014630464979,156463
1587014630466806,156463
1587014630467990,156463
1587014630473472,156463
1587014630474773,156463
1587014630497349,156463
1587014630502764,156463
1587014631018436,156529
1587014631031453,156529
1587014631034280,156529
1587014631036961,156529
1587014631037485,156529
1587014631041874,156529
1587014631047468,156529
1587014634058889,156529
1587014634070972,156529
1587014634073428,156529
1587014634079005,156529
1587014634084316,156529
1587014634097331,156529
1587014634602265,160442
1587014634602967,160442
1587014634608698,160442
1587014634626517,160442
1587014634637405,160442
1587014634639068,160442
1587014634640298,160442
1587014634643563,160442
1587014634651486,160442
1587014634653018,160442
1587014634657142,160442
1587014634684312,160442
1587014634685064,160442
1587014635190019,159907
1587014635192029,159907
1587014635211598,159907
1587014635224846,159907
1587014635237588,159907
1587014635250038,159907
1587014635252524,159907
1587014635253417,159907
1587014635254657,159907
1587014635260816,159907
1587014635263604,159907
1587014635267081,159907
1587014635271934,159907
1587014635778960,160676
1587014635782991,160676
1587014635784330,160676
1587014635791877,160676
1587014635796120,160676
1587014635814074,160676
1587014636824865,160676
1587014636827986,160676
1587014636836727,160676
1587014636843799,160676
1587014636850418,160676
1587014636864858,160676
1587014636878967,160676
1587014637385548,162893
1587014637390664,162893
1587014637411190,162893
1587014637411956,162893
1587014637429003,162893
1587014637443992,162893
1587014637444716,162893
1587014637450826,162893
1587014637458571,162893
1587014637473251,162893
1587014637480120,162893
1587014637483020,162893
1587014637489667,162893
1587014638015365,161597
1587014638022107,161597
1587014638022966,161597
1587014638031507,161597
1587014638032879,161597
1587014638056019,161597
1587014638057256,161597
1587014638071192,161597
1587014638071971,161597
1587014638076097,161597
1587014638082964,161597
1587014638087132,161597
1587014638087962,161597
1587014638280922,62
1587014638596649,162094
1587014638609697,162094
1587014638611029,162094
1587014638612077,162094
1587014638627513,162094
1587014638637861,162094
1587014638643572,162094
1587014638650368,162094
1587014638666825,162094
1587014638679090,162094
1587014638697029,162094
1587014638707076,162094
1587014638711275,162094
1587014639214170,162057
1587014639222669,162057
1587014639227096,162057
1587014639243254,162057
1587014639244920,162057
1587014639246455,162057
1587014639251519,162057
1587014639261626,162057
1587014639286993,162057
1587014639302677,162057
1587014639303525,162057
1587014639304044,162057
1587014639310463,162057
1587014639819221,161851
1587014639820340,161851
1587014639821328,161851
1587014639836461,161851
1587014639851434,161851
1587014639854291,161851
1587014639859045,161851
1587014639862233,161851
1587014639868278,161851
1587014639872336,161851
1587014639873592,161851
1587014639874499,161851
1587014639882061,161851
1587014640395605,162887
1587014640403495,162887
1587014640406163,162887
1587014640416408,162887
1587014640419288,162887
1587014640424080,162887
1587014640430896,162887
1587014640439883,162887
1587014640462479,162887
1587014643474301,162887
1587014643477809,162887
1587014643485278,162887
1587014643486821,162887
1587014643995802,166109
1587014644011071,166109
1587014644024128,166109
1587014644025634,166109
1587014644037044,166109
1587014644046592,166109
1587014644048456,166109
1587014644050521,166109
1587014644060408,166109
1587014644065529,166109
1587014644072819,166109
1587014644086161,166109
1587014644100167,166109
1587014644621302,164456
1587014644626154,164456
1587014644627568,164456
1587014644632003,164456
1587014644637162,164456
1587014644639124,164456
1587014644646140,164456
1587014644650900,164456
1587014644667517,164456
1587014644669089,164456
1587014644692092,164456
1587014644710885,164456
1587014644716633,164456
1587014645224541,164221
1587014645309559,164221
1587014645324061,164221
1587014645328669,164221
1587014645332444,164221
1587014645340299,164221
1587014645351431,164221
1587014645360637,164221
1587014645377467,164221
1587014645380250,164221
1587014645384462,164221
1587014645393320,164221
1587014645424510,164221
1587014645950408,164543
1587014645953588,164543
1587014645970022,164543
1587014645977962,164543
1587014645982842,164543
1587014645985244,164543
1587014645992652,164543
1587014645993761,164543
1587014646013993,164543
1587014646031740,164543
1587014646042780,164543
1587014646067972,164543
1587014647070589,164543
1587014647580422,166135
1587014647590624,166135
1587014647612687,166135
1587014647628237,166135
1587014647630717,166135
1587014647645586,166135
1587014648183442,165472
1587014648206513,165472
1587014648208272,165472
