1587118628524497,29
1587118630173398,22
1587118630482577,22
1587118630570549,28
1587118630577592,28
1587118630595929,28
1587118630598057,28
1587118630622768,28
1587118630635923,28
1587118630637943,28
1587118630641829,28
1587118630642771,28
1587118630644453,28
1587118630656461,28
1587118630668867,28
1587118630670705,28
1587118630671039,22
1587118631250779,1042
1587118631258310,1042
1587118631261207,1042
1587118631262522,1042
1587118631276859,1042
1587118631289254,1042
1587118631291439,1042
1587118631292381,1042
1587118631304052,1042
1587118631305157,1042
1587118631308353,1042
1587118631310064,1042
1587118631332790,1042
1587118634376313,407
1587118634379536,410
1587118634414593,1280
1587118634424397,1280
1587118634436949,1280
1587118634437509,1280
1587118634438795,1280
1587118634439291,1280
1587118634440406,1280
1587118634441950,1280
1587118634444748,1280
1587118634455998,1280
1587118634460866,1280
1587118634473111,1280
1587118634474012,1280
1587118634978142,3364
1587118634979044,3364
1587118634980786,3364
1587118634981500,3364
1587118634982609,3364
1587118634986376,3364
1587118634987429,3364
1587118634988598,3364
1587118635001246,3364
1587118635012198,3364
1587118635017806,3364
1587118635041222,3364
1587118635042298,3364
1587118635545451,2397
1587118635546939,2397
1587118635555960,2397
1587118635556494,2397
1587118635557284,2397
1587118635558581,2397
1587118635559392,2397
1587118635561571,2397
1587118635562194,2397
1587118635562929,2397
1587118635563851,2397
1587118635564959,2397
1587118635567688,2397
1587118636079697,2443
1587118636080786,2443
1587118636082281,2443
1587118636083442,2443
1587118636083958,2443
1587118636084744,2443
1587118636086655,2443
1587118636100270,2443
1587118636101201,2443
1587118636107055,2443
1587118636108046,2443
1587118636110047,2443
1587118636122016,2443
1587118641013756,2518
1587118641029053,412
1587118641042574,411
1587118641066484,2518
1587118641067419,2518
1587118641068275,2518
1587118641084922,2518
1587118641096579,2518
1587118641098073,2518
1587118641120145,2518
1587118641132012,2518
1587118641133538,2518
1587118641149439,2518
1587118641152933,2518
1587118641164375,2518
1587118641683026,13848
1587118641698318,13848
1587118641699682,13848
1587118641705641,13848
1587118641708509,13848
1587118641716276,13848
1587118641718007,13848
1587118641720477,13848
1587118641735151,13848
1587118641736966,13848
1587118641749421,13848
1587118641751432,13848
1587118641758093,13848
1587118642259380,9036
1587118642260314,9036
1587118642261173,9036
1587118642262062,9036
1587118642262481,9036
1587118642273368,9036
1587118642274704,9036
1587118642275797,9036
1587118642276871,9036
1587118642278063,9036
1587118642285858,9036
1587118642314533,9036
1587118642315554,9036
1587118642830138,9984
1587118642830787,9984
1587118645839161,9984
1587118645843399,9984
1587118645844033,9984
1587118645845870,9984
1587118645846603,9984
1587118646850216,9984
1587118646852898,9984
1587118646857796,9984
1587118646858853,9984
1587118646860106,9984
1587118646861011,9984
1587118647365789,18875
1587118647366885,18875
1587118647370734,18875
1587118647381995,18875
1587118647382626,18875
1587118647383458,18875
1587118647386134,18875
1587118647388175,18875
1587118647394981,18875
1587118647396424,18875
1587118647407156,18875
1587118647417965,18875
1587118647420605,18875
1587118647929822,13955
1587118647941085,13955
1587118647942494,13955
1587118647942861,13955
1587118647943375,13955
1587118647944103,13955
1587118647946575,13955
1587118647947075,13955
1587118647948179,13955
1587118647948887,13955
1587118647950230,13955
1587118647952902,13955
1587118647955363,13955
1587118648472303,14229
1587118648473193,14229
1587118648475436,14229
1587118648475898,14229
1587118648477026,14229
1587118648477871,14229
1587118648480403,14229
1587118648491295,14229
1587118648494427,14229
1587118648495221,14229
1587118648495957,14229
1587118648496917,14229
1587118648507948,14229
1587118649016323,14564
1587118649057374,14564
1587118649058447,14564
1587118649061370,14564
1587118649063102,14564
1587118649063963,14564
1587118649075260,14564
1587118649075978,14564
1587118649079387,14564
1587118649503568,61
1587118649751228,61
1587118650087146,14564
1587118650087726,14564
1587118650091458,14564
1587118650093607,14564
1587118650400351,61
1587118650602794,15633
1587118650604371,15633
1587118650605106,15633
1587118650606250,15633
1587118650617175,15633
1587118650618080,15633
1587118650628954,15633
1587118650630400,15633
1587118650632043,15633
1587118650632916,15633
1587118650634191,15633
1587118650634943,15633
1587118650638591,15633
1587118651146557,16040
1587118651147588,16040
1587118651148391,16040
1587118651149592,16040
1587118651150248,16040
1587118651153374,16040
1587118651156799,16040
1587118651168200,16040
1587118651178919,16040
1587118651179772,16040
1587118651180659,16040
1587118651181209,16040
1587118651183831,16040
1587118651350821,60
1587118651703025,16286
1587118651706951,16286
1587118651708049,16286
1587118651708790,16286
1587118651710039,16286
1587118651710833,16286
1587118651722147,16286
1587118651724369,16286
1587118651735046,16286
1587118651736537,16286
1587118651738301,16286
1587118651739110,16286
1587118651739541,16286
1587118652247986,15792
1587118652249362,15792
1587118652259932,15792
1587118652260445,15792
1587118653272155,15792
1587118653274360,15792
1587118653286101,15792
1587118653296940,15792
1587118653301464,15792
1587118653302345,15792
1587118653302916,15792
1587118653314900,15792
1587118653326092,15792
1587118656428334,16171
1587118656431889,16171
1587118656432518,16171
1587118656433335,16171
1587118656443905,16171
1587118656455057,16171
1587118656456802,16171
1587118656457777,16171
1587118656458429,16171
1587118656461920,16171
1587118656473999,16171
1587118656478018,16171
1587118656478796,16171
1587118656987679,20371
1587118656989875,20371
1587118656991739,20371
1587118656993787,20371
1587118656996419,20371
1587118657010169,20371
1587118657011612,20371
1587118657023169,20371
1587118657027809,20371
1587118657039000,20371
1587118657137007,20371
1587118657139920,20371
1587118657150961,20371
1587118657580754,62
1587118657668969,17800
1587118657669860,17800
1587118657670744,17800
1587118657685004,17800
1587118657685918,17800
1587118657687756,17800
1587118657688702,17800
1587118657699938,17800
1587118657707462,17800
1587118657709825,17800
1587118657710472,17800
1587118657711688,17800
1587118657723452,17800
1587118658019472,37
1587118658229937,17836
1587118658230812,17836
1587118658231998,17836
1587118658232496,17836
1587118658233205,17836
1587118658233543,17836
1587118658238159,17836
1587118658248963,17836
1587118658249376,17836
1587118658259949,17836
1587118658262865,17836
1587118658264139,17836
1587118658264766,17836
1587118658440568,37
1587118658777032,18681
1587118658777991,18681
1587118658783994,18681
1587118658794935,18681
1587118658795686,18681
1587118658796743,18681
1587118658798181,18681
1587118658809049,18681
1587118658809904,18681
1587118658810438,18681
1587118658811314,18681
1587118658813891,18681
1587118658825203,18681
1587118659330307,18859
1587118659332446,18859
1587118659342967,18859
1587118659343461,18859
1587118659354220,18859
1587118659355090,18859
1587118659366980,18859
1587118659377947,18859
1587118659388874,18859
1587118659391380,18859
1587118659392234,18859
1587118659402871,18859
1587118659408160,18859
1587118659915564,18689
1587118659916321,18689
1587118659916641,18689
1587118659917764,18689
1587118659929394,18689
1587118659944033,18689
1587118659954983,18689
1587118659956209,18689
1587118659966944,18689
1587118659978518,18689
1587118659979300,18689
1587118659991051,18689
1587118659991924,18689
1587118660504526,19661
1587118660517917,19661
1587118660518854,19661
1587118660521442,19661
1587118660523007,19661
1587118660534141,19661
1587118660536907,19661
1587118660537676,19661
1587118660538461,19661
1587118660539247,19661
1587118660540037,19661
1587118660541494,19661
1587118660552147,19661
1587118664310187,37
1587118664311134,19252
1587118664312024,19252
1587118664314440,19252
1587118664325127,19252
1587118664335947,19252
1587118664336625,19252
1587118664339837,19252
1587118664340624,19252
1587118664360084,19252
1587118664361761,19252
1587118664362145,19252
1587118664362854,19252
1587118664363838,19252
1587118664869243,28029
1587118664881031,28029
1587118664881859,28029
1587118664882468,28029
1587118664883177,28029
1587118664884326,28029
1587118664884768,28029
1587118664885500,28029
1587118664886193,28029
1587118664887050,28029
1587118664888334,28029
1587118664893882,28029
1587118664896997,28029
1587118665404906,23233
1587118665405336,23233
1587118665406083,23233
1587118665406829,23233
1587118665407885,23233
1587118665408359,23233
1587118665409231,23233
1587118665409869,23233
1587118665410540,23233
1587118665423116,23233
1587118665426189,23233
1587118665443518,23233
1587118665469866,23233
1587118665981867,23783
1587118665982368,23783
1587118665983241,23783
1587118665984629,23783
1587118665987278,23783
1587118665988579,23783
1587118666000060,23783
1587118666000938,23783
1587118666001579,23783
1587118666004141,23783
1587118666015188,23783
1587118666015728,23783
1587118666026938,23783
1587118666543327,23562
1587118666544117,23562
1587118666544864,23562
1587118666555950,23562
1587118666558355,23562
1587118666569076,23562
1587118666569802,23562
1587118666570493,23562
1587118670747493,37
1587118670913927,37
1587118673298345,37
1587118673590211,23562
1587118673591247,23562
1587118673593699,23562
1587118673594083,23562
1587118673595265,23562
1587118674101697,35091
1587118674102926,35091
1587118674103917,35091
1587118674105026,35091
1587118674105934,35091
1587118674964833,35091
1587118674971317,35091
1587118674972309,35091
1587118674973158,35091
1587118674974288,35091
1587118674985177,35091
1587118674986012,35091
1587118674987043,35091
1587118675506960,31126
1587118675507466,31126
1587118675509761,31126
1587118675511353,31126
1587118675513651,31126
1587118675526133,31126
1587118675527080,31126
1587118675529980,31126
1587118675530744,31126
1587118675532005,31126
1587118676534623,31126
1587118676535530,31126
1587118676535951,31126
1587118677041908,33334
1587118677057906,33334
1587118677070674,33334
1587118677071723,33334
1587118677072949,33334
1587118677073995,33334
1587118677079945,33334
1587118677081462,33334
1587118677095152,33334
1587118677097807,33334
1587118677099226,33334
1587118677100053,33334
1587118677111059,33334
1587118677623881,31525
1587118677624804,31525
1587118677626280,31525
1587118677627551,31525
1587118677628912,31525
1587118677630575,31525
1587118677631551,31525
1587118677633288,31525
1587118677645410,31525
1587118677679218,31525
1587118677692165,31525
1587118677692901,31525
1587118677695025,31525
1587118677758348,61
1587118678206397,31967
1587118678207197,31967
1587118678208271,31967
1587118678209456,31967
1587118678210399,31967
1587118678211388,31967
1587118678213123,31967
1587118678214132,31967
1587118678216014,31967
1587118678217352,31967
1587118678218367,31967
1587118678219354,31967
1587118678230916,31967
1587118678735532,33162
1587118678746949,33162
1587118678766307,33162
1587118678767584,33162
1587118678768518,33162
1587118678769495,33162
1587118678770489,33162
1587118678771266,33162
1587118678772059,33162
1587118678772948,33162
1587118678774932,33162
1587118678799287,33162
1587118678801993,33162
1587118679314644,35132
1587118679315853,35132
1587118679319359,35132
1587118679320395,35132
1587118679321469,35132
1587118679322909,35132
1587118679324742,35132
1587118679328895,35132
1587118679331326,35132
1587118679333991,35132
1587118679346236,35132
1587118679347164,35132
1587118679348279,35132
1587118679930504,33169
1587118679931550,33169
1587118679932569,33169
1587118679933329,33169
1587118679934352,33169
1587118679935268,33169
1587118679942087,33169
1587118679967354,33169
1587118679969048,33169
1587118679969817,33169
1587118679970462,33169
1587118679974060,33169
1587118679985412,33169
1587118680498039,33999
1587118680498872,33999
1587118680500326,33999
1587118680501347,33999
1587118680502451,33999
1587118680503625,33999
1587118680514972,33999
1587118680526020,33999
1587118680527082,33999
1587118680528350,33999
1587118680538988,33999
1587118680550073,33999
1587118680560982,33999
1587118681065292,34482
1587118681075940,34482
1587118681076649,34482
1587118684082061,34482
1587118684083090,34482
1587118684083867,34482
1587118684747429,62
1587118685089514,62
1587118686505564,62
1587118689450004,61
1587118691102061,34482
1587118691102883,34482
1587118691104006,34482
1587118691104957,34482
1587118691105410,34482
1587118691105907,34482
1587118691107188,34482
1587118691611049,46728
1587118691612335,46728
1587118692618118,46728
1587118692619027,46728
1587118692620214,46728
1587118692620992,46728
1587118692622024,46728
1587118692633014,46728
1587118692644090,46728
1587118692646584,46728
1587118692648703,46728
1587118692650044,46728
1587118692650747,46728
1587118692788726,37
1587118693152871,42679
1587118693164163,42679
1587118693165014,42679
1587118693166167,42679
1587118693177255,42679
1587118693178220,42679
1587118693178839,42679
1587118693179659,42679
1587118693180965,42679
1587118694185064,42679
1587118694186012,42679
1587118694188980,42679
1587118694189393,42679
1587118694693242,43458
1587118694696180,43458
1587118694697355,43458
1587118694698427,43458
1587118694699837,43458
1587118694705165,43458
1587118694706468,43458
1587118694707794,43458
1587118694720107,43458
1587118694721250,43458
1587118694722254,43458
1587118694723490,43458
1587118694724747,43458
1587118695229444,42699
1587118695230926,42699
1587118695234627,42699
1587118695236549,42699
1587118695250514,42699
1587118695262945,42699
1587118695278799,42699
1587118695279326,42699
1587118695280421,42699
1587118695281337,42699
1587118695294207,42699
1587118695307055,42699
1587118695318294,42699
1587118695835931,43556
1587118695837212,43556
1587118695838040,43556
1587118695839011,43556
1587118695841763,43556
1587118695843621,43556
1587118695848536,43556
1587118695871972,43556
1587118695884189,43556
1587118695891605,43556
1587118695893120,43556
1587118695894043,43556
1587118695905240,43556
1587118696415617,43983
1587118696416478,43983
1587118696428159,43983
1587118697435214,43983
1587118697436245,43983
1587118697438597,43983
1587118697440931,43983
1587118697441752,43983
1587118697453310,43983
1587118697454001,43983
1587118697454425,43983
1587118697455423,43983
1587118697456365,43983
1587118697958796,44682
1587118697959623,44682
1587118697961006,44682
1587118697972346,44682
1587118697983367,44682
1587118697994081,44682
1587118697995281,44682
1587118697996653,44682
1587118697997430,44682
1587118697998777,44682
1587118698010403,44682
1587118698011550,44682
1587118698011966,44682
1587118698513378,45313
1587118698514022,45313
1587118698515167,45313
1587118698517406,45313
1587118698528279,45313
1587118698532151,45313
1587118698543039,45313
1587118698543872,45313
1587118698545778,45313
1587118698569178,45313
1587118698570141,45313
1587118698581029,45313
1587118698581878,45313
1587118699093984,44848
1587118699094735,44848
1587118699095858,44848
1587118699096293,44848
1587118699096869,44848
1587118699103689,44848
1587118699104893,44848
1587118699105836,44848
1587118699106772,44848
1587118699109259,44848
1587118699110403,44848
1587118699121329,44848
1587118699131994,44848
1587118699640168,45608
1587118699640929,45608
1587118699641380,45608
1587118699642580,45608
1587118699643321,45608
1587118699644029,45608
1587118699645187,45608
1587118699651031,45608
1587118699652387,45608
1587118699653248,45608
1587118699654591,45608
1587118699665946,45608
1587118699666882,45608
1587118700178664,45718
1587118700190075,45718
1587118700192274,45718
1587118700192648,45718
1587118700196326,45718
1587118700197209,45718
1587118700197971,45718
1587118700198468,45718
1587118700208955,45718
1587118700209566,45718
1587118700220912,45718
1587118700221455,45718
1587118700232017,45718
1587118700739076,45365
1587118700740146,45365
1587118700750913,45365
1587118700751472,45365
1587118700752886,45365
1587118700754458,45365
1587118700755338,45365
1587118700766143,45365
1587118700767185,45365
1587118700777927,45365
1587118700778623,45365
1587118700790119,45365
1587118700791311,45365
1587118701292671,47477
1587118701303970,47477
1587118701304673,47477
1587118701313613,47477
1587118701314217,47477
1587118701314821,47477
1587118701315458,47477
1587118701316588,47477
1587118701318211,47477
1587118701321411,47477
1587118701333774,47477
1587118701334906,47477
1587118701335793,47477
1587118701837810,46692
1587118701840660,46692
1587118701842860,46692
1587118701844120,46692
1587118701856875,46692
1587118701857980,46692
1587118701858746,46692
1587118701869934,46692
1587118701870600,46692
1587118701871226,46692
1587118701872414,46692
1587118701873531,46692
1587118701875486,46692
1587118702136279,62
1587118702387937,47573
1587118702388573,47573
1587118702389368,47573
1587118702390299,47573
1587118702393526,47573
1587118702395349,47573
1587118702401272,47573
1587118702407533,47573
1587118702408653,47573
1587118702409221,47573
1587118702409977,47573
1587118702431422,47573
1587118702443369,47573
1587118703615745,61
1587118703952824,47287
1587118704013134,47287
1587118704025024,47287
1587118704025949,47287
1587118704028499,47287
1587118704029680,47287
1587118704031864,47287
1587118704044992,47287
1587118704056024,47287
1587118704067956,47287
1587118704078956,47287
1587118704079850,47287
1587118704081050,47287
1587118704606543,52597
1587118704607448,52597
1587118704614192,52597
1587118704616932,52597
1587118704617620,52597
1587118704619491,52597
1587118704641738,52597
1587118704642729,52597
1587118704643453,52597
1587118704644564,52597
1587118704645665,52597
1587118704647671,52597
1587118704648401,52597
1587118704811532,62
1587118705165076,49592
1587118705177031,49592
1587118705178210,49592
1587118705179127,49592
1587118705179997,49592
1587118705180973,49592
1587118705181791,49592
1587118705182206,49592
1587118705182895,49592
1587118705184849,49592
1587118705199335,49592
1587118705200309,49592
1587118705202404,49592
1587118705706347,52982
1587118705707522,52982
1587118705708992,52982
1587118705709820,52982
1587118705712657,52982
1587118705725057,52982
1587118705726034,52982
1587118705728251,52982
1587118705734080,52982
1587118705734924,52982
1587118705735845,52982
1587118705736556,52982
1587118705737355,52982
1587118706062543,61
1587118706250644,56291
1587118706252354,56291
1587118706253512,56291
1587118706254238,56291
1587118706265792,56291
1587118706266617,56291
1587118706267413,56291
1587118706268324,56291
1587118706270916,56291
1587118706271939,56291
1587118706282410,56291
1587118706290889,56291
1587118706291614,56291
1587118706438447,63
1587118706829931,53132
1587118706830938,53132
1587118706831839,53132
1587118706832197,53132
1587118706832991,53132
1587118706833608,53132
1587118706834933,53132
1587118706845962,53132
1587118706848098,53132
1587118706848614,53132
1587118706849730,53132
1587118707832497,63
1587118708995619,63
1587118709109300,63
1587118710343474,4
1587118712167824,4
1587118712173748,63
1587118713870287,53132
1587118713871265,53132
1587118714377051,63592
1587118714377845,63592
1587118714378630,63592
1587118714390143,63592
1587118714391370,63592
1587118714403080,63592
1587118714403775,63592
1587118714404307,63592
1587118714405352,63592
1587118714406430,63592
1587118714408204,63592
1587118714418948,63592
1587118714419961,63592
1587118714921774,57588
1587118714922392,57588
1587118714923628,57588
1587118714935257,57588
1587118714945986,57588
1587118714947046,57588
1587118714947955,57588
1587118714948612,57588
1587118714960135,57588
1587118714960653,57588
1587118714972359,57588
1587118714984252,57588
1587118714994938,57588
1587118715516002,60757
1587118715517012,60757
1587118715517637,60757
1587118715518016,60757
1587118715519383,60757
1587118715520857,60757
1587118715521380,60757
1587118715532012,60757
1587118715543160,60757
1587118715543889,60757
1587118718550848,60757
1587118718551867,60757
1587118718552673,60757
1587118719055128,66143
1587118719059589,66143
1587118719064065,66143
1587118719064870,66143
1587118719066009,66143
1587118719068667,66143
1587118720071919,66143
1587118720073574,66143
1587118720084259,66143
1587118720084833,66143
1587118720085754,66143
1587118720087170,66143
1587118720087895,66143
1587118720589772,64881
1587118720590515,64881
1587118720592186,64881
1587118720600120,64881
1587118720602421,64881
1587118720614760,64881
1587118720615420,64881
1587118720616656,64881
1587118720617622,64881
1587118720618408,64881
1587118720619181,64881
1587118720619760,64881
1587118720620335,64881
1587118721122503,63534
1587118721123331,63534
1587118721125604,63534
1587118721126324,63534
1587118721137905,63534
1587118721138917,63534
1587118721139755,63534
1587118721140487,63534
1587118721141546,63534
1587118721142338,63534
1587118721143260,63534
1587118721155181,63534
1587118721157274,63534
1587118721662390,63675
1587118721663329,63675
1587118721664336,63675
1587118721671595,63675
1587118721674037,63675
1587118721674846,63675
1587118721675984,63675
1587118721676808,63675
1587118721689430,63675
1587118721690460,63675
1587118721702065,63675
1587118721703098,63675
1587118721703808,63675
1587118722248117,65709
1587118722250893,65709
1587118722251462,65709
1587118722253912,65709
1587118722264914,65709
1587118722274679,65709
1587118722276007,65709
1587118722285928,65709
1587118722287322,65709
1587118722287650,65709
1587118722289047,65709
1587118722290192,65709
1587118722291087,65709
1587118722794867,64831
1587118722805958,64831
1587118722806958,64831
1587118722807603,64831
1587118722808164,64831
1587118722812522,64831
1587118722812894,64831
1587118722814405,64831
1587118722814996,64831
1587118722815726,64831
1587118722816870,64831
1587118722818217,64831
1587118722829114,64831
1587118723341295,66019
1587118723342380,66019
1587118723353689,66019
1587118723354423,66019
1587118723355320,66019
1587118723355939,66019
1587118723357241,66019
1587118723358249,66019
1587118723359026,66019
1587118723359884,66019
1587118723361593,66019
1587118723361983,66019
1587118723362569,66019
1587118723806340,62
1587118723847626,61
1587118723984026,65600
1587118723985101,65600
1587118723999286,65600
1587118724000692,65600
1587118724002180,65600
1587118724004114,65600
1587118725015297,65600
1587118725016451,65600
1587118725017195,65600
1587118725027945,65600
1587118725039269,65600
1587118725039974,65600
1587118725040623,65600
1587118725497361,61
1587118725547936,68251
1587118725549182,68251
1587118725550418,68251
1587118725551684,68251
1587118725552976,68251
1587118725554480,68251
1587118725556609,68251
1587118725557772,68251
1587118725559287,68251
1587118725562064,68251
1587118725564270,68251
1587118725566542,68251
1587118725577804,68251
1587118726079275,67574
1587118726080141,67574
1587118726081054,67574
1587118726081871,67574
1587118726083284,67574
1587118726084216,67574
1587118726085973,67574
1587118726086893,67574
1587118726114072,67574
1587118726126254,67574
1587118726128261,67574
1587118726129621,67574
1587118726130533,67574
1587118726632666,68040
1587118726633694,68040
1587118726635103,68040
1587118726636090,68040
1587118726637256,68040
1587118726638090,68040
1587118726639426,68040
1587118726640451,68040
1587118726641446,68040
1587118726642329,68040
1587118726642760,68040
1587118726644836,68040
1587118726646336,68040
1587118727163323,68216
1587118727164968,68216
1587118727166061,68216
1587118727167620,68216
1587118727169129,68216
1587118727171395,68216
1587118727172736,68216
1587118727173333,68216
1587118727174103,68216
1587118727176119,68216
1587118727177406,68216
1587118727188288,68216
1587118727189177,68216
1587118727699777,68851
1587118727700558,68851
1587118727701681,68851
1587118727702867,68851
1587118727703506,68851
1587118727714656,68851
1587118727725930,68851
1587118727729161,68851
1587118727730090,68851
1587118727731261,68851
1587118727744175,68851
1587118727754937,68851
1587118727759223,68851
1587118728261774,69507
1587118728273347,69507
1587118728274223,69507
1587118728281579,69507
1587118728281941,69507
1587118728293976,69507
1587118728294501,69507
1587118728295619,69507
1587118728296439,69507
1587118728297011,69507
1587118728299313,69507
1587118728301077,69507
1587118728301438,69507
1587118728805790,70497
1587118728817497,70497
1587118728817856,70497
1587118728818824,70497
1587118728820115,70497
1587118728834176,70497
1587118728834939,70497
1587118728836206,70497
1587118728836558,70497
1587118728847005,70497
1587118728847907,70497
1587118728848502,70497
1587118728849778,70497
1587118729358944,69607
1587118729361421,69607
1587118729361822,69607
1587118729362963,69607
1587118729371273,69607
1587118729372325,69607
1587118729384942,69607
1587118729386084,69607
1587118729387040,69607
1587118729388850,69607
1587118729389628,69607
1587118729390655,69607
1587118729391637,69607
1587118729771138,4
1587118729896947,70576
1587118729897872,70576
1587118729898201,37
1587118729898999,70576
1587118729899938,70576
1587118729900725,70576
1587118729902189,70576
1587118729913838,70576
1587118729988231,70576
1587118729989958,70576
1587118729990509,70576
1587118729991036,70576
1587118729992156,70576
1587118729993487,70576
1587118730507986,70451
1587118730510014,70451
1587118730510631,70451
1587118730512326,70451
1587118730523307,70451
1587118730524279,70451
1587118730525903,70451
1587118730527383,70451
1587118730527866,70451
1587118730530801,70451
1587118730532304,70451
1587118730543021,70451
1587118730544139,70451
1587118731047363,70587
1587118731048434,70587
1587118731049220,70587
1587118731050208,70587
1587118731050975,70587
1587118731052069,70587
1587118731053757,70587
1587118731055070,70587
1587118731057579,70587
1587118731068056,70587
1587118731079280,70587
1587118731080415,70587
1587118731080928,70587
1587118731589037,70784
1587118731589810,70784
1587118731590641,70784
1587118731591536,70784
1587118731592580,70784
1587118731593795,70784
1587118731595623,70784
1587118731596650,70784
1587118731598429,70784
1587118731599161,70784
1587118731611440,70784
1587118731612219,70784
1587118731612584,70784
1587118732116515,72568
1587118732120625,72568
1587118732121614,72568
1587118732122585,72568
1587118732123642,72568
1587118732124755,72568
1587118732125479,72568
1587118732126069,72568
1587118732128046,72568
1587118732129860,72568
1587118732130956,72568
1587118732140991,72568
1587118732153105,72568
1587118732199241,60
1587118732445295,37
1587118732623904,37
1587118732666256,72769
1587118732667902,72769
1587118732668884,72769
1587118732670195,72769
1587118732670991,72769
1587118732682573,72769
1587118732694171,72769
1587118732695271,72769
1587118732705975,72769
1587118732706881,72769
1587118732709082,72769
1587118732709889,72769
1587118732710610,72769
1587118732871267,63
1587118733135936,37
1587118733297175,72771
1587118733298318,72771
1587118733299048,72771
1587118734054843,37
1587118734302625,72771
1587118734303500,72771
1587118734311938,72771
1587118734314015,72771
1587118734314811,72771
1587118734316429,72771
1587118734317883,72771
1587118734318891,72771
1587118734330403,72771
1587118734331572,72771
1587118734834062,75832
1587118734837806,75832
1587118734838677,75832
1587118734839504,75832
1587118734849970,75832
1587118734850780,75832
1587118734851158,75832
1587118734852829,75832
1587118735133940,4
1587118735654809,37
1587118735723605,37
1587118735724794,37
1587118735832763,37
1587118735834075,37
1587118735850237,61
1587118735939875,37
1587118736061014,37
1587118736087874,37
1587118736109302,37
1587118736121504,37
1587118736357163,37
1587118736369693,37
1587118737125591,61
1587118739387143,37
1587118740467575,64
1587118741788846,37
1587118741873097,75832
1587118741883976,75832
1587118741884544,75832
1587118741885036,75832
1587118741889150,75832
1587118742384540,37
1587118742398131,85716
1587118742398853,85716
1587118742410406,85716
1587118742412783,85716
1587118742423983,85716
1587118742424598,85716
1587118744691052,37
1587118748895970,4
1587118749442697,85716
1587118749445203,85716
1587118749446693,85716
1587118749450827,85716
1587118749452409,85716
1587118749453698,85716
1587118749454687,85716
1587118749467489,4
1587118749967272,91546
1587118749979776,91546
1587118749988521,91546
1587118749990549,91546
1587118750013850,91546
1587118750014863,91546
1587118750027102,91546
1587118750027643,91546
1587118750039077,91546
1587118750041037,91546
1587118750042190,91546
1587118750057376,91546
1587118750060681,91546
1587118750565674,87213
1587118750568663,87213
1587118750572563,87213
1587118750574035,87213
1587118750586974,87213
1587118750589667,87213
1587118750592302,87213
1587118751322969,4
1587118751606919,87213
1587118751607744,87213
1587118751610486,87213
1587118751615001,87213
1587118751617083,87213
1587118751629122,87213
1587118752136826,87998
1587118752138233,87998
1587118752138870,87998
1587118752140064,87998
1587118752140809,87998
1587118752145759,87998
1587118752158316,87998
1587118752159295,87998
1587118752161241,87998
1587118752161610,87998
1587118752172914,87998
1587118752176954,87998
1587118752190740,87998
1587118752694533,87351
1587118752696361,87351
1587118752697883,87351
1587118752709781,87351
1587118752710398,87351
1587118752721249,87351
1587118752728391,87351
1587118752729691,87351
1587118752730419,87351
1587118752730825,4
1587118752742352,87351
1587118752755892,87351
1587118752756449,87351
1587118752758090,87351
1587118753266867,89602
1587118753268696,89602
1587118753282048,89602
1587118753283387,89602
1587118753285796,89602
1587118753287022,89602
1587118753298971,89602
1587118753303334,89602
1587118753304607,89602
1587118753306023,89602
1587118753307291,89602
1587118753308344,89602
1587118753309222,89602
1587118753815242,89037
1587118753817228,89037
1587118753819889,89037
1587118753822822,89037
1587118753833744,89037
1587118753834482,89037
1587118753845765,89037
1587118753849512,89037
1587118753850205,89037
1587118753854869,89037
1587118753855947,89037
1587118753870239,89037
1587118753870607,89037
1587118754129038,4
1587118754292240,60
1587118754380608,89059
1587118754381509,89059
1587118754382485,89059
1587118754394146,89059
1587118754395450,89059
1587118754397620,89059
1587118754409530,89059
1587118754411660,89059
1587118754437135,89059
1587118754439110,89059
1587118754452736,89059
1587118754454809,89059
1587118754456893,89059
1587118754582111,63
1587118754961667,89137
1587118754983958,89137
1587118754996748,89137
1587118754998250,89137
1587118755020756,89137
1587118755021337,89137
1587118755022195,89137
1587118755022784,89137
1587118755023361,89137
1587118755024634,89137
1587118755025364,89137
1587118755032902,89137
1587118755044053,89137
1587118755312240,4
1587118755550522,88868
1587118755561741,88868
1587118755562681,88868
1587118755563990,88868
1587118755579256,88868
1587118755581264,88868
1587118755583303,88868
1587118755584179,88868
1587118755587842,88868
1587118755591283,88868
1587118755591913,88868
1587118755606179,88868
1587118755606772,88868
1587118755609737,4
1587118755731016,4
1587118755832732,63
1587118756128746,89834
1587118756129512,89834
1587118756131888,89834
1587118756134140,89834
1587118756135129,89834
1587118756136018,89834
1587118756150253,89834
1587118756150697,89834
1587118756152051,89834
1587118756152472,89834
1587118756156673,89834
1587118756158610,89834
1587118756170337,89834
1587118756328058,62
1587118756673111,90752
1587118756673802,90752
1587118756675406,90752
1587118756676524,90752
1587118756677067,4
1587118756677590,90752
1587118756678740,90752
1587118756682481,90752
1587118756684516,90752
1587118756685211,90752
1587118756685840,90752
1587118756686488,90752
1587118756696007,90752
1587118756696451,90752
1587118756866137,62
1587118756914679,62
1587118757190891,4
1587118757202671,90476
1587118757204929,90476
1587118757208127,90476
1587118757208681,90476
1587118757220276,90476
1587118757221763,90476
1587118757222621,90476
1587118757232832,90476
1587118757233581,90476
1587118757234498,90476
1587118757235436,90476
1587118757236405,90476
1587118757237674,90476
1587118757305583,63
1587118757544398,63
1587118757756773,90554
1587118757758453,90554
1587118757759431,90554
1587118757763272,90554
1587118757764220,90554
1587118757764925,90554
1587118757767190,90554
1587118757768829,90554
1587118757771415,90554
1587118757782807,90554
1587118757785596,90554
1587118757787023,90554
1587118757787619,90554
1587118758209970,4
1587118758293147,91033
1587118758293557,91033
1587118758294473,91033
1587118758295302,91033
1587118758309040,91033
1587118758317139,91033
1587118758340812,91033
1587118758343418,91033
1587118758346103,91033
1587118758348015,91033
1587118758352351,91033
1587118758364763,91033
1587118758365132,91033
1587118758878286,93100
1587118758892766,93100
1587118758896199,93100
1587118758898284,93100
1587118758898621,93100
1587118758910005,93100
1587118758911104,93100
1587118758918743,93100
1587118758930751,93100
1587118758933304,93100
1587118758945770,93100
1587118758948563,93100
1587118758962754,93100
1587118759471027,91692
1587118759472368,91692
1587118759487386,91692
1587118759489231,91692
1587118759490099,91692
1587118759490590,91692
1587118759507115,91692
1587118759508820,91692
1587118759521142,91692
1587118759525038,91692
1587118759528375,91692
1587118759541196,91692
1587118759553755,91692
1587118760055898,93478
1587118760057748,93478
1587118760058849,93478
1587118760072815,93478
1587118760074270,93478
1587118760076501,93478
1587118760077255,93478
1587118760079608,93478
1587118760080154,93478
1587118760096321,93478
1587118760098219,93478
1587118760111342,93478
1587118760125751,93478
1587118760634253,93051
1587118760634878,93051
1587118760639577,93051
1587118760654756,93051
1587118760657257,93051
1587118760659450,93051
1587118760662388,93051
1587118760674964,93051
1587118760675995,93051
1587118760678237,93051
1587118760690772,93051
1587118760691796,93051
1587118760693098,93051
1587118760728280,62
1587118761173132,62
1587118761205182,93618
1587118761206866,93618
1587118761209250,93618
1587118761212174,93618
1587118761224837,93618
1587118761225560,93618
1587118761226925,93618
1587118761240043,93618
1587118761240965,93618
1587118761241292,93618
1587118761244777,93618
1587118761246363,93618
1587118761247182,93618
1587118761467354,37
1587118761808652,94292
1587118761809101,94292
1587118761822010,94292
1587118761825250,94292
1587118761841801,94292
1587118761845315,94292
1587118761846166,94292
1587118761858781,94292
1587118761864882,94292
1587118762288499,62
1587118763777065,4
1587118764105322,37
1587118764155349,37
1587118765370696,4
1587118765704888,94292
1587118765716771,94292
1587118765718008,94292
1587118765722688,94292
1587118766226986,103074
1587118766227360,103074
1587118766229370,103074
1587118766233278,103074
1587118766245867,103074
1587118766247063,103074
1587118766249023,103074
1587118766250926,103074
1587118766253357,103074
1587118766266807,103074
1587118766269177,103074
1587118766271210,103074
1587118766283793,103074
1587118766802425,98077
1587118766804344,98077
1587118766806637,98077
1587118766818850,98077
1587118766821315,98077
1587118766822975,98077
1587118766835036,98077
1587118766848772,98077
1587118766852385,98077
1587118766875963,98077
1587118766877171,98077
1587118766877504,98077
1587118766879584,98077
1587118767402704,98073
1587118767404953,98073
1587118767415969,98073
1587118767417942,98073
1587118767421680,98073
1587118767422789,98073
1587118767435122,98073
1587118767438636,98073
1587118767440727,98073
1587118767442803,98073
1587118767443982,98073
1587118767445977,98073
1587118767457124,98073
1587118767962823,98574
1587118767974471,98574
1587118767977165,98574
1587118767978295,98574
1587118767979629,98574
1587118767982223,98574
1587118768005758,98574
1587118768007877,98574
1587118768011650,98574
1587118768013691,98574
1587118768025606,98574
1587118768026372,98574
1587118768028747,98574
1587118768564413,98911
1587118768567284,98911
1587118768570426,98911
1587118768571828,98911
1587118768584289,98911
1587118768585194,98911
1587118768586144,98911
1587118768588759,98911
1587118768601120,98911
1587118768606068,98911
1587118768619763,98911
1587118768633806,98911
1587118768640369,98911
1587118769147793,99521
1587118769159420,99521
1587118769166012,99521
1587118769170124,99521
1587118769171449,99521
1587118769172475,99521
1587118769187996,99521
1587118769202804,99521
1587118769205068,99521
1587118769205817,99521
1587118769209433,99521
1587118769211455,99521
1587118769223779,99521
1587118769730224,99484
1587118769731035,99484
1587118769731652,99484
1587118769734274,99484
1587118769735557,99484
1587118769738290,99484
1587118769743212,99484
1587118769762591,99484
1587118769776099,99484
1587118769776864,99484
1587118769782184,99484
1587118769784337,62
1587118769785687,99484
1587118769786344,99484
1587118770289796,100393
1587118770291671,100393
1587118770304292,100393
1587118770309173,100393
1587118770312934,100393
1587118770326938,100393
1587118770327978,100393
1587118770330967,100393
1587118770332954,100393
1587118770335898,100393
1587118770340072,100393
1587118770340515,100393
1587118770341201,100393
1587118770912406,100527
1587118770912776,100527
1587118770915942,100527
1587118770930345,100527
1587118770944800,100527
1587118770945465,100527
1587118770953803,100527
1587118770966749,100527
1587118770968973,100527
1587118770974522,100527
1587118770977463,100527
1587118770990780,100527
1587118770992324,100527
1587118771213650,61
1587118771494015,101256
1587118771496382,101256
1587118771496894,101256
1587118771510790,101256
1587118771511341,101256
1587118771513567,101256
1587118771515796,101256
1587118771529560,101256
1587118771535459,101256
1587118771536373,101256
1587118771549905,101256
1587118771562999,101256
1587118771569426,101256
1587118771895244,62
1587118772072454,101938
1587118772084931,101938
1587118772097319,101938
1587118772100619,101938
1587118772106228,101938
1587118772108147,101938
1587118772119157,101938
1587118772133372,101938
1587118772134129,101938
1587118772146244,101938
1587118772148421,101938
1587118772150030,101938
1587118772153403,101938
1587118772660799,101659
1587118772672572,101659
1587118772675432,101659
1587118772677822,101659
1587118772682153,101659
1587118772687598,101659
1587118772688357,101659
1587118772703003,101659
1587118772704650,101659
1587118772705816,101659
1587118772707591,101659
1587118772709237,101659
1587118772710468,101659
1587118773224026,102202
1587118773227406,102202
1587118773229928,102202
1587118773232109,102202
1587118773233800,102202
1587118773234274,102202
1587118773247164,102202
1587118773247634,102202
1587118773261277,102202
1587118773262324,102202
1587118773264252,102202
1587118773276945,102202
1587118773277690,102202
1587118773795147,102194
1587118773814137,102194
1587118773815325,102194
1587118773818739,102194
1587118773826543,102194
1587118773827024,102194
1587118773847834,102194
1587118773862552,102194
1587118773865754,102194
1587118773866172,102194
1587118773878904,102194
1587118773881823,102194
1587118773891634,102194
1587118774246151,37
1587118774248418,37
1587118774249534,37
1587118774421785,102893
1587118774422373,102893
1587118774422892,102893
1587118774424910,102893
1587118774427011,102893
1587118774438539,102893
1587118774443938,102893
1587118774446004,102893
1587118774446392,102893
1587118774459134,102893
1587118774462411,102893
1587118774477630,102893
1587118774492187,102893
1587118775009048,103389
1587118775022465,103389
1587118775026212,103389
1587118775037290,103389
1587118775039787,103389
1587118775042305,103389
1587118775043518,103389
1587118775045916,103389
1587118775047144,103389
1587118775060217,103389
1587118775062107,103389
1587118775062588,103389
1587118775062933,103389
1587118775575554,103811
1587118775587057,103811
1587118775592212,103811
1587118775606050,103811
1587118775617330,103811
1587118775624988,103811
1587118775639971,103811
1587118775659477,103811
1587118775661498,103811
1587118775663022,103811
1587118775667635,103811
1587118775671611,103811
1587118775672327,103811
1587118776187955,103868
1587118776188835,103868
1587118776193785,103868
1587118776206797,103868
1587118776208279,103868
1587118776220778,103868
1587118776222514,103868
1587118776223842,103868
1587118776225396,103868
1587118776225912,103868
1587118776236812,103868
1587118776237361,103868
1587118776239691,103868
1587118776757346,104911
1587118776758302,104911
1587118776760292,104911
1587118776761549,104911
1587118776762228,104911
1587118776764141,104911
1587118776767958,104911
1587118776770506,104911
1587118777151388,62
1587118777365704,63
1587118777784050,104911
1587118777786531,104911
1587118777791132,104911
1587118777802639,104911
1587118777804810,104911
1587118778311039,107435
1587118778313770,107435
1587118778317680,107435
1587118778318462,107435
1587118778322049,107435
1587118778334670,107435
1587118778336855,107435
1587118778348131,107435
1587118778349319,107435
1587118778349898,107435
1587118778355811,107435
1587118778359273,107435
1587118778362983,107435
1587118778879353,106543
1587118778883721,106543
1587118778887095,106543
1587118778889580,106543
1587118778896852,106543
1587118778910645,106543
1587118778922127,106543
1587118778925069,106543
1587118778926978,106543
1587118778929000,106543
1587118778929856,106543
1587118778933496,106543
1587118778935859,106543
1587118779448787,107775
1587118779451142,107775
1587118779455893,107775
1587118779458880,107775
1587118779461116,107775
1587118779468644,107775
1587118779469353,107775
1587118779469695,107775
1587118779491795,107775
1587118779497770,107775
1587118779503034,107775
1587118779505303,107775
1587118779508484,107775
1587118780021795,106957
1587118780026167,106957
1587118780026530,106957
1587118780042804,106957
1587118780045050,106957
1587118780045477,106957
1587118780057832,106957
1587118780058677,106957
1587118780059836,106957
1587118780063248,106957
1587118780063774,106957
1587118780069102,106957
1587118780081986,106957
1587118780591433,108082
1587118780595364,108082
1587118780595794,108082
1587118780599428,108082
1587118780604421,108082
1587118780607334,108082
1587118780619671,108082
1587118780622310,108082
1587118780622643,108082
1587118780634334,108082
1587118780642249,108082
1587118780645988,108082
1587118780664876,108082
1587118781177807,107955
1587118781178754,107955
1587118781182247,107955
1587118781184039,107955
1587118781199760,107955
1587118781201845,107955
1587118781202494,107955
1587118781215975,107955
1587118781218450,107955
1587118781221476,107955
1587118781225099,107955
1587118781227482,107955
1587118781240121,107955
1587118781746856,108449
1587118781749376,108449
1587118781768657,108449
1587118781783813,108449
1587118781789094,108449
1587118781791182,108449
1587118781791921,108449
1587118781797425,108449
1587118781811603,108449
1587118781814900,108449
1587118781836294,108449
1587118781844936,108449
1587118781849089,108449
1587118782357517,109448
1587118782358026,109448
1587118782362010,109448
1587118782364322,109448
1587118782376846,109448
1587118782380428,109448
1587118782383256,109448
1587118782394105,109448
1587118782396793,109448
1587118782401683,109448
1587118782413797,109448
1587118782416930,109448
1587118782417334,109448
1587118782921482,109122
1587118782922781,109122
1587118782925262,109122
1587118782927481,109122
1587118782929650,109122
1587118782930045,109122
1587118782942771,109122
1587118782959794,109122
1587118782963331,109122
1587118782964378,109122
1587118782966441,109122
1587118782969191,109122
1587118782970641,109122
1587118783479779,109756
1587118783482235,109756
1587118783487609,109756
1587118783488857,109756
1587118783503833,109756
1587118783507844,109756
1587118783508196,109756
1587118783512817,109756
1587118783513902,109756
1587118783514305,109756
1587118783515424,109756
1587118783518220,109756
1587118783532966,109756
1587118784044686,110159
1587118784045559,110159
1587118784050120,110159
1587118784051040,110159
1587118784051811,110159
1587118784065809,110159
1587118784068381,110159
1587118784068875,110159
1587118784071102,110159
1587118784071450,110159
1587118784074902,110159
1587118784087545,110159
1587118784088057,110159
1587118784273159,37
1587118784592546,110727
1587118784605272,110727
1587118784609672,110727
1587118784610951,110727
1587118784613650,110727
1587118784627417,110727
1587118784630144,110727
1587118784630635,110727
1587118784645833,110727
1587118784648442,110727
1587118784648885,110727
1587118784654192,110727
1587118784656235,110727
1587118785160653,111194
1587118785161890,111194
1587118785162565,111194
1587118785165598,111194
1587118785177094,111194
1587118785190850,111194
1587118785191863,111194
1587118785193606,111194
1587118785197483,111194
1587118785202681,111194
1587118785203161,111194
1587118785207923,111194
1587118785211914,111194
1587118785723958,112494
1587118785724359,112494
1587118785726961,112494
1587118785728094,112494
1587118785730423,112494
1587118785731763,112494
1587118785733216,112494
1587118785734370,112494
1587118785735468,112494
1587118785737341,112494
1587118785738427,112494
1587118785741154,112494
1587118785754807,112494
1587118786266395,111864
1587118786269109,111864
1587118786271311,111864
1587118786272214,111864
1587118786285227,111864
1587118786288683,111864
1587118786290749,111864
1587118786293947,111864
1587118786295162,111864
1587118786299254,111864
1587118786302597,111864
1587118786306591,111864
1587118786308049,111864
1587118786809828,112684
1587118786813298,112684
1587118786815179,112684
1587118786816199,112684
1587118786822071,112684
1587118786824516,112684
1587118786826291,112684
1587118786829913,112684
1587118786834003,112684
1587118786835637,112684
1587118786836101,112684
1587118786838124,112684
1587118786838513,112684
1587118787356125,112401
1587118787359496,112401
1587118787366522,112401
1587118787370167,112401
1587118787371050,112401
1587118787374563,112401
1587118787376874,112401
1587118787378510,112401
1587118787379662,112401
1587118787381496,112401
1587118787387284,112401
1587118787394488,112401
1587118787398197,112401
1587118787902558,112597
1587118787906112,112597
1587118787907504,112597
1587118787909979,112597
1587118787922620,112597
1587118787926378,112597
1587118787928624,112597
1587118787939156,112597
1587118787940815,112597
1587118787964122,112597
1587118787965288,112597
1587118787968667,112597
1587118787969185,112597
1587118788475924,113452
1587118788477829,113452
1587118788479548,113452
1587118788482975,113452
1587118788485156,113452
1587118788488239,113452
1587118788489944,113452
1587118788491440,113452
1587118788492390,113452
1587118788504126,113452
1587118788505843,113452
1587118788506523,113452
1587118788508361,113452
1587118789011764,113413
1587118789016950,113413
1587118789030116,113413
1587118789031048,113413
1587118789033395,113413
1587118789034590,113413
1587118789039123,113413
1587118789042596,113413
1587118789045284,113413
1587118789046177,113413
1587118789047687,113413
1587118789056632,113413
1587118789058020,113413
1587118789563683,115359
1587118789564667,115359
1587118789572428,115359
1587118789574021,115359
1587118789596835,115359
1587118789611254,115359
1587118789613098,115359
1587118789618200,115359
1587118789619154,115359
1587118789622839,115359
1587118789625573,115359
1587118789631532,115359
1587118789632832,115359
1587118790286696,114446
1587118790287107,114446
1587118790291706,114446
1587118790303870,114446
1587118790308893,114446
1587118790309321,114446
1587118790313498,114446
1587118790326164,114446
1587118790328423,114446
1587118790332349,114446
1587118790345873,114446
1587118790347099,114446
1587118790347938,114446
1587118790851374,115410
1587118790864080,115410
1587118790867765,115410
1587118790868183,115410
1587118790873099,115410
1587118790876396,115410
1587118790878452,115410
1587118790882552,115410
1587118790894819,115410
1587118790916984,115410
1587118790919822,115410
1587118790921893,115410
1587118790925960,115410
1587118792468979,115630
1587118792472071,115630
1587118792474415,115630
1587118792480583,115630
1587118792483205,115630
1587118792485935,115630
1587118792487821,115630
1587118792488942,115630
1587118792493916,115630
1587118792497200,115630
1587118792509814,115630
1587118792510994,115630
1587118792513459,115630
1587118792669576,60
1587118793021343,116678
1587118793022930,116678
1587118793035307,116678
1587118793036965,116678
1587118793041071,116678
1587118793046444,116678
1587118793049128,116678
1587118793052408,116678
1587118793055495,116678
1587118793056404,116678
1587118793059185,116678
1587118793061931,116678
1587118793074982,116678
1587118793577295,116655
1587118793589924,116655
1587118793592494,116655
1587118793604944,116655
1587118793605890,116655
1587118793611578,116655
1587118793611947,116655
1587118793618769,116655
1587118793619959,116655
1587118793620503,116655
1587118793626738,116655
1587118793642876,116655
1587118793657984,116655
1587118794173847,116861
1587118794188840,116861
1587118794193083,116861
1587118794195963,116861
1587118794198976,116861
1587118794213227,116861
1587118794214075,116861
1587118794215069,116861
1587118794217918,116861
1587118794221076,116861
1587118794223347,116861
1587118794226858,116861
1587118794241523,116861
1587118794754846,117103
1587118794768522,117103
1587118794774057,117103
1587118794777011,117103
1587118794777686,117103
1587118794784783,117103
1587118794790435,117103
1587118794801972,117103
1587118794815143,117103
1587118794817878,117103
1587118794818793,117103
1587118794823841,117103
1587118794824933,117103
1587118795061087,62
1587118795331544,116932
1587118795333770,116932
1587118795335322,116932
1587118795342403,116932
1587118795344219,116932
1587118795357928,116932
1587118795369169,116932
1587118795372106,116932
1587118795374830,116932
1587118795375595,116932
1587118796445830,116932
1587118796448071,116932
1587118796449490,116932
1587118796953006,120606
1587118796956448,120606
1587118796957651,120606
1587118796961215,120606
1587118796973446,120606
1587118796974866,120606
1587118796977297,120606
1587118796981061,120606
1587118796983095,120606
1587118796984309,120606
1587118796988679,120606
1587118796990064,120606
1587118796994197,120606
1587118797511051,119653
1587118797511762,119653
1587118797514372,119653
1587118797515890,119653
1587118797520257,119653
1587118797537775,119653
1587118797540752,119653
1587118797551841,119653
1587118797553529,119653
1587118797558212,119653
1587118797559045,119653
1587118797560412,119653
1587118797565369,119653
1587118798031123,62
1587118798070578,119103
1587118798071258,119103
1587118798083843,119103
1587118798095991,119103
1587118798101603,119103
1587118798112232,119103
1587118798135829,119103
1587118798137463,119103
1587118798138432,119103
1587118798141604,119103
1587118798142742,119103
1587118798156818,119103
1587118798160548,119103
1587118798665688,120395
1587118798670352,120395
1587118798673755,120395
1587118798685308,120395
1587118798696581,120395
1587118798711490,120395
1587118798711917,120395
1587118798714169,120395
1587118798718049,120395
1587118798730819,120395
1587118798734450,120395
1587118798735439,120395
1587118798747144,120395
1587118799333698,120388
1587118799347193,120388
1587118799348674,120388
1587118799349751,120388
1587118799353022,120388
1587118799364827,120388
1587118800006190,120388
1587118800011513,120388
1587118800017097,120388
1587118800017527,120388
1587118800020622,120388
1587118800032859,120388
1587118800038746,120388
1587118800307802,63
1587118800543565,121777
1587118800544425,121777
1587118800548326,121777
1587118800564806,121777
1587118800577023,121777
1587118800579695,121777
1587118800584620,121777
1587118800585264,121777
1587118800598214,121777
1587118800602578,121777
1587118800616054,121777
1587118800618541,121777
1587118800619417,121777
1587118801140862,121014
1587118801154313,121014
1587118801160121,121014
1587118801183877,121014
1587118801197320,121014
1587118801200199,121014
1587118801213148,121014
1587118801217545,121014
1587118801230415,121014
1587118802252792,121014
1587118802266275,121014
1587118802267892,121014
1587118802285797,121014
1587118802787813,123457
1587118802812746,123457
1587118802817809,123457
1587118802821601,123457
1587118802833578,123457
1587118802846548,123457
1587118802867802,123457
1587118802868439,123457
1587118802883836,123457
1587118802884764,123457
1587118802887235,123457
1587118802890988,123457
1587118802902218,123457
1587118803409893,122671
1587118803416524,122671
1587118803428851,122671
1587118803435474,122671
1587118803448847,122671
1587118803453131,122671
1587118803457894,122671
1587118803480783,122671
1587118803481812,122671
1587118803484762,122671
1587118803489627,122671
1587118803511831,122671
1587118803515218,122671
1587118804033784,124241
1587118804050099,124241
1587118804050939,124241
1587118804070359,124241
1587118804083126,124241
1587118804096342,124241
1587118804110971,124241
1587118804123831,124241
1587118804136879,124241
1587118804140129,124241
1587118804142673,124241
1587118804143408,124241
1587118804144039,124241
1587118804657169,123729
1587118804668082,123729
1587118804680847,123729
1587118804693876,123729
1587118804695345,123729
1587118804706254,123729
1587118804707385,123729
1587118804709973,123729
1587118804723630,123729
1587118804730654,123729
1587118804734353,123729
1587118804738252,123729
1587118804758401,123729
1587118806277911,124429
1587118806283050,124429
1587118806284541,124429
1587118806285999,124429
1587118806288650,124429
1587118806295536,124429
1587118806308242,124429
1587118806312066,124429
1587118806314125,124429
1587118806316335,124429
1587118806317190,124429
1587118806320277,124429
1587118806321590,124429
