1587118630458591,30
1587118630976732,23
1587118631175857,23
1587118631176208,29
1587118631179140,29
1587118631184089,29
1587118631206712,29
1587118631903752,48
1587118631934803,48
1587118631982639,48
1587118631992894,48
1587118632003652,48
1587118632006205,23
1587118632507903,123
1587118632509362,123
1587118632509995,123
1587118632510616,123
1587118632533447,123
1587118632540089,123
1587118632552613,123
1587118632591217,123
1587118632604226,123
1587118632645867,123
1587118632658202,123
1587118632660854,123
1587118632662135,123
1587118633192635,123
1587118633194389,123
1587118633195702,123
1587118633196637,123
1587118633198514,123
1587118633199689,123
1587118633201267,123
1587118633221338,123
1587118633224297,123
1587118633225420,123
1587118633236945,123
1587118633269558,123
1587118633270710,123
1587118633774882,123
1587118633778462,123
1587118633781068,123
1587118633782570,123
1587118633783539,123
1587118633784536,123
1587118633804500,123
1587118633843884,123
1587118633845713,123
1587118633848952,123
1587118633849982,123
1587118633850936,123
1587118633855477,123
1587118634407729,123
1587118634409370,123
1587118634411291,123
1587118634411876,123
1587118634412915,123
1587118634413567,123
1587118634414678,123
1587118634415080,123
1587118634415961,123
1587118634417446,123
1587118634420597,123
1587118634423393,123
1587118634427581,123
1587118634900552,407
1587118635751777,2901
1587118635845486,2901
1587118635857958,2901
1587118635862932,2901
1587118635865944,2901
1587118635866634,2901
1587118635867099,2901
1587118635867800,2901
1587118635869107,2901
1587118635881439,2901
1587118635882664,2901
1587118635896870,2901
1587118635904160,2901
1587118636407999,8753
1587118636409278,8753
1587118636410704,8753
1587118636411853,8753
1587118636413359,8753
1587118636416673,8753
1587118636429974,8753
1587118636444642,8753
1587118636456513,8753
1587118636468418,8753
1587118636469265,8753
1587118636470205,8753
1587118636475895,8753
1587118636991310,6546
1587118636992677,6546
1587118636993868,6546
1587118636994801,6546
1587118637004860,6546
1587118637006122,6546
1587118637007118,6546
1587118637011087,6546
1587118637012178,6546
1587118637015292,6546
1587118637027463,6546
1587118637039241,6546
1587118637043014,6546
1587118637552445,5538
1587118637553624,5538
1587118637556676,5538
1587118637559117,5538
1587118637561066,5538
1587118637564368,5538
1587118637569506,5538
1587118637570696,5538
1587118637572369,5538
1587118637575895,5538
1587118637584335,5538
1587118637595557,5538
1587118637596509,5538
1587118638100718,5492
1587118638103562,5492
1587118638105218,5492
1587118638110649,5492
1587118638113026,5492
1587118638114544,5492
1587118638128981,5492
1587118638130112,5492
1587118638131988,5492
1587118638134448,5492
1587118638137921,5492
1587118638144461,5492
1587118638163126,5492
1587118638671586,5995
1587118638673124,5995
1587118638676199,5995
1587118638676915,5995
1587118638677606,5995
1587118638678189,5995
1587118638678932,5995
1587118638681058,5995
1587118638681751,5995
1587118638682134,5995
1587118638684461,5995
1587118638695572,5995
1587118638696695,5995
1587118639204545,7915
1587118639205482,7915
1587118639206163,7915
1587118639206564,7915
1587118639207501,7915
1587118639209271,7915
1587118639210799,7915
1587118639211484,7915
1587118639215722,7915
1587118639216479,7915
1587118639219061,7915
1587118642234614,7915
1587118642236706,7915
1587118642742132,12382
1587118642753589,12382
1587118642755542,12382
1587118642766798,12382
1587118642768006,12382
1587118642776264,12382
1587118642778986,12382
1587118642779765,12382
1587118642780491,12382
1587118642791869,12382
1587118642794700,12382
1587118642795490,12382
1587118642796569,12382
1587118643333383,8980
1587118643334265,8980
1587118643350626,8980
1587118643352987,8980
1587118643353890,8980
1587118643354849,8980
1587118643355595,8980
1587118643363256,8980
1587118643374567,8980
1587118643375540,8980
1587118643407707,8980
1587118643412893,8980
1587118643414232,8980
1587118647046561,410
1587118647067165,11536
1587118647071823,11536
1587118647082539,11536
1587118647083607,11536
1587118650089034,11536
1587118650091145,11536
1587118650092103,11536
1587118650092794,11536
1587118650094732,11536
1587118650095707,11536
1587118650096076,11536
1587118650109741,11536
1587118650111642,11536
1587118650622662,20682
1587118650624147,20682
1587118650625279,20682
1587118650627272,20682
1587118650628384,20682
1587118650629385,20682
1587118650630743,20682
1587118650631681,20682
1587118650632173,20682
1587118650638839,20682
1587118650641332,20682
1587118650652687,20682
1587118650654801,20682
1587118651157299,15648
1587118651158344,15648
1587118651159366,15648
1587118651160232,15648
1587118651161111,15648
1587118651162029,15648
1587118651165011,15648
1587118651166406,15648
1587118651178527,15648
1587118651179842,15648
1587118651181798,15648
1587118651183343,15648
1587118651184078,15648
1587118654008805,15146
1587118654014878,15146
1587118654015700,15146
1587118654016423,15146
1587118654016773,15146
1587118654020407,15146
1587118654022071,15146
1587118654022484,15146
1587118654023804,15146
1587118654034813,15146
1587118654057707,15146
1587118654059363,15146
1587118654060072,15146
1587118654565838,17128
1587118654566682,17128
1587118654567495,17128
1587118654568494,17128
1587118654570588,17128
1587118654571307,17128
1587118654572577,17128
1587118654574837,17128
1587118654575847,17128
1587118654587415,17128
1587118654590806,17128
1587118654601891,17128
1587118654612670,17128
1587118655114679,16553
1587118655116392,16553
1587118655119425,16553
1587118655130733,16553
1587118655133857,16553
1587118655134922,16553
1587118655135400,16553
1587118655153050,16553
1587118655154997,16553
1587118655157392,16553
1587118655158543,16553
1587118655171863,16553
1587118655174368,16553
1587118655680825,16445
1587118656682885,16445
1587118656684018,16445
1587118656687166,16445
1587118656688229,16445
1587118656688983,16445
1587118656690157,16445
1587118656703431,16445
1587118656704809,16445
1587118656705477,16445
1587118656707371,16445
1587118656718942,16445
1587118656719504,16445
1587118657220365,17513
1587118657221100,17513
1587118664240848,17513
1587118664241732,17513
1587118664242529,17513
1587118664243758,17513
1587118664266424,17513
1587118664269718,17513
1587118664271280,17513
1587118664272676,17513
1587118664273469,17513
1587118664274310,17513
1587118664275138,17513
1587118664304737,61
1587118664787698,27505
1587118664798892,27505
1587118664811371,27505
1587118664812514,27505
1587118664826527,27505
1587118664831021,27505
1587118664832474,27505
1587118664837968,27505
1587118667845004,27505
1587118670259066,27505
1587118670281241,27505
1587118670281891,27505
1587118670282646,27505
1587118670794780,32327
1587118670795746,32327
1587118670796515,32327
1587118670797743,32327
1587118670798459,32327
1587118670799475,32327
1587118670800237,32327
1587118670800911,32327
1587118670801737,32327
1587118670803639,32327
1587118670808982,32327
1587118670809764,32327
1587118670810464,32327
1587118671315184,26588
1587118671327010,26588
1587118671337595,26588
1587118671338423,26588
1587118671339139,26588
1587118671340050,26588
1587118671341012,26588
1587118671351176,26588
1587118671351883,26588
1587118671352523,26588
1587118671355514,26588
1587118671356618,26588
1587118671357173,26588
1587118671368660,60
1587118671868969,27521
1587118671870367,27521
1587118671881756,27521
1587118671882209,27521
1587118671882901,27521
1587118671884205,27521
1587118671885011,27521
1587118671895706,27521
1587118671896293,27521
1587118671897487,27521
1587118671908619,27521
1587118671909479,27521
1587118671920803,27521
1587118671984177,37
1587118672429566,27174
1587118672430805,27174
1587118672441566,27174
1587118672442211,27174
1587118672442985,27174
1587118672445148,27174
1587118672446313,27174
1587118672446817,27174
1587118672448030,27174
1587118672458724,27174
1587118672469771,27174
1587118672470486,27174
1587118672471635,27174
1587118672689841,4
1587118685774276,4
1587118685774752,62
1587118685775961,62
1587118685776721,63
1587118685778179,62
1587118685783126,62
1587118685784254,62
1587118685801447,60
1587118685813223,42169
1587118685814316,42169
1587118685815526,42169
1587118685817463,42169
1587118685818787,42169
1587118685819867,42169
1587118685821409,42169
1587118685834983,42169
1587118685858764,42169
1587118685860050,42169
1587118685862019,42169
1587118685863614,42169
1587118685874906,42169
1587118687431178,62
1587118687436244,36355
1587118687436834,62
1587118687437120,36355
1587118687438218,36355
1587118687449742,36355
1587118687450301,36355
1587118687451205,36355
1587118687462681,36355
1587118687473918,36355
1587118687484791,36355
1587118687485700,36355
1587118687487103,36355
1587118687487738,36355
1587118687489096,36355
1587118687837937,62
1587118687990949,38924
1587118687991941,38924
1587118687992950,38924
1587118687993928,38924
1587118687999430,38924
1587118688013993,38924
1587118688015137,38924
1587118688026976,38924
1587118688041178,38924
1587118688042277,38924
1587118688054303,38924
1587118688055384,38924
1587118688056273,38924
1587118688563051,37940
1587118688563981,37940
1587118688565549,37940
1587118688566384,37940
1587118688567860,37940
1587118688568769,37940
1587118688572229,37940
1587118688575075,37940
1587118688588532,37940
1587118688590880,37940
1587118688591828,37940
1587118688603283,37940
1587118688614740,37940
1587118688834649,62
1587118689126153,38473
1587118689127045,38473
1587118689128053,38473
1587118689129005,38473
1587118689130050,38473
1587118689130449,38473
1587118689131146,38473
1587118689145462,38473
1587118689158936,38473
1587118689165246,38473
1587118689166545,38473
1587118689189665,38473
1587118689190952,38473
1587118689323576,62
1587118689610974,62
1587118689694713,38937
1587118689695623,38937
1587118689696465,38937
1587118689697278,38937
1587118689698223,38937
1587118689715323,38937
1587118689721745,38937
1587118689722795,38937
1587118689734881,38937
1587118689749322,38937
1587118689765460,38937
1587118689768393,38937
1587118689769533,38937
1587118689906817,62
1587118690080273,62
1587118690281245,38405
1587118690282095,38405
1587118690282827,38405
1587118690284643,38405
1587118690286276,38405
1587118690287709,38405
1587118690291285,38405
1587118690316462,38405
1587118690318974,38405
1587118690330204,38405
1587118690330944,62
1587118690342270,38405
1587118690343201,38405
1587118690343974,38405
1587118690857635,39405
1587118690858858,39405
1587118690859560,39405
1587118690860271,39405
1587118690861254,39405
1587118690862091,39405
1587118690862990,39405
1587118690865671,39405
1587118690866584,39405
1587118690869096,39405
1587118690879615,39405
1587118690880520,39405
1587118691027134,62
1587118691886155,39405
1587118692003094,63
1587118692405292,41840
1587118692406120,41840
1587118692406620,41840
1587118692408012,41840
1587118692408491,41840
1587118692409080,41840
1587118692411087,41840
1587118692422729,41840
1587118692425690,41840
1587118692426645,41840
1587118692427924,41840
1587118692437184,41840
1587118692438032,41840
1587118692713785,62
1587118692942257,40361
1587118692943445,40361
1587118692945535,40361
1587118692946418,40361
1587118692958092,40361
1587118692969632,40361
1587118692970130,40361
1587118692980728,40361
1587118692991721,40361
1587118692992580,40361
1587118692993198,40361
1587118692994465,40361
1587118692995579,40361
1587118693155109,63
1587118693512670,40557
1587118693513957,40557
1587118693515114,40557
1587118693515989,40557
1587118693526576,40557
1587118693527645,40557
1587118693528825,40557
1587118693529650,40557
1587118694216143,63
1587118694538743,40557
1587118694540463,40557
1587118694541251,40557
1587118694541795,40557
1587118694542502,40557
1587118695051916,41686
1587118695052950,41686
1587118695053821,41686
1587118695054847,41686
1587118695056140,41686
1587118695056718,41686
1587118695068481,41686
1587118695070329,41686
1587118695073530,41686
1587118695085208,41686
1587118695086132,41686
1587118695087429,41686
1587118695087927,41686
1587118695589762,41563
1587118695591586,41563
1587118695597787,41563
1587118695602100,41563
1587118695605291,41563
1587118695619770,41563
1587118695642550,41563
1587118695644206,41563
1587118695661827,41563
1587118695663599,41563
1587118695665858,41563
1587118695671138,41563
1587118695672098,41563
1587118695679028,62
1587118695842976,37
1587118696183084,41300
1587118696183505,37
1587118696183938,41300
1587118696185080,41300
1587118696186021,41300
1587118696192765,41300
1587118696198687,41300
1587118696199763,41300
1587118696211104,41300
1587118696223584,41300
1587118696225513,41300
1587118696227115,41300
1587118696228144,41300
1587118696229066,41300
1587118696524005,63
1587118696550255,37
1587118696739955,41774
1587118696751810,41774
1587118696752938,41774
1587118696753884,41774
1587118696754941,41774
1587118696755732,41774
1587118696756563,41774
1587118696757465,41774
1587118696762121,41774
1587118696774643,41774
1587118696813308,63
1587118696824497,37
1587118697004362,37
1587118697510822,63
1587118697511206,37
1587118697700211,37
1587118697835183,37
1587118698053797,63
1587118698078620,37
1587118698244754,37
1587118698443308,63
1587118698456785,37
1587118698814524,37
1587118699005552,37
1587118699203529,37
1587118699317134,37
1587118699317753,63
1587118699419198,37
1587118699558816,37
1587118699695439,37
1587118702318047,63
1587118703799738,41774
1587118703800336,41774
1587118703805585,41774
1587118704313902,51445
1587118704315971,51445
1587118704316337,51445
1587118704317262,51445
1587118704318334,51445
1587118704321366,51445
1587118704332641,51445
1587118704347395,51445
1587118704348383,51445
1587118704348857,51445
1587118704349857,51445
1587118704352257,51445
1587118704363796,51445
1587118704867980,47489
1587118704869751,47489
1587118704871159,47489
1587118704872158,47489
1587118704873934,47489
1587118704874862,47489
1587118704875763,47489
1587118704876855,47489
1587118704878649,47489
1587118704879463,47489
1587118704885996,47489
1587118704888516,47489
1587118704899616,47489
1587118705409073,47750
1587118705410047,47750
1587118705410620,47750
1587118705411319,47750
1587118705413263,47750
1587118705414191,47750
1587118705415668,47750
1587118705416549,47750
1587118705417465,47750
1587118705418215,47750
1587118705418846,47750
1587118705419704,47750
1587118705432743,47750
1587118705941320,49893
1587118705942724,49893
1587118705944146,49893
1587118705946297,49893
1587118705947567,49893
1587118705948889,49893
1587118705949847,49893
1587118705952654,49893
1587118705954536,49893
1587118705966658,49893
1587118705967712,49893
1587118705970458,49893
1587118705971210,49893
1587118706484601,51292
1587118706486044,51292
1587118706488262,51292
1587118706489619,51292
1587118706494773,51292
1587118706506499,51292
1587118706507616,51292
1587118706509285,51292
1587118706532784,51292
1587118706533753,51292
1587118706536668,51292
1587118706538216,51292
1587118706539303,51292
1587118707221475,53542
1587118707225566,53542
1587118707229880,53542
1587118707231012,53542
1587118707242731,53542
1587118707253863,53542
1587118707850021,37
1587118708262731,53542
1587118708265463,53542
1587118708266414,53542
1587118708278272,53542
1587118708280977,53542
1587118708293725,53542
1587118708295685,53542
1587118708810175,57535
1587118708811121,57535
1587118708811935,57535
1587118708813152,57535
1587118708814207,57535
1587118708826211,57535
1587118708826934,57535
1587118708828171,57535
1587118708829826,57535
1587118708841970,57535
1587118708847639,57535
1587118708859882,57535
1587118708862206,57535
1587118709369877,54317
1587118709370292,54317
1587118709371067,54317
1587118709371542,54317
1587118709372372,54317
1587118709373276,54317
1587118709374256,54317
1587118709376283,54317
1587118709387789,54317
1587118709389576,54317
1587118709400697,54317
1587118709404428,54317
1587118709405161,54317
1587118710051493,54556
1587118710053238,54556
1587118710053962,54556
1587118710055064,54556
1587118710056012,54556
1587118710067448,54556
1587118710069192,54556
1587118710069808,54556
1587118710071169,54556
1587118710072274,54556
1587118710083554,54556
1587118710085356,54556
1587118710087541,54556
1587118710195051,62
1587118710601305,56592
1587118710602359,56592
1587118711137520,60
1587118711611841,56592
1587118711613018,56592
1587118711613936,56592
1587118711614582,56592
1587118711615756,56592
1587118711616832,56592
1587118711617696,56592
1587118711618541,56592
1587118711629648,56592
1587118711630374,56592
1587118711631073,56592
1587118711767695,4
1587118712149704,58015
1587118712150860,58015
1587118712152018,58015
1587118712152818,58015
1587118712164663,58015
1587118712165444,58015
1587118712166122,58015
1587118712177181,58015
1587118712178839,58015
1587118712180181,58015
1587118712180794,58015
1587118712181496,58015
1587118712184013,58015
1587118712788852,56160
1587118712789918,56160
1587118712791939,56160
1587118712803837,56160
1587118712804775,56160
1587118712806130,56160
1587118712807473,56160
1587118712808024,56160
1587118712809178,56160
1587118712819762,56160
1587118712820531,56160
1587118712820886,56160
1587118712822125,56160
1587118713270217,37
1587118713338579,58267
1587118713339975,58267
1587118713350610,58267
1587118713361680,58267
1587118713372619,58267
1587118713373397,58267
1587118713374324,58267
1587118713375710,58267
1587118713376375,58267
1587118713377518,58267
1587118713378123,58267
1587118713378517,58267
1587118713379885,58267
1587118713892514,57480
1587118713894955,57480
1587118713896020,57480
1587118713897049,57480
1587118713901049,57480
1587118713901519,57480
1587118713902003,57480
1587118713913887,57480
1587118713914917,57480
1587118713916467,57480
1587118713927998,57480
1587118713928939,57480
1587118713930531,57480
1587118714188484,63
1587118714432908,58087
1587118714433732,58087
1587118714434622,58087
1587118714435576,58087
1587118714436511,58087
1587118715295505,63
1587118715439486,58087
1587118715440255,58087
1587118715441591,58087
1587118715452807,58087
1587118715453678,58087
1587118715464552,58087
1587118715465202,58087
1587118715465640,58087
1587118715525982,63
1587118715537902,37
1587118715606469,37
1587118716032680,61243
1587118716033476,61243
1587118716036826,61243
1587118716039133,61243
1587118716039548,61243
1587118716039878,61243
1587118716051050,61243
1587118716051411,61243
1587118716051733,61243
1587118716052511,61243
1587118716054554,61243
1587118716055227,61243
1587118716057755,61243
1587118716572709,60171
1587118716573484,60171
1587118716574529,60171
1587118716576249,60171
1587118716587653,60171
1587118716588582,60171
1587118716588976,60171
1587118716589667,60171
1587118716592339,60171
1587118716593507,60171
1587118716594917,60171
1587118716625140,60171
1587118716635591,60171
1587118717145098,60391
1587118717146327,60391
1587118717157705,60391
1587118717169860,60391
1587118717180763,60391
1587118717181334,60391
1587118717182614,60391
1587118717183398,60391
1587118717184846,60391
1587118717186165,60391
1587118717187500,60391
1587118717191432,60391
1587118717202668,60391
1587118717262733,63
1587118717722635,60687
1587118717723763,60687
1587118717724793,60687
1587118717726071,60687
1587118717727910,60687
1587118717729670,60687
1587118717731501,60687
1587118717742756,60687
1587118717743746,60687
1587118717744645,60687
1587118717745514,60687
1587118717746279,60687
1587118717757582,60687
1587118718267518,37
1587118718268151,61145
1587118718269391,61145
1587118718281251,61145
1587118718282337,61145
1587118718283211,61145
1587118718284126,61145
1587118718285111,61145
1587118718286228,61145
1587118718287809,61145
1587118718288610,61145
1587118718299612,61145
1587118718301321,61145
1587118718312682,61145
1587118718819296,62844
1587118718820228,62844
1587118718821214,62844
1587118718822182,62844
1587118718822573,62844
1587118718823802,62844
1587118718824860,62844
1587118718830588,62844
1587118718841747,62844
1587118718843107,62844
1587118718843901,62844
1587118718854640,62844
1587118718856257,62844
1587118719358384,61753
1587118719359792,61753
1587118719370811,61753
1587118719371992,61753
1587118719372838,61753
1587118719375407,61753
1587118719377124,61753
1587118719378308,61753
1587118719378989,61753
1587118719380299,61753
1587118719383188,61753
1587118719385753,61753
1587118719399310,61753
1587118719900943,63032
1587118719901775,63032
1587118719902796,63032
1587118719903823,63032
1587118719904882,63032
1587118719906276,63032
1587118719907611,63032
1587118719908654,63032
1587118719909332,63032
1587118719920577,63032
1587118719931970,63032
1587118719932410,63032
1587118719933086,63032
1587118720441227,62847
1587118720442144,62847
1587118720443539,62847
1587118720444937,62847
1587118720445562,62847
1587118720447027,62847
1587118721725023,37
1587118721912542,37
1587118722246100,4
1587118723461637,62847
1587118723462224,62847
1587118723473558,62847
1587118723474304,62847
1587118723477137,62847
1587118723478486,62847
1587118723485446,62847
1587118724244467,70756
1587118724245267,70756
1587118724246300,70756
1587118724248285,70756
1587118724407878,63
1587118727259894,70756
1587118727260562,70756
1587118727262169,70756
1587118727262779,70756
1587118727263209,70756
1587118727265696,70756
1587118727266434,70756
1587118727267889,70756
1587118727270320,70756
1587118727774178,72307
1587118727784593,72307
1587118727786219,72307
1587118727786803,72307
1587118727787736,72307
1587118727789300,72307
1587118727791869,72307
1587118727792307,72307
1587118727803946,72307
1587118727805764,72307
1587118727807420,72307
1587118727818622,72307
1587118727819655,72307
1587118728391794,68897
1587118728392560,68897
1587118728395279,68897
1587118728396954,68897
1587118728399254,68897
1587118728399623,68897
1587118728411102,68897
1587118728412645,68897
1587118728413275,68897
1587118728417260,68897
1587118728428926,68897
1587118728439919,68897
1587118728441780,68897
1587118728455223,37
1587118728456498,37
1587118728507745,37
1587118728836493,37
1587118728954594,71064
1587118728965813,71064
1587118728967676,71064
1587118728971019,71064
1587118728972058,71064
1587118728973540,71064
1587118728974319,71064
1587118728975466,71064
1587118728986688,71064
1587118728997602,71064
1587118728999171,71064
1587118729009642,71064
1587118729010474,71064
1587118729125502,37
1587118729487287,37
1587118729524606,69765
1587118729526158,69765
1587118729527028,69765
1587118729528085,69765
1587118729529227,69765
1587118729529854,69765
1587118729540884,69765
1587118729552132,69765
1587118729552756,69765
1587118729553967,69765
1587118729564588,69765
1587118729568083,69765
1587118729569779,69765
1587118730082177,70055
1587118730083079,70055
1587118730085025,70055
1587118730086220,70055
1587118730087057,70055
1587118730088080,70055
1587118730089193,70055
1587118730093050,70055
1587118730118620,70055
1587118730133617,70055
1587118730137466,70055
1587118730141087,70055
1587118730157601,70055
1587118730661589,70193
1587118730662493,70193
1587118730663417,70193
1587118730664649,70193
1587118730665973,70193
1587118730666937,70193
1587118730667980,70193
1587118730668431,70193
1587118730669565,70193
1587118730670007,70193
1587118730712901,70193
1587118730724582,70193
1587118730726047,70193
1587118731228115,71034
1587118731229137,71034
1587118731230071,71034
1587118731231020,71034
1587118731231764,71034
1587118732242648,71034
1587118732243528,71034
1587118732244554,71034
1587118732245442,71034
1587118732246415,71034
1587118732248142,71034
1587118732248930,71034
1587118732249993,71034
1587118732751175,74551
1587118732752259,74551
1587118732753383,74551
1587118732754553,74551
1587118732755448,74551
1587118732759107,74551
1587118732761194,74551
1587118732763453,74551
1587118732769666,74551
1587118732795997,74551
1587118732807660,74551
1587118732808575,74551
1587118732809013,74551
1587118732952979,37
1587118733312058,72712
1587118733323661,72712
1587118733324697,72712
1587118733325470,72712
1587118733326813,72712
1587118733337580,72712
1587118733348074,72712
1587118733359003,72712
1587118733359902,72712
1587118733361413,72712
1587118733362892,72712
1587118733373601,72712
1587118733374199,72712
1587118733879966,73603
1587118733881905,73603
1587118733893598,73603
1587118733894419,73603
1587118733895723,73603
1587118733896680,73603
1587118733897504,73603
1587118733900373,73603
1587118733901416,73603
1587118733913203,73603
1587118733914261,73603
1587118733927072,73603
1587118733929698,73603
1587118734435367,73196
1587118734438915,73196
1587118734439840,73196
1587118734440811,73196
1587118734441666,73196
1587118734442539,73196
1587118734445524,73196
1587118734457671,73196
1587118734458819,73196
1587118734459692,73196
1587118734460189,73196
1587118734461706,73196
1587118734462046,73196
1587118734963985,74048
1587118734966668,74048
1587118734967683,74048
1587118734970283,74048
1587118734971659,74048
1587118734983545,74048
1587118734985786,74048
1587118734986877,74048
1587118734987791,74048
1587118734988610,74048
1587118734989446,74048
1587118735000953,74048
1587118735003233,74048
1587118735515927,74941
1587118735517094,74941
1587118735521994,74941
1587118735523943,74941
1587118735525239,74941
1587118735526128,74941
1587118735528403,74941
1587118735529533,74941
1587118735533758,74941
1587118735534324,74941
1587118735535778,74941
1587118735549622,74941
1587118735550490,74941
1587118736056392,75619
1587118736057140,75619
1587118736810441,37
1587118736813048,37
1587118736933376,37
1587118737131564,37
1587118737160541,37
1587118737162108,37
1587118737164548,37
1587118737486166,37
1587118738293879,61
1587118739073618,75619
1587118739084625,75619
1587118739095709,75619
1587118739097123,75619
1587118740099178,75619
1587118740099874,75619
1587118740101008,75619
1587118740102772,75619
1587118740113602,75619
1587118740114452,75619
1587118740125562,75619
1587118740359811,37
1587118740432229,37
1587118740627006,84527
1587118740627892,84527
1587118740628815,84527
1587118740630065,84527
1587118740631559,84527
1587118740632424,84527
1587118740633927,84527
1587118740645890,84527
1587118740647804,84527
1587118740650602,84527
1587118740652150,84527
1587118740652911,84527
1587118740664088,84527
1587118741165915,80189
1587118741167095,80189
1587118741169465,80189
1587118741170783,80189
1587118741175626,80189
1587118741176518,80189
1587118741187584,80189
1587118741199202,80189
1587118741201642,80189
1587118741212749,80189
1587118741216679,80189
1587118741227951,80189
1587118741228570,80189
1587118741738204,79668
1587118741739371,79668
1587118741740614,79668
1587118741741434,79668
1587118741742596,79668
1587118741743918,79668
1587118741745074,79668
1587118741748549,79668
1587118741759599,79668
1587118741760482,79668
1587118741771576,79668
1587118741772248,79668
1587118741773755,79668
1587118742285680,79953
1587118742286648,79953
1587118742287730,79953
1587118743295813,79953
1587118743307585,79953
1587118743308309,79953
1587118743321598,79953
1587118743322278,79953
1587118743322774,79953
1587118743325595,79953
1587118743336585,79953
1587118743347622,79953
1587118743357150,79953
1587118743870664,81954
1587118743874391,81954
1587118743875687,81954
1587118743876519,81954
1587118743884667,81954
1587118743887297,81954
1587118743888396,81954
1587118743892961,81954
1587118743894441,81954
1587118743895911,81954
1587118743896888,81954
1587118744903645,81954
1587118744904080,81954
1587118745405958,83561
1587118745406870,83561
1587118745408326,83561
1587118745409406,83561
1587118745420692,83561
1587118745422479,83561
1587118745422860,83561
1587118745433639,83561
1587118745435630,83561
1587118745436070,83561
1587118745436808,83561
1587118745437896,83561
1587118745448614,83561
1587118745951025,82538
1587118745953143,82538
1587118745953704,82538
1587118745955583,82538
1587118745955920,82538
1587118745957719,82538
1587118745968711,82538
1587118745979881,82538
1587118745981999,82538
1587118745983921,82538
1587118745987800,82538
1587118745989826,82538
1587118745990308,82538
1587118746502093,82530
1587118746503464,82530
1587118746504903,82530
1587118746507093,82530
1587118746519033,82530
1587118746521270,82530
1587118746522330,82530
1587118746524164,82530
1587118746524568,82530
1587118746526261,82530
1587118746537785,82530
1587118746548843,82530
1587118746549711,82530
1587118747061839,83032
1587118747064290,83032
1587118747076258,83032
1587118747077158,83032
1587118747077628,83032
1587118747078610,83032
1587118748085820,83032
1587118748086737,83032
1587118748087652,83032
1587118748088286,83032
1587118748089441,83032
1587118748090513,83032
1587118748092581,83032
1587118748596405,88122
1587118748608378,88122
1587118748621380,88122
1587118748623573,88122
1587118748625908,88122
1587118748627051,88122
1587118748629909,88122
1587118748630320,88122
1587118748633087,88122
1587118748636722,88122
1587118748648395,88122
1587118748662384,88122
1587118748666305,88122
1587118749173829,86126
1587118749174632,86126
1587118749175103,86126
1587118749177236,86126
1587118749189606,86126
1587118749194258,86126
1587118749196835,86126
1587118749198403,86126
1587118749199038,86126
1587118749200878,86126
1587118749212006,86126
1587118749214148,86126
1587118749216337,86126
1587118749717536,85976
1587118749728723,85976
1587118749730877,85976
1587118749732467,85976
1587118749734254,85976
1587118749734653,85976
1587118749736617,85976
1587118749737499,85976
1587118749748763,85976
1587118749749772,85976
1587118749763629,85976
1587118749765833,85976
1587118749766931,85976
1587118749985036,61
1587118750269585,86024
1587118750270555,86024
1587118750273005,86024
1587118750276077,86024
1587118750277719,86024
1587118750279224,86024
1587118750279743,86024
1587118750280128,4
1587118750280425,86024
1587118750282518,86024
1587118750283037,86024
1587118750293681,86024
1587118750296183,86024
1587118750298102,86024
1587118750811555,87652
1587118750814389,87652
1587118750816212,87652
1587118750818497,87652
1587118750830098,87652
1587118750832841,87652
1587118750836442,87652
1587118750849384,87652
1587118750850471,87652
1587118750853331,87652
1587118750858190,87652
1587118750865248,87652
1587118750878880,87652
1587118751053279,37
1587118751384696,87448
1587118751397371,87448
1587118751403034,87448
1587118751425509,87448
1587118751430006,87448
1587118751431418,87448
1587118751443859,87448
1587118751445730,87448
1587118751447329,87448
1587118751460586,87448
1587118751465846,87448
1587118751467469,87448
1587118751470105,87448
1587118751986377,87936
1587118751998369,87936
1587118752002360,87936
1587118752004294,87936
1587118752006801,87936
1587118752013175,87936
1587118752013839,87936
1587118752029008,87936
1587118752030804,87936
1587118752034300,87936
1587118752035156,87936
1587118752036576,87936
1587118752583180,37
1587118752631500,37
1587118752659701,37
1587118752664657,37
1587118752665828,37
1587118752685991,37
1587118752732483,37
1587118753040744,87936
1587118753254492,37
1587118753262362,37
1587118753301103,37
1587118753333365,37
1587118753410805,37
1587118753432472,37
1587118753434888,37
1587118753445976,37
1587118753484491,37
1587118753489187,37
1587118753542699,89207
1587118753543505,37
1587118753543973,89207
1587118753544846,89207
1587118753546819,89207
1587118753547396,89207
1587118753572935,89207
1587118753573757,89207
1587118753574723,89207
1587118753578094,89207
1587118753579098,89207
1587118753581377,89207
1587118753583026,89207
1587118753593880,89207
1587118754072902,37
1587118754074227,37
1587118754093533,37
1587118754095596,88723
1587118754107430,88723
1587118754108300,88723
1587118754119702,88723
1587118754131495,37
1587118754133829,88723
1587118754134283,88723
1587118754140484,88723
1587118754162378,88723
1587118754167418,37
1587118754191494,37
1587118754242469,37
1587118754253432,37
1587118754277719,37
1587118757048681,4
1587118757179383,88723
1587118757191217,88723
1587118757195740,88723
1587118757197758,88723
1587118757198425,88723
1587118757498170,37
1587118757702663,94149
1587118757703059,94149
1587118757706010,94149
1587118757708823,94149
1587118757709263,94149
1587118757710141,94149
1587118757717060,94149
1587118757728914,94149
1587118757730467,94149
1587118757733085,94149
1587118757739311,94149
1587118757752886,94149
1587118757753912,94149
1587118758255386,91316
1587118758256412,91316
1587118758259378,91316
1587118758261635,91316
1587118758276863,91316
1587118758281073,91316
1587118758282442,91316
1587118758283222,91316
1587118758297912,91316
1587118758299971,91316
1587118758300989,91316
1587118758305278,91316
1587118758309018,91316
1587118758810367,92143
1587118758811482,92143
1587118758816679,92143
1587118758817713,92143
1587118758820797,92143
1587118758824007,92143
1587118758824777,92143
1587118758834146,92143
1587118758838484,92143
1587118758861882,92143
1587118758863982,92143
1587118758876392,92143
1587118758879368,92143
1587118759391310,92489
1587118759407688,92489
1587118759410832,92489
1587118759423464,92489
1587118759445289,92489
1587118759459506,92489
1587118759463055,92489
1587118759464414,92489
1587118759465631,92489
1587118759467243,92489
1587118759484476,92489
1587118759496835,92489
1587118759500141,92489
1587118760013803,92206
1587118760017922,92206
1587118760020024,92206
1587118760020810,92206
1587118760032253,92206
1587118760046520,92206
1587118760048718,92206
1587118760050843,92206
1587118760052588,92206
1587118760053692,92206
1587118760056111,92206
1587118760056888,92206
1587118760058825,92206
1587118760562659,93715
1587118760575471,93715
1587118760587250,93715
1587118760587972,93715
1587118760590772,93715
1587118760594064,93715
1587118760596246,93715
1587118760602062,93715
1587118760605461,93715
1587118760606886,93715
1587118760658446,4
1587118760874193,4
1587118761244909,4
1587118761400944,4
1587118761601515,4
1587118762856217,4
1587118763321660,4
1587118764210868,4
1587118764224682,4
1587118764290823,4
1587118764440723,4
1587118771706936,61
1587118772580081,37
1587118775648306,93715
1587118775664405,93715
1587118775665642,93715
1587118776171779,109180
1587118776179263,109180
1587118776193765,109180
1587118776207438,109180
1587118776211485,109180
1587118776214922,61
1587118776215032,109180
1587118776227533,109180
1587118776228006,109180
1587118776232115,109180
1587118776244434,109180
1587118776248286,109180
1587118776250856,109180
1587118776263326,109180
1587118776773237,104939
1587118776773879,104939
1587118776779362,104939
1587118776784137,104939
1587118776785102,104939
1587118776786295,104939
1587118776792926,104939
1587118776799511,104939
1587118776801692,104939
1587118776813566,104939
1587118776816255,104939
1587118776832176,104939
1587118776832887,104939
1587118777339593,104908
1587118777344400,104908
1587118777344991,104908
1587118777363133,104908
1587118777370171,104908
1587118777374891,104908
1587118777387414,104908
1587118777388463,104908
1587118777389888,104908
1587118777394471,104908
1587118777396749,104908
1587118777397899,104908
1587118777399134,104908
1587118777901630,105494
1587118777905029,105494
1587118777905815,105494
1587118777921253,105494
1587118777922695,105494
1587118777928886,105494
1587118777940634,105494
1587118777945763,105494
1587118777946143,105494
1587118777947186,105494
1587118777960140,105494
1587118777967693,105494
1587118777970662,105494
1587118778481374,105859
1587118778485969,105859
1587118778501023,105859
1587118778514977,105859
1587118778516674,105859
1587118778521231,105859
1587118778523375,105859
1587118778524986,105859
1587118778538404,105859
1587118778555224,105859
1587118778558812,105859
1587118778560465,105859
1587118778561042,105859
1587118779065311,107039
1587118779067707,107039
1587118779070152,107039
1587118779071711,107039
1587118779088943,107039
1587118779102432,107039
1587118779107627,107039
1587118779109034,107039
1587118779111836,107039
1587118779115768,107039
1587118779116677,107039
1587118779119342,107039
1587118779129850,107039
1587118779632651,106978
1587118779651508,106978
1587118779654284,106978
1587118779655971,106978
1587118779658405,106978
1587118779661273,106978
1587118779665575,106978
1587118779669266,106978
1587118779682647,106978
1587118779686268,106978
1587118779688287,106978
1587118779689007,106978
1587118779692254,106978
1587118780196489,107784
1587118780198765,107784
1587118780201803,107784
1587118780211915,107784
1587118780214204,107784
1587118780341396,107784
1587118780354585,107784
1587118780357054,107784
1587118780359282,107784
1587118780359779,107784
1587118780372924,107784
1587118780373737,107784
1587118780376732,107784
1587118780879729,107690
1587118780881945,107690
1587118780885173,107690
1587118780895785,107690
1587118780900118,107690
1587118780912488,107690
1587118780916434,107690
1587118780918999,107690
1587118780921384,107690
1587118780923379,107690
1587118780936285,107690
1587118780936790,107690
1587118780937848,107690
1587118781084039,60
1587118781440307,108394
1587118781441010,108394
1587118781453731,108394
1587118781457214,108394
1587118781467796,108394
1587118781469391,108394
1587118781470230,108394
1587118781473479,108394
1587118781475339,108394
1587118781488364,108394
1587118781502435,108394
1587118781508686,108394
1587118781513787,108394
1587118782045389,108850
1587118782061860,108850
1587118782063638,108850
1587118782270931,61
1587118782565496,61
1587118782847061,61
1587118782873940,61
1587118783084190,61
1587118783312487,61
1587118783663503,37
1587118783724071,37
1587118783776658,37
1587118783943541,61
1587118785072960,108850
1587118785084715,108850
1587118785085558,108850
1587118785090039,108850
1587118785103935,108850
1587118785104767,108850
1587118785107992,108850
1587118785112539,108850
1587118785113055,108850
1587118785118558,108850
1587118785337186,62
1587118785643579,116855
1587118785646789,116855
1587118785663718,116855
1587118785664368,116855
1587118785666916,116855
1587118785671678,116855
1587118785685750,116855
1587118785690166,116855
1587118785703479,116855
1587118785704894,116855
1587118785711102,116855
1587118785714402,116855
1587118785715896,116855
1587118786224393,112083
1587118786226655,112083
1587118786234490,112083
1587118786237153,112083
1587118786247851,112083
1587118786253016,112083
1587118786257984,112083
1587118786271629,112083
1587118786273592,112083
1587118786277287,112083
1587118786280561,112083
1587118786293391,112083
1587118786296876,112083
1587118786804137,112133
1587118786808621,112133
1587118786809785,112133
1587118786813739,112133
1587118786818947,112133
1587118786823126,112133
1587118786825299,112133
1587118786828262,112133
1587118786844785,112133
1587118786845295,112133
1587118786850493,112133
1587118786864313,112133
1587118786868250,112133
1587118787378557,113017
1587118787382138,113017
1587118787385184,113017
1587118787399482,113017
1587118787402081,113017
1587118787403003,113017
1587118787406635,113017
1587118787408050,113017
1587118787408469,113017
1587118787421528,113017
1587118787427175,113017
1587118787433037,113017
1587118787445763,113017
1587118787955755,112637
1587118787958086,112637
1587118787962395,112637
1587118787962836,112637
1587118787975813,112637
1587118787976711,112637
1587118787978940,112637
1587118787984273,112637
1587118787985694,112637
1587118788001739,112637
1587118788004325,112637
1587118788015411,112637
1587118788018473,112637
1587118788532236,113826
1587118788538187,113826
1587118788550458,113826
1587118788553104,113826
1587118788570461,113826
1587118788571932,113826
1587118788574057,113826
1587118788586706,113826
1587118788587740,113826
1587118788589849,113826
1587118788595048,113826
1587118788611492,113826
1587118788624531,113826
1587118788692923,62
1587118788730569,61
1587118788879865,61
1587118789128629,114363
1587118789134356,114363
1587118789135179,114363
1587118789147774,114363
1587118789150371,114363
1587118789162103,114363
1587118789162615,114363
1587118789181491,114363
1587118789185719,114363
1587118789206972,114363
1587118789221420,114363
1587118789235546,114363
1587118789239272,114363
1587118789743069,114605
1587118789743659,114605
1587118789747439,114605
1587118789763744,114605
1587118789779510,114605
1587118789781995,114605
1587118789785773,114605
1587118789788023,114605
1587118789790535,114605
1587118789803529,114605
1587118789804278,114605
1587118789814538,114605
1587118789830768,114605
1587118790339448,114943
1587118790340253,114943
1587118790345889,114943
1587118790358824,114943
1587118790362503,114943
1587118790366375,114943
1587118790366956,114943
1587118790379354,114943
1587118790392492,114943
1587118790393394,114943
1587118790393892,114943
1587118790394274,114943
1587118790398468,114943
1587118790907290,115425
1587118790921447,115425
1587118790940190,115425
1587118790943133,115425
1587118790943549,115425
1587118790959929,115425
1587118790987469,115425
1587118790988682,115425
1587118790990875,115425
1587118791003276,115425
1587118791007199,115425
1587118791009325,115425
1587118791031471,115425
1587118791551074,115577
1587118791555634,115577
1587118791569485,115577
1587118791572638,115577
1587118791585461,115577
1587118791587682,115577
1587118791600437,115577
1587118791616464,115577
1587118791617084,115577
1587118791638463,115577
1587118791640780,115577
1587118791643416,115577
1587118791656537,115577
1587118792173110,115350
1587118792186772,115350
1587118792199849,115350
1587118792212469,115350
1587118792225459,115350
1587118792240015,115350
1587118792251455,115350
1587118793258607,115350
1587118793260917,115350
1587118793264705,115350
1587118793290462,115350
1587118793292707,115350
1587118793305621,115350
1587118793811519,116972
1587118793824447,116972
1587118793828690,116972
1587118793839963,116972
1587118793844513,116972
1587118793847140,116972
1587118793850923,116972
1587118793872470,116972
1587118793874952,116972
1587118793877331,116972
1587118793883950,116972
1587118793884756,116972
1587118793897470,116972
1587118794425473,117624
1587118794449467,117624
1587118794450501,117624
1587118794450905,117624
1587118794463694,117624
1587118794466084,117624
1587118794468180,117624
1587118794469097,117624
1587118794484280,117624
1587118794498304,117624
1587118794502675,117624
1587118794515618,117624
1587118794518795,117624
1587118795030643,117546
1587118795033490,117546
1587118795045097,117546
1587118795059568,117546
1587118795061761,117546
1587118795064198,117546
1587118795067184,117546
1587118795082127,117546
1587118795093913,117546
1587118795098057,117546
1587118795101233,117546
1587118795104932,117546
1587118795118258,117546
1587118795623329,118130
1587118795634607,118130
1587118795635124,118130
1587118795640409,118130
1587118795643369,118130
1587118795645642,118130
1587118795650309,118130
1587118795664824,118130
1587118795676716,118130
1587118795679774,118130
1587118795683333,118130
1587118795683825,118130
1587118795685042,118130
1587118796198333,117756
1587118796203083,117756
1587118796203512,117756
1587118796207896,117756
1587118796219390,117756
1587118797227244,117756
1587118797239166,117756
1587118797243400,117756
1587118797252820,117756
1587118797263986,117756
1587118797265070,117756
1587118797265830,117756
1587118797280472,117756
1587118797785395,121729
1587118797790973,121729
1587118797804663,121729
1587118797807708,121729
1587118797811065,121729
1587118797817120,121729
1587118797818105,121729
1587118797821315,121729
1587118797821961,121729
1587118797824435,121729
1587118797840160,121729
1587118797840759,121729
1587118797844111,121729
1587118798348413,119723
1587118798361338,119723
1587118798365317,119723
1587118798366073,119723
1587118798380448,119723
1587118798393477,119723
1587118798396074,119723
1587118798396800,119723
1587118798399289,119723
1587118798422480,119723
1587118798423545,119723
1587118798424538,119723
1587118798425186,119723
1587118798941367,119605
1587118798956490,119605
1587118798959252,119605
1587118798959891,119605
1587118798973469,119605
1587118798974309,119605
1587118798975298,119605
1587118798981096,119605
1587118798997260,119605
1587118799012499,119605
1587118799013073,119605
1587118799017416,119605
1587118799031675,119605
1587118799555419,121233
1587118799568331,121233
1587118799583443,121233
1587118799586242,121233
1587118799599392,121233
1587118799612464,121233
1587118799626597,121233
1587118799629968,121233
1587118799641013,121233
1587118799641504,121233
1587118799654215,121233
1587118799658223,121233
1587118799659431,121233
1587118800168506,120769
1587118800179858,120769
1587118800180798,120769
1587118800188287,120769
1587118800189652,120769
1587118800190895,120769
1587118800204513,120769
1587118800210677,120769
1587118800214928,120769
1587118800216947,120769
1587118800222964,120769
1587118800226001,120769
1587118800226542,120769
1587118800735521,120750
1587118800736883,120750
1587118800747299,120750
1587118800751871,120750
1587118800755121,120750
1587118800767675,120750
1587118800772006,120750
1587118800782883,120750
1587118800786968,120750
1587118800789387,120750
1587118800791629,120750
1587118800804215,120750
1587118800806842,120750
1587118801310099,121384
1587118801323961,121384
1587118801330789,121384
1587118801333678,121384
1587118801338507,121384
1587118801345546,121384
1587118801358694,121384
1587118801360276,121384
1587118801361195,121384
1587118801371106,121384
1587118801372033,121384
1587118801385524,121384
1587118801389044,121384
1587118801921008,121527
1587118801926928,121527
1587118801929751,121527
1587118801945038,121527
1587118801950641,121527
1587118801966867,121527
1587118801989675,121527
1587118801994066,121527
1587118802038736,121527
1587118802040987,121527
1587118802053972,121527
1587118802056575,121527
1587118802062384,121527
1587118802576365,121892
1587118802577632,121892
1587118802592050,121892
1587118802593664,121892
1587118802597992,121892
1587118802604274,121892
1587118802605543,121892
1587118802611615,121892
1587118802613082,121892
1587118802627940,121892
1587118802629563,121892
1587118802632286,121892
1587118802648923,121892
1587118803156051,122560
1587118803163527,122560
1587118803164051,122560
1587118803169018,122560
1587118803171140,122560
1587118803172056,122560
1587118803174940,122560
1587118803177619,122560
1587118803190390,122560
1587118803192451,122560
1587118803198014,122560
1587118803201298,122560
1587118803207361,122560
1587118803713264,123735
1587118803714719,123735
1587118803715938,123735
1587118803716619,123735
1587118803718356,123735
1587118803721833,123735
1587118803724662,123735
1587118803726854,123735
1587118803729631,123735
1587118803733269,123735
1587118803744605,123735
1587118803747731,123735
1587118803751621,123735
1587118803857822,37
1587118804260004,124144
1587118804260777,124144
1587118804266254,124144
1587118804267013,124144
1587118804269864,124144
1587118804282682,124144
1587118804287557,124144
1587118804293918,124144
1587118804308137,124144
1587118804322857,124144
1587118804325343,124144
1587118804329731,124144
1587118804333725,124144
1587118804847482,123346
1587118804850630,123346
1587118804865095,123346
1587118804868523,123346
1587118804870571,123346
1587118804874553,123346
1587118804887989,123346
1587118804889424,123346
1587118804890166,123346
1587118804894746,123346
1587118804896138,123346
1587118804900865,123346
1587118804914181,123346
1587118805418903,124747
1587118805433736,124747
1587118805435314,124747
1587118805437129,124747
1587118805440855,124747
1587118805441268,124747
1587118805445947,124747
1587118805453855,124747
1587118805454421,124747
1587118805470778,124747
1587118805474500,124747
1587118805489017,124747
1587118805494420,124747
1587118806009615,124651
1587118806025864,124651
1587118806029261,124651
1587118806030424,124651
1587118806033301,124651
1587118806034051,124651
1587118806036178,124651
1587118806041518,124651
1587118806042019,124651
1587118806047586,124651
1587118806064181,124651
1587118806065981,124651
1587118806068326,124651
1587118806570488,124613
1587118806585553,124613
1587118806589078,124613
1587118806601561,124613
1587118806604861,124613
1587118806608754,124613
1587118806610404,124613
1587118806623510,124613
1587118806627326,124613
1587118806642645,124613
1587118806655904,124613
1587118806671267,124613
1587118806674076,124613
