1587118623710421,30
1587118625394960,23
1587118627136323,18
1587118627144158,29
1587118627545530,38
1587118627657440,67
1587118627658644,67
1587118628163878,67
1587118628165255,67
1587118628439373,23
1587118628509614,23
1587118628676780,563
1587118628677682,563
1587118628678984,563
1587118628680116,563
1587118628681621,563
1587118628682822,563
1587118628685076,563
1587118628685952,563
1587118628698052,563
1587118628698922,563
1587118628699738,563
1587118628700873,563
1587118628701803,563
1587118629213625,2030
1587118629215253,2030
1587118629216939,2030
1587118629222848,2030
1587118629226536,2030
1587118629227336,2030
1587118629228775,2030
1587118629239557,2030
1587118629241663,2030
1587118629252771,2030
1587118629253965,2030
1587118629254739,2030
1587118629255617,2030
1587118629763486,1760
1587118629769895,1760
1587118629770862,1760
1587118629771656,1760
1587118629772460,1760
1587118629775398,1760
1587118629776105,1760
1587118629776748,1760
1587118629777472,1760
1587118629779571,1760
1587118629796891,1760
1587118629798222,1760
1587118629809519,1760
1587118630320761,1381
1587118630327662,1381
1587118630329213,1381
1587118630331976,1381
1587118630332457,1381
1587118630333136,1381
1587118630334113,1381
1587118630337449,1381
1587118630349660,1381
1587118630352179,1381
1587118630352981,1381
1587118630354156,1381
1587118630355278,1381
1587118630860671,1322
1587118630861434,1322
1587118630863041,1322
1587118630863791,1322
1587118630864971,1322
1587118630865679,1322
1587118630866488,1322
1587118630867171,1322
1587118630867919,1322
1587118630868811,1322
1587118630870597,1322
1587118630872464,1322
1587118630883839,1322
1587118631385685,2155
1587118631386507,2155
1587118631387422,2155
1587118631388895,2155
1587118631390975,2155
1587118631392803,2155
1587118631395608,2155
1587118631397869,2155
1587118631399073,2155
1587118631400773,2155
1587118631402095,2155
1587118631403527,2155
1587118631405147,2155
1587118631907946,1989
1587118631911349,1989
1587118631912224,1989
1587118631918489,1989
1587118631920647,1989
1587118631922490,1989
1587118631925468,1989
1587118631927397,1989
1587118631931096,1989
1587118631935410,1989
1587118631936273,1989
1587118631938103,1989
1587118631939289,1989
1587118632515135,2215
1587118632516473,2215
1587118632517061,2215
1587118632518624,2215
1587118632519553,2215
1587118632520415,2215
1587118632521872,2215
1587118632526344,2215
1587118632531987,2215
1587118632533624,2215
1587118632545259,2215
1587118632550247,2215
1587118632551081,2215
1587118633325112,407
1587118633448342,409
1587118633649534,2751
1587118633650061,2751
1587118633661510,2751
1587118633662258,2751
1587118633664597,2751
1587118633665325,2751
1587118633666511,2751
1587118633668031,2751
1587118633668751,2751
1587118633669937,2751
1587118633670695,2751
1587118633671433,2751
1587118633672652,2751
1587118634174664,3047
1587118634177068,3047
1587118634177786,3047
1587118634179189,3047
1587118634180665,3047
1587118634182084,3047
1587118634182660,3047
1587118634183356,3047
1587118634196014,3047
1587118634196469,3047
1587118634197533,3047
1587118634198252,3047
1587118634199268,3047
1587118634702938,2882
1587118634704422,2882
1587118634705966,2882
1587118634706730,2882
1587118634707901,2882
1587118634708790,2882
1587118634709716,2882
1587118634710582,2882
1587118634711599,2882
1587118634712353,2882
1587118634713775,2882
1587118634716797,2882
1587118634718582,2882
1587118635224479,2735
1587118635227290,2735
1587118635228485,2735
1587118635229151,2735
1587118635229524,2735
1587118635230025,2735
1587118635230731,2735
1587118635231090,2735
1587118635231434,2735
1587118635234199,2735
1587118635240242,2735
1587118635244912,2735
1587118635245779,2735
1587118635757653,2767
1587118635760793,2767
1587118635761491,2767
1587118635773857,2767
1587118635774852,2767
1587118635775662,2767
1587118635778933,2767
1587118635780350,2767
1587118635781164,2767
1587118635783799,2767
1587118635788499,2767
1587118635789442,2767
1587118635792152,2767
1587118635899309,37
1587118635905128,37
1587118635907174,37
1587118635908791,37
1587118635912408,37
1587118635924568,37
1587118635929001,37
1587118635930186,37
1587118635946440,37
1587118635948917,37
1587118635954786,37
1587118635956255,37
1587118635994849,37
1587118635998640,37
1587118636000178,37
1587118636020577,37
1587118636026611,37
1587118636054694,37
1587118636077546,37
1587118636108897,37
1587118636135525,37
1587118636139795,37
1587118636141426,37
1587118636146967,37
1587118636148618,37
1587118636161943,37
1587118636175613,37
1587118636177035,37
1587118636195301,37
1587118636197293,37
1587118636293869,5561
1587118636295893,5561
1587118636296678,5561
1587118636297472,5561
1587118636298253,5561
1587118638781572,37
1587118638792561,5561
1587118638811881,412
1587118638813064,5561
1587118638813478,37
1587118638818331,5561
1587118638818722,37
1587118638832176,37
1587118638841699,37
1587118638865545,37
1587118638910793,37
1587118638919534,37
1587118638956464,37
1587118639026548,37
1587118639080253,37
1587118639120360,37
1587118639135669,37
1587118639152330,37
1587118639156642,37
1587118639157928,37
1587118639159017,37
1587118639161602,37
1587118639167795,37
1587118639214561,37
1587118639825015,5561
1587118639826098,5561
1587118639826947,5561
1587118639827868,5561
1587118639828207,5561
1587118640347372,9839
1587118640348448,9839
1587118640349351,9839
1587118640349809,9839
1587118640350227,9839
1587118640350656,9839
1587118640351929,9839
1587118640352805,9839
1587118640353700,9839
1587118640368717,9839
1587118640371396,9839
1587118640373507,9839
1587118640374336,9839
1587118640880164,11081
1587118640882564,11081
1587118640883700,11081
1587118640894755,11081
1587118640898679,11081
1587118640909631,11081
1587118640918429,11081
1587118640930033,11081
1587118640930609,11081
1587118640931403,11081
1587118640932298,11081
1587118640932902,11081
1587118640933715,11081
1587118641435027,8220
1587118641435819,8220
1587118641442818,8220
1587118641453692,8220
1587118641454560,8220
1587118641455257,8220
1587118641456447,8220
1587118641457137,8220
1587118641457558,8220
1587118641458224,8220
1587118641469617,8220
1587118641473745,8220
1587118641475548,8220
1587118641978643,9130
1587118641979662,9130
1587118641980215,9130
1587118641980869,9130
1587118641981645,9130
1587118641982932,9130
1587118641984013,9130
1587118641985117,9130
1587118641987739,9130
1587118642005975,9130
1587118642109755,9130
1587118642112729,9130
1587118642113841,9130
1587118642629591,8444
1587118642630767,8444
1587118642631834,8444
1587118642632921,8444
1587118642634342,8444
1587118642634738,8444
1587118642639087,8444
1587118642640100,8444
1587118642640521,8444
1587118642641547,8444
1587118642643673,8444
1587118642658230,8444
1587118642671561,8444
1587118643182370,8755
1587118643184228,8755
1587118643195745,8755
1587118643207796,8755
1587118643208719,8755
1587118643209716,8755
1587118643210934,8755
1587118643211775,8755
1587118643223762,8755
1587118643235613,8755
1587118643237291,8755
1587118643237936,8755
1587118643241123,8755
1587118643745652,8612
1587118643746574,8612
1587118643746954,8612
1587118643758676,8612
1587118643759786,8612
1587118643771913,8612
1587118643772751,8612
1587118643773599,8612
1587118643773967,8612
1587118643774582,8612
1587118643775104,8612
1587118643785770,8612
1587118643786614,8612
1587118644297164,8737
1587118644307066,8737
1587118644318606,8737
1587118644319519,8737
1587118644321298,8737
1587118644322197,8737
1587118644322947,8737
1587118644334700,8737
1587118644337201,8737
1587118644340924,8737
1587118644347029,8737
1587118644347933,8737
1587118644349009,8737
1587118644857088,13234
1587118644868651,13234
1587118644870477,13234
1587118644876011,13234
1587118644876438,13234
1587118644877189,13234
1587118644878732,13234
1587118644879629,13234
1587118644880487,13234
1587118644881297,13234
1587118644887382,13234
1587118644898647,13234
1587118644899834,13234
1587118645548642,10264
1587118645551999,10264
1587118645564526,10264
1587118645567179,10264
1587118645568179,10264
1587118645569202,10264
1587118645570197,10264
1587118645597640,10264
1587118645598965,10264
1587118645609617,10264
1587118645610529,10264
1587118645610946,10264
1587118645612841,10264
1587118646125584,15343
1587118646127126,15343
1587118646129216,15343
1587118646134695,15343
1587118646146591,15343
1587118646149985,15343
1587118646150355,15343
1587118646152972,15343
1587118646154258,15343
1587118646155436,15343
1587118646155820,15343
1587118646156561,15343
1587118646157304,15343
1587118646666225,13103
1587118646667498,13103
1587118646670260,13103
1587118646681564,13103
1587118646682506,13103
1587118646685383,13103
1587118646691105,13103
1587118646691669,13103
1587118646692235,13103
1587118646696003,13103
1587118646707785,13103
1587118646708261,13103
1587118646708902,13103
1587118647211654,12819
1587118647212387,12819
1587118647213036,12819
1587118647224011,12819
1587118647235651,12819
1587118647236361,12819
1587118647237935,12819
1587118647239043,37
1587118647241806,12819
1587118647243502,12819
1587118647258420,12819
1587118647270663,12819
1587118647274804,12819
1587118647275594,12819
1587118647787692,12948
1587118647790526,12948
1587118647791904,12948
1587118647792246,12948
1587118647804551,12948
1587118647806859,12948
1587118647807202,12948
1587118647808605,12948
1587118647809405,12948
1587118647822846,12948
1587118647823930,12948
1587118647824970,12948
1587118647826778,12948
1587118648331230,13813
1587118648331737,13813
1587118648333090,13813
1587118648335835,13813
1587118648336933,13813
1587118648337645,13813
1587118648338066,13813
1587118648338419,13813
1587118648339569,13813
1587118648350619,13813
1587118648351538,13813
1587118648351914,13813
1587118648354591,13813
1587118648861080,13854
1587118648861892,13854
1587118648863016,13854
1587118648873566,13854
1587118648884574,13854
1587118648885124,13854
1587118648885513,13854
1587118648885811,13854
1587118648887786,13854
1587118648889930,13854
1587118648893656,13854
1587118648904669,13854
1587118648917560,13854
1587118649445350,14574
1587118649458689,14574
1587118649463687,14574
1587118649464398,14574
1587118649466541,14574
1587118649467648,14574
1587118649468330,14574
1587118649468745,14574
1587118649469522,14574
1587118649470637,14574
1587118649471251,14574
1587118649472407,14574
1587118649484573,14574
1587118649572973,37
1587118649991851,14073
1587118649993305,14073
1587118649995489,14073
1587118649995845,14073
1587118649996834,14073
1587118649997776,14073
1587118650001423,14073
1587118650003380,14073
1587118650014812,14073
1587118650016995,14073
1587118650028233,14073
1587118650033875,14073
1587118650039749,14073
1587118650542954,14543
1587118650545563,14543
1587118650546676,14543
1587118650547587,14543
1587118650548802,14543
1587118650550197,14543
1587118650551885,14543
1587118650561279,14543
1587118650574226,14543
1587118650580056,14543
1587118650584033,14543
1587118650586496,14543
1587118650588339,14543
1587118651089599,14406
1587118651101039,14406
1587118651107909,14406
1587118651109060,14406
1587118651113677,14406
1587118651114615,14406
1587118651115892,14406
1587118651116596,14406
1587118651129564,14406
1587118651130799,14406
1587118651131923,14406
1587118651143815,14406
1587118651145592,14406
1587118651659885,15066
1587118651660855,15066
1587118651669958,15066
1587118651682665,15066
1587118651683816,15066
1587118651694781,15066
1587118651696179,15066
1587118651708244,15066
1587118651709917,15066
1587118651711407,15066
1587118651725063,15066
1587118651727019,15066
1587118651729025,15066
1587118653604259,37
1587118655272903,37
1587118656595604,14527
1587118656596038,14527
1587118656597190,14527
1587118656597892,14527
1587118656598495,14527
1587118656599437,14527
1587118656602663,14527
1587118656603688,14527
1587118656604484,14527
1587118656605390,14527
1587118656606116,14527
1587118656606840,14527
1587118656615165,14527
1587118656903635,407
1587118657038086,37
1587118657128582,19813
1587118657139564,19813
1587118657140582,19813
1587118657141504,19813
1587118657142483,19813
1587118657143434,19813
1587118657144929,19813
1587118657145571,19813
1587118657146265,19813
1587118657147236,19813
1587118657149016,19813
1587118657153115,19813
1587118657154986,19813
1587118657664588,17341
1587118657667798,17341
1587118657669392,17341
1587118657670329,17341
1587118657673948,17341
1587118657685372,17341
1587118657686384,17341
1587118657689015,17341
1587118657690748,17341
1587118657702590,17341
1587118657715122,17341
1587118657717966,17341
1587118657720561,17341
1587118658022575,37
1587118658074430,37
1587118658225275,18128
1587118658226506,18128
1587118658227412,18128
1587118658237620,18128
1587118658239884,18128
1587118658241735,18128
1587118658244817,18128
1587118658250055,18128
1587118658252099,18128
1587118658253499,18128
1587118658254692,18128
1587118658266770,18128
1587118658280354,18128
1587118658792567,17881
1587118658793504,17881
1587118658793868,17881
1587118658794175,17881
1587118658811942,17881
1587118658813072,17881
1587118659062572,37
1587118659352775,60
1587118659603595,61
1587118659817836,17881
1587118659828697,17881
1587118659829356,17881
1587118659829913,17881
1587118659831133,17881
1587118659832056,17881
1587118659842520,17881
1587118660671762,21454
1587118660672574,21454
1587118660673231,21454
1587118660678659,21454
1587118660679634,21454
1587118660680555,21454
1587118660691533,21454
1587118660692108,21454
1587118660692655,21454
1587118660693257,21454
1587118660694094,21454
1587118660700078,21454
1587118660700774,21454
1587118661227526,23430
1587118661228349,23430
1587118661232155,23430
1587118661233620,23430
1587118661234632,23430
1587118661235001,23430
1587118661235661,23430
1587118661236566,23430
1587118661248914,23430
1587118661249785,23430
1587118661250555,23430
1587118661251153,23430
1587118661252343,23430
1587118661547210,61
1587118661625147,61
1587118661758986,21334
1587118661770370,21334
1587118661772103,21334
1587118661772749,21334
1587118661773866,21334
1587118661901977,21334
1587118661902977,21334
1587118661904234,21334
1587118661907880,21334
1587118661909651,21334
1587118661910421,21334
1587118661911194,21334
1587118661912013,21334
1587118662260038,37
1587118662414515,22373
1587118662417218,22373
1587118662417879,22373
1587118662419852,22373
1587118662433277,22373
1587118662434178,22373
1587118662439907,22373
1587118662440795,22373
1587118662441537,22373
1587118662442233,22373
1587118662454744,22373
1587118662457606,22373
1587118662468655,22373
1587118662970091,22285
1587118662971257,22285
1587118662973239,22285
1587118662974001,22285
1587118662974732,22285
1587118662975599,22285
1587118662987366,22285
1587118662999299,22285
1587118663000197,22285
1587118663001768,22285
1587118663002555,22285
1587118663011972,22285
1587118663013980,22285
1587118663522469,22523
1587118663523597,22523
1587118663524415,22523
1587118663525239,22523
1587118663526075,22523
1587118663536624,22523
1587118663537638,22523
1587118663538049,22523
1587118663544867,22523
1587118663545275,22523
1587118663563371,22523
1587118663575770,22523
1587118663586896,22523
1587118664091128,22447
1587118664091513,22447
1587118664092304,22447
1587118664092994,22447
1587118664098655,22447
1587118664099158,22447
1587118664100178,22447
1587118664100519,22447
1587118664101302,22447
1587118664123569,22447
1587118664125515,22447
1587118664126673,22447
1587118664127024,22447
1587118664637867,23172
1587118664638534,23172
1587118664640546,23172
1587118664641135,23172
1587118664642716,23172
1587118664643942,23172
1587118664645769,23172
1587118664646180,23172
1587118664653899,23172
1587118664659789,23172
1587118664661066,23172
1587118664661715,23172
1587118664664894,23172
1587118665170474,23070
1587118665171190,23070
1587118665172186,23070
1587118665183765,23070
1587118665184539,23070
1587118665184888,23070
1587118665185788,23070
1587118665186142,23070
1587118665186647,23070
1587118665189234,23070
1587118665200718,23070
1587118665201558,23070
1587118665202385,23070
1587118665709367,22799
1587118665710981,22799
1587118665712183,22799
1587118665712746,22799
1587118665713835,22799
1587118665720176,22799
1587118665727692,22799
1587118665728126,22799
1587118665729642,22799
1587118665730204,22799
1587118665730537,22799
1587118665731212,22799
1587118665742681,22799
1587118665948053,37
1587118666805532,37
1587118667414581,23208
1587118667415424,23208
1587118667416679,23208
1587118667417347,23208
1587118667418468,23208
1587118667418918,23208
1587118667429600,23208
1587118667430253,23208
1587118667431209,23208
1587118667431579,23208
1587118667442975,23208
1587118667443704,23208
1587118667454535,23208
1587118667960530,25972
1587118667971555,25972
1587118667972749,25972
1587118667973117,25972
1587118667983925,25972
1587118667991956,25972
1587118668002720,25972
1587118668025094,25972
1587118668026140,25972
1587118668027183,25972
1587118668030130,25972
1587118668032538,25972
1587118668033651,25972
1587118668539830,25114
1587118668540628,25114
1587118668541236,25114
1587118668541616,25114
1587118668541905,25114
1587118668543296,25114
1587118668543937,25114
1587118668544955,25114
1587118668547917,25114
1587118668548622,25114
1587118668570909,37
1587118668589647,25114
1587118668591619,25114
1587118668594222,25114
1587118669095873,24675
1587118669106604,24675
1587118669110211,24675
1587118669110599,24675
1587118669111069,24675
1587118669111366,24675
1587118669118949,24675
1587118669120017,24675
1587118669123250,24675
1587118669124116,24675
1587118669136257,24675
1587118669137504,24675
1587118669149067,24675
1587118669660877,24678
1587118669661766,24678
1587118669662480,24678
1587118669673588,24678
1587118669674677,24678
1587118669675535,24678
1587118669687459,24678
1587118669688482,24678
1587118669689235,24678
1587118669691822,24678
1587118669704358,24678
1587118669716522,24678
1587118669717775,24678
1587118670222495,25119
1587118670223112,25119
1587118670224361,25119
1587118670224905,25119
1587118670236985,25119
1587118671239601,25119
1587118671240551,25119
1587118671240968,25119
1587118671241523,25119
1587118671253707,25119
1587118672261782,25119
1587118672262519,25119
1587118672280007,25119
1587118672646535,37
1587118672782686,28291
1587118672783899,28291
1587118672784886,28291
1587118672785737,28291
1587118672786676,28291
1587118672797569,28291
1587118672799896,28291
1587118672800689,28291
1587118672801289,28291
1587118672802498,28291
1587118672802852,28291
1587118673815933,28291
1587118673818247,28291
1587118674324910,27591
1587118674326273,27591
1587118674327148,27591
1587118674329405,27591
1587118674330333,27591
1587118674332472,27591
1587118674334055,27591
1587118674334932,27591
1587118674335952,27591
1587118674338297,27591
1587118674350736,27591
1587118674365453,27591
1587118674367565,27591
1587118674710731,37
1587118674869543,28339
1587118674870383,28339
1587118674871172,28339
1587118674872591,28339
1587118674873362,28339
1587118674883663,28339
1587118674886683,28339
1587118674888515,28339
1587118674890239,28339
1587118674891130,28339
1587118674891955,28339
1587118674894834,28339
1587118674906716,28339
1587118675412000,29257
1587118675412883,29257
1587118675414486,29257
1587118675415235,29257
1587118675416368,29257
1587118675416975,29257
1587118675417381,29257
1587118675418355,29257
1587118675429918,29257
1587118675431005,29257
1587118675432196,29257
1587118675433214,29257
1587118675445237,29257
1587118675582036,61
1587118675955464,30720
1587118675955905,30720
1587118675956850,30720
1587118675957613,30720
1587118675957959,30720
1587118675958532,30720
1587118675959485,30720
1587118675961334,30720
1587118675972663,30720
1587118675973266,30720
1587118675974246,30720
1587118675974626,30720
1587118675975833,30720
1587118676476882,29472
1587118676487559,29472
1587118676488378,29472
1587118676489390,29472
1587118676490134,29472
1587118676491165,29472
1587118676491580,29472
1587118676502805,29472
1587118676503475,29472
1587118676514735,29472
1587118676515464,29472
1587118676516105,29472
1587118676518098,29472
1587118677037603,31153
1587118677040819,31153
1587118677042001,31153
1587118677042450,31153
1587118677043011,31153
1587118677044058,31153
1587118677054713,31153
1587118677055486,31153
1587118677056775,31153
1587118677068556,31153
1587118677069236,31153
1587118677070475,31153
1587118677071122,31153
1587118677469825,63
1587118677573685,30765
1587118677574682,30765
1587118677575790,30765
1587118677581141,30765
1587118677581945,30765
1587118677582585,30765
1587118677583158,30765
1587118677583537,30765
1587118677585032,30765
1587118677588675,30765
1587118677589209,30765
1587118677600681,30765
1587118677601125,30765
1587118678102434,31842
1587118678102833,31842
1587118678104229,31842
1587118678105225,31842
1587118678117791,31842
1587118678118520,31842
1587118678118869,60
1587118678119157,31842
1587118678119790,31842
1587118678120271,31842
1587118678120820,31842
1587118678121548,31842
1587118678122136,31842
1587118678122694,31842
1587118678627606,31966
1587118678627976,31966
1587118678637034,31966
1587118678638022,31966
1587118678639373,31966
1587118678640275,31966
1587118678641020,31966
1587118678641903,31966
1587118678642721,31966
1587118678643500,31966
1587118678650715,31966
1587118678653010,31966
1587118678665177,31966
1587118678722124,62
1587118678907808,37
1587118679018925,37
1587118679176405,32959
1587118679177381,32959
1587118679178577,32959
1587118679179244,32959
1587118679181095,32959
1587118679181885,32959
1587118679184655,32959
1587118679187120,32959
1587118679188036,32959
1587118679198804,32959
1587118679200195,32959
1587118679200827,32959
1587118679204519,32959
1587118679448722,37
1587118679662396,63
1587118679711504,34503
1587118679712102,34503
1587118679712697,34503
1587118679713761,34503
1587118679714727,34503
1587118679715107,34503
1587118679726310,34503
1587118679727873,34503
1587118679729128,34503
1587118679730259,34503
1587118679732172,34503
1587118679733064,34503
1587118679735205,34503
1587118680236791,33975
1587118680975142,37
1587118681037210,4
1587118681239600,33975
1587118681240976,33975
1587118681241591,33975
1587118681244880,33975
1587118681246036,33975
1587118681246574,33975
1587118681247278,33975
1587118681251780,33975
1587118681252973,33975
1587118681253627,33975
1587118681254936,33975
1587118681266409,33975
1587118681777519,36824
1587118681778584,36824
1587118681779229,36824
1587118681779862,36824
1587118681780503,36824
1587118681781502,36824
1587118681782104,36824
1587118681782689,36824
1587118681784258,36824
1587118681785609,36824
1587118681796989,36824
1587118681807596,36824
1587118681808352,36824
1587118682209421,62
1587118682313501,35509
1587118682324916,35509
1587118682325733,35509
1587118682326146,35509
1587118682327384,35509
1587118682339110,35509
1587118682340919,35509
1587118682341507,35509
1587118682342325,35509
1587118682343264,35509
1587118682344071,35509
1587118682344432,35509
1587118682345727,35509
1587118682383533,37
1587118682848679,35126
1587118682849593,35126
1587118682850219,35126
1587118682851403,35126
1587118682851807,35126
1587118682852358,35126
1587118682853066,35126
1587118682854028,35126
1587118682865819,35126
1587118682866537,35126
1587118682867119,35126
1587118682868291,35126
1587118682868899,35126
1587118683369927,37003
1587118683371029,37003
1587118683381820,37003
1587118683382772,37003
1587118683383141,37003
1587118683393769,37003
1587118683394697,37003
1587118683395890,37003
1587118683396472,37003
1587118683397598,37003
1587118683398400,37003
1587118683399753,37003
1587118683410974,37003
1587118683914748,36233
1587118683915829,36233
1587118683916613,36233
1587118683917773,36233
1587118684103971,37
1587118684296393,37
1587118684921657,36233
1587118684923035,36233
1587118684923949,36233
1587118684925987,36233
1587118684937102,36233
1587118684938057,36233
1587118684951883,36233
1587118684953452,36233
1587118684954356,36233
1587118685455352,38565
1587118685456215,38565
1587118685457436,38565
1587118685468646,38565
1587118685492902,38565
1587118685494339,38565
1587118685495403,38565
1587118685496401,38565
1587118685498283,38565
1587118685499435,38565
1587118685500438,38565
1587118685501456,38565
1587118685502577,38565
1587118685836973,37
1587118686013247,37392
1587118686014171,37392
1587118686014780,37392
1587118686015950,37392
1587118686017205,37392
1587118686017706,37392
1587118686019035,37392
1587118686030051,37392
1587118686041874,37392
1587118686043243,37392
1587118686054900,37392
1587118686065668,37392
1587118686066573,37392
1587118686171983,37
1587118686571780,38332
1587118686572854,38332
1587118686573206,38332
1587118686584861,38332
1587118686585715,38332
1587118686586831,38332
1587118686587531,38332
1587118686588925,38332
1587118686590415,38332
1587118686590967,38332
1587118686592367,38332
1587118686594983,38332
1587118686595696,38332
1587118686972132,62
1587118686997547,37
1587118687238418,38233
1587118687239477,38233
1587118687240555,38233
1587118687241686,38233
1587118687242564,38233
1587118687244662,38233
1587118687245476,38233
1587118687246465,38233
1587118687246829,38233
1587118687258682,38233
1587118687259587,38233
1587118687260481,38233
1587118687261134,38233
1587118687323508,37
1587118687665158,37
1587118687767181,38681
1587118687768420,38681
1587118687769342,38681
1587118687769723,38681
1587118687770531,38681
1587118687771420,38681
1587118687772206,38681
1587118687774262,38681
1587118687775303,38681
1587118687776097,38681
1587118687778043,38681
1587118687788876,38681
1587118687789742,38681
1587118687816472,37
1587118687925238,37
1587118688078802,37
1587118688293009,39106
1587118688293936,39106
1587118688294726,39106
1587118688295406,39106
1587118688306890,39106
1587118688308334,39106
1587118688310211,39106
1587118688321624,39106
1587118688323334,39106
1587118688324020,39106
1587118688324430,39106
1587118688325438,39106
1587118688326134,39106
1587118688337989,37
1587118688386471,37
1587118688399002,37
1587118688832167,38730
1587118688844752,38730
1587118688845567,38730
1587118688846536,38730
1587118688857671,38730
1587118688858539,38730
1587118688860159,38730
1587118688860880,38730
1587118688861644,38730
1587118688862028,38730
1587118688862729,38730
1587118688864061,38730
1587118688874629,38730
1587118689321652,37
1587118689375864,40970
1587118689376341,40970
1587118689376952,40970
1587118689378261,37
1587118689378561,40970
1587118689379924,40970
1587118689381132,40970
1587118689381885,40970
1587118689382706,40970
1587118689384284,40970
1587118689395949,40970
1587118689408101,40970
1587118689420836,40970
1587118689422071,40970
1587118689712348,61
1587118689932233,40053
1587118689933177,40053
1587118689944574,40053
1587118689945223,40053
1587118689946105,40053
1587118689946494,40053
1587118689946822,40053
1587118689948013,40053
1587118689949615,40053
1587118689955132,40053
1587118689967308,40053
1587118689968484,40053
1587118689969735,40053
1587118690472761,40388
1587118690473968,40388
1587118690474545,40388
1587118690475584,40388
1587118690476474,40388
1587118690477367,40388
1587118690478623,40388
1587118690478989,40388
1587118690489590,40388
1587118690491845,40388
1587118690502579,40388
1587118690504533,40388
1587118690505178,40388
1587118691010088,39995
1587118691010501,39995
1587118691011276,39995
1587118691012264,39995
1587118691023790,39995
1587118691024763,39995
1587118691025630,39995
1587118691026432,39995
1587118691026780,39995
1587118691028384,39995
1587118691028943,39995
1587118691039597,39995
1587118691040337,39995
1587118691546702,40492
1587118691547380,40492
1587118691548043,40492
1587118691549398,40492
1587118691549785,40492
1587118691560852,40492
1587118691562439,40492
1587118691563076,40492
1587118691565246,40492
1587118691576854,40492
1587118691579768,40492
1587118691590600,40492
1587118691591576,40492
1587118692071548,37
1587118692097558,41344
1587118692108940,41344
1587118692110294,41344
1587118692110875,41344
1587118692111677,41344
1587118692113595,41344
1587118692114844,41344
1587118692126176,41344
1587118692127163,41344
1587118692128106,41344
1587118692129011,41344
1587118692129683,41344
1587118692140843,41344
1587118692176017,37
1587118692282364,37
1587118692284378,37
1587118692368947,37
1587118692494817,37
1587118692656160,41678
1587118692657733,41678
1587118692658710,41678
1587118692659501,41678
1587118692660453,41678
1587118692660874,41678
1587118692662018,41678
1587118692662618,41678
1587118692663874,41678
1587118692674736,41678
1587118692685842,41678
1587118692697100,41678
1587118692698083,41678
1587118693072710,37
1587118693200097,41606
1587118693201135,41606
1587118693201626,41606
1587118693202394,41606
1587118693203649,41606
1587118693214647,41606
1587118693215492,41606
1587118693216660,41606
1587118693227625,41606
1587118693229129,41606
1587118693240033,41606
1587118693241202,41606
1587118693243716,41606
1587118693754723,41655
1587118693755368,41655
1587118693756291,41655
1587118693757484,41655
1587118693758181,41655
1587118693759369,41655
1587118693760506,41655
1587118693772515,41655
1587118693773276,41655
1587118693785845,41655
1587118693796746,41655
1587118693798385,41655
1587118693809838,41655
1587118694318388,42279
1587118694319467,42279
1587118694320405,42279
1587118694335662,42279
1587118694337045,42279
1587118694337418,42279
1587118694348642,42279
1587118694359946,42279
1587118694360988,42279
1587118694362107,42279
1587118694362828,42279
1587118694364825,42279
1587118694376504,42279
1587118694880537,42239
1587118694891716,42239
1587118694892534,42239
1587118694894084,42239
1587118694896066,42239
1587118694896497,42239
1587118694907640,42239
1587118694908460,42239
1587118694910653,42239
1587118694911087,42239
1587118694911681,42239
1587118694912877,42239
1587118694923620,42239
1587118695482447,41881
1587118695483430,41881
1587118695484714,41881
1587118695485742,41881
1587118695486817,41881
1587118695498497,41881
1587118695499438,41881
1587118695501700,41881
1587118695502536,41881
1587118695505033,41881
1587118695517278,41881
1587118695518526,41881
1587118695521006,41881
1587118696033030,42810
1587118696033534,42810
1587118696034523,42810
1587118696035582,42810
1587118696036631,42810
1587118696037501,42810
1587118696038438,42810
1587118696052643,42810
1587118696053889,42810
1587118696065573,42810
1587118696066548,42810
1587118696067374,42810
1587118696070272,42810
1587118696576884,42397
1587118696577820,42397
1587118696578473,42397
1587118696579900,42397
1587118696580527,42397
1587118696581392,42397
1587118696582883,42397
1587118696584145,42397
1587118696602566,42397
1587118696603617,42397
1587118696604549,42397
1587118696605531,42397
1587118696920838,4
1587118698346553,37
1587118698362474,37
1587118698506069,37
1587118702819892,62
1587118702959615,37
1587118702994116,37
1587118703629634,42397
1587118703688335,37
1587118704143648,53722
1587118704144916,53722
1587118704146061,53722
1587118704147044,53722
1587118704148580,53722
1587118704149762,53722
1587118704155093,53722
1587118704155846,53722
1587118704158042,53722
1587118704168960,53722
1587118704169846,53722
1587118704171141,53722
1587118704171772,53722
1587118704728511,50791
1587118704739947,50791
1587118704741295,50791
1587118704742521,50791
1587118704743561,50791
1587118704754957,50791
1587118704756084,50791
1587118704757044,50791
1587118704757982,50791
1587118704762038,50791
1587118704763028,50791
1587118704774367,50791
1587118704785614,50791
1587118705240611,37
1587118705296245,51421
1587118705297555,51421
1587118705299761,51421
1587118705300702,51421
1587118705301097,51421
1587118705303840,51421
1587118705314783,51421
1587118705318984,51421
1587118705322035,51421
1587118705342403,51421
1587118705352825,51421
1587118705361759,51421
1587118705373875,51421
1587118705422791,37
1587118705729178,37
1587118705880177,54480
1587118705881878,54480
1587118705883775,54480
1587118705884561,54480
1587118705898705,54480
1587118705900248,54480
1587118705901178,54480
1587118705904585,54480
1587118705906258,54480
1587118705907295,54480
1587118705920085,54480
1587118705921693,54480
1587118705922683,54480
1587118706425636,51974
1587118706429173,51974
1587118706429883,51974
1587118706430983,51974
1587118706431444,51974
1587118706436235,51974
1587118706437288,51974
1587118706922842,62
1587118708284909,37
1587118710642038,37
1587118714513553,4
1587118715998288,37
1587118722131022,4
1587118724691784,61
1587118724968634,61
1587118725796182,60
1587118727388451,4
1587118733406040,62
1587118733877005,4
1587118737130079,63
1587118737487132,51974
1587118737498715,51974
1587118737501441,51974
1587118737512567,51974
1587118737512929,51974
1587118737523871,51974
1587118738036071,82498
1587118738037843,82498
1587118738039233,82498
1587118738041827,82498
1587118738043671,82498
1587118738057233,82498
1587118738058944,82498
1587118738066553,82498
1587118738067806,82498
1587118738071341,82498
1587118738071823,82498
1587118738076483,82498
1587118738077001,82498
1587118738581950,79012
1587118738593010,79012
1587118738603695,79012
1587118738611155,79012
1587118738611957,79012
1587118738612432,79012
1587118738615503,79012
1587118738616513,79012
1587118738617516,79012
1587118738620284,79012
1587118738631178,79012
1587118738632771,79012
1587118738635916,79012
1587118739145194,78785
1587118739146635,78785
1587118739148411,78785
1587118739150187,78785
1587118739151133,78785
1587118739152096,78785
1587118739153275,78785
1587118739154664,78785
1587118739158577,78785
1587118739170140,78785
1587118739176474,78785
1587118739178075,78785
1587118739179230,78785
1587118739680778,79003
1587118739681544,79003
1587118739683503,79003
1587118739694880,79003
1587118739697961,79003
1587118739698728,79003
1587118739699507,79003
1587118739701184,79003
1587118739701668,79003
1587118739712631,79003
1587118739714990,79003
1587118739725939,79003
1587118739726703,79003
1587118740229178,79119
1587118740231900,79119
1587118740244475,79119
1587118740246991,79119
1587118740257612,79119
1587118740258900,79119
1587118740267219,79119
1587118740268087,79119
1587118740269130,79119
1587118740272453,79119
1587118740273291,79119
1587118740274183,79119
1587118740277418,79119
1587118740780327,79417
1587118740783555,79417
1587118740784649,79417
1587118740786477,79417
1587118740787379,79417
1587118740789151,79417
1587118740791705,79417
1587118740793634,79417
1587118740801143,79417
1587118740802507,79417
1587118740803508,79417
1587118740811156,79417
1587118740814388,79417
1587118741332958,80466
1587118741334268,80466
1587118741335486,80466
1587118741337502,80466
1587118741338691,80466
1587118741339693,80466
1587118741341448,80466
1587118741344043,80466
1587118741356866,80466
1587118741358069,80466
1587118741359228,80466
1587118741360269,80466
1587118741361103,80466
1587118741863327,80367
1587118741864345,80367
1587118741865266,80367
1587118741866138,80367
1587118741867039,80367
1587118741868300,80367
1587118741879621,80367
1587118741881360,80367
1587118741882085,80367
1587118741882860,80367
1587118741884092,80367
1587118741885625,80367
1587118741893009,80367
1587118742299638,61
1587118742395293,80970
1587118742395803,80970
1587118742396692,80970
1587118742397739,80970
1587118742399442,80970
1587118742411462,80970
1587118742414763,80970
1587118742415825,80970
1587118742421657,80970
1587118742433235,80970
1587118742437773,80970
1587118742439143,80970
1587118742444772,80970
1587118742780696,62
1587118742946702,80844
1587118742947775,80844
1587118742949381,80844
1587118742950275,80844
1587118742951166,80844
1587118742952759,80844
1587118742954617,80844
1587118742955212,80844
1587118742956984,80844
1587118742958628,80844
1587118742959577,80844
1587118742960912,80844
1587118742972586,80844
1587118743474043,81080
1587118743474504,81080
1587118743475910,81080
1587118743477971,81080
1587118743489562,81080
1587118743495809,81080
1587118743496698,81080
1587118743498188,81080
1587118743500197,81080
1587118743502027,81080
1587118743512870,81080
1587118743513334,81080
1587118743514525,81080
1587118743541588,62
1587118744015797,80936
1587118744017594,80936
1587118744019820,80936
1587118744020655,80936
1587118744021602,80936
1587118744023341,80936
1587118744028776,80936
1587118744029802,80936
1587118744032352,80936
1587118744033514,80936
1587118744034525,80936
1587118744035766,80936
1587118744036775,80936
1587118744118117,37
1587118744546837,82059
1587118744548342,82059
1587118744550455,82059
1587118744572556,82059
1587118744576731,82059
1587118744578020,82059
1587118744580181,82059
1587118744581765,82059
1587118744585629,82059
1587118744586560,82059
1587118744589822,82059
1587118744593173,82059
1587118744605992,82059
1587118745108976,82337
1587118745111773,82337
1587118745115978,82337
1587118745117632,82337
1587118745131238,82337
1587118745133593,82337
1587118745136036,82337
1587118745141802,82337
1587118745144042,82337
1587118745162726,82337
1587118745165229,82337
1587118745168962,82337
1587118745178538,82337
1587118745638194,63
1587118745690309,82171
1587118745692586,82171
1587118745697104,82171
1587118745698696,82171
1587118745700916,82171
1587118745713734,82171
1587118745718750,82171
1587118745720417,82171
1587118745722280,82171
1587118745734126,82171
1587118745735257,82171
1587118745747433,82171
1587118745751215,82171
1587118746254346,82274
1587118746255520,82274
1587118746256613,82274
1587118746261500,82274
1587118746262510,82274
1587118746263546,82274
1587118746265798,82274
1587118746267189,82274
1587118746271772,82274
1587118746273502,82274
1587118746275263,82274
1587118746276930,82274
1587118746278659,82274
1587118746402178,63
1587118746413608,37
1587118746416996,37
1587118746444585,37
1587118746457420,37
1587118746673328,62
1587118746724168,62
1587118746786020,82905
1587118746786963,82905
1587118746789082,82905
1587118746790048,82905
1587118746790844,82905
1587118746803629,82905
1587118746804579,82905
1587118746815958,82905
1587118746816665,82905
1587118746820629,82905
1587118746821763,82905
1587118746822694,82905
1587118746823801,82905
1587118746902034,37
1587118746904759,37
1587118746910736,37
1587118747251278,63
1587118747325706,83512
1587118747337699,83512
1587118747341365,83512
1587118747342060,83512
1587118747343711,83512
1587118747345270,83512
1587118747346573,83512
1587118747347948,83512
1587118747349065,83512
1587118747357218,83512
1587118747373291,83512
1587118747384993,83512
1587118747386194,83512
1587118747776108,63
1587118747986412,82922
1587118747986716,62
1587118747987390,82922
1587118747988948,82922
1587118747989874,82922
1587118747992005,82922
1587118747993578,82922
1587118747996697,82922
1587118747998278,82922
1587118747999647,82922
1587118748001117,82922
1587118748004398,82922
1587118748017994,82922
1587118748019547,82922
1587118748225497,62
1587118748286939,62
1587118748321703,62
1587118748359365,37
1587118748363592,62
1587118748527579,85128
1587118748528606,85128
1587118748529267,85128
1587118748533694,85128
1587118748534920,85128
1587118748535456,63
1587118748538718,85128
1587118748540900,85128
1587118748542027,85128
1587118748544943,85128
1587118748546538,85128
1587118748547166,85128
1587118748552123,85128
1587118748554821,85128
1587118748610476,62
1587118748644775,63
1587118748776290,63
1587118748848586,63
1587118748898056,62
1587118748965464,62
1587118749048055,62
1587118749056704,84837
1587118749059253,84837
1587118749061577,84837
1587118749065094,84837
1587118749066338,84837
1587118749067405,84837
1587118749067898,84837
1587118749079761,84837
1587118749081407,84837
1587118749082794,84837
1587118749085244,84837
1587118749092724,84837
1587118749103573,84837
1587118749352724,63
1587118749412958,62
1587118749480678,62
1587118749500141,63
1587118749532938,63
1587118749582112,62
1587118749613834,85730
1587118749619781,85730
1587118749620616,85730
1587118749621507,85730
1587118749622660,85730
1587118749624741,85730
1587118749627662,85730
1587118749628842,85730
1587118749640973,85730
1587118749642357,85730
1587118749654055,85730
1587118749654891,85730
1587118749656599,85730
1587118749764474,37
1587118749770647,62
1587118749867290,63
1587118749963086,62
1587118750076458,63
1587118750147906,62
1587118750158782,85397
1587118750159668,85397
1587118750164517,85397
1587118750176190,85397
1587118750189504,85397
1587118750190627,85397
1587118750191737,85397
1587118750192069,63
1587118750192479,85397
1587118750194438,85397
1587118750196394,85397
1587118750197166,85397
1587118750199098,85397
1587118750199968,85397
1587118750278840,63
1587118750382609,63
1587118750472361,63
1587118750539213,62
1587118750566789,62
1587118750630045,62
1587118750708391,85566
1587118750710579,85566
1587118750711578,85566
1587118750713473,85566
1587118750715888,85566
1587118750716721,85566
1587118750717425,85566
1587118750720072,85566
1587118750720514,85566
1587118750721231,85566
1587118750723124,85566
1587118750730380,85566
1587118750799292,62
1587118750919913,62
1587118750962039,62
1587118750993066,63
1587118751026344,63
1587118751075016,63
1587118751075534,62
1587118751100998,63
1587118751159521,63
1587118751248023,63
1587118751281036,62
1587118751307250,62
1587118751339669,63
1587118751397214,62
1587118751428761,63
1587118751462649,63
1587118751493170,63
1587118751536394,60
1587118751743934,85566
1587118751776261,37
1587118751806254,37
1587118751809361,37
1587118751828286,63
1587118751831974,37
1587118751833796,37
1587118751861500,63
1587118751894187,37
1587118751952223,63
1587118752082888,63
1587118752146112,62
1587118752172945,63
1587118752279999,63
1587118752297278,63
1587118752435174,63
1587118752466139,63
1587118752476536,89045
1587118752491371,89045
1587118752503963,89045
1587118752505722,89045
1587118752506428,89045
1587118752518382,89045
1587118752519583,63
1587118752519675,89045
1587118752542512,89045
1587118752544666,89045
1587118752545518,89045
1587118752545829,62
1587118752558815,89045
1587118752559705,89045
1587118752561452,89045
1587118752577582,63
1587118752611008,62
1587118752636086,62
1587118752664383,63
1587118752679889,62
1587118752708934,62
1587118752734980,62
1587118752793350,62
1587118752848691,63
1587118752963231,62
1587118753068890,89137
1587118753079696,89137
1587118753081835,89137
1587118753092681,89137
1587118753095139,89137
1587118753097130,89137
1587118753101143,89137
1587118753117680,89137
1587118753119050,89137
1587118753119802,89137
1587118753122207,89137
1587118753134877,89137
1587118753136066,89137
1587118753165063,62
1587118753205932,62
1587118753293898,62
1587118753338187,62
1587118753360064,62
1587118753381825,63
1587118753405211,62
1587118753521570,62
1587118753601884,62
1587118753628997,63
1587118753653639,88013
1587118753655549,88013
1587118753657013,88013
1587118753658499,88013
1587118753660891,88013
1587118753694092,62
1587118753721983,62
1587118753752689,62
1587118753781732,62
1587118753806778,62
1587118753893306,62
1587118753957518,62
1587118753957997,62
1587118753985116,62
1587118754001694,62
1587118754027177,62
1587118754049906,62
1587118754120862,62
1587118754149820,62
1587118754185470,62
1587118754271856,62
1587118754295590,62
1587118754356836,62
1587118754387497,62
1587118754460062,62
1587118754487975,62
1587118754561520,62
1587118754636040,62
1587118754667346,88013
1587118754669207,88013
1587118754670105,88013
1587118754670830,88013
1587118754671759,88013
1587118754672517,88013
1587118754673249,88013
1587118754674044,62
1587118754686376,88013
1587118754764021,62
1587118754792466,62
1587118754817715,62
1587118754845332,62
1587118755072743,62
1587118755154615,62
1587118755190120,63
1587118755191933,90643
1587118755192507,90643
1587118755245887,62
1587118755421941,62
1587118755512692,62
1587118755548034,62
1587118755568589,62
1587118755685781,62
1587118755773942,60
1587118755924990,62
1587118755953923,62
1587118756751853,4
1587118756781653,61
1587118756820930,62
1587118756852369,4
1587118757610459,4
1587118757998248,4
1587118758206353,90643
1587118758207179,90643
1587118758212941,90643
1587118758214419,90643
1587118758215183,90643
1587118758216688,90643
1587118758217738,90643
1587118758218867,90643
1587118758234497,90643
1587118758238398,90643
1587118758240406,90643
1587118758653734,61
1587118758753508,95699
1587118758755146,95699
1587118758756836,95699
1587118758757855,95699
1587118758758818,95699
1587118758759486,95699
1587118758761726,95699
1587118758762570,95699
1587118758769093,95699
1587118758771176,95699
1587118758783509,95699
1587118758795466,95699
1587118758797209,95699
1587118759307949,91835
1587118759310611,91835
1587118759311875,91835
1587118759312922,91835
1587118759315364,91835
1587118759316849,91835
1587118759422032,4
1587118760321277,91835
1587118760323879,91835
1587118760337183,91835
1587118760341164,91835
1587118760345067,91835
1587118760346483,91835
1587118760358467,91835
1587118760734132,4
1587118760870921,94312
1587118760875770,94312
1587118760876650,94312
1587118760879014,94312
1587118760880382,94312
1587118760881559,94312
1587118760897728,94312
1587118760898433,94312
1587118760909690,94312
1587118760911204,94312
1587118760913773,94312
1587118760914427,94312
1587118760916385,94312
1587118761429635,94020
1587118761431829,94020
1587118761442917,94020
1587118761454392,94020
1587118761456731,94020
1587118761469393,94020
1587118761481766,94020
1587118761504949,94020
1587118761506568,94020
1587118761518127,94020
1587118761518805,94020
1587118761519382,94020
1587118761522480,94020
1587118761857917,62
1587118762030826,94672
1587118762042349,94672
1587118762042930,94672
1587118762043475,94672
1587118762065386,94672
1587118762066130,94672
1587118762067018,94672
1587118762084178,94672
1587118762097366,94672
1587118762100410,94672
1587118762117259,94672
1587118762118685,94672
1587118762120766,94672
1587118762307836,4
1587118762403738,62
1587118762634309,95175
1587118762668417,95175
1587118762671303,95175
1587118762682661,95175
1587118762693768,95175
1587118762695019,95175
1587118762696604,95175
1587118762700051,95175
1587118762702201,95175
1587118762717711,95175
1587118762719664,95175
1587118762720744,95175
1587118762721640,95175
1587118762835303,4
1587118763226018,94708
1587118763238942,94708
1587118763240027,94708
1587118763240871,94708
1587118763253091,94708
1587118763268511,94708
1587118763269708,94708
1587118763271665,94708
1587118763278116,94708
1587118763281522,94708
1587118763286567,94708
1587118763288306,94708
1587118763292674,94708
1587118763740789,62
1587118763802266,95938
1587118763805438,95938
1587118763816676,95938
1587118763818160,95938
1587118763824927,95938
1587118763828583,95938
1587118763830906,95938
1587118763844032,95938
1587118763850201,95938
1587118763852762,95938
1587118763853219,95938
1587118763857599,95938
1587118763858381,95938
1587118764269726,4
1587118764364544,96407
1587118764366406,96407
1587118765178628,60
1587118769077236,37
1587118770220203,62
1587118771853630,37
1587118776256824,60
1587118779626611,96407
1587118779627744,96407
1587118779641540,96407
1587118779643418,96407
1587118779646120,96407
1587118779658391,96407
1587118779659823,96407
1587118779660922,96407
1587118779664675,96407
1587118779676725,96407
1587118779680113,96407
1587118780190523,110939
1587118780191577,110939
1587118780193403,110939
1587118780195299,110939
1587118780199236,110939
1587118780200571,110939
1587118780201646,110939
1587118780204333,110939
1587118780206733,110939
1587118780219442,110939
1587118780224995,110939
1587118780225658,110939
1587118780238857,110939
1587118780744051,104912
1587118780746646,104912
1587118780751872,104912
1587118780754638,104912
1587118780765869,104912
1587118780768354,104912
1587118780770511,104912
1587118780770953,104912
1587118780776028,104912
1587118780777029,104912
1587118780792899,104912
1587118780795596,104912
1587118780796021,104912
1587118781299141,105837
1587118781312910,105837
1587118781314435,105837
1587118781317550,105837
1587118781320535,105837
1587118781332111,105837
1587118781336087,105837
1587118781338676,105837
1587118781339146,105837
1587118781339543,105837
1587118781341553,105837
1587118781343804,105837
1587118781356483,105837
1587118781871838,107011
1587118781876548,107011
1587118781879429,107011
1587118781880846,107011
1587118781892078,107011
1587118781892776,107011
1587118781898260,107011
1587118781899335,107011
1587118781900383,107011
1587118781905057,107011
1587118781916214,107011
1587118781917782,107011
1587118781920055,107011
1587118782429363,106798
1587118782431230,106798
1587118782443440,106798
1587118782444526,106798
1587118782445698,106798
1587118782449688,106798
1587118782462612,106798
1587118782465303,106798
1587118782467816,106798
1587118782483424,106798
1587118782487594,106798
1587118782488093,106798
1587118782491989,106798
1587118783001504,108335
1587118783005273,108335
1587118783021719,108335
1587118783024064,108335
1587118783037628,108335
1587118783038827,108335
1587118784048074,108335
1587118784050860,108335
1587118784051858,108335
1587118784065274,108335
1587118784068879,108335
1587118784084624,108335
1587118784086270,108335
1587118784601462,110596
1587118784602755,110596
1587118784606877,110596
1587118784607482,110596
1587118784609770,110596
1587118784621216,110596
1587118784621742,110596
1587118784624908,110596
1587118784630939,110596
1587118784644034,110596
1587118784646559,110596
1587118784648892,110596
1587118784651716,110596
1587118785166246,110009
1587118785168848,110009
1587118785184829,110009
1587118785185373,110009
1587118785189904,110009
1587118785193905,110009
1587118785204886,110009
1587118785218836,110009
1587118785222929,110009
1587118785226960,110009
1587118785230164,110009
1587118785232523,110009
1587118785235192,110009
1587118785744153,110271
1587118785754794,110271
1587118785760707,110271
1587118785761678,110271
1587118785774501,110271
1587118785780056,110271
1587118785793529,110271
1587118785794931,110271
1587118785803197,110271
1587118785809255,110271
1587118785811176,110271
1587118785817861,110271
1587118785818365,110271
1587118785934213,60
1587118786337131,110764
1587118786351473,110764
1587118786355724,110764
1587118786360395,110764
1587118786361487,110764
1587118786362080,110764
1587118786362496,110764
1587118786369191,110764
1587118786369847,110764
1587118786372762,110764
1587118786387120,110764
1587118786404585,110764
1587118786418774,110764
1587118786929814,110984
1587118786932278,110984
1587118786944811,110984
1587118786948768,110984
1587118786952960,110984
1587118786955379,110984
1587118786968541,110984
1587118786974913,110984
1587118786985978,110984
1587118787001492,110984
1587118787002955,110984
1587118787008532,110984
1587118787020056,110984
1587118787213111,62
1587118787365799,63
1587118787528279,111094
1587118787532527,111094
1587118787547449,111094
1587118787549222,111094
1587118787563970,111094
1587118787564536,62
1587118787565145,111094
1587118787571245,111094
1587118787571784,111094
1587118787593577,111094
1587118787600712,111094
1587118787604593,111094
1587118787616343,111094
1587118787644352,111094
1587118787659073,62
1587118787796426,62
1587118787832605,63
1587118787949217,37
1587118788054883,63
1587118788100836,62
1587118788117297,37
1587118788141416,62
1587118788155484,111022
1587118788169427,111022
1587118788170458,111022
1587118788174406,111022
1587118788175202,111022
1587118788179087,111022
1587118788193467,111022
1587118788207472,111022
1587118788208890,111022
1587118788212818,111022
1587118788228443,111022
1587118788311740,111022
1587118788314051,37
1587118788315423,111022
1587118788591686,63
1587118788609636,37
1587118788613848,62
1587118788673809,37
1587118788682831,62
1587118788819919,111926
1587118788825742,111926
1587118788828531,111926
1587118788837186,111926
1587118788838007,111926
1587118788841767,111926
1587118788846707,111926
1587118788851598,111926
1587118788852955,111926
1587118788855837,111926
1587118788859232,111926
1587118788886992,111926
1587118788891763,111926
1587118788944233,63
1587118789074898,37
1587118789275260,62
1587118789373975,63
1587118789403300,113211
1587118789403834,113211
1587118789405080,113211
1587118789405955,113211
1587118789412833,113211
1587118789421332,113211
1587118789439276,113211
1587118789446290,113211
1587118789465070,113211
1587118789467779,113211
1587118789472635,113211
1587118789473925,113211
1587118789476002,113211
1587118789481112,62
1587118789719830,37
1587118789980191,113467
1587118789985306,113467
1587118789991373,113467
1587118790001094,113467
1587118790020402,113467
1587118790037610,113467
1587118790041537,113467
1587118790045966,113467
1587118790047092,113467
1587118790059752,113467
1587118790062682,113467
1587118790074637,113467
1587118790076179,113467
1587118790264949,37
1587118790275733,37
1587118790657262,113363
1587118790659581,113363
1587118790662149,113363
1587118790662573,113363
1587118790675399,113363
1587118790688681,113363
1587118790691300,113363
1587118790691852,113363
1587118790694682,113363
1587118790698216,113363
1587118790707990,113363
1587118790711701,113363
1587118790712965,113363
1587118790980478,37
1587118790993611,37
1587118790994710,37
1587118791229865,114910
1587118791236844,114910
1587118791238596,114910
1587118791243934,114910
1587118791248637,114910
1587118791253853,114910
1587118791267493,114910
1587118791270394,114910
1587118791271370,114910
1587118791273001,114910
1587118791286547,114910
1587118791291137,114910
1587118791293704,114910
1587118791514785,37
1587118791847745,113992
1587118791848583,113992
1587118791849674,113992
1587118791852708,113992
1587118791857716,113992
1587118791875909,113992
1587118791877079,113992
1587118791893174,113992
1587118791895492,113992
1587118791898954,113992
1587118791900163,113992
1587118791900647,113992
1587118791903557,113992
1587118791978554,37
1587118792407717,114340
1587118792410411,114340
1587118792412579,114340
1587118792417239,114340
1587118792422074,114340
1587118792422579,114340
1587118792425766,114340
1587118792429771,114340
1587118792433452,114340
1587118792435162,114340
1587118792440178,114340
1587118792442186,114340
1587118792454933,114340
1587118792960897,114943
1587118792962149,114943
1587118792963451,114943
1587118792981029,114943
1587118792982196,114943
1587118792995075,114943
1587118792999235,114943
1587118793001787,114943
1587118793004237,114943
1587118793007031,114943
1587118793008254,114943
1587118793009554,114943
1587118793012274,114943
1587118793514847,115396
1587118793520688,115396
1587118793523367,115396
1587118793537011,115396
1587118793540718,115396
1587118793543594,115396
1587118793557455,115396
1587118793560522,115396
1587118793562071,115396
1587118793567400,115396
1587118793573118,115396
1587118793576224,115396
1587118793579218,115396
1587118794087801,115327
1587118794089301,115327
1587118794093080,115327
1587118794179698,37
1587118794256794,37
1587118794261172,37
1587118794315913,63
1587118794368095,37
1587118794380471,37
1587118794440489,37
1587118794467717,37
1587118794523004,37
1587118794690000,37
1587118794693106,37
1587118794723672,115327
1587118794727847,115327
1587118794730598,115327
1587118794732257,115327
1587118794733630,115327
1587118794736727,115327
1587118794739475,115327
1587118794743581,115327
1587118794756747,115327
1587118794757655,115327
1587118794877013,37
1587118794976328,37
1587118795044238,62
1587118795065262,37
1587118795068250,37
1587118795183500,37
1587118795185783,37
1587118795342869,118449
1587118795344730,118449
1587118795349380,118449
1587118795362444,118449
1587118795365370,118449
1587118795379372,118449
1587118795380207,118449
1587118795382685,118449
1587118795385731,118449
1587118795388362,118449
1587118795393707,118449
1587118796400894,118449
1587118796403652,118449
1587118796912394,118777
1587118796914718,118777
1587118796916754,118777
1587118796921325,118777
1587118796921846,118777
1587118796927895,118777
1587118796930455,118777
1587118796945405,118777
1587118796952459,118777
1587118796953087,118777
1587118796954513,118777
1587118796967357,118777
1587118796969553,118777
1587118797168877,61
1587118797503527,118107
1587118797504385,118107
1587118797510802,118107
1587118797523939,118107
1587118797525153,118107
1587118797528193,118107
1587118797531430,118107
1587118797689578,37
1587118798040250,37
1587118798127456,37
1587118798129996,37
1587118798133914,37
1587118798273451,37
1587118798275644,37
1587118798315045,37
1587118798427261,37
1587118798429945,37
1587118798510528,37
1587118798603377,37
1587118798681710,37
1587118799209516,37
1587118799210044,37
1587118802227761,61
1587118806321537,37
1587118806676972,63
