1587118623450741,30
1587118625243558,23
1587118627616256,23
1587118627615521,29
1587118627620884,29
1587118627621750,29
1587118627622666,29
1587118627624877,29
1587118627625978,29
1587118627641408,29
1587118627660541,29
1587118627661822,29
1587118627663611,29
1587118627665132,29
1587118627666270,29
1587118627667105,29
1587118627858580,23
1587118628228686,973
1587118628231635,973
1587118628233404,973
1587118628236618,973
1587118628238381,973
1587118628242850,973
1587118628245204,973
1587118628258357,973
1587118628259881,973
1587118628272811,973
1587118628274876,973
1587118628275854,973
1587118628278006,973
1587118628780250,557
1587118628782208,557
1587118628786135,557
1587118628788032,557
1587118628789084,557
1587118628790563,557
1587118628792882,557
1587118628794562,557
1587118628805395,557
1587118628806587,557
1587118628807282,557
1587118628808184,557
1587118628810170,557
1587118629320684,557
1587118629322334,557
1587118629325744,557
1587118629326625,557
1587118629327389,557
1587118629328420,557
1587118629330016,557
1587118629330878,557
1587118629333201,557
1587118629336739,557
1587118629337503,557
1587118629348511,557
1587118629348982,557
1587118629857707,649
1587118629858857,649
1587118629859679,649
1587118629861647,649
1587118629872540,649
1587118629877869,649
1587118629878882,649
1587118629881673,649
1587118629882556,649
1587118629883522,649
1587118629884244,649
1587118629885810,649
1587118629887259,649
1587118630393371,683
1587118630395146,683
1587118630396005,683
1587118630396767,683
1587118630397172,683
1587118630397880,683
1587118630398792,683
1587118630399950,683
1587118630401462,683
1587118630404840,683
1587118630405818,683
1587118630406232,683
1587118630418447,683
1587118630922380,623
1587118630923075,623
1587118630925055,623
1587118633834513,623
1587118633852278,623
1587118633853273,623
1587118633854357,623
1587118633861203,623
1587118633863087,623
1587118633864732,623
1587118633866201,623
1587118633873011,623
1587118633930756,623
1587118635117343,9983
1587118635118469,9983
1587118638330398,9983
1587118638355172,411
1587118638366709,9983
1587118638370117,9983
1587118638371357,9983
1587118639618143,413
1587118641186371,412
1587118641387784,9983
1587118644398748,9983
1587118644399732,9983
1587118644400753,9983
1587118644422694,9983
1587118644424009,9983
1587118644425504,9983
1587118644939613,14564
1587118644940536,14564
1587118644941002,14564
1587118644941731,14564
1587118644944929,14564
1587118644945672,14564
1587118644947734,14564
1587118644948672,14564
1587118644953216,14564
1587118644953878,14564
1587118644955572,14564
1587118644966706,14564
1587118644973960,14564
1587118645485963,10543
1587118645487498,10543
1587118645492742,10543
1587118645493662,10543
1587118645494389,10543
1587118645495778,10543
1587118645498360,10543
1587118645499915,10543
1587118645501173,10543
1587118645503652,10543
1587118645504823,10543
1587118645505650,10543
1587118645507534,10543
1587118646019678,9308
1587118646021486,9308
1587118646022432,9308
1587118646023632,9308
1587118646024718,9308
1587118646025520,9308
1587118646026182,9308
1587118646030995,9308
1587118646032151,9308
1587118646039659,9308
1587118646041475,9308
1587118646054695,9308
1587118646065694,9308
1587118646571395,12454
1587118646578102,12454
1587118646579448,12454
1587118646581668,12454
1587118646582845,12454
1587118646583674,12454
1587118646587561,12454
1587118646601498,12454
1587118646615431,12454
1587118646616354,12454
1587118647617975,12454
1587118647620478,12454
1587118647632595,12454
1587118648138351,14404
1587118648140610,14404
1587118648144143,14404
1587118648145021,14404
1587118648145470,14404
1587118648146169,14404
1587118648147466,14404
1587118648149550,14404
1587118648150521,14404
1587118648159071,14404
1587118648160624,14404
1587118648161054,14404
1587118648161699,14404
1587118648675162,12033
1587118648677240,12033
1587118648677696,12033
1587118648688625,12033
1587118648690479,12033
1587118648690919,12033
1587118648691590,12033
1587118648692960,12033
1587118648703913,12033
1587118648704974,12033
1587118648705451,12033
1587118648705802,12033
1587118648707148,12033
1587118649246530,13298
1587118649251600,13298
1587118649256039,13298
1587118649256864,13298
1587118649270705,13298
1587118649273034,13298
1587118649273490,13298
1587118649282184,13298
1587118649283247,13298
1587118649289405,13298
1587118649300938,13298
1587118649302706,13298
1587118649314015,13298
1587118649823453,12412
1587118649823864,12412
1587118649824176,12412
1587118649825193,12412
1587118649826012,12412
1587118649826839,12412
1587118649828137,12412
1587118649828840,12412
1587118649829491,12412
1587118649840885,12412
1587118649842553,12412
1587118649853623,12412
1587118649854559,12412
1587118650357979,12784
1587118650358984,12784
1587118650359964,12784
1587118650362886,12784
1587118650364015,12784
1587118650364853,12784
1587118650366668,12784
1587118650367663,12784
1587118650369172,12784
1587118650377232,12784
1587118650392479,12784
1587118650404062,12784
1587118650405078,12784
1587118654211766,13010
1587118654223065,13010
1587118654241033,13010
1587118654250511,13010
1587118654251514,13010
1587118654252397,13010
1587118654264341,13010
1587118654267858,13010
1587118654270720,13010
1587118654281877,13010
1587118654292632,13010
1587118654303634,13010
1587118654304705,13010
1587118654815986,20222
1587118654826598,20222
1587118654837727,20222
1587118654838429,20222
1587118654839570,20222
1587118654841505,20222
1587118654843219,20222
1587118654847921,20222
1587118654861025,20222
1587118654863032,20222
1587118654874985,20222
1587118654878216,20222
1587118654889739,20222
1587118655393555,15475
1587118655404838,15475
1587118655406627,15475
1587118655408619,15475
1587118655409766,15475
1587118655412285,15475
1587118655424515,15475
1587118655427082,15475
1587118655430705,15475
1587118655441608,15475
1587118655442624,15475
1587118655455608,15475
1587118655456298,15475
1587118655967828,16157
1587118655968486,16157
1587118655969447,16157
1587118655971474,16157
1587118655976121,16157
1587118655977169,16157
1587118656539192,16157
1587118656556482,16157
1587118656557715,16157
1587118656558700,16157
1587118656559986,16157
1587118656561026,16157
1587118656573520,16157
1587118657090631,16790
1587118657092508,16790
1587118657093098,16790
1587118657093576,16790
1587118657094454,16790
1587118657096672,16790
1587118657107682,16790
1587118657108464,16790
1587118657109815,16790
1587118657110636,16790
1587118657111456,16790
1587118657112891,16790
1587118657114478,16790
1587118657626491,16261
1587118657626966,16261
1587118657637482,16261
1587118657648612,16261
1587118657659538,16261
1587118657664975,16261
1587118657665707,16261
1587118657666434,16261
1587118657667355,16261
1587118657668326,16261
1587118657669824,16261
1587118657687769,16261
1587118657690408,16261
1587118658201357,16514
1587118658212622,16514
1587118658223602,16514
1587118658224866,16514
1587118658225732,16514
1587118658226116,16514
1587118658226927,16514
1587118658238904,16514
1587118658243896,16514
1587118658245343,16514
1587118658250646,16514
1587118658253955,16514
1587118658255944,16514
1587118658766838,16643
1587118658773329,16643
1587118658774209,16643
1587118658775186,16643
1587118658776283,16643
1587118658777507,16643
1587118658778367,16643
1587118658778792,16643
1587118658780720,16643
1587118673815266,16643
1587118673818470,16643
1587118673819304,16643
1587118673820121,16643
1587118674325736,31570
1587118674328014,31570
1587118674329811,31570
1587118674332018,31570
1587118674333629,31570
1587118674334460,31570
1587118674336439,31570
1587118674338786,31570
1587118674362736,31570
1587118674366077,31570
1587118674367861,31570
1587118674369303,31570
1587118674373273,31570
1587118674883100,26321
1587118674884175,26321
1587118674885242,26321
1587118674886246,26321
1587118674887068,26321
1587118674887882,26321
1587118674888886,26321
1587118674889851,26321
1587118674892481,26321
1587118674893275,26321
1587118674895754,26321
1587118674919293,26321
1587118674930706,26321
1587118675432648,26496
1587118675433886,26496
1587118675444591,26496
1587118675445780,26496
1587118675447853,26496
1587118675448574,26496
1587118675449956,26496
1587118675472177,26496
1587118675473157,26496
1587118675474213,26496
1587118675474927,26496
1587118675475595,26496
1587118675478148,26496
1587118675987430,27286
1587118675987929,27286
1587118675988606,27286
1587118675999607,27286
1587118676010566,27286
1587118676021582,27286
1587118676022434,27286
1587118676023567,27286
1587118676027601,27286
1587118676028262,27286
1587118676042727,27286
1587118676043513,27286
1587118676044131,27286
1587118676549042,26877
1587118676552810,26877
1587118676555145,26877
1587118676568814,26877
1587118676570754,26877
1587118676571913,26877
1587118676575118,26877
1587118676575916,26877
1587118676577034,26877
1587118676588698,37
1587118676589418,26877
1587118676592427,26877
1587118676603612,26877
1587118676604132,26877
1587118677108427,26732
1587118677109285,26732
1587118677120867,26732
1587118677121585,26732
1587118677133683,26732
1587118677134407,26732
1587118677135599,26732
1587118677136243,26732
1587118677137015,26732
1587118677137964,26732
1587118677138407,26732
1587118677138856,26732
1587118677384197,26732
1587118677885670,33928
1587118677886559,33928
1587118677887459,33928
1587118677888466,33928
1587118677889384,33928
1587118677890217,33928
1587118677891060,33928
1587118678894846,33928
1587118678905654,33928
1587118678908347,33928
1587118678915132,33928
1587118678917661,33928
1587118678918667,33928
1587118679420122,32876
1587118679420850,32876
1587118679421918,32876
1587118679422292,32876
1587118679423475,32876
1587118679424481,32876
1587118679436744,32876
1587118679447724,32876
1587118679448980,32876
1587118679449786,32876
1587118679450931,32876
1587118679452094,32876
1587118679462642,32876
1587118679972286,32572
1587118679973061,32572
1587118679975113,32572
1587118679976285,32572
1587118679977013,32572
1587118679978178,32572
1587118679979396,32572
1587118679990805,32572
1587118679991686,32572
1587118679992996,32572
1587118680003574,32572
1587118680006480,32572
1587118680017760,32572
1587118680527116,32560
1587118680528892,32560
1587118680529722,32560
1587118680530663,32560
1587118680541589,32560
1587118680542471,32560
1587118680543062,32560
1587118680544199,32560
1587118680545351,32560
1587118680556855,32560
1587118680557646,32560
1587118680558997,32560
1587118684555896,4
1587118684982041,63
1587118685155770,62
1587118685699124,62
1587118685838299,62
1587118686171131,62
1587118686311817,61
1587118686596059,61
1587118686836082,62
1587118687575878,32560
1587118688079357,44198
1587118688080240,44198
1587118688082389,44198
1587118688083741,44198
1587118688085880,44198
1587118688098969,44198
1587118688099954,44198
1587118688113423,44198
1587118688140296,44198
1587118688142479,44198
1587118688144818,44198
1587118688145813,44198
1587118688158715,44198
1587118688677105,39153
1587118688679399,39153
1587118688680451,39153
1587118688681866,39153
1587118688683949,39153
1587118688685051,39153
1587118688686076,39153
1587118691699076,39153
1587118691700254,39153
1587118691701335,39153
1587118691702236,39153
1587118691703269,39153
1587118691704197,39153
1587118692210492,44878
1587118692212108,44878
1587118692213064,44878
1587118692214152,44878
1587118692214650,44878
1587118692216037,44878
1587118692217007,44878
1587118692218091,44878
1587118692229263,44878
1587118692230077,44878
1587118692240639,44878
1587118692252196,44878
1587118692255463,44878
1587118692496115,4
1587118692761700,41720
1587118692763076,41720
1587118692763973,41720
1587118692765032,41720
1587118692776472,41720
1587118692787640,41720
1587118692799350,41720
1587118692800694,41720
1587118692810594,41720
1587118692812058,41720
1587118692815431,41720
1587118692830703,41720
1587118692847895,41720
1587118693061864,4
1587118693353622,41954
1587118693354766,41954
1587118693355756,41954
1587118693357857,41954
1587118693358970,41954
1587118693360955,41954
1587118693373182,41954
1587118693376960,41954
1587118693389532,41954
1587118693391899,41954
1587118693397103,41954
1587118693411746,41954
1587118693412633,41954
1587118693922121,41609
1587118693923392,41609
1587118693924254,41609
1587118693927744,41609
1587118693928726,41609
1587118693933543,41609
1587118693934509,41609
1587118693945902,41609
1587118693946841,41609
1587118693948308,41609
1587118693949590,41609
1587118693960621,41609
1587118693961252,41609
1587118694572816,42320
1587118694573365,42320
1587118694573680,60
1587118694590460,42320
1587118694592364,42320
1587118694593340,42320
1587118694594371,42320
1587118694608388,42320
1587118694619144,42320
1587118694620151,42320
1587118694621352,42320
1587118694633693,42320
1587118694646182,42320
1587118694657647,42320
1587118695166932,42710
1587118695168044,42710
1587118695169285,42710
1587118695180648,42710
1587118695192906,42710
1587118695203725,42710
1587118695214588,42710
1587118695226139,42710
1587118695227611,42710
1587118695238670,42710
1587118695239760,42710
1587118695241563,42710
1587118695242020,42710
1587118695744643,42206
1587118695747185,42206
1587118695748103,42206
1587118695758795,42206
1587118695759695,42206
1587118695771891,42206
1587118695773848,42206
1587118695775053,42206
1587118695776500,42206
1587118695792381,42206
1587118695793427,42206
1587118695794940,42206
1587118695805742,42206
1587118696315711,42241
1587118696326643,42241
1587118696327895,42241
1587118696329781,42241
1587118697684652,37
1587118697801992,4
1587118699333911,42241
1587118699334420,42241
1587118699335256,42241
1587118699336380,42241
1587118699337377,42241
1587118699338271,42241
1587118699340460,42241
1587118699341722,42241
1587118699347418,42241
1587118699855174,46266
1587118699856007,46266
1587118699856580,46266
1587118699867958,46266
1587118699869645,46266
1587118699881888,46266
1587118699894565,46266
1587118699917715,46266
1587118699921826,46266
1587118699925570,46266
1587118699926629,46266
1587118699937714,46266
1587118699948938,46266
1587118700407526,4
1587118700455647,44559
1587118700456580,44559
1587118700457586,44559
1587118700458176,44559
1587118700469738,44559
1587118700480607,44559
1587118700481350,44559
1587118700482039,44559
1587118700483210,44559
1587118700483974,44559
1587118700485334,44559
1587118700485714,44559
1587118700487228,44559
1587118700686056,61
1587118700999361,45544
1587118701000408,45544
1587118701001181,45544
1587118701012814,45544
1587118701013769,45544
1587118701024739,45544
1587118701026282,45544
1587118701027014,45544
1587118701028252,45544
1587118701029539,45544
1587118701034436,45544
1587118701047467,45544
1587118701053622,45544
1587118701569711,45639
1587118701577524,45639
1587118701579147,45639
1587118701580186,45639
1587118701592178,45639
1587118701605404,45639
1587118701619723,45639
1587118701630729,45639
1587118701648626,45639
1587118701673128,45639
1587118701674491,45639
1587118701686524,45639
1587118701688047,45639
1587118702190517,45847
1587118702191863,45847
1587118702193877,45847
1587118702195523,45847
1587118702197384,45847
1587118702210825,45847
1587118702232684,45847
1587118702233849,45847
1587118702240085,45847
1587118702264494,45847
1587118702266607,45847
1587118702268155,45847
1587118702269113,45847
1587118702792392,45897
1587118702792679,37
1587118702804700,45897
1587118702805926,45897
1587118702807257,45897
1587118702807889,45897
1587118702809198,45897
1587118702809855,45897
1587118702816073,45897
1587118702817015,45897
1587118702817878,45897
1587118702823666,45897
1587118702825232,45897
1587118702826550,45897
1587118702863685,37
1587118702994347,37
1587118703209195,37
1587118703330644,47708
1587118703334150,47708
1587118703455020,47708
1587118703461140,47708
1587118703462506,47708
1587118703463907,47708
1587118703465077,47708
1587118703466254,47708
1587118703470071,47708
1587118703471060,47708
1587118703471801,47708
1587118703473841,47708
1587118703474987,47708
1587118703688006,37
1587118703981221,47293
1587118703982465,47293
1587118703983851,47293
1587118703996011,47293
1587118703997373,47293
1587118703998251,47293
1587118704004291,47293
1587118704005441,47293
1587118704006802,47293
1587118704009745,47293
1587118704020672,47293
1587118704031679,47293
1587118704032518,47293
1587118704544920,48593
1587118704556993,48593
1587118704559026,48593
1587118704570774,48593
1587118704571641,48593
1587118704572846,48593
1587118704575600,48593
1587118704579671,48593
1587118704592821,48593
1587118704594646,48593
1587118704597832,48593
1587118704608683,48593
1587118704610059,48593
1587118705114938,50483
1587118705126110,50483
1587118705127976,50483
1587118705128892,50483
1587118705129961,50483
1587118705132479,50483
1587118705143681,50483
1587118705144741,50483
1587118705146440,50483
1587118705148013,50483
1587118705148737,50483
1587118705150452,50483
1587118705161667,50483
1587118705667997,52071
1587118705669167,52071
1587118705670405,52071
1587118705671296,52071
1587118705672518,52071
1587118705683661,52071
1587118705686751,52071
1587118705687202,52071
1587118705691257,52071
1587118705692854,52071
1587118705703619,52071
1587118705705024,52071
1587118705707220,52071
1587118706216391,50014
1587118706227800,50014
1587118706228848,50014
1587118706240623,50014
1587118706241682,50014
1587118706242957,50014
1587118706243427,50014
1587118706246973,50014
1587118706257609,50014
1587118706258452,50014
1587118706259384,50014
1587118706262301,50014
1587118706550668,37
1587118707090351,37
1587118708286876,4
1587118708477950,37
1587118708906693,37
1587118709005072,37
1587118709279621,50014
1587118709796841,60361
1587118709798226,60361
1587118709799770,60361
1587118709800717,60361
1587118709812849,60361
1587118709823870,60361
1587118709835361,60361
1587118709837777,60361
1587118709838772,60361
1587118709845993,60361
1587118709850289,60361
1587118709851455,60361
1587118709853971,60361
1587118709867085,4
1587118710350853,4
1587118710374274,54450
1587118710376173,54450
1587118710387633,54450
1587118710388185,54450
1587118710390446,54450
1587118710392587,54450
1587118710394162,54450
1587118710395342,54450
1587118710396873,54450
1587118710397950,54450
1587118710402489,54450
1587118710414220,54450
1587118711484560,37
1587118711943624,37
1587118712103169,37
1587118712268780,37
1587118712683216,37
1587118713142551,37
1587118713462528,37
1587118714298508,37
1587118714312636,37
1587118715041062,37
1587118716892960,63
1587118717431665,54450
1587118717947676,61918
1587118717958682,61918
1587118717959548,61918
1587118717960843,61918
1587118717971535,61918
1587118717974763,61918
1587118719958873,61
1587118725060610,61918
1587118725062036,61918
1587118725063183,61918
1587118725065019,61918
1587118725065466,61918
1587118725076596,61918
1587118725079020,61918
1587118725588738,69095
1587118725600617,69095
1587118725602030,69095
1587118725603044,69095
1587118725603774,69095
1587118725604942,69095
1587118725606160,69095
1587118725608285,69095
1587118725609500,69095
1587118725609965,69095
1587118728622214,69095
1587118728622770,69095
1587118728624759,69095
1587118729128288,73028
1587118729129038,73028
1587118729136782,73028
1587118729137282,73028
1587118729137717,73028
1587118729139902,73028
1587118729151506,73028
1587118729153675,73028
1587118729154861,73028
1587118729155870,73028
1587118729169656,73028
1587118729173640,73028
1587118729185589,73028
1587118729690981,68525
1587118729692009,68525
1587118729694154,68525
1587118729695036,68525
1587118729696050,68525
1587118729696998,68525
1587118729698517,68525
1587118729699551,68525
1587118729702461,68525
1587118729715808,68525
1587118729726611,68525
1587118729728067,68525
1587118729729019,68525
1587118730199967,61
1587118730242935,69972
1587118730246834,69972
1587118730248079,69972
1587118730252263,69972
1587118730263603,69972
1587118730265055,69972
1587118730276401,69972
1587118730278738,69972
1587118730291472,69972
1587118730292454,69972
1587118730294219,69972
1587118730298672,69972
1587118730303171,69972
1587118730809873,71480
1587118730811713,71480
1587118730824037,71480
1587118730825473,71480
1587118730826375,71480
1587118730826754,71480
1587118730827262,71480
1587118730828466,71480
1587118730829701,71480
1587118730830606,71480
1587118730831083,71480
1587118730832361,71480
1587118730836144,71480
1587118731344871,70810
1587118731345894,70810
1587118732353652,70810
1587118732364595,70810
1587118732366738,70810
1587118732367292,70810
1587118732368681,70810
1587118732369771,70810
1587118732370759,70810
1587118732379832,70810
1587118732382253,70810
1587118732386147,70810
1587118732387811,70810
1587118732890706,75457
1587118732892490,75457
1587118732903632,75457
1587118732905374,75457
1587118732905807,75457
1587118732907617,75457
1587118732909149,75457
1587118732919824,75457
1587118732930587,75457
1587118732942852,75457
1587118732953550,75457
1587118732957227,75457
1587118732958233,75457
1587118733223896,61
1587118733474622,72939
1587118733485821,72939
1587118733487426,72939
1587118733489235,72939
1587118733490669,72939
1587118733491037,72939
1587118733491928,72939
1587118733492367,61
1587118733492748,72939
1587118733493337,72939
1587118733504567,72939
1587118733508698,72939
1587118733513504,72939
1587118733514624,72939
1587118734031637,73398
1587118734032540,73398
1587118734034179,73398
1587118734035819,73398
1587118734046562,73398
1587118734047212,73398
1587118734051910,73398
1587118734054427,73398
1587118734055555,73398
1587118734056662,73398
1587118734059464,73398
1587118734060342,73398
1587118734061499,73398
1587118734573143,73413
1587118734573940,73413
1587118734583576,73413
1587118734584764,73413
1587118734587732,73413
1587118734590227,73413
1587118734592052,73413
1587118734614390,73413
1587118734627924,73413
1587118734629950,73413
1587118734642859,73413
1587118734643543,73413
1587118734648268,73413
1587118734859848,63
1587118735106465,63
1587118735160194,73589
1587118735161659,73589
1587118735163071,73589
1587118735175690,37
1587118735176033,73589
1587118735177613,73589
1587118735178725,73589
1587118735180696,73589
1587118735183368,73589
1587118735184557,73589
1587118735185688,73589
1587118735201012,73589
1587118735202009,73589
1587118735206067,73589
1587118735711766,73815
1587118735712922,73815
1587118735714624,73815
1587118735716622,73815
1587118735717513,73815
1587118735721198,73815
1587118735722102,73815
1587118735736818,73815
1587118735739680,73815
1587118735740364,73815
1587118735741639,73815
1587118735753282,73815
1587118735755519,73815
1587118735849055,61
1587118736273461,74889
1587118736273951,74889
1587118736274344,74889
1587118736277397,74889
1587118736278185,74889
1587118736279167,74889
1587118736290430,74889
1587118736292001,74889
1587118736315851,74889
1587118736318164,74889
1587118736319429,74889
1587118736334182,74889
1587118736589793,63
1587118737192030,37
1587118737220759,37
1587118737339624,74889
1587118737861649,80421
1587118737872995,80421
1587118737873874,80421
1587118737874838,80421
1587118737876378,80421
1587118737877876,80421
1587118737878743,80421
1587118737881804,80421
1587118737886531,80421
1587118737888046,80421
1587118737899238,80421
1587118737913752,80421
1587118737919461,80421
1587118738427169,78008
1587118738429146,78008
1587118738863704,62
1587118740855990,62
1587118741220387,61
1587118741434498,78008
1587118741437066,78008
1587118741438039,78008
1587118741440002,78008
1587118741441365,78008
1587118741442201,78008
1587118741444681,78008
1587118741448472,78008
1587118741450231,78008
1587118741462781,78008
1587118741465165,78008
1587118741682503,62
1587118741975435,84130
1587118741977059,84130
1587118741988419,84130
1587118741989889,84130
1587118741991340,84130
1587118741992741,84130
1587118741993706,84130
1587118741998606,84130
1587118742002480,84130
1587118742004371,84130
1587118742005256,84130
1587118742008742,84130
1587118742009130,84130
1587118742511664,80645
1587118742512899,80645
1587118742514127,80645
1587118742515174,80645
1587118742516252,80645
1587118742517682,80645
1587118742518174,80645
1587118742519516,80645
1587118742520475,80645
1587118742526482,80645
1587118742537955,80645
1587118742538943,80645
1587118742539778,80645
1587118742741220,60
1587118743045171,80798
1587118743046244,80798
1587118743046728,80798
1587118743047985,80798
1587118743049914,80798
1587118743050945,80798
1587118743051412,80798
1587118743052961,80798
1587118743054483,80798
1587118743061018,80798
1587118743063368,80798
1587118743074630,80798
1587118743076457,80798
1587118743395098,62
1587118743581642,80566
1587118743583434,80566
1587118743586653,80566
1587118743588598,80566
1587118743594082,80566
1587118743596095,80566
1587118743598103,80566
1587118743598867,80566
1587118743601733,80566
1587118743614587,80566
1587118743625554,80566
1587118743636732,80566
1587118743640858,80566
1587118744152233,81255
1587118744164633,81255
1587118744169494,81255
1587118744170649,81255
1587118744172358,81255
1587118744174197,81255
1587118744185770,81255
1587118744188645,81255
1587118744189140,81255
1587118744193077,81255
1587118744194540,81255
1587118744195921,81255
1587118744197415,81255
1587118744700402,82054
1587118744702286,82054
1587118744706178,82054
1587118744718602,82054
1587118744719276,82054
1587118744719805,82054
1587118744730559,82054
1587118744731371,82054
1587118744733220,82054
1587118744733902,82054
1587118744745623,82054
1587118744747452,82054
1587118744747950,82054
1587118745251538,81714
1587118745252731,81714
1587118745265659,81714
1587118745267433,81714
1587118745268570,81714
1587118745269653,81714
1587118745271676,81714
1587118745282604,81714
1587118745284512,81714
1587118745295537,81714
1587118745306620,81714
1587118745308519,81714
1587118745308991,81714
1587118745819895,82559
1587118745821252,82559
1587118745821764,82559
1587118745822961,82559
1587118745823827,82559
1587118745834763,82559
1587118745835691,82559
1587118745836531,82559
1587118745843231,82559
1587118745854659,82559
1587118745855636,82559
1587118745859452,82559
1587118745866624,82559
1587118746369407,84282
1587118746370365,84282
1587118746373401,84282
1587118746374672,84282
1587118746375660,84282
1587118746378849,84282
1587118746399859,84282
1587118746405232,84282
1587118746406374,84282
1587118746407201,84282
1587118746409751,84282
1587118746414588,84282
1587118746417305,84282
1587118746919637,83696
1587118746920602,83696
1587118746921862,83696
1587118746923523,83696
1587118746926238,83696
1587118746929437,83696
1587118746930779,83696
1587118746934366,83696
1587118746936136,83696
1587118746949692,83696
1587118746950519,83696
1587118746964662,83696
1587118746970734,83696
1587118747479055,85267
1587118747479736,85267
1587118747481506,85267
1587118747483605,85267
1587118747485229,85267
1587118747486934,85267
1587118747487410,85267
1587118747488379,85267
1587118747489583,85267
1587118747490458,85267
1587118747491381,85267
1587118747500990,85267
1587118747501660,85267
1587118748129894,37
1587118748130655,84757
1587118748132115,84757
1587118748134865,84757
1587118748137983,84757
1587118748139552,84757
1587118748140234,84757
1587118748143391,37
1587118748143705,84757
1587118748147525,84757
1587118748158632,84757
1587118748170594,84757
1587118748172103,84757
1587118748176150,84757
1587118748177092,84757
1587118748680988,86020
1587118748681570,86020
1587118748683036,86020
1587118748683452,86020
1587118748694745,86020
1587118748697537,86020
1587118748709021,86020
1587118748712072,86020
1587118748712994,86020
1587118748714047,86020
1587118748716275,86020
1587118748719082,86020
1587118748719967,86020
1587118748950710,62
1587118749222810,85466
1587118749224694,85466
1587118749225110,85466
1587118749236583,85466
1587118749239579,85466
1587118749240425,85466
1587118749242193,85466
1587118749243544,85466
1587118749245246,85466
1587118749246304,85466
1587118749248812,85466
1587118749254622,85466
1587118749256132,85466
1587118749775164,86535
1587118749797376,86535
1587118749799078,86535
1587118749800440,86535
1587118749804143,86535
1587118749805586,86535
1587118749807397,86535
1587118749807852,86535
1587118749810933,86535
1587118749812832,86535
1587118749814145,86535
1587118749826705,86535
1587118749828161,86535
1587118749867853,37
1587118750348956,86316
1587118750350917,86316
1587118750352548,86316
1587118750353531,86316
1587118750355221,86316
1587118750358528,86316
1587118750359681,86316
1587118750364816,86316
1587118750372038,86316
1587118750373759,86316
1587118750375431,86316
1587118750376505,86316
1587118750377984,86316
1587118750881910,87239
1587118750885763,87239
1587118750887285,87239
1587118750888736,87239
1587118750889095,87239
1587118750891420,87239
1587118750892107,87239
1587118750895505,87239
1587118750907708,87239
1587118750925713,87239
1587118750927819,87239
1587118750929662,87239
1587118750999503,87239
1587118751495782,37
1587118751523345,87635
1587118751548357,87635
1587118751549006,87635
1587118751550865,87635
1587118751553022,87635
1587118751563950,87635
1587118751565597,87635
1587118751578276,87635
1587118751578519,37
1587118751580490,87635
1587118751582435,87635
1587118751594023,87635
1587118751596342,87635
1587118751609712,87635
1587118751969279,37
1587118752038672,37
1587118752079248,37
1587118752079954,37
1587118752112246,37
1587118752113858,87167
1587118752115651,87167
1587118752117397,87167
1587118752129937,87167
1587118752133774,87167
1587118754189911,4
1587118754584223,62
1587118755142444,87167
1587118755142903,87167
1587118755165371,87167
1587118755166446,87167
1587118755169683,87167
1587118755170525,87167
1587118755172527,87167
1587118755173660,87167
1587118755534517,37
1587118755536946,4
1587118755684214,92803
1587118755685427,92803
1587118755696849,92803
1587118755709421,92803
1587118755711306,92803
1587118755712122,92803
1587118755712724,92803
1587118755714652,92803
1587118755716473,92803
1587118755718718,92803
1587118756377005,63
1587118757240099,4
1587118757483183,62
1587118757917793,62
1587118761991800,63
1587118762734769,92803
1587118762735740,92803
1587118762750045,92803
1587118762802893,4
1587118763268184,100664
1587118763270644,100664
1587118763277563,100664
1587118763281043,100664
1587118763286779,100664
1587118763289147,100664
1587118763292755,100664
1587118763305631,100664
1587118763306255,100664
1587118763318396,100664
1587118763328233,100664
1587118763330853,100664
1587118763333520,100664
1587118763844593,95956
1587118763846198,95956
1587118763850639,95956
1587118763855000,95956
1587118763858470,95956
1587118763870571,95956
1587118763871495,95956
1587118763875998,95956
1587118763877900,95956
1587118763882567,95956
1587118763883427,95956
1587118763883901,95956
1587118763910465,95956
1587118764199945,4
1587118764415439,96135
1587118764416444,96135
1587118764429563,96135
1587118764431913,96135
1587118764445027,96135
1587118764448226,96135
1587118764459636,96135
1587118764461261,96135
1587118764476628,96135
1587118764490768,96135
1587118764493403,96135
1587118764493981,96135
1587118764499746,96135
1587118764656198,4
1587118765004899,96775
1587118765007637,96775
1587118765011115,96775
1587118765024624,96775
1587118765028204,96775
1587118765040236,96775
1587118765043070,96775
1587118765044659,96775
1587118765047773,96775
1587118765052709,96775
1587118765053948,96775
1587118765055012,96775
1587118765057785,96775
1587118765162664,4
1587118765563016,37
1587118765564972,97236
1587118765565786,97236
1587118765570639,97236
1587118765572163,97236
1587118765577211,97236
1587118765585971,97236
1587118765589738,97236
1587118765603055,97236
1587118765603962,97236
1587118765616793,97236
1587118765618158,97236
1587118765619032,97236
1587118765622783,97236
1587118766126751,97700
1587118766132259,97700
1587118766139360,97700
1587118766140408,97700
1587118766155110,97700
1587118766157203,97700
1587118766172019,97700
1587118766176765,97700
1587118766177988,97700
1587118766180118,97700
1587118766182618,97700
1587118766184669,97700
1587118766197798,97700
1587118766707420,98534
1587118766708776,98534
1587118766710250,98534
1587118766713032,98534
1587118766715241,98534
1587118766716758,98534
1587118766719531,98534
1587118766724923,98534
1587118766726468,98534
1587118766739802,98534
1587118766743989,98534
1587118766744699,98534
1587118766745873,98534
1587118767251797,97920
1587118767254565,97920
1587118767259350,97920
1587118767272339,97920
1587118767276591,97920
1587118767278302,97920
1587118767284817,97920
1587118767286947,97920
1587118767291749,97920
1587118767293295,97920
1587118767319368,97920
1587118767320556,97920
1587118767339340,97920
1587118767852400,98827
1587118767853050,63
1587118767854205,98827
1587118767858190,98827
1587118767861437,98827
1587118767862778,98827
1587118767875008,98827
1587118767876403,98827
1587118767887667,98827
1587118767891185,98827
1587118767894048,98827
1587118767896216,98827
1587118767897344,98827
1587118767900986,98827
1587118767924845,61
1587118768430875,98791
1587118768442052,98791
1587118768447056,98791
1587118768470660,98791
1587118768473334,98791
1587118768476638,98791
1587118768479434,98791
1587118768494125,98791
1587118768494617,98791
1587118768509377,98791
1587118768512893,98791
1587118768513457,98791
1587118768518533,98791
1587118769036621,99333
1587118769048381,99333
1587118769049287,99333
1587118769050456,99333
1587118769053911,99333
1587118769054990,99333
1587118769058440,99333
1587118769059493,99333
1587118769065676,99333
1587118769076869,99333
1587118769077943,99333
1587118769084593,99333
1587118770086184,99333
1587118770589255,101468
1587118770601964,101468
1587118770603072,101468
1587118770604410,101468
1587118770606984,101468
1587118770609540,101468
1587118770612966,101468
1587118770626434,101468
1587118770638124,101468
1587118770640740,101468
1587118770644845,101468
1587118770651786,101468
1587118770655438,101468
1587118771165756,101333
1587118771190625,101333
1587118771194458,101333
1587118771197298,101333
1587118771200328,101333
1587118771202289,101333
1587118771211242,101333
1587118771223616,101333
1587118771227149,101333
1587118771229040,101333
1587118771231959,101333
1587118771236799,101333
1587118771260418,101333
1587118771788395,101376
1587118771791996,101376
1587118771793384,101376
1587118771805764,101376
1587118771809584,101376
1587118771811062,101376
1587118771829432,101376
1587118771830649,101376
1587118771835946,101376
1587118771840397,101376
1587118771855536,101376
1587118771870644,101376
1587118771884547,101376
1587118772395046,101492
1587118772407396,101492
1587118772422559,101492
1587118772435384,101492
1587118772436164,101492
1587118772442879,101492
1587118772469579,101492
1587118772484349,101492
1587118772495385,101492
1587118772496202,101492
1587118772498281,101492
1587118772510841,101492
1587118772511487,101492
1587118773013357,102351
1587118773027498,102351
1587118773028684,102351
1587118773031224,102351
1587118773043378,102351
1587118773045795,102351
1587118773046302,102351
1587118773059628,102351
1587118773061926,102351
1587118773065588,102351
1587118773076978,102351
1587118773077957,102351
1587118773080181,102351
1587118773599260,102190
1587118773603265,102190
1587118773612718,102190
1587118773616452,102190
1587118773629563,102190
1587118773632450,102190
1587118773644015,102190
1587118773647072,102190
1587118773650222,102190
1587118773665676,102190
1587118773681110,102190
1587118773688042,102190
1587118773688590,102190
1587118774209079,102919
1587118774211721,102919
1587118774223347,102919
1587118774228655,102919
1587118774253631,102919
1587118774256210,102919
1587118774258771,102919
1587118774259728,102919
1587118774262040,102919
1587118774265805,102919
1587118774282842,102919
1587118774298408,102919
1587118774317380,102919
1587118774827121,103354
1587118774828251,103354
1587118774831856,103354
1587118774836560,103354
1587118774837567,103354
1587118774851261,103354
1587118774864707,103354
1587118774867414,103354
1587118774869742,103354
1587118774871122,103354
1587118774875193,103354
1587118774877771,103354
1587118774891201,103354
1587118775398549,103685
1587118775399624,103685
1587118775413514,103685
1587118775414590,103685
1587118775416680,103685
1587118775419148,103685
1587118775432381,103685
1587118775450580,103685
1587118775453790,103685
1587118775466806,103685
1587118775480956,103685
1587118775493705,103685
1587118775497435,103685
1587118775904153,62
1587118776009778,103806
1587118776021934,103806
1587118776031824,103806
1587118776034810,103806
1587118776035647,103806
1587118776036663,103806
1587118776051409,103806
1587118776065390,103806
1587118776066546,103806
1587118776068767,103806
1587118776073019,103806
1587118776078341,103806
1587118776080614,103806
1587118776586084,104942
1587118776587672,104942
1587118776590061,104942
1587118776592441,104942
1587118776593543,104942
1587118776595487,104942
1587118776597559,104942
1587118776602800,104942
1587118776615467,104942
1587118776619985,104942
1587118776636282,104942
1587118776636843,104942
1587118776641690,104942
1587118777151636,104505
1587118777165619,104505
1587118777167094,104505
1587118777168016,104505
1587118777169154,104505
1587118777172409,104505
1587118777175708,104505
1587118777187589,104505
1587118777190096,104505
1587118777194651,104505
1587118777199158,104505
1587118777212820,104505
1587118777215725,104505
1587118777730400,104833
1587118777731232,104833
1587118777733558,104833
1587118777747389,104833
1587118777748857,104833
1587118777751392,104833
1587118777752097,104833
1587118777763542,104833
1587118777767188,104833
1587118777769484,104833
1587118777770217,104833
1587118777773362,104833
1587118777785152,104833
1587118778307836,106219
1587118778323728,106219
1587118778324943,106219
1587118778336044,106219
1587118778339172,106219
1587118778340581,106219
1587118778343628,106219
1587118778344846,106219
1587118778350421,106219
1587118778351105,106219
1587118778351873,106219
1587118778363307,106219
1587118778365016,106219
1587118778877125,106133
1587118778881244,106133
1587118778883691,106133
1587118778888963,106133
1587118778901395,106133
1587118778905877,106133
1587118778920434,106133
1587118778924642,106133
1587118778928460,106133
1587118778928954,106133
1587118778940078,106133
1587118778956424,106133
1587118778960801,106133
1587118778977775,37
1587118779467980,107550
1587118779480935,107550
1587118779483255,107550
1587118779485614,107550
1587118779496754,107550
1587118779499466,107550
1587118779503523,107550
1587118779507491,107550
1587118779520637,107550
1587118779533113,107550
1587118779540506,107550
1587118779551916,107550
1587118779558276,107550
1587118780120041,107565
1587118780134428,107565
1587118780137133,107565
1587118780148832,107565
1587118780154736,107565
1587118780165924,107565
1587118780167660,107565
1587118780169811,107565
1587118780171238,107565
1587118780173843,107565
1587118780187431,107565
1587118780190959,107565
1587118780193286,107565
1587118780697102,107869
1587118780697660,107869
1587118780698223,107869
1587118780700898,107869
1587118780713399,107869
1587118780715863,107869
1587118780716793,107869
1587118780717942,107869
1587118780718540,107869
1587118780721096,107869
1587118780726342,107869
1587118780728114,107869
1587118780743123,107869
1587118781247215,107460
1587118781263203,107460
1587118781264327,107460
1587118781266751,107460
1587118781278354,107460
1587118781282884,107460
1587118781283378,107460
1587118781285973,107460
1587118781289196,107460
1587118781292241,107460
1587118781295355,107460
1587118781299447,107460
1587118781313265,107460
1587118781629489,37
1587118781875387,108617
1587118781879663,108617
1587118781880641,108617
1587118781894718,108617
1587118781898004,108617
1587118781900553,108617
1587118781902854,108617
1587118781904931,108617
1587118781907349,108617
1587118781916486,108617
1587118781933552,108617
1587118781938409,108617
1587118782213293,37
1587118782688868,63
1587118782854577,62
1587118783865845,63
1587118784382182,108617
1587118784664172,61
1587118784888470,114510
1587118784890303,114510
1587118784896830,114510
1587118784899007,114510
1587118784901669,114510
1587118784903006,114510
1587118784907681,114510
1587118784908233,114510
1587118784911820,114510
1587118784924455,114510
1587118784925870,114510
1587118784928452,114510
1587118784940616,114510
1587118785445892,110963
1587118785449664,110963
1587118785451101,110963
1587118785453888,110963
1587118785456661,110963
1587118785459651,110963
1587118785460794,110963
1587118785461228,110963
1587118785461808,110963
1587118785465476,110963
1587118785478940,110963
1587118785482232,110963
1587118785482739,110963
1587118785999792,112849
1587118786006052,112849
1587118786006640,112849
1587118786010042,112849
1587118786014367,112849
1587118786019411,112849
1587118786032010,112849
1587118786036128,112849
1587118786039169,112849
1587118786042150,112849
1587118786044563,112849
1587118786045688,112849
1587118786059830,112849
1587118786098377,61
1587118786571831,112024
1587118786573196,112024
1587118786577032,112024
1587118786578695,112024
1587118786583381,112024
1587118786584675,112024
1587118786588364,112024
1587118786592612,112024
1587118786594993,112024
1587118786607973,112024
1587118786610542,112024
1587118786622446,112024
1587118786626761,112024
1587118787129090,112757
1587118787134584,112757
1587118787135751,112757
1587118787153967,112757
1587118787157531,112757
1587118787158963,112757
1587118787177291,112757
1587118787179881,112757
1587118787181100,112757
1587118787185961,112757
1587118787188099,112757
1587118787191347,112757
1587118787194498,112757
1587118787698165,112993
1587118787699229,112993
1587118787700248,112993
1587118787705787,112993
1587118787708689,112993
1587118787710569,112993
1587118787715076,112993
1587118787727937,112993
1587118787730127,112993
1587118787910921,63
1587118787948849,112993
1587118787953474,112993
1587118787956517,112993
1587118787960796,112993
1587118788008201,62
1587118788143653,62
1587118788387958,63
1587118788463190,113363
1587118788469350,113363
1587118788471037,113363
1587118788473932,113363
1587118788475214,63
1587118788478457,113363
1587118788479935,113363
1587118788481796,113363
1587118788484550,113363
1587118788485601,113363
1587118788488355,113363
1587118788489938,113363
1587118788513546,113363
1587118788515932,113363
1587118788651025,62
1587118788792862,62
1587118788908979,61
1587118789021430,113919
1587118789025488,113919
1587118789027489,113919
1587118789028959,113919
1587118789031461,113919
1587118789032814,113919
1587118789057026,113919
1587118789068506,113919
1587118789071631,113919
1587118789075481,113919
1587118789077280,113919
1587118789078468,113919
1587118789080766,113919
1587118789593268,115090
1587118789646815,115090
1587118789661627,115090
1587118789662174,115090
1587118789667362,115090
1587118789670343,115090
1587118789678500,115090
1587118790428255,61
1587118790687248,115090
1587118790690537,115090
1587118790692875,115090
1587118790698553,115090
1587118790704996,115090
1587118790711262,115090
1587118791223914,115502
1587118791231734,115502
1587118791237969,115502
1587118791239610,115502
1587118791243072,115502
1587118791253334,115502
1587118791254741,115502
1587118791268658,115502
1587118791273920,115502
1587118791290048,115502
1587118791293884,115502
1587118791294814,115502
1587118791296288,115502
1587118791840578,115624
1587118791847446,115624
1587118791851596,115624
1587118791857932,115624
1587118791859787,115624
1587118791881879,115624
1587118791893912,115624
1587118791896632,115624
1587118791899218,115624
1587118791902853,115624
1587118791904340,115624
1587118791908662,115624
1587118791913298,115624
1587118792417496,115873
1587118792421623,115873
1587118792424055,115873
1587118792425428,115873
1587118792426941,115873
1587118792434863,115873
1587118792440014,115873
1587118792444032,115873
1587118792455360,115873
1587118792468046,115873
1587118792469461,115873
1587118792471192,115873
1587118792472547,115873
1587118792975783,116230
1587118792978310,116230
1587118792981300,116230
1587118792994801,116230
1587118792999032,116230
1587118793002457,116230
1587118793006529,116230
1587118793010056,116230
1587118793011270,116230
1587118793027966,116230
1587118793032276,116230
1587118793036686,116230
1587118793050224,116230
1587118793561197,116596
1587118793563121,116596
1587118793566721,116596
1587118793571276,116596
1587118793574262,116596
1587118793579010,116596
1587118793579645,116596
1587118793581996,116596
1587118793583932,116596
1587118793587958,116596
1587118793590551,116596
1587118793613439,116596
1587118793614970,116596
1587118794118841,116677
1587118794125566,116677
1587118794129880,116677
1587118794141389,116677
1587118794142391,116677
1587118794142898,116677
1587118794149842,116677
1587118794150763,116677
1587118794168403,116677
1587118794183709,116677
1587118794188941,116677
1587118794189410,116677
1587118794191598,116677
1587118794704806,117035
1587118794718437,117035
1587118794722162,117035
1587118794724082,117035
1587118794725519,117035
1587118794727276,117035
1587118794731583,117035
1587118794734329,117035
1587118794743283,117035
1587118794755149,117035
1587118794761437,117035
1587118794766998,117035
1587118794769499,117035
1587118795273944,117802
1587118795285887,117802
1587118795290989,117802
1587118795293864,117802
1587118795296542,117802
1587118795297948,117802
1587118795301170,117802
1587118795303443,117802
1587118795315018,117802
1587118795329602,117802
1587118795333358,117802
1587118796453474,61
1587118796816707,117802
1587118796821132,117802
1587118797335034,120582
1587118797337526,120582
1587118797348991,120582
1587118797351524,120582
1587118797354587,120582
1587118797357049,120582
1587118797372592,120582
1587118797373920,120582
1587118797385975,120582
1587118797390097,120582
1587118797393731,120582
1587118797397018,120582
1587118797411730,120582
1587118797926521,120019
1587118797931401,120019
1587118797935628,120019
1587118797948744,120019
1587118797950723,120019
1587118797954487,120019
1587118797967025,120019
1587118797973226,120019
1587118797974067,120019
1587118797976874,120019
1587118797988184,120019
1587118797993465,120019
1587118797996240,120019
1587118798516096,119712
1587118798518473,119712
1587118798519169,119712
1587118798521368,119712
1587118798522066,119712
1587118798535283,119712
1587118798538015,119712
1587118798553462,119712
1587118798559381,119712
1587118798577165,119712
1587118798580263,119712
1587118798580818,119712
1587118798583359,119712
1587118799100965,120572
1587118799101771,120572
1587118799102404,120572
1587118799102841,120572
1587118799116627,120572
1587118799136887,120572
1587118799138530,120572
1587118799142097,120572
1587118799143252,120572
1587118799144663,120572
1587118799153813,120572
1587118799175116,120572
1587118799179005,120572
1587118799207595,62
1587118799275633,61
1587118799691057,120690
1587118799695361,120690
1587118799698190,120690
1587118799701128,120690
1587118799713723,120690
1587118799718048,120690
1587118799720441,120690
1587118799734605,120690
1587118799736406,120690
1587118799737009,120690
1587118799741977,120690
1587118799745672,120690
1587118799746801,120690
1587118800249566,120582
1587118800251235,120582
1587118800255076,120582
1587118800257685,120582
1587118800268059,120582
1587118800279293,120582
1587118800290447,120582
1587118800291474,120582
1587118800300205,120582
1587118800301366,120582
1587118800305433,120582
1587118800310870,120582
1587118800314158,120582
1587118800826355,121057
1587118800832128,121057
1587118800833169,121057
1587118800834015,121057
1587118800838870,121057
1587118800850056,121057
1587118800850746,121057
1587118800851858,121057
1587118800854553,121057
1587118800857402,121057
1587118800862943,121057
1587118800867674,121057
1587118800880555,121057
1587118801385619,121453
1587118801400150,121453
1587118801401761,121453
1587118801402276,121453
1587118801403146,121453
1587118802419435,121453
1587118802422606,121453
1587118802424113,121453
1587118802429206,121453
1587118802433163,121453
1587118802440016,121453
1587118802441146,121453
1587118802446033,121453
1587118802971300,123376
1587118802974510,123376
1587118802980049,123376
1587118802981951,123376
1587118803001290,123376
1587118803004142,123376
1587118803005289,123376
1587118803010607,123376
1587118803012027,123376
1587118803027446,123376
1587118803030398,123376
1587118803032796,123376
1587118803038727,123376
1587118803552655,122774
1587118803555536,122774
1587118803558104,122774
1587118803564803,122774
1587118803580180,122774
1587118803582381,122774
1587118803588175,122774
1587118803589574,122774
1587118803591447,122774
1587118803595683,122774
1587118803596594,122774
1587118803606342,122774
1587118803609576,122774
1587118804115724,124619
1587118804125200,124619
1587118804126757,124619
1587118804152548,124619
1587118804157405,124619
1587118804159849,124619
1587118804161675,124619
1587118804167650,124619
1587118804181886,124619
1587118804183119,124619
1587118804185349,124619
1587118804190411,124619
1587118804191627,124619
1587118804695398,123462
1587118804696772,123462
1587118804698523,123462
1587118804699552,123462
1587118804704574,123462
1587118804709673,123462
1587118804713416,123462
1587118804714014,123462
1587118804715675,123462
1587118804720934,123462
1587118804724046,123462
1587118804737011,123462
1587118804737687,123462
1587118805240434,124278
1587118805264081,124278
1587118805269352,124278
1587118805273430,124278
1587118805275982,124278
1587118805292515,124278
1587118805295138,124278
1587118805298078,124278
1587118805304331,124278
1587118805305780,124278
1587118805310202,124278
1587118805328562,124278
1587118805347760,124278
1587118805855299,124951
1587118805861869,124951
1587118805866159,124951
1587118805881726,124951
1587118805882710,124951
1587118805886424,124951
1587118805900859,124951
1587118805905554,124951
1587118805908635,124951
1587118805914212,124951
1587118805916534,124951
1587118805928895,124951
1587118805929944,124951
1587118806442643,124521
1587118806446137,124521
1587118806449411,124521
1587118806450538,124521
1587118806459090,124521
1587118806465171,124521
1587118806469117,124521
1587118806471160,124521
1587118806477539,124521
1587118806478166,124521
1587118806479256,124521
1587118806483795,124521
1587118806497924,124521
