1587207256063675,1587207253766119
1587207256065149,1587207253366736
1587207256065333,1587207253191083
1587207256065467,1587207255781863
1587207256267413,1587207256025268
1587207258603022,1587207257885243
1587207258932266,1587207258924904
1587207259196906,1587207259042082
1587207259327664,1587207259030560
1587207259865288,1587207259462854
1587207261294355,1587207260967462
1587207261908990,1587207255334562
1587207262164666,1587207259858630
1587207262328528,1587207261333371
1587207263978619,1587207263062643
1587207264107791,1587207263878058
1587207265274539,1587207265147896
1587207266154543,1587207265607918
1587207266170659,1587207265903429
1587207266679823,1587207265757663
1587207267961234,1587207267308422
1587207269538416,1587207269537891
1587207269587177,1587207269219975
1587207270601512,1587207270465342
1587207271098241,1587207270752159
1587207271839298,1587207271485473
1587207272198849,1587207271951475
1587207273613032,1587207273338982
1587207273663613,1587207273403599
1587207273851344,1587207273280360
1587207274506124,1587207273756567
1587207275265788,1587207275221622
1587207276337311,1587207276171095
1587207276917019,1587207276907445
1587207277541028,1587207277185307
1587207278729206,1587207278602354
1587207280274559,1587207279365740
1587207280365033,1587207279457331
1587207281340389,1587207281206697
1587207283445452,1587207282894938
1587207283935648,1587207283751338
1587207286329038,1587207285668813
1587207286329249,1587207286034753
1587207286814666,1587207286305683
1587207287599171,1587207287538507
1587207288708075,1587207288702874
1587207289192480,1587207288642183
1587207289546066,1587207289536304
1587207290140853,1587207289774168
1587207290565481,1587207289899842
1587207291182291,1587207290666115
1587207291267398,1587207291109101
1587207296883614,1587207296022663
1587207299240823,1587207298837026
1587207299505175,1587207298942669
1587207299803628,1587207299358643
1587207304718914,1587207303582626
1587207304719090,1587207303909625
1587207304720573,1587207302729190
1587207304721817,1587207300498929
1587207305552243,1587207300433317
1587207305552384,1587207304955227
1587207305552432,1587207301739658
1587207305722864,1587207305513320
1587207306378543,1587207305614955
1587207309079350,1587207307610585
1587207309287742,1587207307944538
1587207310714557,1587207310112426
1587207312646501,1587207311918995
1587207313026244,1587207312281903
1587207317238571,1587207316403221
1587207317239229,1587207316291586
1587207317242204,1587207315768481
1587207317243384,1587207312350518
1587207318481613,1587207317833829
1587207318493300,1587207317622083
1587207319745515,1587207319469292
1587207320086800,1587207319958526
1587207320510695,1587207320040225
1587207320730196,1587207320415648
1587207320803709,1587207320257943
1587207321552534,1587207321144927
1587207321660585,1587207321431741
1587207322763019,1587207322189020
1587207322777370,1587207322230680
1587207323321090,1587207322844921
1587207323792280,1587207323550189
1587207324208110,1587207323995192
1587207325788653,1587207325650420
1587207326878514,1587207326556907
1587207327078333,1587207326865767
1587207328975441,1587207328696168
1587207329158408,1587207328770253
1587207329295949,1587207328744725
1587207329501571,1587207329189522
1587207329836541,1587207329141862
1587207330248334,1587207329987853
1587207331250862,1587207330698117
1587207331823709,1587207331393365
1587207334825568,1587207334151697
1587207335535442,1587207334914035
1587207336710338,1587207336124834
1587207337611878,1587207337467698
1587207338984498,1587207338809636
1587207340379502,1587207340223100
1587207340509477,1587207340182566
1587207340854792,1587207340361769
1587207341536860,1587207341206236
1587207341729790,1587207341327911
1587207343244508,1587207342850066
1587207345792900,1587207345273008
1587207347396898,1587207346811112
1587207348320255,1587207347705614
1587207348481045,1587207348370821
1587207351045734,1587207350556581
1587207351166148,1587207351165751
1587207357305775,1587207356740878
1587207357480302,1587207357038725
1587207357642438,1587207357641896
1587207358595499,1587207358096990
1587207359455242,1587207359091392
1587207359497433,1587207359022778
1587207359599303,1587207359228041
1587207361526414,1587207360764167
1587207361589677,1587207361096137
1587207364804875,1587207364318953
1587207365326176,1587207365319800
1587207365364255,1587207364822735
1587207366402273,1587207365980082
1587207367783815,1587207367337093
1587207368699302,1587207368483905
1587207369889613,1587207369565077
1587207370188047,1587207369439393
1587207370403235,1587207370007037
1587207373287949,1587207373022668
1587207375694010,1587207375464812
1587207375815068,1587207375538440
1587207375970861,1587207375548918
1587207376827198,1587207376386151
1587207380928093,1587207380506861
1587207381537417,1587207381184105
1587207382069564,1587207381877387
1587207383048928,1587207383035101
1587207385821590,1587207385490099
1587207386868193,1587207386491655
1587207386868320,1587207386494140
1587207389347809,1587207388420541
1587207389395619,1587207389011674
1587207389973269,1587207389493717
1587207390439061,1587207389862616
1587207390603061,1587207390171518
1587207390603188,1587207390209121
1587207391449864,1587207391120632
1587207394125508,1587207393146180
1587207395221231,1587207395220811
1587207396283856,1587207395506617
1587207397576883,1587207397017260
1587207397714662,1587207396933638
1587207399962058,1587207399953794
1587207400480396,1587207399511277
1587207400505854,1587207399941292
1587207400937777,1587207400243691
1587207401566475,1587207401398444
1587207404366563,1587207404114721
1587207404725167,1587207404675797
1587207407038337,1587207406541203
1587207408599257,1587207407855661
1587207409132066,1587207409125481
1587207409773341,1587207409132967
1587207410060236,1587207409705961
1587207410140288,1587207409780718
1587207411150813,1587207410614111
1587207413746774,1587207413115267
1587207414306955,1587207413968748
1587207414657852,1587207414533547
1587207417142398,1587207416374939
1587207417329592,1587207416957193
1587207417657032,1587207417175077
1587207418327043,1587207418002410
1587207419891264,1587207419496111
1587207420166088,1587207419399364
1587207420221852,1587207419819990
1587207421875790,1587207421561336
1587207423256562,1587207423175025
1587207423499637,1587207423189337
1587207423549081,1587207423169564
1587207423942890,1587207423572105
1587207425634151,1587207425073236
1587207426236150,1587207425706419
1587207426596943,1587207426093408
1587207427116168,1587207426523396
1587207427760467,1587207427228745
1587207429848397,1587207429204334
1587207430235394,1587207429933752
1587207430684289,1587207430341708
1587207431105367,1587207430720628
1587207431174749,1587207430803263
1587207431918898,1587207431655665
1587207432183176,1587207431753346
1587207432701873,1587207431808959
1587207432949782,1587207432778503
1587207433511724,1587207433314597
1587207433826573,1587207433639476
1587207434802564,1587207434696394
1587207434851323,1587207434667604
1587207434955810,1587207434330705
1587207435461356,1587207435071300
1587207436831735,1587207436340836
1587207438949842,1587207438646479
1587207439080341,1587207438458731
1587207439683321,1587207439209630
1587207441239844,1587207440713659
1587207443356420,1587207442912907
1587207443431816,1587207442890387
1587207443529454,1587207443160555
1587207445448793,1587207445028002
1587207445609782,1587207445281774
1587207447638178,1587207447120145
1587207447723404,1587207447302895
1587207448096667,1587207447715862
1587207450777848,1587207450509246
1587207452420011,1587207451868150
1587207452445605,1587207451988881
1587207452961538,1587207452355868
1587207454654590,1587207454444076
1587207454654710,1587207454247329
1587207455728310,1587207455158358
1587207456914476,1587207456110849
1587207461073010,1587207457735070
1587207461334448,1587207458837698
1587207464214579,1587207460545177
1587207464217147,1587207458976410
1587207470765259,1587207469535028
1587207470766367,1587207468508849
1587207470770017,1587207462887941
1587207470770077,1587207461163419
1587207470770340,1587207459993983
1587207470770376,1587207461703593
1587207470773528,1587207466869675
1587207471387365,1587207462725214
1587207472095509,1587207469017917
1587207472222841,1587207463973580
1587207472728042,1587207466642859
1587207472770925,1587207472563152
1587207473067313,1587207472562764
1587207475234303,1587207474956949
1587207475469228,1587207475208304
1587207475732833,1587207475053590
1587207476452656,1587207476171812
1587207477743069,1587207477735931
1587207478352395,1587207477829551
1587207479068455,1587207478673897
1587207479620779,1587207479620553
1587207479901679,1587207479267992
1587207480008462,1587207479602880
1587207481937367,1587207481570882
1587207483729465,1587207483426265
1587207484109274,1587207483848258
1587207484623483,1587207484036006
1587207484677846,1587207484359023
1587207485695111,1587207485153566
1587207485804138,1587207485650603
1587207486259120,1587207485775284
1587207486890567,1587207486498624
1587207487536385,1587207486931760
1587207488829429,1587207488460597
1587207488923898,1587207488426027
1587207489424540,1587207489222729
1587207493975069,1587207493572633
1587207495756291,1587207495480632
1587207495774545,1587207495062655
1587207495985883,1587207495663314
1587207496731642,1587207496044251
1587207498446134,1587207497906664
1587207499285483,1587207498899275
1587207499953919,1587207499284212
1587207500878319,1587207500595058
1587207501387516,1587207500835862
1587207502095561,1587207501719293
1587207502930926,1587207502387590
1587207503953855,1587207503378142
1587207504145316,1587207503491832
1587207504916829,1587207504795674
1587207506693865,1587207506363835
1587207506746169,1587207506496520
1587207511370758,1587207510933083
1587207511465880,1587207510809405
1587207511479585,1587207511007675
1587207511479655,1587207511420665
1587207512475942,1587207512116970
1587207515314430,1587207514860641
1587207515314573,1587207514886220
1587207516165753,1587207515744605
1587207516192822,1587207515833247
1587207516855323,1587207516854839
1587207517620867,1587207517361996
1587207518182558,1587207517886208
1587207520761298,1587207520425993
1587207520937691,1587207520297242
1587207521266786,1587207520831660
1587207521933158,1587207520881242
1587207522467566,1587207521781314
1587207522614660,1587207522036105
1587207526873729,1587207524333394
1587207527482795,1587207525428967
1587207550418208,1587207533969329
1587207580055894,1587207528772588
1587207582002165,1587207531748422
1587207582002322,1587207532917015
1587207582156493,1587207579774105
1587207582156615,1587207534178816
1587207582156664,1587207580180835
1587207582156710,1587207558682292
1587207582156765,1587207564520792
1587207582156810,1587207577631563
1587207582156852,1587207575233964
1587207582156896,1587207576790088
1587207582156941,1587207574656513
1587207582157004,1587207534007084
1587207582157056,1587207552620099
1587207582157102,1587207578049542
1587207582157144,1587207549201966
1587207582182683,1587207573057643
1587207582188477,1587207571010735
1587207582191434,1587207569170329
1587207582201139,1587207563032185
1587207582201221,1587207556933414
1587207582201273,1587207563551271
1587207582201536,1587207565438339
1587207582201596,1587207567221220
1587207582201639,1587207566964415
1587207582204518,1587207565317688
1587207582204586,1587207564790642
1587207582225901,1587207557128666
1587207582238513,1587207556723685
1587207582238602,1587207557029037
1587207582238651,1587207555852254
1587207582249603,1587207542924697
1587207582249730,1587207552673300
1587207582249811,1587207552263204
1587207582249863,1587207551841730
1587207582249906,1587207532401618
1587207582249952,1587207552101522
1587207582250020,1587207552651796
1587207582255893,1587207537755427
1587207582255964,1587207547693293
1587207582256039,1587207536726511
1587207582256086,1587207540001831
1587207582256135,1587207525308301
1587207582256181,1587207548131305
1587207582256227,1587207536593740
1587207582256268,1587207539241441
1587207582256312,1587207547066929
1587207582256359,1587207549303658
1587207584517530,1587207584167612
1587207585512094,1587207585077897
1587207585841048,1587207585230619
1587207585923269,1587207585688625
1587207587124390,1587207586514116
1587207589612832,1587207581814993
1587207590700618,1587207590408514
1587207590788210,1587207590222685
1587207591869789,1587207591566259
1587207592651068,1587207592642468
1587207592690584,1587207592484766
1587207594294091,1587207594292249
1587207594558505,1587207594000378
1587207594827646,1587207594345959
1587207595047915,1587207595046162
1587207597484597,1587207596880571
1587207600452197,1587207600326614
1587207601510672,1587207601032918
1587207601729158,1587207601430960
1587207602148123,1587207601942651
1587207602269069,1587207601748877
1587207602526238,1587207602343613
1587207603617827,1587207603453305
1587207604028448,1587207603497971
1587207604530897,1587207603930003
1587207605125715,1587207604972172
1587207605176948,1587207604619270
1587207605177127,1587207604973668
1587207607853472,1587207607721950
1587207609089077,1587207609079698
1587207609247237,1587207609054114
1587207610722543,1587207610490300
1587207610825813,1587207610424705
1587207611250484,1587207610771149
1587207612884027,1587207612443409
1587207613419042,1587207612933554
1587207613456242,1587207613035166
1587207613555250,1587207612803308
1587207614108266,1587207613765484
1587207614495304,1587207614201524
1587207615086621,1587207614751642
1587207616164001,1587207615490962
1587207619236026,1587207618686737
1587207619261850,1587207618733338
1587207620102252,1587207619360537
1587207621092560,1587207620237940
1587207621425482,1587207620817102
1587207623800109,1587207623791258
1587207624001170,1587207623407785
1587207624327587,1587207623729652
1587207624695110,1587207624686705
1587207625513922,1587207625013628
1587207625987391,1587207625455320
1587207626151303,1587207625389619
1587207627318495,1587207626614290
1587207627987418,1587207627079381
1587207628521070,1587207627955050
1587207628581746,1587207628577241
1587207630626935,1587207629765182
1587207630822630,1587207630488498
1587207631172059,1587207630892585
1587207631248425,1587207630691222
1587207631354161,1587207630807921
1587207632210913,1587207631978244
1587207632800441,1587207632507368
1587207633754520,1587207633611049
1587207634238833,1587207633842848
1587207634239008,1587207634083189
1587207634302496,1587207634084664
1587207634531992,1587207633938503
1587207635848729,1587207635126055
1587207636324081,1587207635795267
1587207637622213,1587207637325382
1587207639003205,1587207638562774
1587207639227703,1587207638506118
1587207641885630,1587207641078884
1587207642581029,1587207642084408
1587207642921692,1587207642333219
1587207643107571,1587207642358806
1587207643618418,1587207643366064
1587207643618503,1587207642964914
1587207643658041,1587207643210736
1587207643827731,1587207643243327
1587207644992696,1587207644815034
1587207645731338,1587207645481212
1587207647867632,1587207647419698
1587207651009565,1587207650572668
1587207651412187,1587207651002666
1587207651438958,1587207650852510
1587207651464803,1587207650997182
1587207651559889,1587207651276304
1587207652444160,1587207652348934
1587207653441946,1587207653320483
1587207656112573,1587207655937307
1587207657734063,1587207657731729
1587207658242070,1587207658019566
1587207660813220,1587207660486585
1587207663735110,1587207661031693
1587207663863537,1587207662368738
1587207665538108,1587207665536123
1587207665784046,1587207665369303
1587207666892318,1587207666401563
1587207668403415,1587207667835742
1587207668403504,1587207668055566
1587207673268703,1587207672826499
1587207673319349,1587207672720830
1587207677176473,1587207676802734
1587207677227442,1587207676753106
1587207678203161,1587207677516958
1587207678661561,1587207678200179
1587207679849100,1587207679241810
1587207680518919,1587207680145265
1587207680669464,1587207680392075
1587207681295658,1587207680923687
1587207681295768,1587207681045352
1587207681376692,1587207680785997
1587207682583907,1587207682059000
1587207683970061,1587207683479936
1587207686576378,1587207686419389
1587207687076291,1587207686499074
1587207687180865,1587207686644727
1587207687501884,1587207686994633
1587207687805071,1587207687105265
1587207689184212,1587207688601298
1587207689606712,1587207688976278
1587207690837072,1587207690829305
1587207691905100,1587207691897484
1587207692063928,1587207690189090
1587207692975649,1587207691855907
1587207695551235,1587207695308462
1587207696463268,1587207696007776
1587207698028711,1587207697556935
1587207703711402,1587207703433470
1587207705661528,1587207704860416
