1587207258699310,1587207257885243
1587207259271438,1587207259042082
1587207259282770,1587207259030560
1587207259406641,1587207258924904
1587207259751181,1587207259462854
1587207260970327,1587207255781863
1587207260970611,1587207256025268
1587207261079117,1587207260967462
1587207261711267,1587207261333371
1587207262241524,1587207259858630
1587207262241750,1587207253191083
1587207262241972,1587207253766119
1587207262243224,1587207253366736
1587207262243457,1587207255334562
1587207263875910,1587207263062643
1587207263945017,1587207263878058
1587207265229816,1587207265147896
1587207266133389,1587207265607918
1587207266336421,1587207265903429
1587207266451296,1587207265757663
1587207267909729,1587207267308422
1587207269601145,1587207269219975
1587207270027084,1587207269537891
1587207270634926,1587207270465342
1587207271123375,1587207270752159
1587207271707645,1587207271485473
1587207272181627,1587207271951475
1587207273564205,1587207273338982
1587207273722200,1587207273403599
1587207274088287,1587207273280360
1587207274402833,1587207273756567
1587207275253455,1587207275221622
1587207276278017,1587207276171095
1587207277311864,1587207277185307
1587207277312178,1587207276907445
1587207278779320,1587207278602354
1587207279750724,1587207279457331
1587207279908689,1587207279365740
1587207281207246,1587207281206697
1587207283102124,1587207282894938
1587207283920706,1587207283751338
1587207286085012,1587207285668813
1587207286251761,1587207286034753
1587207286781061,1587207286305683
1587207287755428,1587207287538507
1587207288908254,1587207288702874
1587207288917463,1587207288642183
1587207290009459,1587207289536304
1587207290133585,1587207289774168
1587207290452457,1587207289899842
1587207290992860,1587207290666115
1587207291237987,1587207291109101
1587207296431780,1587207296022663
1587207299177040,1587207298837026
1587207299458312,1587207298942669
1587207300240410,1587207299358643
1587207301286786,1587207300498929
1587207302896845,1587207302729190
1587207303849414,1587207303582626
1587207304325012,1587207303909625
1587207305586069,1587207305513320
1587207305763697,1587207300433317
1587207305763913,1587207304955227
1587207305764000,1587207301739658
1587207306097786,1587207305614955
1587207307999676,1587207307610585
1587207308758825,1587207307944538
1587207310448287,1587207310112426
1587207312370122,1587207311918995
1587207312550866,1587207312281903
1587207313399008,1587207312350518
1587207315846424,1587207315768481
1587207316533097,1587207316291586
1587207317047867,1587207316403221
1587207318169210,1587207317622083
1587207318171218,1587207317833829
1587207319469775,1587207319469292
1587207320052146,1587207319958526
1587207320213263,1587207320040225
1587207320258371,1587207320257943
1587207320722857,1587207320415648
1587207321145446,1587207321144927
1587207321577035,1587207321431741
1587207322580508,1587207322189020
1587207322845351,1587207322844921
1587207323097041,1587207322230680
1587207323608355,1587207323550189
1587207324296653,1587207323995192
1587207325743689,1587207325650420
1587207326792754,1587207326556907
1587207327322834,1587207326865767
1587207329121539,1587207328696168
1587207329123541,1587207328744725
1587207329265764,1587207328770253
1587207329468744,1587207329141862
1587207329649620,1587207329189522
1587207330514131,1587207329987853
1587207331138555,1587207330698117
1587207331747985,1587207331393365
1587207334795857,1587207334151697
1587207335441899,1587207334914035
1587207336725491,1587207336124834
1587207337559047,1587207337467698
1587207338961450,1587207338809636
1587207340316340,1587207340223100
1587207340490630,1587207340182566
1587207340808331,1587207340361769
1587207341380514,1587207341206236
1587207341901763,1587207341327911
1587207343234715,1587207342850066
1587207345649680,1587207345273008
1587207347220279,1587207346811112
1587207348104603,1587207347705614
1587207348421278,1587207348370821
1587207351498107,1587207350556581
1587207351562392,1587207351165751
1587207357293667,1587207356740878
1587207357356845,1587207357038725
1587207357897057,1587207357641896
1587207358429123,1587207358096990
1587207359471455,1587207359022778
1587207359480221,1587207359091392
1587207359927271,1587207359228041
1587207361212390,1587207360764167
1587207361500449,1587207361096137
1587207365080570,1587207364318953
1587207365180650,1587207364822735
1587207365704178,1587207365319800
1587207366243489,1587207365980082
1587207368112279,1587207367337093
1587207368776032,1587207368483905
1587207369859251,1587207369439393
1587207370388545,1587207369565077
1587207370395111,1587207370007037
1587207373288436,1587207373022668
1587207375534252,1587207375464812
1587207375773709,1587207375538440
1587207376040928,1587207375548918
1587207377054495,1587207376386151
1587207380645520,1587207380506861
1587207381423319,1587207381184105
1587207381942628,1587207381877387
1587207383723040,1587207383035101
1587207385781465,1587207385490099
1587207386808703,1587207386494140
1587207386891430,1587207386491655
1587207388868665,1587207388420541
1587207389391949,1587207389011674
1587207389881728,1587207389493717
1587207390172007,1587207390171518
1587207390209646,1587207390209121
1587207390437090,1587207389862616
1587207391431217,1587207391120632
1587207393598423,1587207393146180
1587207395852869,1587207395220811
1587207396275857,1587207395506617
1587207397734536,1587207396933638
1587207397838698,1587207397017260
1587207400093758,1587207399511277
1587207400109390,1587207399953794
1587207400402136,1587207399941292
1587207400911013,1587207400243691
1587207401590592,1587207401398444
1587207404590622,1587207404114721
1587207404721051,1587207404675797
1587207406993110,1587207406541203
1587207408343740,1587207407855661
1587207409393492,1587207409125481
1587207409709861,1587207409132967
1587207409791402,1587207409705961
1587207410112318,1587207409780718
1587207411226431,1587207410614111
1587207413575680,1587207413115267
1587207414259244,1587207413968748
1587207414586391,1587207414533547
1587207417177334,1587207416374939
1587207417183094,1587207416957193
1587207417683968,1587207417175077
1587207418002900,1587207418002410
1587207420015355,1587207419496111
1587207420015468,1587207419819990
1587207420139961,1587207419399364
1587207421845966,1587207421561336
1587207423183751,1587207423175025
1587207423380694,1587207423189337
1587207423504460,1587207423169564
1587207423920487,1587207423572105
1587207425646420,1587207425073236
1587207426408098,1587207425706419
1587207426524445,1587207426093408
1587207427067247,1587207426523396
1587207427743006,1587207427228745
1587207429789539,1587207429204334
1587207430271670,1587207429933752
1587207430461596,1587207430341708
1587207431267572,1587207430720628
1587207431285365,1587207430803263
1587207431793898,1587207431655665
1587207432169388,1587207431753346
1587207432484540,1587207431808959
1587207432852235,1587207432778503
1587207433314964,1587207433314597
1587207433718043,1587207433639476
1587207434745030,1587207434696394
1587207434752138,1587207434667604
1587207434830711,1587207434330705
1587207435432765,1587207435071300
1587207436792019,1587207436340836
1587207438875207,1587207438458731
1587207438878001,1587207438646479
1587207439761867,1587207439209630
1587207441203233,1587207440713659
1587207443304810,1587207442912907
1587207443515774,1587207443160555
1587207443519725,1587207442890387
1587207445028513,1587207445028002
1587207445598462,1587207445281774
1587207447521193,1587207447120145
1587207447639699,1587207447302895
1587207448275954,1587207447715862
1587207450684489,1587207450509246
1587207452259456,1587207451868150
1587207452399380,1587207452355868
1587207452401347,1587207451988881
1587207456160671,1587207454444076
1587207456160803,1587207454247329
1587207457059590,1587207455158358
1587207459475563,1587207456110849
1587207462527318,1587207457735070
1587207462649276,1587207458837698
1587207463099024,1587207459993983
1587207464635170,1587207460545177
1587207464728125,1587207461163419
1587207466068734,1587207461703593
1587207466263811,1587207458976410
1587207466378481,1587207462887941
1587207468509504,1587207468508849
1587207469889380,1587207469535028
1587207471272018,1587207462725214
1587207471305434,1587207466869675
1587207472070231,1587207469017917
1587207472191363,1587207463973580
1587207472695784,1587207472563152
1587207472698499,1587207466642859
1587207473082592,1587207472562764
1587207475313980,1587207474956949
1587207475458088,1587207475208304
1587207475521410,1587207475053590
1587207477389177,1587207476171812
1587207478857322,1587207477735931
1587207479119033,1587207477829551
1587207479149137,1587207478673897
1587207479808473,1587207479267992
1587207479992604,1587207479602880
1587207480011738,1587207479620553
1587207481623384,1587207481570882
1587207483566729,1587207483426265
1587207484035278,1587207483848258
1587207484562498,1587207484036006
1587207484581272,1587207484359023
1587207485658002,1587207485153566
1587207485991000,1587207485650603
1587207486294367,1587207485775284
1587207486694342,1587207486498624
1587207487256271,1587207486931760
1587207489078016,1587207488426027
1587207489175239,1587207488460597
1587207489364627,1587207489222729
1587207493936242,1587207493572633
1587207495614022,1587207495062655
1587207495616725,1587207495480632
1587207495971377,1587207495663314
1587207496653272,1587207496044251
1587207498322053,1587207497906664
1587207499541382,1587207498899275
1587207499803874,1587207499284212
1587207500770357,1587207500595058
1587207501308076,1587207500835862
1587207501858518,1587207501719293
1587207502839385,1587207502387590
1587207503946792,1587207503491832
1587207503950553,1587207503378142
1587207504865279,1587207504795674
1587207506578071,1587207506496520
1587207506654939,1587207506363835
1587207511282582,1587207511007675
1587207511288643,1587207510809405
1587207511314907,1587207510933083
1587207511527852,1587207511420665
1587207512517798,1587207512116970
1587207515306011,1587207514860641
1587207515306096,1587207514886220
1587207515833812,1587207515833247
1587207516066946,1587207515744605
1587207517104390,1587207516854839
1587207517573077,1587207517361996
1587207518133718,1587207517886208
1587207520742649,1587207520425993
1587207520805201,1587207520297242
1587207521298643,1587207520831660
1587207521344085,1587207520881242
1587207522044426,1587207522036105
1587207522458287,1587207521781314
1587207525579211,1587207525428967
1587207525755513,1587207524333394
1587207541777459,1587207536726511
1587207541777837,1587207539241441
1587207541778181,1587207540001831
1587207541782532,1587207525308301
1587207541787950,1587207531748422
1587207541792874,1587207537755427
1587207541793276,1587207536593740
1587207541796216,1587207533969329
1587207541796267,1587207528772588
1587207541796304,1587207532917015
1587207548385851,1587207547066929
1587207549083823,1587207547693293
1587207549744688,1587207548131305
1587207550094724,1587207549303658
1587207551801742,1587207542924697
1587207551801865,1587207532401618
1587207552662464,1587207551841730
1587207553088795,1587207552651796
1587207553229494,1587207552101522
1587207554153138,1587207552673300
1587207554240805,1587207552263204
1587207556241649,1587207555852254
1587207557282679,1587207556723685
1587207557380217,1587207557029037
1587207558851038,1587207557128666
1587207559833775,1587207556933414
1587207563966743,1587207563551271
1587207563983265,1587207563032185
1587207565921069,1587207565317688
1587207565972135,1587207564790642
1587207567516755,1587207567221220
1587207567518630,1587207566964415
1587207567920883,1587207565438339
1587207569538130,1587207569170329
1587207571754197,1587207571010735
1587207573176978,1587207573057643
1587207574599463,1587207534178816
1587207574599541,1587207558682292
1587207574599555,1587207564520792
1587207574599609,1587207534007084
1587207574599623,1587207552620099
1587207574599635,1587207549201966
1587207575121179,1587207574656513
1587207577686374,1587207576790088
1587207578243806,1587207577631563
1587207578273854,1587207578049542
1587207578750440,1587207575233964
1587207580291058,1587207579774105
1587207580608662,1587207580180835
1587207584774489,1587207584167612
1587207585411777,1587207585077897
1587207585789534,1587207585230619
1587207585793174,1587207585688625
1587207586976136,1587207586514116
1587207589455903,1587207581814993
1587207590586975,1587207590408514
1587207590590307,1587207590222685
1587207592002360,1587207591566259
1587207592651276,1587207592484766
1587207592671411,1587207592642468
1587207594418899,1587207594000378
1587207594749136,1587207594345959
1587207594924739,1587207594292249
1587207595259545,1587207595046162
1587207597537292,1587207596880571
1587207600422776,1587207600326614
1587207601469714,1587207601032918
1587207601473836,1587207601430960
1587207602022729,1587207601942651
1587207602196024,1587207601748877
1587207602443504,1587207602343613
1587207603498492,1587207603497971
1587207603512473,1587207603453305
1587207604250101,1587207603930003
1587207605123175,1587207604619270
1587207605123254,1587207604973668
1587207605125048,1587207604972172
1587207607815240,1587207607721950
1587207609189833,1587207609054114
1587207609335770,1587207609079698
1587207610716730,1587207610490300
1587207610783851,1587207610424705
1587207610858732,1587207610771149
1587207612576081,1587207612443409
1587207613368570,1587207613035166
1587207613588423,1587207612803308
1587207613588510,1587207612933554
1587207613848605,1587207613765484
1587207614599624,1587207614201524
1587207615113114,1587207614751642
1587207615997696,1587207615490962
1587207619072820,1587207618686737
1587207619554431,1587207618733338
1587207620055895,1587207619360537
1587207620695808,1587207620237940
1587207621308095,1587207620817102
1587207623901506,1587207623729652
1587207624093662,1587207623407785
1587207624342825,1587207623791258
1587207624840511,1587207624686705
1587207625368747,1587207625013628
1587207626425692,1587207625455320
1587207626445586,1587207625389619
1587207627463980,1587207627079381
1587207627469343,1587207626614290
1587207628106493,1587207627955050
1587207629146284,1587207628577241
1587207630187291,1587207629765182
1587207630625867,1587207630488498
1587207631153602,1587207630691222
1587207631158961,1587207630892585
1587207631669649,1587207630807921
1587207632267276,1587207631978244
1587207632826302,1587207632507368
1587207633760302,1587207633611049
1587207634266928,1587207633842848
1587207634267010,1587207634083189
1587207634401044,1587207633938503
1587207634405949,1587207634084664
1587207635777224,1587207635126055
1587207636376099,1587207635795267
1587207637584041,1587207637325382
1587207638506574,1587207638506118
1587207638900830,1587207638562774
1587207641807711,1587207641078884
1587207642340135,1587207642084408
1587207642838687,1587207642333219
1587207642941892,1587207642358806
1587207643243798,1587207643243327
1587207643603137,1587207643366064
1587207643603194,1587207642964914
1587207643851550,1587207643210736
1587207644861287,1587207644815034
1587207645667981,1587207645481212
1587207647838697,1587207647419698
1587207650573144,1587207650572668
1587207651299875,1587207651002666
1587207651313206,1587207650852510
1587207651827522,1587207650997182
1587207651827574,1587207651276304
1587207652385930,1587207652348934
1587207653540230,1587207653320483
1587207656511666,1587207655937307
1587207658157598,1587207658019566
1587207658184088,1587207657731729
1587207663101817,1587207662368738
1587207663178072,1587207660486585
1587207663710943,1587207661031693
1587207665370871,1587207665369303
1587207665821459,1587207665536123
1587207667311614,1587207666401563
1587207668453017,1587207667835742
1587207668453126,1587207668055566
1587207672826888,1587207672826499
1587207673317944,1587207672720830
1587207676753624,1587207676753106
1587207677173114,1587207676802734
1587207677946619,1587207677516958
1587207678897575,1587207678200179
1587207679747620,1587207679241810
1587207680256967,1587207680145265
1587207680687301,1587207680392075
1587207681174779,1587207680923687
1587207681292086,1587207680785997
1587207681292137,1587207681045352
1587207682551999,1587207682059000
1587207684348375,1587207683479936
1587207686477800,1587207686419389
1587207686970869,1587207686499074
1587207687110045,1587207686994633
1587207687110097,1587207686644727
1587207687995389,1587207687105265
1587207689141479,1587207688601298
1587207689491772,1587207688976278
1587207691144087,1587207690189090
1587207691648138,1587207690829305
1587207692135617,1587207691855907
1587207692273918,1587207691897484
1587207695514246,1587207695308462
1587207696381648,1587207696007776
1587207697871982,1587207697556935
1587207703586199,1587207703433470
1587207705265609,1587207704860416
1587207706397630,1587207706397125
