1587207253191083,1587207530538030
1587207253366736,1587207531449377
1587207253766119,1587207531449462
1587207255334562,1587207531449518
1587207255781863,1587207531449545
1587207256025268,1587207531449562
1587207257885243,1587207531449577
1587207258924904,1587207531449591
1587207259030560,1587207531449605
1587207259042082,1587207531449619
1587207259462854,1587207531449656
1587207259858630,1587207531449691
1587207260967462,1587207531449709
1587207261333371,1587207531449724
1587207263062643,1587207531449739
1587207263878058,1587207531449753
1587207265147896,1587207531458041
1587207265607918,1587207531458074
1587207265757663,1587207531458092
1587207265903429,1587207531458107
1587207267308422,1587207531458122
1587207269219975,1587207531469153
1587207269537891,1587207531469203
1587207270465342,1587207531469226
1587207270752159,1587207531469245
1587207271485473,1587207531469261
1587207271951475,1587207531469276
1587207273280360,1587207531469289
1587207273338982,1587207531469303
1587207273403599,1587207531469317
1587207273756567,1587207531469331
1587207275221622,1587207531469346
1587207276171095,1587207531469359
1587207276907445,1587207531469373
1587207277185307,1587207531469388
1587207278602354,1587207531469401
1587207279365740,1587207531469414
1587207279457331,1587207531469428
1587207281206697,1587207531469442
1587207282894938,1587207531469455
1587207283751338,1587207531469469
1587207285668813,1587207531469498
1587207286034753,1587207531469518
1587207286305683,1587207531469533
1587207287538507,1587207531469547
1587207288642183,1587207531469561
1587207288702874,1587207531469575
1587207289536304,1587207531469589
1587207289774168,1587207531469603
1587207289899842,1587207531469617
1587207290666115,1587207531469631
1587207291109101,1587207531469644
1587207296022663,1587207531469658
1587207298837026,1587207531469672
1587207298942669,1587207531469686
1587207299358643,1587207531469700
1587207300433317,1587207531469714
1587207300498929,1587207531469728
1587207301739658,1587207531469742
1587207302729190,1587207531469755
1587207303582626,1587207531469769
1587207303909625,1587207531469785
1587207304955227,1587207531469800
1587207305513320,1587207531469814
1587207305614955,1587207531469827
1587207307610585,1587207531469847
1587207307944538,1587207531469864
1587207310112426,1587207531469878
1587207311918995,1587207531469892
1587207312281903,1587207531469906
1587207312350518,1587207531469919
1587207315768481,1587207531469946
1587207316291586,1587207531469965
1587207316403221,1587207531470014
1587207317622083,1587207531470031
1587207317833829,1587207531470046
1587207319469292,1587207531470060
1587207319958526,1587207531470074
1587207320040225,1587207531470088
1587207320257943,1587207531470102
1587207320415648,1587207531470121
1587207321144927,1587207531470136
1587207321431741,1587207531470151
1587207322189020,1587207531470164
1587207322230680,1587207531470177
1587207322844921,1587207531470190
1587207323550189,1587207531470207
1587207323995192,1587207531470224
1587207325650420,1587207531470238
1587207326556907,1587207531470252
1587207326865767,1587207531470266
1587207328696168,1587207531470280
1587207328744725,1587207531470294
1587207328770253,1587207531470308
1587207329141862,1587207531470322
1587207329189522,1587207531470335
1587207329987853,1587207531470349
1587207330698117,1587207531470363
1587207331393365,1587207531470377
1587207334151697,1587207531470395
1587207334914035,1587207531470410
1587207336124834,1587207531470424
1587207337467698,1587207531470438
1587207338809636,1587207531470452
1587207340182566,1587207531470465
1587207340223100,1587207531470479
1587207340361769,1587207531470493
1587207341206236,1587207531470507
1587207341327911,1587207531470521
1587207342850066,1587207531470535
1587207345273008,1587207531470549
1587207346811112,1587207531470563
1587207347705614,1587207531470577
1587207348370821,1587207531470590
1587207350556581,1587207531470604
1587207351165751,1587207531470618
1587207356740878,1587207531470632
1587207357038725,1587207531470646
1587207357641896,1587207531470665
1587207358096990,1587207531470681
1587207359022778,1587207531470695
1587207359091392,1587207531470722
1587207359228041,1587207531470738
1587207360764167,1587207531470752
1587207361096137,1587207531470766
1587207364318953,1587207531470780
1587207364822735,1587207531470794
1587207365319800,1587207531470817
1587207365980082,1587207531470834
1587207367337093,1587207531470848
1587207368483905,1587207531470862
1587207369439393,1587207531470876
1587207369565077,1587207531470896
1587207370007037,1587207531470913
1587207373022668,1587207531470928
1587207375464812,1587207531470942
1587207375538440,1587207531470955
1587207375548918,1587207531470983
1587207376386151,1587207531471007
1587207380506861,1587207531471022
1587207381184105,1587207531471037
1587207381877387,1587207531471050
1587207383035101,1587207531471065
1587207385490099,1587207531471079
1587207386491655,1587207531471093
1587207386494140,1587207531471106
1587207388420541,1587207531471120
1587207389011674,1587207531471133
1587207389493717,1587207531471147
1587207389862616,1587207531471161
1587207390171518,1587207531471175
1587207390209121,1587207531471189
1587207391120632,1587207531471203
1587207393146180,1587207531471216
1587207395220811,1587207531471230
1587207395506617,1587207531471244
1587207396933638,1587207531471260
1587207397017260,1587207531471275
1587207399511277,1587207531471289
1587207399941292,1587207531471302
1587207399953794,1587207531471316
1587207400243691,1587207531471330
1587207401398444,1587207531471344
1587207404114721,1587207531471358
1587207404675797,1587207531471372
1587207406541203,1587207531471386
1587207407855661,1587207531471400
1587207409125481,1587207531471414
1587207409132967,1587207531471428
1587207409705961,1587207531471447
1587207409780718,1587207531471463
1587207410614111,1587207531471478
1587207413115267,1587207531471492
1587207413968748,1587207531471506
1587207414533547,1587207531471520
1587207416374939,1587207531471538
1587207416957193,1587207531471557
1587207417175077,1587207531471572
1587207418002410,1587207531471586
1587207419399364,1587207531471600
1587207419496111,1587207531471614
1587207419819990,1587207531471627
1587207421561336,1587207531471641
1587207423169564,1587207531471654
1587207423175025,1587207531471668
1587207423189337,1587207531471682
1587207423572105,1587207531471696
1587207425073236,1587207531471710
1587207425706419,1587207531471724
1587207426093408,1587207531471738
1587207426523396,1587207531471752
1587207427228745,1587207531471770
1587207429204334,1587207531471791
1587207429933752,1587207531471810
1587207430341708,1587207531471829
1587207430720628,1587207531471844
1587207430803263,1587207531471859
1587207431655665,1587207531471873
1587207431753346,1587207531471887
1587207431808959,1587207531471904
1587207432778503,1587207531471919
1587207433314597,1587207531471934
1587207433639476,1587207531471947
1587207434330705,1587207531471961
1587207434667604,1587207531472006
1587207434696394,1587207531472032
1587207435071300,1587207531472047
1587207436340836,1587207531472061
1587207438458731,1587207531472075
1587207438646479,1587207531472089
1587207439209630,1587207531472103
1587207440713659,1587207531472117
1587207442890387,1587207531472131
1587207442912907,1587207531472149
1587207443160555,1587207531472164
1587207445028002,1587207531472179
1587207445281774,1587207531472193
1587207447120145,1587207531472207
1587207447302895,1587207531472221
1587207447715862,1587207531472235
1587207450509246,1587207531472249
1587207451868150,1587207531472262
1587207451988881,1587207531472275
1587207452355868,1587207531472289
1587207454247329,1587207531472303
1587207454444076,1587207531472317
1587207455158358,1587207531472331
1587207456110849,1587207531472345
1587207457735070,1587207531472358
1587207458837698,1587207531472372
1587207458976410,1587207531472386
1587207459993983,1587207531472400
1587207460545177,1587207531472416
1587207461163419,1587207531472431
1587207461703593,1587207531472445
1587207462725214,1587207531472459
1587207462887941,1587207531472473
1587207463973580,1587207531472486
1587207466642859,1587207531472500
1587207466869675,1587207531472514
1587207468508849,1587207531472528
1587207469017917,1587207531472549
1587207469535028,1587207531472566
1587207472562764,1587207531472580
1587207472563152,1587207531472594
1587207474956949,1587207531472608
1587207475053590,1587207531472621
1587207475208304,1587207531472635
1587207476171812,1587207531472649
1587207477735931,1587207531472663
1587207477829551,1587207531472677
1587207478673897,1587207531472693
1587207479267992,1587207531472716
1587207479602880,1587207531472733
1587207479620553,1587207531472747
1587207481570882,1587207531472764
1587207483426265,1587207531472779
1587207483848258,1587207531472793
1587207484036006,1587207531472807
1587207484359023,1587207531472821
1587207485153566,1587207531472835
1587207485650603,1587207531472849
1587207485775284,1587207531472863
1587207486498624,1587207531472877
1587207486931760,1587207531472890
1587207488426027,1587207531472904
1587207488460597,1587207531472918
1587207489222729,1587207531472935
1587207493572633,1587207531472950
1587207495062655,1587207531472965
1587207495480632,1587207531472999
1587207495663314,1587207531473017
1587207496044251,1587207531473032
1587207497906664,1587207531473046
1587207498899275,1587207531473060
1587207499284212,1587207531473074
1587207500595058,1587207531473089
1587207500835862,1587207531473103
1587207501719293,1587207531473117
1587207502387590,1587207531473131
1587207503378142,1587207531473144
1587207503491832,1587207531473158
1587207504795674,1587207531473172
1587207506363835,1587207531473187
1587207506496520,1587207531473200
1587207510809405,1587207531473214
1587207510933083,1587207531473228
1587207511007675,1587207531473242
1587207511420665,1587207531473260
1587207512116970,1587207531473278
1587207514860641,1587207531473294
1587207514886220,1587207531473308
1587207515744605,1587207531473322
1587207515833247,1587207531473336
1587207516854839,1587207531473350
1587207517361996,1587207531473364
1587207517886208,1587207531473378
1587207520297242,1587207531473395
1587207520425993,1587207531473410
1587207520831660,1587207531473423
1587207520881242,1587207886941405
1587207521781314,1587207886941441
1587207522036105,1587207886941449
1587207524333394,1587207886941455
1587207525308301,1587207886941461
1587207525428967,1587207886941466
1587207528772588,1587207886941472
1587207531748422,1587207886941477
1587207532401618,1587207886941483
1587207532917015,1587207886941488
1587207533969329,1587207886941494
1587207534007084,1587207886941499
1587207534178816,1587207886941505
1587207536593740,1587207886941510
1587207536726511,1587207886941516
1587207537755427,1587207886941521
1587207539241441,1587207886941527
1587207540001831,1587207886941532
1587207542924697,1587207886941537
1587207547066929,1587207886941543
1587207547693293,1587207886941552
1587207548131305,1587207886941559
1587207549201966,1587207886941564
1587207549303658,1587207886941570
1587207551841730,1587207886941575
1587207552101522,1587207886941580
1587207552263204,1587207886941586
1587207552620099,1587207886941591
1587207552651796,1587207886941597
1587207552673300,1587207886941602
1587207555852254,1587207886941608
1587207556723685,1587207886941613
1587207556933414,1587207886941618
1587207557029037,1587207886941624
1587207557128666,1587207886941629
1587207558682292,1587207886941635
1587207563032185,1587207886941640
1587207563551271,1587207886941646
1587207564520792,1587207886941651
1587207564790642,1587207886941657
1587207565317688,1587207886941664
1587207565438339,1587207886941670
1587207566964415,1587207886941675
1587207567221220,1587207886941681
1587207569170329,1587207886941686
1587207571010735,1587207886941692
1587207573057643,1587207886941701
1587207574656513,1587207886941707
1587207575233964,1587207886941713
1587207576790088,1587207886941718
1587207577631563,1587207886941724
1587207578049542,1587207886941729
1587207579774105,1587207886941734
1587207580180835,1587207886941740
1587207581814993,1587207886941745
1587207584167612,1587207886941750
1587207585077897,1587207886941756
1587207585230619,1587207886941761
1587207585688625,1587207886941767
1587207586514116,1587207886941774
1587207590222685,1587207886941780
1587207590408514,1587207886941785
1587207591566259,1587207886941805
1587207592484766,1587207886941811
1587207592642468,1587207886941817
1587207594000378,1587207886941822
1587207594292249,1587207886941827
1587207594345959,1587207886941833
1587207595046162,1587207886941838
1587207596880571,1587207886941844
1587207600326614,1587207886941849
1587207601032918,1587207886941854
1587207601430960,1587207886941859
1587207601748877,1587207886941865
1587207601942651,1587207886941870
1587207602343613,1587207886941876
1587207603453305,1587207886941881
1587207603497971,1587207886941886
1587207603930003,1587207886941894
1587207604619270,1587207886941900
1587207604972172,1587207886941906
1587207604973668,1587207886941911
1587207607721950,1587207886941916
1587207609054114,1587207886941921
1587207609079698,1587207886941927
1587207610424705,1587207886941932
1587207610490300,1587207886941937
1587207610771149,1587207886941942
1587207612443409,1587207886941948
1587207612803308,1587207886941953
1587207612933554,1587207886941958
1587207613035166,1587207886941964
1587207613765484,1587207886941980
1587207614201524,1587207886941992
1587207614751642,1587207886941998
1587207615490962,1587207886942003
1587207618686737,1587207886942009
1587207618733338,1587207886942016
1587207619360537,1587207886942022
1587207620237940,1587207886942027
1587207620817102,1587207886942033
1587207623407785,1587207886942038
1587207623729652,1587207886942044
1587207623791258,1587207886942049
1587207624686705,1587207886942054
1587207625013628,1587207886942060
1587207625389619,1587207886942065
1587207625455320,1587207886942070
1587207626614290,1587207886942075
1587207627079381,1587207886942080
1587207627955050,1587207886942086
1587207628577241,1587207886942091
1587207629765182,1587207886942096
1587207630488498,1587207886942106
1587207630691222,1587207886942112
1587207630807921,1587207886942118
1587207630892585,1587207886942123
1587207631978244,1587207886942131
1587207632507368,1587207886942137
1587207633611049,1587207886942142
1587207633842848,1587207886942148
1587207633938503,1587207886942153
1587207634083189,1587207886942158
1587207634084664,1587207886942163
1587207635126055,1587207886942169
1587207635795267,1587207886942174
1587207637325382,1587207886942179
1587207638506118,1587207886942185
1587207638562774,1587207886942190
1587207641078884,1587207886942196
1587207642084408,1587207886942201
1587207642333219,1587207886942207
1587207642358806,1587207886942212
1587207642964914,1587207886942217
1587207643210736,1587207886942223
1587207643243327,1587207886942228
1587207643366064,1587207886942235
1587207644815034,1587207886942241
1587207645481212,1587207886942247
1587207647419698,1587207886942252
1587207650572668,1587207886942257
1587207650852510,1587207886942263
1587207650997182,1587207886942268
1587207651002666,1587207886942274
1587207651276304,1587207886942279
1587207652348934,1587207886942284
1587207653320483,1587207886942290
1587207655937307,1587207886942295
1587207657731729,1587207886942301
1587207658019566,1587207886942306
1587207660486585,1587207886942312
1587207661031693,1587207886942317
1587207662368738,1587207886942323
1587207665369303,1587207886942328
1587207665536123,1587207886942334
1587207666401563,1587207886942342
1587207667835742,1587207886942348
1587207668055566,1587207886942353
1587207672720830,1587207886942359
1587207672826499,1587207886942364
1587207676753106,1587207886942370
1587207676802734,1587207886942375
1587207677516958,1587207886942381
1587207678200179,1587207886942386
1587207679241810,1587207886942391
1587207680145265,1587207886942396
1587207680392075,1587207886942402
1587207680785997,1587207886942407
1587207680923687,1587207886942413
1587207681045352,1587207886942418
1587207682059000,1587207886942424
1587207683479936,1587207886942429
1587207686419389,1587207886942434
1587207686499074,1587207886942440
1587207686644727,1587207886942448
1587207686994633,1587207886942455
1587207687105265,1587207886942460
1587207688601298,1587207886942466
1587207688976278,1587207886942471
1587207690189090,1587207886942476
1587207690829305,1587207886942481
1587207691855907,1587207886942487
1587207691897484,1587207886942499
1587207695308462,1587207886942505
1587207696007776,1587207886942510
1587207697556935,1587207886942516
1587207703433470,1587207886942521
1587207704860416,1587207886942526
1587207706349445,1587207886942532
1587207706496727,1587207886942537
1587207706575248,1587207886942543
1587207707580697,1587207886942548
1587207708895691,1587207886942553
1587207709072402,1587207886942559
1587207709698627,1587207886942567
1587207710260731,1587207886942573
1587207711272353,1587207886942579
1587207711383054,1587207886942584
1587207711907111,1587207886942589
1587207714033816,1587207886942595
1587207715168486,1587207886942600
1587207716991879,1587207886942605
1587207717219656,1587207886942611
1587207718981004,1587207886942616
1587207719792468,1587207886942621
1587207721495719,1587207886942627
1587207721937700,1587207886942632
1587207722372636,1587207886942637
1587207723282079,1587207886942643
1587207723523716,1587207886942648
1587207723972764,1587207886942654
1587207724896224,1587207886942659
1587207726374299,1587207886942664
1587207726624082,1587207886942696
1587207727125215,1587207886942702
1587207727131789,1587207886942708
1587207728254588,1587207886942713
1587207730598624,1587207886942719
1587207732569155,1587207886942724
1587207733882020,1587207886942729
1587207734966666,1587207886942735
1587207740258520,1587207886942740
1587207741095900,1587207886942745
1587207742174592,1587207886942751
1587207748530513,1587207886942756
1587207748571081,1587207886942762
1587207748730912,1587207886942767
1587207748822553,1587207886942772
1587207748967223,1587207886942778
1587207749673495,1587207886942783
1587207749850247,1587207886942789
1587207752837398,1587207886942794
1587207754098228,1587207886942801
1587207754803515,1587207886942808
1587207755162466,1587207886942813
1587207755280099,1587207886942819
1587207758201597,1587207886942824
1587207758920876,1587207886942829
1587207759041543,1587207886942834
1587207760722773,1587207886942840
1587207760813386,1587207886942879
1587207762773901,1587207886942902
1587207764821506,1587207886942911
1587207765077275,1587207886942916
1587207766877619,1587207886942922
1587207767078361,1587207886942927
1587207768024855,1587207886942944
1587207768037518,1587207886942950
1587207769729678,1587207886942956
1587207769787273,1587207886942961
1587207770395419,1587207886942967
1587207770645207,1587207886942990
1587207771593719,1587207886942997
1587207773203878,1587207886943003
1587207773648861,1587207886943008
1587207774496608,1587207886943014
1587207776410031,1587207886943019
1587207776982134,1587207886943024
1587207778062823,1587207886943030
1587207778698000,1587207886943035
1587207779772627,1587207886943040
1587207780515898,1587207886943045
1587207783049960,1587207886943051
1587207783083570,1587207886943056
1587207783683713,1587207886943061
1587207785963586,1587207886943066
1587207786131296,1587207886943080
1587207790194034,1587207886943086
1587207792010511,1587207886943091
1587207793001046,1587207886943097
1587207793827597,1587207886943102
1587207793853252,1587207886943110
1587207794288270,1587207886943115
1587207795478045,1587207886943120
1587207796714838,1587207886943126
1587207798195907,1587207886943131
1587207800644935,1587207886943137
1587207800839691,1587207886943142
1587207801182583,1587207886943147
1587207802458510,1587207886943152
1587207802883532,1587207886943158
1587207803016189,1587207886943163
1587207803582355,1587207886943168
1587207804071429,1587207886943174
1587207804473380,1587207886943179
1587207804544032,1587207886943184
1587207805122154,1587207886943190
1587207805674236,1587207886943195
1587207807581723,1587207886943200
1587207808781544,1587207886943206
1587207809421719,1587207886943213
1587207809754630,1587207886943218
1587207810798219,1587207886943223
1587207810886858,1587207886943229
1587207810914351,1587207886943234
1587207813597507,1587207886943240
1587207815379848,1587207886943245
1587207818067092,1587207886943250
1587207819448079,1587207886943256
