1,a7b62a096a81d158177de6d2cb28caa7c7b70e1abceb65c9a2336b9b2a6ce0d8,1587212111649374
2,ddb247051190a512a7613f3b002b2fdb0252f91da2b061450fbdf099c02a5bf5,1587212306367683
3,ecc9d6931f1f26f282b9df72287ee9605719735c85085d85df5a2718999ecc9a,1587213259953828
4,4e0b25dd488de7c4a09248c6b4f422179b9123a13828a9c5e68093c33293b9fc,1587214379172114
5,1f2c2c0e09935102ef3a2818da64068d039794a766c7dd9f09d89b3ba2c1c9f,1587214522422716
