1,a7b62a096a81d158177de6d2cb28caa7c7b70e1abceb65c9a2336b9b2a6ce0d8,1587212114969958
2,ddb247051190a512a7613f3b002b2fdb0252f91da2b061450fbdf099c02a5bf5,1587212306742010
3,ecc9d6931f1f26f282b9df72287ee9605719735c85085d85df5a2718999ecc9a,1587213259807825
